Old Name	Adipocytes	Astrocytes	B-cells	Basophils	CD4+ T-cells	CD4+ Tcm	CD4+ Tem	CD4+ memory T-cells	CD4+ naive T-cells	CD8+ T-cells	CD8+ Tcm	CD8+ Tem	CD8+ naive T-cells	CLP	CMP	Chondrocytes	Class-switched memory B-cells	DC	Endothelial cells	Eosinophils	Epithelial cells	Erythrocytes	Fibroblasts	GMP	HSC	Hepatocytes	Keratinocytes	MEP	MPP	MSC	Macrophages	Macrophages M1	Macrophages M2	Mast cells	Megakaryocytes	Melanocytes	Memory B-cells	Mesangial cells	Monocytes	Myocytes	NK cells	NKT	Neurons	Neutrophils	Osteoblast	Pericytes	Plasma cells	Platelets	Preadipocytes	Sebocytes	Skeletal muscle	Smooth muscle	Tgd cells	Th1 cells	Th2 cells	Tregs	aDC	cDC	iDC	ly Endothelial cells	mv Endothelial cells	naive B-cells	pDC	pro B-cells	Group	Sample Name	SEX	AGE	DTHHRDY
GTEX.13FTW.1226.SM.5LZZ1	0.0	0.0	0.0	0.0	0.0	0.0157	0.0078	0.0	0.0	0.0	0.007	0.0	0.0003	0.0087	0.0	0.0298	0.0058	0.0001	0.0302	0.0	0.2914	0.0	0.0196	0.006	0.0731	0.0	0.0432	0.0099	0.0	0.0	0.0102	0.0047	0.0063	0.0	0.0088	0.0	0.0	0.0	0.0	0.0	0.0	0.008	0.0	0.0	0.0093	0.0108	0.0152	0.0	0.0184	0.0239	0.0	0.091	0.0	0.0168	0.0072	0.0	0.085	0.0042	0.0132	0.0067	0.0084	0.0	0.0	0.0	Mutation in Cancer Gene	GTEX-13FTW	1	40-49	0.0
GTEX.13N2G.1826.SM.5KM1I	0.0041	0.0	0.0	0.0	0.0	0.011	0.0	0.0	0.0066	0.0113	0.0266	0.0103	0.0	0.0	0.0134	0.1313	0.0	0.0036	0.1837	0.0	0.1036	0.0	0.2675	0.0323	0.389	0.0	0.0095	0.0387	0.0	0.0205	0.0076	0.0077	0.0031	0.0113	0.0164	0.0007	0.0	0.0139	0.0	0.0	0.0	0.0003	0.0017	0.0	0.0	0.108	0.0	0.0	0.0	0.0015	0.0	0.0188	0.0	0.0	0.0162	0.0	0.2138	0.0976	0.0349	0.0844	0.0793	0.0	0.0	0.0	Mutation in Cancer Gene	GTEX-13N2G	1	60-69	2.0
GTEX.NPJ8.2426.SM.3MJHL	0.0063	0.0	0.0	0.0	0.0	0.0	0.0	0.0	0.0	0.0	0.0	0.0	0.0019	0.0115	0.0049	0.0887	0.0	0.0044	0.1902	0.0	0.0002	0.0003	0.3705	0.0	0.1854	0.0003	0.0	0.0053	0.0	0.0971	0.0056	0.0	0.0148	0.0	0.0136	0.0031	0.0	0.0	0.0	0.1297	0.0	0.144	0.0	0.0	0.0	0.0756	0.0	0.0	0.1269	0.0	0.1171	0.0	0.0	0.0	0.0333	0.0	0.2605	0.0139	0.2254	0.0976	0.1175	0.0	0.0	0.0	Mutation in Cancer Gene	GTEX-NPJ8	1	40-49	4.0
GTEX.OIZH.2026.SM.3NB1M	0.0	0.0	0.0	0.0071	0.0	0.0141	0.0	0.0	0.0	0.0	0.0	0.0	0.0	0.0059	0.0011	0.0076	0.001	0.0	0.147	0.0	0.2366	0.0	0.0555	0.0	0.1211	0.0014	0.0371	0.0108	0.0	0.0368	0.0089	0.0098	0.007	0.0	0.0171	0.0007	0.0	0.0	0.0025	0.0078	0.0	0.0287	0.0	0.0009	0.0069	0.0649	0.013	0.0	0.0073	0.007	0.0	0.0	0.0	0.014	0.0134	0.0	0.1042	0.0002	0.0038	0.072	0.0785	0.0	0.0	0.0	Mutation in Cancer Gene	GTEX-OIZH	1	50-59	0.0
GTEX.OOBJ.2026.SM.3NB1R	0.0	0.0	0.1968	0.0	0.0	0.0173	0.0	0.0067	0.0238	0.0309	0.0375	0.0039	0.0037	0.0088	0.0091	0.0749	0.0765	0.0	0.0037	0.0	0.1077	0.0	0.2294	0.0194	0.2158	0.0	0.0141	0.0019	0.0	0.0	0.0	0.0	0.0012	0.0044	0.0014	0.0	0.0322	0.0023	0.0	0.0104	0.0	0.0185	0.0008	0.0	0.0	0.0479	0.0179	0.0	0.0	0.0023	0.0	0.1464	0.0	0.0	0.0843	0.0	0.1292	0.006	0.0	0.0	0.0	0.0219	0.0	0.0	Mutation in Cancer Gene	GTEX-OOBJ	1	60-69	0.0
GTEX.WFG7.1826.SM.3GIL1	0.0	0.0	0.0	0.0	0.0	0.0	0.0	0.001	0.0	0.0	0.0023	0.0	0.0016	0.0097	0.0028	0.0344	0.0072	0.0	0.0403	0.0	0.1936	0.0	0.0586	0.0298	0.1148	0.0	0.0264	0.0054	0.0	0.0	0.0075	0.0093	0.0031	0.001	0.0082	0.0	0.0	0.0015	0.0	0.0063	0.0	0.0	0.0006	0.0	0.0	0.0	0.0025	0.0	0.0046	0.0103	0.0	0.1972	0.0	0.0	0.0409	0.0	0.0716	0.0081	0.0	0.0064	0.0073	0.0	0.0	0.0	Mutation in Cancer Gene	GTEX-WFG7	1	20-29	0.0
GTEX.YF7O.1926.SM.4W1YQ	0.0	0.0	0.0	0.0117	0.0	0.005	0.0	0.0	0.0	0.0	0.0064	0.0	0.0044	0.0193	0.0007	0.0238	0.0015	0.0	0.026	0.0	0.342	0.0	0.0594	0.0	0.0894	0.0	0.0972	0.0277	0.0	0.0194	0.0017	0.0047	0.001	0.0009	0.0043	0.0009	0.0	0.0	0.0	0.0091	0.0	0.0134	0.0006	0.0	0.0072	0.0	0.0114	0.0	0.0	0.0373	0.0	0.0724	0.0	0.0176	0.0064	0.0	0.0817	0.0015	0.0	0.0064	0.0082	0.0	0.0	0.0	Mutation in Cancer Gene	GTEX-YF7O	1	50-59	0.0
GTEX.ZTTD.2726.SM.57WFA	0.0	0.0	0.0	0.0	0.0	0.0	0.0	0.0	0.0	0.0	0.0	0.0	0.0	0.0036	0.0	0.0856	0.0044	0.0	0.2237	0.0	0.2042	0.0	0.1891	0.0	0.2008	0.0	0.0223	0.0217	0.0	0.0	0.0	0.0	0.007	0.0	0.0163	0.0	0.0	0.0139	0.0	0.0	0.0	0.0808	0.0007	0.0	0.0	0.052	0.0	0.0	0.0451	0.0023	0.0	0.0043	0.0	0.0046	0.0	0.0	0.0387	0.0037	0.0623	0.1248	0.1174	0.0	0.0	0.0	Mutation in Cancer Gene	GTEX-ZTTD	1	50-59	3.0
GTEX.ZVP2.0826.SM.59HJ6	0.0	0.0	0.0	0.0	0.0	0.0	0.0	0.002	0.0	0.0	0.0025	0.0	0.0022	0.017	0.0	0.0474	0.0	0.0012	0.0426	0.0	0.111	0.0007	0.1596	0.0364	0.118	0.0	0.011	0.0126	0.0	0.0	0.024	0.0198	0.0029	0.001	0.021	0.0	0.0	0.0	0.009	0.0123	0.0	0.0012	0.0009	0.0	0.0	0.0	0.0059	0.0	0.036	0.0023	0.0	0.2253	0.0	0.0	0.0708	0.0	0.094	0.0188	0.1586	0.0013	0.0062	0.0	0.0	0.0	Mutation in Cancer Gene	GTEX-ZVP2	1	50-59	0.0
GTEX.11P7K.0626.SM.5985Z	0.0	0.0	0.0	0.0	0.0	0.0066	0.0	0.0	0.0	0.0	0.0	0.0	0.0005	0.0123	0.0062	0.0689	0.0	0.0	0.0921	0.0	0.1424	0.0	0.1201	0.0273	0.2261	0.0	0.0254	0.0247	0.0	0.0	0.002	0.0062	0.0029	0.0003	0.0118	0.0	0.0	0.0	0.0	0.0044	0.0	0.0037	0.0013	0.0	0.0	0.0751	0.001	0.0	0.0	0.0069	0.0	0.1111	0.0	0.0	0.0265	0.0	0.0701	0.0005	0.0	0.0209	0.0228	0.0	0.0	0.0	No Cancer Gene Mutations	GTEX-11P7K	1	30-39	0.0
GTEX.12C56.1326.SM.5FQSV	0.0	0.0	0.0	0.0072	0.0	0.0228	0.0035	0.0	0.0	0.0	0.0	0.0	0.0003	0.0113	0.0	0.0154	0.0049	0.0003	0.0471	0.0	0.1694	0.0	0.0657	0.0072	0.0559	0.0	0.0182	0.0	0.0	0.0669	0.0095	0.0079	0.0045	0.0012	0.0113	0.0018	0.0	0.0	0.0	0.006	0.0	0.0532	0.0001	0.0	0.0	0.0	0.0115	0.0	0.0	0.0067	0.0	0.0484	0.0	0.0276	0.0075	0.0	0.0849	0.0184	0.0238	0.0102	0.0136	0.0	0.0005	0.0	No Cancer Gene Mutations	GTEX-12C56	1	20-29	0.0
GTEX.13FXS.2826.SM.5LZYC	0.0	0.0	0.0	0.0	0.0	0.0	0.0	0.0	0.0	0.0	0.0005	0.0	0.0	0.0	0.0323	0.0878	0.0312	0.0004	0.062	0.0	0.2421	0.0	0.1326	0.0173	0.2229	0.0	0.0312	0.0466	0.0	0.0754	0.0	0.0028	0.0	0.0155	0.0084	0.0025	0.0	0.0	0.0	0.0	0.0	0.0338	0.0004	0.0	0.0	0.006	0.0118	0.0	0.0	0.0161	0.0	0.0382	0.0	0.0462	0.0075	0.0	0.1985	0.0015	0.0	0.0232	0.0359	0.0	0.0	0.0	No Cancer Gene Mutations	GTEX-13FXS	1	50-59	2.0
GTEX.13NYS.1026.SM.5KLZT	0.0	0.0	0.0	0.0	0.0	0.0211	0.0	0.0014	0.0	0.0	0.0	0.0	0.0039	0.0095	0.0152	0.0673	0.0	0.0021	0.1398	0.0	0.0283	0.0	0.2434	0.0118	0.2395	0.0028	0.004	0.0245	0.0	0.0	0.0	0.0	0.012	0.021	0.0155	0.0	0.0	0.0156	0.0005	0.0	0.0	0.041	0.0013	0.0064	0.0	0.0413	0.0	0.0	0.0739	0.0	0.0	0.0672	0.0	0.0	0.03	0.0014	0.1088	0.028	0.137	0.0628	0.0758	0.0	0.0	0.0	No Cancer Gene Mutations	GTEX-13NYS	1	60-69	4.0
GTEX.13O61.1726.SM.5KM46	0.0	0.0	0.0004	0.0	0.0	0.0231	0.0055	0.0001	0.0087	0.0039	0.0209	0.0015	0.0	0.0	0.0058	0.0505	0.0164	0.0017	0.0812	0.0044	0.2253	0.0	0.201	0.0282	0.1537	0.0	0.0327	0.0156	0.0	0.0	0.0227	0.0198	0.0157	0.0	0.0081	0.0	0.0	0.0078	0.006	0.0	0.0	0.0441	0.0006	0.0	0.0	0.0929	0.0019	0.0	0.0	0.0099	0.0	0.0	0.0	0.0	0.0427	0.0	0.1566	0.0092	0.0561	0.0245	0.0381	0.0	0.0	0.0	No Cancer Gene Mutations	GTEX-13O61	1	60-69	0.0
GTEX.13OW8.0426.SM.5J2NR	0.0007	0.0	0.0	0.0	0.0	0.0203	0.0	0.0	0.0	0.0	0.007	0.0	0.0018	0.0014	0.0133	0.0922	0.0	0.0	0.129	0.0	0.1896	0.0	0.2213	0.0097	0.2659	0.0	0.03	0.0292	0.0	0.0379	0.0008	0.0054	0.002	0.0045	0.0034	0.001	0.0	0.0026	0.0019	0.0	0.0	0.0201	0.0021	0.0	0.0	0.0812	0.0007	0.0	0.0	0.0083	0.0	0.0	0.0	0.0025	0.0057	0.0	0.1885	0.0072	0.0	0.0693	0.0534	0.0	0.0	0.0	No Cancer Gene Mutations	GTEX-13OW8	1	60-69	2.0
GTEX.148VJ.1826.SM.5Q5DV	0.0	0.0	0.0	0.0	0.0	0.0023	0.0	0.0	0.0	0.0	0.0	0.0	0.0091	0.004	0.0044	0.0726	0.0118	0.0	0.0847	0.0	0.1156	0.0	0.2427	0.0262	0.2237	0.001	0.0171	0.024	0.0	0.0	0.0	0.0005	0.0105	0.0	0.0166	0.0	0.0	0.0	0.0	0.0	0.0	0.0	0.0039	0.0	0.0	0.0965	0.0029	0.0	0.0177	0.0017	0.0	0.0471	0.0	0.0	0.0073	0.0033	0.0512	0.0052	0.0	0.0542	0.0363	0.0	0.0	0.0	No Cancer Gene Mutations	GTEX-148VJ	1	70-79	2.0
GTEX.PLZ6.1126.SM.3P5ZR	0.0	0.0	0.0	0.0067	0.0	0.0317	0.0085	0.0	0.0	0.0	0.0	0.0	0.002	0.0058	0.0105	0.0226	0.0119	0.0008	0.0601	0.0015	0.1827	0.0	0.0746	0.0025	0.0867	0.0009	0.0245	0.0222	0.0	0.0894	0.0055	0.005	0.0041	0.0049	0.0133	0.0019	0.0	0.0	0.0	0.0035	0.0	0.0225	0.0009	0.0	0.0	0.0172	0.0102	0.0	0.0232	0.008	0.0012	0.0347	0.0	0.004	0.0131	0.0	0.0984	0.0041	0.006	0.0118	0.0184	0.0	0.0	0.0	No Cancer Gene Mutations	GTEX-PLZ6	1	30-39	0.0
GTEX.S4Q7.1026.SM.4AD75	0.0	0.0	0.0	0.0074	0.0	0.0307	0.0	0.0	0.0	0.0	0.0	0.0	0.0	0.0069	0.0087	0.0	0.0085	0.0	0.0386	0.0032	0.269	0.0	0.0	0.0022	0.0534	0.0006	0.0338	0.0157	0.0	0.138	0.0082	0.0085	0.0091	0.0009	0.0117	0.0013	0.0	0.0008	0.0031	0.0	0.0	0.0407	0.0	0.0	0.0	0.0176	0.0108	0.0	0.0311	0.0094	0.0	0.0	0.0	0.0134	0.0	0.0	0.0758	0.0	0.0048	0.0124	0.0212	0.0	0.0	0.0	No Cancer Gene Mutations	GTEX-S4Q7	1	20-29	0.0
GTEX.SNMC.0926.SM.4DM5U	0.0	0.0	0.0	0.0	0.0	0.0193	0.0	0.0	0.0	0.0	0.0	0.0	0.0	0.0092	0.0049	0.0102	0.0009	0.0	0.0909	0.0	0.2171	0.0	0.0376	0.002	0.1257	0.0	0.03	0.0234	0.0	0.1593	0.0022	0.0038	0.0036	0.0009	0.0129	0.0017	0.0	0.0	0.0	0.0	0.0	0.017	0.0004	0.0	0.0	0.0168	0.0209	0.0	0.0	0.012	0.0	0.012	0.0	0.0398	0.0	0.0	0.081	0.0011	0.0	0.0282	0.0374	0.0	0.0	0.0	No Cancer Gene Mutations	GTEX-SNMC	1	20-29	0.0
GTEX.U412.2026.SM.4DXSI	0.0008	0.0	0.0	0.0	0.0	0.056	0.0001	0.0	0.0	0.0	0.005	0.0	0.0005	0.001	0.0005	0.0584	0.0132	0.0	0.0	0.0054	0.383	0.0	0.1137	0.0	0.0974	0.0	0.1161	0.0164	0.0	0.0	0.0	0.0	0.0	0.0	0.0	0.0	0.0	0.001	0.0	0.0	0.0	0.0483	0.0007	0.0	0.0	0.0822	0.0031	0.0	0.0	0.0603	0.0	0.0	0.0	0.0013	0.0006	0.0	0.066	0.0	0.0	0.0	0.0	0.0	0.0	0.0	No Cancer Gene Mutations	GTEX-U412	1	60-69	3.0
GTEX.U8XE.2526.SM.4E3IT	0.0	0.0	0.0059	0.0218	0.0	0.0	0.0	0.0004	0.0026	0.0	0.0093	0.0	0.003	0.0073	0.0	0.0701	0.0022	0.0065	0.022	0.0022	0.3418	0.0	0.1566	0.0034	0.0158	0.0016	0.0984	0.0056	0.0046	0.0	0.0	0.0034	0.0145	0.0006	0.0006	0.0	0.0018	0.0107	0.0223	0.0	0.0	0.1476	0.0	0.0025	0.0	0.1114	0.0021	0.0	0.0655	0.0133	0.0	0.0	0.0	0.0	0.1138	0.0008	0.3261	0.0171	0.0	0.0164	0.0149	0.0065	0.0121	0.0	No Cancer Gene Mutations	GTEX-U8XE	1	30-39	4.0
GTEX.UTHO.2726.SM.4JBH9	0.0	0.0	0.0909	0.0	0.0	0.0563	0.0	0.0	0.0145	0.0036	0.0007	0.0094	0.001	0.0013	0.0123	0.0843	0.0977	0.0034	0.0232	0.002	0.2133	0.0	0.222	0.0024	0.1705	0.0	0.0312	0.0279	0.0	0.0	0.0	0.0	0.0034	0.0055	0.0017	0.0	0.004	0.013	0.0	0.0	0.0	0.0168	0.0001	0.0	0.0	0.0562	0.0061	0.0	0.0	0.0108	0.0	0.0	0.0	0.002	0.0033	0.0	0.2249	0.0307	0.0	0.0078	0.0188	0.0037	0.0	0.0	No Cancer Gene Mutations	GTEX-UTHO	1	60-69	3.0
GTEX.V1D1.1926.SM.4JBGX	0.0	0.0	0.0	0.0	0.0	0.0447	0.0152	0.0	0.0	0.0	0.0	0.0	0.0	0.0065	0.0006	0.0	0.0121	0.0	0.0	0.0	0.3138	0.0	0.0	0.0	0.0143	0.0	0.0609	0.0067	0.0	0.1058	0.0009	0.0	0.0039	0.0	0.0038	0.0002	0.0	0.0	0.0	0.0	0.0	0.0384	0.0	0.0	0.0	0.0	0.011	0.0	0.0	0.0166	0.0	0.0	0.0	0.0239	0.0	0.0	0.005	0.001	0.0	0.0019	0.0033	0.0	0.0016	0.0	No Cancer Gene Mutations	GTEX-V1D1	1	50-59	0.0
GTEX.VJYA.1226.SM.3GIJ6	0.0	0.0	0.0	0.0	0.0	0.0	0.0	0.0039	0.0	0.0	0.0	0.0	0.0	0.0071	0.0	0.074	0.0	0.0301	0.1269	0.0	0.0643	0.0	0.1846	0.073	0.1725	0.0	0.0058	0.0	0.0	0.0	0.0321	0.0309	0.0056	0.0144	0.0199	0.0	0.0	0.009	0.0659	0.0111	0.0	0.0198	0.0005	0.0	0.0	0.0166	0.0	0.0	0.1161	0.0005	0.0	0.1848	0.0	0.0	0.0788	0.0	0.3824	0.156	0.3109	0.0427	0.0441	0.0	0.0	0.0	No Cancer Gene Mutations	GTEX-VJYA	1	60-69	0.0
GTEX.WH7G.1726.SM.4LVKY	0.0	0.0	0.0	0.0	0.0	0.0058	0.0	0.0	0.0	0.0	0.0	0.0	0.0	0.0097	0.0	0.0396	0.0	0.0018	0.0432	0.0	0.2112	0.0	0.0824	0.0133	0.0745	0.0	0.0285	0.0112	0.0	0.0513	0.0117	0.0094	0.0029	0.0	0.0114	0.0011	0.0	0.0	0.0	0.0005	0.0	0.0268	0.0	0.0	0.0	0.0045	0.0136	0.0	0.0	0.0091	0.0002	0.0664	0.0	0.0148	0.0308	0.0	0.1642	0.0057	0.0	0.0074	0.0159	0.0	0.0	0.0	No Cancer Gene Mutations	GTEX-WH7G	1	40-49	0.0
GTEX.WZTO.0926.SM.4PQZ3	0.0	0.0	0.0	0.0	0.0	0.0192	0.0	0.0	0.0	0.0	0.0	0.0	0.0	0.0018	0.0102	0.0213	0.0034	0.0	0.1007	0.0	0.213	0.0	0.0525	0.0	0.1696	0.0	0.0334	0.0207	0.0	0.0967	0.0	0.0	0.0	0.0002	0.0094	0.0015	0.0	0.0	0.0	0.0	0.0	0.0194	0.0005	0.0	0.0	0.0206	0.0132	0.0	0.0006	0.0167	0.0	0.0247	0.0	0.0505	0.0	0.0	0.0176	0.0	0.0	0.0394	0.0421	0.0	0.0	0.0	No Cancer Gene Mutations	GTEX-WZTO	1	40-49	1.0
GTEX.Y8E4.2126.SM.5RQHO	0.0	0.0	0.0	0.0	0.0	0.035	0.0	0.0	0.0	0.0	0.0	0.0	0.0	0.0042	0.0024	0.0284	0.0	0.0	0.0449	0.0	0.2684	0.0	0.0874	0.0	0.159	0.0	0.025	0.0268	0.0	0.0906	0.0051	0.0054	0.0073	0.0	0.006	0.0013	0.0	0.008	0.0	0.0	0.0	0.053	0.0006	0.0	0.0	0.0401	0.0099	0.0	0.0076	0.006	0.0002	0.0165	0.0	0.0046	0.0	0.0	0.039	0.0096	0.0556	0.0049	0.0166	0.0	0.0	0.0	No Cancer Gene Mutations	GTEX-Y8E4	1	40-49	0.0
GTEX.ZDYS.1226.SM.5IJF3	0.0	0.0	0.0	0.0	0.0	0.0017	0.0	0.0	0.0	0.0	0.0018	0.0	0.0	0.0181	0.0028	0.0467	0.0	0.0036	0.0814	0.0	0.2324	0.0	0.0864	0.0156	0.1197	0.0	0.0361	0.0077	0.0	0.0696	0.0133	0.0133	0.0048	0.0	0.0057	0.0016	0.0	0.0	0.0	0.0	0.0	0.0363	0.0008	0.0	0.0	0.0912	0.004	0.0	0.0	0.0123	0.0	0.044	0.0	0.0081	0.0157	0.0021	0.2049	0.0201	0.0315	0.0279	0.0313	0.0	0.0	0.0	No Cancer Gene Mutations	GTEX-ZDYS	1	50-59	0.0
GTEX.ZY6K.1526.SM.5GZXE	0.0	0.0	0.0	0.0078	0.0	0.0178	0.0096	0.0	0.0	0.0	0.0	0.0	0.0026	0.0199	0.0034	0.0097	0.0021	0.0001	0.0076	0.0	0.2623	0.0	0.0121	0.0173	0.0121	0.0005	0.0502	0.0172	0.0	0.0	0.0051	0.0021	0.0073	0.0041	0.0024	0.0	0.0	0.0	0.0183	0.0012	0.0	0.0468	0.0003	0.0006	0.0245	0.0183	0.0171	0.0	0.0259	0.0126	0.0	0.0253	0.0	0.0261	0.0137	0.0	0.0994	0.0	0.0	0.0009	0.0039	0.0	0.0	0.0	No Cancer Gene Mutations	GTEX-ZY6K	1	50-59	0.0
GTEX.111YS.1726.SM.5GIED	0.0	0.0085	0.0	0.0	0.0	0.0053	0.0	0.0	0.0	0.0	0.0	0.0	0.0006	0.0048	0.0	0.1145	0.0	0.0005	0.1885	0.0	0.1033	0.0	0.1378	0.028	0.1981	0.0	0.0118	0.0	0.0	0.0	0.0047	0.007	0.0073	0.0	0.0108	0.0	0.0	0.0001	0.0	0.0068	0.0	0.0506	0.0009	0.0	0.0	0.1642	0.0	0.0	0.0	0.002	0.0	0.0	0.0	0.0	0.0183	0.0044	0.1224	0.0147	0.0712	0.0959	0.0816	0.0	0.0	0.0	No Mutations	GTEX-111YS	1	60-69	0.0
GTEX.117YW.1426.SM.5EGGO	0.0007	0.0	0.0	0.0	0.0	0.006	0.0	0.0	0.0	0.0	0.0	0.0	0.0	0.0008	0.0136	0.0891	0.0	0.0	0.0441	0.0	0.2944	0.0	0.1058	0.0154	0.2968	0.0	0.0525	0.0067	0.0	0.0272	0.0	0.0	0.0	0.0007	0.014	0.0013	0.0	0.0216	0.0	0.0	0.0	0.0168	0.0016	0.0	0.0	0.0	0.0	0.0	0.0	0.0283	0.0	0.0814	0.0	0.0022	0.0	0.0	0.0447	0.0	0.0	0.0209	0.0172	0.0	0.0	0.0	No Mutations	GTEX-117YW	1	50-59	3.0
GTEX.117YX.1526.SM.5H12T	0.0	0.0	0.0	0.0085	0.0	0.0194	0.0025	0.0019	0.0	0.0007	0.0099	0.0	0.0056	0.0192	0.0	0.024	0.0101	0.0007	0.0637	0.0	0.2209	0.0	0.0373	0.0047	0.0755	0.0009	0.033	0.0018	0.0	0.0	0.0035	0.004	0.0048	0.0009	0.0129	0.0	0.0	0.0	0.0	0.0041	0.0	0.0025	0.0003	0.0009	0.0036	0.017	0.0127	0.0	0.021	0.0074	0.0	0.1138	0.0	0.0045	0.0209	0.0033	0.0748	0.0025	0.0	0.0166	0.0201	0.0	0.0	0.0	No Mutations	GTEX-117YX	1	50-59	0.0
GTEX.11EQ9.1726.SM.5HL6U	0.0058	0.0	0.0	0.0	0.0	0.0	0.0	0.0	0.0	0.0	0.0	0.0	0.0	0.0208	0.0	0.0	0.0	0.0	0.0708	0.0	0.0824	0.0	0.1464	0.0248	0.2372	0.0	0.0124	0.012	0.0	0.2961	0.0123	0.0108	0.0062	0.0	0.0091	0.0029	0.0	0.0	0.0	0.0036	0.0	0.0575	0.0018	0.0	0.0	0.0	0.0	0.0	0.0	0.0015	0.0	0.1013	0.0	0.0	0.0674	0.0	0.0859	0.0162	0.0971	0.0158	0.0207	0.0	0.0	0.0	No Mutations	GTEX-11EQ9	1	30-39	2.0
GTEX.11P82.1126.SM.5BC5K	0.0	0.0	0.0	0.0	0.0	0.002	0.0	0.0	0.0	0.0	0.0	0.0	0.0006	0.0173	0.0	0.0226	0.0	0.0	0.0786	0.0	0.1518	0.0	0.0761	0.0201	0.1697	0.0	0.0207	0.0014	0.0	0.0583	0.0044	0.0042	0.0025	0.0	0.0129	0.0018	0.0	0.0	0.0	0.0121	0.0	0.0341	0.0013	0.0	0.0	0.0	0.0088	0.0	0.0137	0.006	0.0	0.1979	0.0	0.0008	0.0282	0.0	0.076	0.0081	0.0	0.0224	0.0182	0.0	0.0	0.0	No Mutations	GTEX-11P82	1	20-29	1.0
GTEX.11TT1.2026.SM.5EQM8	0.0	0.0	0.0	0.0	0.0	0.0	0.0	0.0	0.0	0.0	0.0	0.0	0.0	0.0106	0.0	0.0518	0.0	0.0	0.1976	0.0	0.2944	0.0	0.1091	0.0	0.1685	0.0	0.053	0.0006	0.0	0.0	0.0014	0.0087	0.0047	0.0	0.0071	0.0	0.0	0.0151	0.0	0.0	0.0	0.0	0.0003	0.0	0.0	0.0999	0.0055	0.0	0.0	0.0075	0.0	0.0485	0.0	0.0	0.0286	0.0	0.116	0.0084	0.0	0.0782	0.0901	0.0	0.0	0.0	No Mutations	GTEX-11TT1	1	20-29	0.0
GTEX.11WQK.2726.SM.5EQMU	0.0	0.0	0.0	0.0	0.0	0.0041	0.0	0.0	0.0	0.0	0.0	0.0	0.0	0.0069	0.0	0.0052	0.0103	0.0	0.1047	0.0	0.2356	0.0	0.0542	0.0	0.0	0.0	0.0177	0.0126	0.0	0.0174	0.0	0.0	0.017	0.0027	0.0079	0.0003	0.0	0.0003	0.0	0.0	0.0	0.1263	0.0006	0.0	0.0126	0.0751	0.0149	0.0	0.0805	0.0038	0.0	0.0	0.0	0.0117	0.0269	0.0	0.0	0.0038	0.0091	0.0644	0.0589	0.0	0.0002	0.0	No Mutations	GTEX-11WQK	1	50-59	2.0
GTEX.12BJ1.1226.SM.5LUAE	0.0	0.0	0.0	0.0	0.0	0.0	0.0	0.0035	0.0	0.0	0.01	0.0	0.0036	0.0112	0.0	0.1253	0.0	0.0	0.0119	0.0	0.1472	0.0	0.1811	0.0346	0.1982	0.0	0.0142	0.0	0.0	0.0	0.0098	0.0149	0.0	0.0016	0.0116	0.0	0.0	0.0184	0.0	0.0042	0.0	0.0	0.0011	0.0	0.0	0.0854	0.0	0.0	0.0	0.0045	0.0	0.1435	0.0	0.0	0.0481	0.0	0.0868	0.0111	0.0095	0.0	0.0	0.0	0.0	0.0	No Mutations	GTEX-12BJ1	1	60-69	0.0
GTEX.12ZZZ.2026.SM.5LZWJ	0.0003	0.0	0.0	0.0	0.0	0.0038	0.0	0.0	0.0001	0.0	0.0115	0.0023	0.0029	0.0003	0.0275	0.1476	0.0151	0.0	0.1022	0.0	0.145	0.0	0.2967	0.0098	0.4107	0.0	0.0253	0.0589	0.0	0.0046	0.0	0.0	0.0002	0.0	0.0053	0.0016	0.0	0.0036	0.0	0.0	0.0	0.0086	0.0021	0.0	0.0	0.1104	0.0022	0.0	0.0	0.0075	0.0007	0.0984	0.0	0.0037	0.0234	0.0	0.1392	0.018	0.0	0.0274	0.0348	0.0	0.0	0.0	No Mutations	GTEX-12ZZZ	1	60-69	2.0
GTEX.13111.1326.SM.5GCNO	0.0055	0.0	0.0	0.0	0.0	0.0	0.0	0.0	0.0	0.0	0.0	0.0	0.0137	0.0145	0.0205	0.0916	0.0	0.0	0.0302	0.0	0.0666	0.0	0.3232	0.0312	0.1877	0.0	0.0114	0.0233	0.0	0.0	0.0017	0.0034	0.0032	0.0132	0.0047	0.0	0.0	0.0023	0.0	0.0978	0.0	0.0347	0.0021	0.0	0.0	0.0827	0.0	0.0	0.0	0.0	0.064	0.1384	0.0	0.0	0.0994	0.0	0.1567	0.0026	0.0	0.0077	0.0044	0.0	0.0	0.0	No Mutations	GTEX-13111	1	50-59	0.0
GTEX.132NY.2826.SM.5P9G2	0.0	0.0	0.0	0.0	0.0	0.0316	0.0036	0.0	0.0	0.0	0.0	0.0	0.0	0.0	0.0171	0.0199	0.0128	0.0022	0.0756	0.0018	0.2298	0.0	0.0804	0.0	0.1165	0.0	0.0346	0.0169	0.0	0.0817	0.0011	0.0012	0.0004	0.0046	0.0085	0.0026	0.0	0.0	0.0075	0.0	0.0	0.0434	0.0004	0.0054	0.0	0.0149	0.0121	0.0	0.0	0.0205	0.0	0.0	0.0	0.0283	0.0	0.0	0.137	0.0253	0.0238	0.0355	0.0459	0.0	0.0	0.0	No Mutations	GTEX-132NY	1	60-69	1.0
GTEX.132QS.1126.SM.5P9GC	0.0015	0.0	0.0	0.0	0.0	0.0	0.0	0.0	0.0	0.0	0.0054	0.0	0.0029	0.0124	0.0	0.036	0.0	0.0	0.1055	0.0	0.1952	0.0	0.0756	0.0307	0.1547	0.0004	0.034	0.0102	0.0	0.0353	0.0136	0.0149	0.006	0.0	0.015	0.0016	0.0	0.0	0.004	0.0024	0.0	0.0039	0.0001	0.0	0.0	0.0566	0.0059	0.0	0.0185	0.005	0.0	0.0927	0.0	0.0034	0.0369	0.0	0.0912	0.0011	0.0212	0.0362	0.0379	0.0	0.0	0.0	No Mutations	GTEX-132QS	1	60-69	0.0
GTEX.139T6.1526.SM.5P9G6	0.0	0.0	0.0	0.0	0.0	0.0063	0.0	0.0	0.0	0.0	0.0	0.0	0.0	0.0077	0.0005	0.0608	0.0048	0.0003	0.116	0.0	0.262	0.0	0.1144	0.012	0.1493	0.0	0.0362	0.0064	0.0	0.0	0.0094	0.0074	0.0137	0.0	0.0089	0.0019	0.0	0.0045	0.0	0.0	0.0	0.0439	0.0001	0.0	0.0	0.0948	0.0032	0.0	0.0223	0.0136	0.0	0.0	0.0	0.0035	0.0087	0.0	0.1643	0.0037	0.036	0.0561	0.062	0.0	0.0	0.0	No Mutations	GTEX-139T6	1	50-59	0.0
GTEX.13FHO.2826.SM.5K7ZA	0.0	0.0	0.0	0.0	0.001	0.0644	0.0	0.002	0.0001	0.0061	0.0098	0.0089	0.0015	0.0045	0.0053	0.0834	0.0337	0.0034	0.0466	0.0077	0.2267	0.0	0.0924	0.0033	0.1357	0.0004	0.0309	0.0058	0.0	0.0	0.0	0.0	0.0002	0.0028	0.0131	0.0	0.0	0.0078	0.0	0.0	0.0	0.0076	0.0001	0.0	0.0	0.0164	0.0	0.0	0.0095	0.0116	0.0	0.0032	0.0	0.0	0.0	0.004	0.1572	0.0136	0.003	0.0157	0.0132	0.0	0.0	0.0	No Mutations	GTEX-13FHO	1	60-69	0.0
GTEX.13RTJ.2126.SM.5S2PZ	0.0033	0.0	0.0	0.0	0.0	0.0	0.0	0.0	0.0	0.0	0.0	0.0	0.0	0.0297	0.0015	0.0824	0.0	0.0	0.0605	0.0	0.0	0.0	0.4176	0.0	0.2398	0.0	0.0	0.0084	0.0	0.027	0.0	0.0063	0.0017	0.0	0.0055	0.003	0.0	0.0	0.0	0.0108	0.0	0.1673	0.0035	0.0	0.0	0.093	0.0	0.0	0.0	0.0	0.0032	0.1369	0.0	0.0124	0.0676	0.0	0.179	0.0	0.0	0.0188	0.024	0.0	0.0	0.0	No Mutations	GTEX-13RTJ	1	60-69	4.0
GTEX.146FQ.1726.SM.5QGPX	0.0007	0.0	0.0	0.0	0.0	0.0252	0.0	0.0	0.0	0.0	0.0	0.0	0.0	0.0096	0.008	0.025	0.0158	0.0	0.0288	0.0	0.2112	0.0	0.1128	0.0	0.1358	0.0	0.0337	0.0177	0.0	0.0731	0.0001	0.0	0.0006	0.0	0.0103	0.0014	0.0	0.0017	0.0	0.0	0.0	0.0144	0.0008	0.0	0.0	0.0015	0.0042	0.0	0.0	0.0145	0.0	0.0965	0.0	0.0275	0.0006	0.0	0.0235	0.0008	0.0074	0.0053	0.0085	0.0	0.0	0.0	No Mutations	GTEX-146FQ	1	30-39	0.0
GTEX.14C5O.2826.SM.5RQI6	0.0	0.0	0.0	0.0	0.0	0.0	0.0	0.0	0.0	0.0	0.0	0.0	0.0197	0.0205	0.0038	0.1329	0.0	0.0	0.0289	0.0	0.0	0.0	0.297	0.0005	0.23	0.0017	0.0	0.0	0.0	0.0	0.0	0.0	0.0007	0.0	0.0104	0.0	0.0	0.0	0.0	0.0784	0.0	0.046	0.0034	0.0	0.0	0.0343	0.0	0.0	0.0001	0.0	0.0377	0.1923	0.0	0.0	0.0706	0.0	0.0191	0.0007	0.0	0.0062	0.004	0.0	0.0	0.0	No Mutations	GTEX-14C5O	1	60-69	4.0
GTEX.14E6E.1126.SM.5S2R4	0.0019	0.0	0.0	0.0	0.0	0.0	0.0	0.0	0.0	0.0	0.0	0.0	0.0	0.0091	0.0043	0.0815	0.0	0.0003	0.073	0.0	0.1176	0.0	0.2857	0.0228	0.1388	0.0009	0.0093	0.0058	0.0	0.0	0.0254	0.0323	0.0134	0.0	0.0113	0.0	0.0	0.0	0.0022	0.0025	0.0	0.0638	0.0012	0.0	0.0	0.1296	0.009	0.0	0.0719	0.0009	0.0	0.1732	0.0	0.0	0.0473	0.0	0.2503	0.0212	0.0	0.027	0.0367	0.0	0.0	0.0	No Mutations	GTEX-14E6E	1	30-39	0.0
GTEX.NFK9.2226.SM.3MJGP	0.0	0.0	0.0009	0.02	0.0	0.0249	0.0	0.0007	0.0	0.002	0.0065	0.0	0.0015	0.0087	0.0082	0.0118	0.0204	0.0	0.0977	0.0	0.2062	0.0	0.0	0.0041	0.0467	0.0	0.028	0.0284	0.0	0.0951	0.0	0.0	0.0056	0.011	0.0176	0.001	0.0	0.0	0.0	0.0032	0.0	0.036	0.0	0.0	0.012	0.0	0.0202	0.0038	0.0	0.011	0.0	0.0169	0.0	0.0333	0.0	0.0	0.0258	0.0	0.0	0.0464	0.0504	0.0	0.0081	0.0	No Mutations	GTEX-NFK9	1	40-49	0.0
GTEX.OOBK.2025.SM.3LK5S	0.0	0.0	0.0	0.0	0.0	0.0	0.0	0.0	0.0	0.0	0.0	0.0	0.0	0.0184	0.0063	0.0657	0.0	0.0	0.0225	0.0	0.0592	0.0	0.2783	0.0039	0.098	0.0	0.0039	0.0143	0.0	0.0148	0.0021	0.0042	0.002	0.005	0.0053	0.0016	0.0	0.0	0.0	0.0248	0.0	0.1012	0.0003	0.0	0.0	0.0934	0.0	0.0	0.0	0.0	0.0	0.1593	0.0	0.0	0.1225	0.0	0.1732	0.0022	0.0139	0.0125	0.0135	0.0	0.0	0.0	No Mutations	GTEX-OOBK	1	40-49	0.0
GTEX.Q2AI.1126.SM.48U19	0.0	0.0	0.0	0.0	0.0	0.0217	0.0046	0.0	0.0	0.0	0.0	0.0	0.001	0.0048	0.001	0.0131	0.0012	0.0	0.0119	0.001	0.3109	0.0	0.0362	0.0009	0.0619	0.0003	0.0582	0.0019	0.0	0.0856	0.0081	0.0129	0.0027	0.0	0.0025	0.0013	0.0	0.001	0.0	0.0	0.0	0.03	0.0	0.0	0.0	0.0508	0.0151	0.0	0.0086	0.0213	0.0	0.0	0.0	0.0041	0.0091	0.0	0.0772	0.0	0.0	0.0007	0.0081	0.0	0.0	0.0	No Mutations	GTEX-Q2AI	1	40-49	0.0
GTEX.REY6.2126.SM.48FD9	0.0001	0.0	0.0082	0.0	0.0	0.0251	0.0183	0.0068	0.0	0.0	0.0097	0.0	0.0007	0.0039	0.0079	0.0593	0.0266	0.0026	0.0405	0.0038	0.1846	0.0	0.1476	0.0106	0.0554	0.0006	0.0153	0.0064	0.0	0.0178	0.005	0.0014	0.0018	0.0035	0.0093	0.0022	0.0	0.0155	0.0	0.0	0.0	0.0042	0.0003	0.0	0.0	0.0105	0.0131	0.0011	0.0	0.0107	0.0	0.1133	0.0	0.0069	0.0172	0.0018	0.1693	0.018	0.0135	0.0142	0.01	0.0	0.0	0.0	No Mutations	GTEX-REY6	1	60-69	0.0
GTEX.RM2N.1126.SM.48FCY	0.0004	0.0	0.0	0.0	0.0	0.0	0.0	0.0	0.0	0.0	0.0	0.0	0.0	0.002	0.0085	0.0709	0.0	0.0	0.1832	0.0	0.0744	0.0	0.3015	0.0278	0.2165	0.0	0.0039	0.0164	0.0	0.0288	0.021	0.0206	0.0079	0.0	0.011	0.0019	0.0	0.0	0.0012	0.0	0.0	0.1031	0.0002	0.0	0.0	0.1769	0.0	0.0	0.002	0.0	0.0	0.0	0.0	0.0	0.0382	0.0	0.2483	0.0122	0.133	0.0883	0.0997	0.0	0.0	0.0	No Mutations	GTEX-RM2N	1	50-59	0.0
GTEX.RWSA.2026.SM.47JX8	0.0	0.0	0.0	0.0028	0.0	0.0588	0.0038	0.0	0.0	0.0	0.0	0.0	0.0	0.0	0.0147	0.0	0.0265	0.0	0.016	0.0091	0.2387	0.0	0.0154	0.0114	0.0753	0.0	0.0333	0.0237	0.0	0.202	0.0	0.0	0.0	0.0097	0.0063	0.0006	0.0	0.0	0.0	0.0	0.0	0.044	0.0002	0.0	0.0	0.0324	0.0066	0.0	0.0	0.0156	0.0	0.0	0.0	0.0279	0.0	0.0	0.0449	0.0155	0.0	0.0117	0.0086	0.0	0.0	0.0	No Mutations	GTEX-RWSA	1	40-49	1.0
GTEX.S33H.1826.SM.4AD65	0.0	0.0	0.0	0.0055	0.0	0.0115	0.0005	0.0	0.0	0.0	0.0	0.0	0.0	0.0088	0.0026	0.0281	0.009	0.0022	0.0563	0.0	0.2641	0.0	0.1403	0.0068	0.0825	0.0008	0.0419	0.0064	0.0	0.0094	0.0004	0.0049	0.0118	0.0006	0.0025	0.0005	0.0	0.0086	0.0	0.0	0.0	0.0455	0.0	0.0007	0.0	0.0462	0.0084	0.0	0.0188	0.0112	0.0	0.0229	0.0	0.0	0.0299	0.0	0.1583	0.0022	0.0	0.0224	0.0329	0.0	0.0	0.0	No Mutations	GTEX-S33H	1	30-39	2.0
GTEX.S3XE.1326.SM.4AD4H	0.0	0.0	0.0	0.0104	0.0	0.0	0.0	0.0	0.0	0.0	0.0	0.0	0.001	0.0204	0.0	0.0547	0.0017	0.0003	0.1025	0.0	0.1676	0.0	0.1858	0.0103	0.1062	0.0031	0.0254	0.0038	0.0	0.0	0.0087	0.0105	0.0121	0.0018	0.0055	0.0	0.0	0.0	0.0	0.0071	0.0	0.0233	0.0001	0.0049	0.0	0.0963	0.0012	0.0	0.0683	0.0036	0.0	0.1219	0.0	0.0	0.0728	0.0	0.0735	0.0162	0.0883	0.0324	0.0415	0.0	0.0	0.0	No Mutations	GTEX-S3XE	1	50-59	0.0
GTEX.S95S.1026.SM.4B64M	0.0	0.0	0.0278	0.0	0.0	0.0175	0.0118	0.0	0.0	0.0	0.0	0.0	0.0	0.0021	0.005	0.0505	0.0244	0.0036	0.0587	0.0012	0.2037	0.0	0.1047	0.021	0.0731	0.0	0.0232	0.0156	0.0	0.1255	0.0205	0.0233	0.0016	0.0048	0.0025	0.0003	0.0131	0.0	0.0206	0.0008	0.0	0.0835	0.0002	0.0	0.0	0.0327	0.0182	0.0	0.0	0.0089	0.0	0.0	0.0	0.0	0.0194	0.0047	0.2373	0.0172	0.0332	0.0235	0.032	0.0	0.0	0.0	No Mutations	GTEX-S95S	1	60-69	0.0
GTEX.SNOS.1026.SM.4DM4Y	0.0	0.0	0.0	0.0	0.0	0.0086	0.01	0.0009	0.0	0.0	0.0037	0.0	0.0028	0.005	0.0	0.0341	0.008	0.0006	0.0277	0.0	0.1827	0.0	0.0582	0.0204	0.0615	0.0002	0.0251	0.004	0.0	0.0	0.0157	0.0138	0.0013	0.0006	0.0079	0.0	0.0	0.0	0.0023	0.0	0.0	0.0027	0.0005	0.0	0.0	0.0149	0.0139	0.0039	0.0254	0.006	0.0	0.1331	0.0	0.0	0.0492	0.0	0.0833	0.0102	0.0164	0.0016	0.0027	0.0	0.0	0.0	No Mutations	GTEX-SNOS	1	40-49	0.0
GTEX.U3ZM.0926.SM.4DXSW	0.0	0.0	0.0	0.0	0.0	0.0252	0.0016	0.0	0.0	0.0	0.0	0.0	0.0033	0.0099	0.0064	0.0215	0.0	0.0	0.0104	0.0018	0.2561	0.0	0.0304	0.0003	0.0674	0.0005	0.0387	0.0249	0.0	0.0901	0.0068	0.0089	0.0012	0.0024	0.0052	0.0008	0.0	0.0022	0.0	0.0	0.0	0.017	0.0003	0.0	0.0	0.0096	0.012	0.0	0.0157	0.0104	0.0	0.0521	0.0	0.0135	0.0037	0.0	0.0752	0.0001	0.0	0.0022	0.0015	0.0	0.0	0.0	No Mutations	GTEX-U3ZM	1	40-49	0.0
GTEX.U4B1.1426.SM.4DXTX	0.0	0.0	0.0	0.0	0.0	0.0359	0.0074	0.0	0.0	0.0	0.0018	0.0	0.0002	0.0019	0.0035	0.0117	0.0139	0.0012	0.0672	0.0004	0.2394	0.0	0.0656	0.0096	0.0636	0.0	0.0302	0.0047	0.0	0.0489	0.0094	0.0061	0.0038	0.0014	0.0153	0.0007	0.0	0.0	0.0011	0.0	0.0	0.006	0.0001	0.0	0.0	0.0	0.0101	0.0009	0.012	0.0128	0.0	0.0037	0.0	0.0043	0.0089	0.0	0.0928	0.0132	0.0054	0.0179	0.0274	0.0	0.0	0.0	No Mutations	GTEX-U4B1	1	40-49	0.0
GTEX.WFG8.1826.SM.4LVM4	0.0	0.0	0.0	0.0	0.0	0.0178	0.0143	0.0	0.0	0.0	0.0037	0.003	0.0	0.0028	0.0057	0.0515	0.0135	0.0005	0.0739	0.0	0.3508	0.0	0.1138	0.0129	0.1474	0.0	0.08	0.012	0.0	0.0436	0.0049	0.0101	0.0073	0.0	0.0039	0.0014	0.0	0.0083	0.0	0.0	0.0	0.0347	0.0	0.0	0.0	0.0634	0.0	0.0	0.0	0.0195	0.0	0.0	0.0	0.0019	0.0103	0.0	0.1809	0.0031	0.0	0.0291	0.0348	0.0	0.0	0.0	No Mutations	GTEX-WFG8	1	20-29	0.0
GTEX.WFON.1626.SM.4LVMV	0.0	0.0	0.0	0.0	0.0	0.0212	0.0	0.0	0.0	0.0	0.0057	0.0	0.0	0.0037	0.0013	0.09	0.0	0.0	0.0881	0.0	0.2245	0.0	0.1732	0.0093	0.2336	0.0	0.0304	0.0095	0.0	0.0	0.0077	0.009	0.001	0.0	0.0103	0.0011	0.0	0.0037	0.0	0.0	0.0	0.0	0.0001	0.0	0.0	0.0727	0.0	0.0	0.0	0.0142	0.0	0.0042	0.0	0.0018	0.0148	0.0	0.1601	0.029	0.0001	0.0197	0.032	0.0	0.0	0.0	No Mutations	GTEX-WFON	1	40-49	0.0
GTEX.WOFM.0326.SM.4OOSL	0.0	0.0	0.0	0.0086	0.0	0.0469	0.0184	0.0021	0.0	0.0	0.0017	0.0	0.0063	0.0038	0.0023	0.0072	0.0259	0.0001	0.0539	0.0	0.1745	0.0	0.0009	0.0119	0.0403	0.0	0.0214	0.0009	0.0	0.0854	0.0028	0.0021	0.0104	0.0072	0.0125	0.0016	0.0	0.0	0.0	0.0022	0.0	0.0096	0.0003	0.0	0.0	0.0	0.0205	0.0061	0.0304	0.0049	0.0001	0.0692	0.0	0.005	0.0039	0.0011	0.0567	0.0029	0.0	0.0101	0.0151	0.0	0.0062	0.0	No Mutations	GTEX-WOFM	1	20-29	0.0
GTEX.X5EB.1826.SM.4E3K8	0.0	0.0	0.0	0.0109	0.0	0.0121	0.0	0.0	0.0	0.0	0.0007	0.0	0.003	0.0166	0.0	0.0062	0.0074	0.0	0.0705	0.0	0.2073	0.0	0.0043	0.012	0.0952	0.0	0.029	0.0214	0.0	0.1104	0.0086	0.0088	0.0056	0.0016	0.0124	0.0013	0.0	0.0	0.0	0.0036	0.0	0.0171	0.0	0.0002	0.0159	0.0	0.024	0.0	0.0	0.0085	0.0	0.0592	0.0	0.0477	0.0	0.0	0.0793	0.008	0.0	0.021	0.0299	0.0	0.0	0.0	No Mutations	GTEX-X5EB	1	40-49	0.0
GTEX.XAJ8.0626.SM.47JY4	0.0047	0.0	0.0	0.0	0.0	0.0214	0.0	0.0	0.0	0.004	0.0022	0.0013	0.0016	0.0031	0.0078	0.0632	0.005	0.0	0.1344	0.005	0.1478	0.0	0.278	0.0285	0.1534	0.0	0.0251	0.0143	0.0	0.0	0.0116	0.0135	0.0067	0.002	0.0037	0.0	0.0	0.0046	0.0044	0.0	0.0	0.0568	0.0001	0.0	0.0	0.1788	0.0	0.0	0.0	0.0017	0.0	0.0	0.0	0.0	0.0512	0.0	0.1432	0.0053	0.0578	0.0601	0.0705	0.0	0.0	0.0	No Mutations	GTEX-XAJ8	1	40-49	0.0
GTEX.XGQ4.1826.SM.4AT6F	0.0077	0.0	0.0814	0.0	0.0	0.0149	0.0	0.0	0.0018	0.0041	0.012	0.0048	0.0	0.0024	0.0183	0.0981	0.018	0.0008	0.0655	0.0	0.0629	0.0	0.3536	0.0222	0.2239	0.0	0.0075	0.0549	0.0	0.0428	0.014	0.0251	0.0046	0.0075	0.0051	0.0005	0.043	0.003	0.0	0.0	0.0	0.026	0.0035	0.0	0.0	0.179	0.0105	0.0	0.0	0.0	0.0	0.0433	0.0	0.0	0.0611	0.0	0.1613	0.0242	0.0069	0.0158	0.0175	0.0025	0.0	0.0	No Mutations	GTEX-XGQ4	1	50-59	0.0
GTEX.XMK1.1026.SM.4B65H	0.0	0.0	0.0	0.0	0.0	0.0104	0.0017	0.0	0.0	0.0	0.0	0.0	0.0014	0.0112	0.0036	0.0244	0.0125	0.0013	0.0455	0.0	0.2381	0.0	0.0574	0.0022	0.0898	0.0004	0.0317	0.0129	0.0	0.0844	0.0066	0.0035	0.005	0.0032	0.01	0.0021	0.0	0.0	0.0	0.0035	0.0	0.0296	0.0005	0.0	0.0	0.0189	0.0142	0.0	0.0165	0.0107	0.0002	0.0693	0.0	0.0309	0.0106	0.0	0.1072	0.011	0.0	0.0164	0.0159	0.0	0.0	0.0	No Mutations	GTEX-XMK1	1	40-49	0.0
GTEX.XPVG.2026.SM.4B65E	0.0	0.0268	0.0	0.0	0.0	0.0	0.0	0.0	0.0	0.0	0.0	0.0	0.0	0.0182	0.0	0.1031	0.0	0.0031	0.039	0.0	0.2385	0.0001	0.1722	0.0259	0.0512	0.0	0.0461	0.0068	0.0	0.0	0.0378	0.0234	0.0124	0.0	0.0057	0.0	0.0	0.0202	0.0312	0.0061	0.0	0.1225	0.0002	0.0	0.0	0.0419	0.0	0.0	0.0	0.0087	0.0	0.0979	0.0	0.0	0.1283	0.0	0.1058	0.01	0.2333	0.0077	0.0204	0.0	0.0	0.0	No Mutations	GTEX-XPVG	1	50-59	0.0
GTEX.XQ3S.2526.SM.4BOOG	0.0	0.0	0.0	0.0	0.0	0.0195	0.0	0.0	0.0	0.0	0.0	0.0	0.0	0.002	0.0141	0.0404	0.0	0.0	0.0491	0.0	0.2153	0.0	0.1136	0.0	0.2127	0.0	0.0322	0.0188	0.0	0.1532	0.0	0.0014	0.0005	0.0	0.0034	0.0011	0.0	0.0	0.0	0.0031	0.0	0.0199	0.0007	0.0	0.0	0.0552	0.0062	0.0	0.0	0.0129	0.0	0.0	0.0	0.0338	0.0116	0.0	0.0589	0.0	0.0	0.0131	0.0229	0.0	0.0	0.0	No Mutations	GTEX-XQ3S	1	20-29	1.0
GTEX.Y9LG.1826.SM.4VBQC	0.0	0.0	0.0	0.0	0.0008	0.0326	0.0007	0.0025	0.0	0.0	0.0009	0.0	0.0103	0.0153	0.0026	0.0119	0.0103	0.0	0.0324	0.0	0.1558	0.0	0.0084	0.0088	0.089	0.0	0.0208	0.0	0.0	0.0517	0.0046	0.003	0.0065	0.0021	0.0073	0.0009	0.0	0.0	0.0	0.0084	0.0	0.0014	0.0002	0.0	0.0	0.0	0.0105	0.0008	0.0157	0.0046	0.0002	0.0881	0.0	0.0077	0.0102	0.0016	0.0465	0.0012	0.0	0.0047	0.007	0.0	0.0007	0.0	No Mutations	GTEX-Y9LG	1	30-39	0.0
GTEX.YB5E.1826.SM.5IFI4	0.0004	0.0	0.0	0.0	0.0	0.0246	0.0	0.0	0.0	0.0	0.0	0.0	0.0	0.0022	0.0006	0.0224	0.0	0.0	0.024	0.0007	0.2168	0.0	0.0591	0.0107	0.0868	0.0002	0.0284	0.0048	0.0	0.0914	0.0082	0.0055	0.0034	0.0	0.0095	0.0014	0.0	0.0	0.0	0.0	0.0	0.0215	0.0002	0.0	0.0	0.0276	0.0093	0.0	0.0084	0.007	0.0001	0.0399	0.0	0.0103	0.0018	0.0	0.0676	0.0011	0.038	0.0074	0.0092	0.0	0.0	0.0	No Mutations	GTEX-YB5E	1	40-49	0.0
GTEX.YJ8A.1126.SM.5IFJU	0.0	0.0	0.0	0.0	0.0	0.0	0.0	0.0	0.0	0.0	0.0	0.0	0.0	0.0023	0.0064	0.0691	0.0075	0.0	0.1364	0.0	0.2148	0.0	0.2341	0.0132	0.1878	0.0	0.0296	0.0374	0.0	0.0	0.0	0.0	0.0049	0.0	0.0032	0.0	0.0	0.0	0.0	0.0	0.0	0.107	0.0012	0.0	0.0	0.1457	0.0	0.0	0.0355	0.001	0.0	0.0	0.0	0.0	0.0444	0.0	0.1141	0.0066	0.0073	0.0657	0.0591	0.0	0.0	0.0	No Mutations	GTEX-YJ8A	1	20-29	0.0
GTEX.ZLFU.1726.SM.4WWBU	0.008	0.0	0.0	0.0	0.0	0.0004	0.0	0.0	0.0	0.0	0.0	0.0	0.0055	0.0203	0.0	0.0746	0.0	0.0	0.0355	0.0	0.1949	0.0	0.2235	0.0	0.1488	0.0	0.0189	0.0052	0.0	0.0	0.0016	0.0048	0.0	0.0	0.0049	0.0	0.0	0.014	0.0	0.0063	0.0	0.0253	0.0012	0.0	0.0	0.0427	0.001	0.0	0.0	0.0077	0.0017	0.0829	0.0	0.0	0.0329	0.0	0.0525	0.0	0.0278	0.0101	0.0085	0.0	0.0	0.0	No Mutations	GTEX-ZLFU	1	40-49	0.0
GTEX.ZPU1.2026.SM.57WFI	0.0	0.0	0.0	0.0	0.0	0.0039	0.0	0.0031	0.0013	0.0059	0.0289	0.0	0.0023	0.0109	0.0	0.0458	0.0038	0.0023	0.0304	0.0	0.3463	0.0	0.08	0.0182	0.1854	0.0	0.0834	0.0093	0.0	0.0	0.0	0.0053	0.0017	0.0	0.0037	0.0	0.0	0.0006	0.0	0.0	0.0	0.0	0.0	0.0	0.0	0.0193	0.0	0.0	0.0	0.0258	0.0	0.0643	0.0	0.0	0.0703	0.0	0.205	0.019	0.0	0.0144	0.0154	0.0	0.0	0.0	No Mutations	GTEX-ZPU1	1	40-49	0.0
GTEX.ZT9W.1626.SM.4YCDQ	0.0	0.0	0.0	0.0	0.0	0.0	0.0	0.0	0.0	0.0	0.0	0.0	0.0038	0.02	0.0	0.0472	0.0	0.0	0.0922	0.0	0.2053	0.0	0.0617	0.0025	0.1385	0.0	0.0304	0.0071	0.0	0.0	0.0064	0.0059	0.0043	0.0	0.0153	0.0	0.0	0.0	0.0	0.0045	0.0	0.0	0.0007	0.0	0.0227	0.0567	0.0083	0.0	0.0225	0.0089	0.0	0.1443	0.0	0.0112	0.0233	0.0	0.0548	0.0007	0.0206	0.0308	0.027	0.0	0.0	0.0	No Mutations	GTEX-ZT9W	1	50-59	0.0
GTEX.ZTX8.1026.SM.5EGHD	0.0	0.0	0.0	0.0	0.0	0.0	0.0	0.0	0.0	0.0	0.0	0.0	0.0019	0.0087	0.0	0.0358	0.0	0.0	0.1352	0.0	0.2296	0.0	0.0838	0.0138	0.2602	0.0	0.0332	0.0103	0.0	0.1753	0.0158	0.0166	0.0118	0.0	0.0141	0.0021	0.0	0.0	0.0	0.0006	0.0	0.0346	0.0004	0.0	0.0	0.041	0.0116	0.0	0.0	0.0051	0.0	0.0126	0.0	0.0094	0.0176	0.0	0.2072	0.0208	0.0648	0.053	0.0629	0.0	0.0	0.0	No Mutations	GTEX-ZTX8	1	20-29	0.0
GTEX.ZUA1.2826.SM.59HLE	0.0	0.0	0.0	0.0059	0.0	0.0245	0.0104	0.0006	0.0	0.0	0.0	0.0	0.0	0.0041	0.0036	0.0	0.014	0.0	0.0	0.0002	0.2179	0.0	0.0	0.0	0.0138	0.0	0.0274	0.0031	0.0	0.1653	0.0004	0.0	0.0029	0.0034	0.0027	0.0016	0.0	0.0	0.0	0.0	0.0	0.0322	0.0005	0.0	0.0	0.0	0.0178	0.0009	0.0	0.0146	0.0	0.0635	0.0	0.0441	0.0	0.0	0.0	0.0	0.0	0.0	0.0	0.0	0.005	0.0	No Mutations	GTEX-ZUA1	1	40-49	2.0
GTEX.ZZ64.0926.SM.5E44L	0.0	0.0	0.0	0.0118	0.0	0.0394	0.0	0.0	0.0	0.0	0.0011	0.0	0.0071	0.0065	0.0041	0.0212	0.0	0.0	0.1255	0.0	0.1577	0.0	0.0936	0.0043	0.1301	0.0011	0.0212	0.0019	0.0	0.0502	0.006	0.0025	0.0126	0.0	0.009	0.0015	0.0	0.0	0.0	0.0017	0.0	0.0081	0.0003	0.0	0.0	0.0224	0.0113	0.0	0.0049	0.0036	0.0	0.0	0.0	0.0065	0.0067	0.0	0.0781	0.0012	0.016	0.0513	0.0588	0.0	0.0	0.0	No Mutations	GTEX-ZZ64	1	20-29	0.0
