,aDC,Adipocytes,Astrocytes,B-cells,Basophils,CD4+ memory T-cells,CD4+ naive T-cells,CD4+ T-cells,CD4+ Tcm,CD4+ Tem,CD8+ naive T-cells,CD8+ T-cells,CD8+ Tcm,CD8+ Tem,cDC,Chondrocytes,Class-switched memory B-cells,CLP,CMP,DC,Endothelial cells,Eosinophils,Epithelial cells,Erythrocytes,Fibroblasts,GMP,Hepatocytes,HSC,iDC,Keratinocytes,ly Endothelial cells,Macrophages,Macrophages M1,Macrophages M2,Mast cells,Megakaryocytes,Melanocytes,Memory B-cells,MEP,Mesangial cells,Monocytes,MPP,MSC,mv Endothelial cells,Myocytes,naive B-cells,Neurons,Neutrophils,NK cells,NKT,Osteoblast,pDC,Pericytes,Plasma cells,Platelets,Preadipocytes,pro B-cells,Sebocytes,Skeletal muscle,Smooth muscle,Tgd cells,Th1 cells,Th2 cells,Tregs
1 and 2,1.0,1.0,1.0,0.09401120634651697,1.0,0.12384836848250577,1.0,0.7777253577807871,1.0,1.0,0.1710551009391313,0.9521925588165616,1.0,1.0,1.0,0.554795450843468,1.0,0.057907288876910386,0.3348598100237175,0.6025012077850612,1.0,0.4088267035027201,1.0,0.2429247205741022,1.0,0.2577593777120992,0.8658962732221689,1.0,0.17115854502768746,0.1253954309699879,0.9096163148548362,0.21703716511946802,0.216632614682569,0.12777678629389178,1.0,1.0,0.4278032739173882,0.47276128495908376,1.0,1.0,1.0,1.0,1.0,0.40770278719238445,0.09408174503633784,1.0,0.0489133098792408,0.15083856777077104,1.0,1.0,0.7225979021043721,1.0,0.22614997305818518,1.0,0.6708691878812226,1.0,1.0,0.09992184352321162,0.09408174503633784,0.1098327106307061,1.0,0.4278032739173882,0.480918253442318,1.0
1 and 3,1.0,1.0,1.0,0.3889286953596255,1.0,1.0,1.0,0.8170141012913589,1.0,1.0,1.0,0.6444439061132344,0.9718120741265245,1.0,0.4576957755037,1.0,1.0,0.3097902046676484,1.0,1.0,1.0,1.0,1.0,0.46016977138964765,1.0,1.0,1.0,1.0,0.7290943269537209,0.6853159267721026,1.0,1.0,1.0,1.0,0.2709880532625647,1.0,0.7694793749595153,1.0,1.0,0.41507107888999606,1.0,0.44767794014284834,1.0,1.0,0.37732014118824697,1.0,0.652290787410275,0.36960415894752013,1.0,1.0,1.0,1.0,1.0,1.0,0.7005238940609613,1.0,0.727433754240305,1.0,1.0,0.5169878239839876,1.0,0.4576870216121698,1.0,1.0
2 and 3,1.0,0.003633585765218848,0.8246612757664696,0.12905031840968273,0.0003007996198983356,2.1202947057567102e-05,0.7154723104152607,1.0,0.9352642256732909,0.0037951174066070325,0.010133993978529255,1.0,1.0,0.08311076264472528,7.729503798070961e-05,0.3527049073806354,4.278283884888042e-06,0.33104260159199556,0.3516929381141642,0.0012336790495653365,0.7885629208393266,0.007802527307574343,1.0,1.0,0.5989630544425916,1.0,0.032627402146265166,0.9607931663111303,0.015271500654226434,0.014357444192519882,0.656151148494332,0.15650056086549363,0.15589962840364197,0.6739023887992558,1.0,1.0,0.8288027482898886,1.0,0.04788258204453067,0.87150780362679,1.0,1.0,0.1012902544999848,7.48806134382306e-05,0.4725052073533954,0.2559983675713143,0.37188439030596027,0.07773680264426124,1.0,0.14665906612255622,0.024541477295797802,1.0,7.938220371736567e-05,0.8167807324894306,0.3689161135886147,1.0,0.9289983992318949,0.0018195756552074026,5.995927931146209e-06,0.004505287805938908,0.002113096012472792,0.05291605826203025,1.0,1.0
