Sample Name	aDC	Adipocytes	Astrocytes	B-cells	Basophils	CD4+ memory T-cells	CD4+ naive T-cells	CD4+ T-cells	CD4+ Tcm	CD4+ Tem	CD8+ naive T-cells	CD8+ T-cells	CD8+ Tcm	CD8+ Tem	cDC	Chondrocytes	Class-switched memory B-cells	CLP	CMP	DC	Endothelial cells	Eosinophils	Epithelial cells	Erythrocytes	Fibroblasts	GMP	Hepatocytes	HSC	iDC	Keratinocytes	ly Endothelial cells	Macrophages	Macrophages M1	Macrophages M2	Mast cells	Megakaryocytes	Melanocytes	Memory B-cells	MEP	Mesangial cells	Monocytes	MPP	MSC	mv Endothelial cells	Myocytes	naive B-cells	Neurons	Neutrophils	NK cells	NKT	Osteoblast	pDC	Pericytes	Plasma cells	Platelets	Preadipocytes	pro B-cells	Sebocytes	Skeletal muscle	Smooth muscle	Tgd cells	Th1 cells	Th2 cells	Tregs	Group	SEX	AGE	DTHHRDY
GTEX-11TTK	1.06637985461245e-17	0.0	2.5747043431721297e-18	0.0189793213735739	0.327863123645701	0.0055714089235087	0.0	0.0	0.0	0.0	0.144355378366029	0.137044574720845	0.0	1.77876731777368e-17	0.0054603895576715	0.0	0.0023688179235673	1.97106098169879e-21	2.12761145572717e-21	2.84329108783386e-19	0.0319065620263832	8.97437101142785e-19	2.1018481684709601e-19	0.0004227474418011	1.51720995659546e-18	7.314007989342061e-21	0.0017821966424434	0.0181028779357957	0.114597237632613	0.0	0.032084570185896	0.0	9.63946926464469e-18	0.0069929750616175	0.0132662742740718	0.0	0.0188677056076282	0.0097061990478819	0.0047615405287792	1.8079844864824702e-17	2.7127472628198898e-18	0.0	0.453525497445005	0.0467255748584403	0.0047060482239561	0.0018301540734363	0.0040563423595053	0.0296536541020022	1.73470613836731e-17	0.124450057459735	0.258701523272594	2.08129160115347e-18	0.0666500829376811	0.0783797149543275	9.41288188999364e-18	0.0	0.0680627657946384	7.80283036939149e-20	0.0012014333152081	0.621120304153531	0.0	0.0611690780517611	0.251030351503161	1.07788302980595e-18	No Cancer Gene Mutations	2	60-69	4.0
GTEX-145MN	2.97100820741692e-17	2.0139545157644e-19	2.5805411409549402e-17	0.225727589205026	3.72180920341192e-18	2.8746580153493e-19	0.0	1.42144088777107e-17	0.0	0.0247985757006367	0.0	2.51730709001549e-19	0.0	0.0	0.115771669573557	2.04795797634311e-17	0.259749846546398	0.0671618805668831	0.0	0.0233705699883035	0.0153429568483464	0.0106410667983099	0.0190667076178942	0.0	0.0194996731124509	0.11369811315847	0.0	0.166693371079649	0.645758230433486	9.269419216509071e-20	0.0424539485449187	0.0149154677255511	1.52124505101398e-18	0.0034323432431087	0.0039271194533769	0.0296575396036432	0.0260473466414254	0.0	0.095287057926618	2.22211127411414e-18	0.0	0.0	0.11952607275488	0.020812046329486	3.2797202771486196e-18	1.2980275632018101e-17	0.0042708302270349	5.62789703549816e-05	0.0	0.158961470878995	0.0892617653827119	5.18759978862963e-19	0.0	0.0523779578878551	0.0	0.0263114013093254	0.0209578671918353	1.35407578170942e-19	3.63958354643158e-19	0.445394392172164	0.0	0.0378016843721761	0.407087939635967	3.19390878142716e-17	No Cancer Gene Mutations	1	30-39	0.0
GTEX-147F4	4.95317798563887e-17	0.0	0.0	0.0415225145264097	0.0946012776381782	0.0	0.0	0.0	7.138511429215111e-17	0.148479114037172	0.0	0.0015009527853412	1.8635051362899e-18	1.2455574037637801e-17	0.155893357993379	0.0	0.0294016226684385	0.0075939760893852	0.009071126878861	0.0	0.0030248710528046	0.0	0.00304445172644	0.0	0.0	0.0238326631894462	0.0	0.382792124804319	0.740378557668369	0.0	0.0134076059037218	0.0	0.0	0.0028821764755614	0.0187169055515307	0.0193543856959722	0.0275032606080742	0.0	0.0	0.0	0.0	1.05422803849528e-16	0.0694147413374404	0.0033418213678749	0.030223319019755	0.0	0.0185829951401748	0.0300175860553221	0.0	0.312594029602729	0.210002926393063	0.0	0.0	0.0620249463439923	2.3370738130028197e-18	1.0508981018014101e-17	0.0161136583210807	5.2397895315157105e-20	0.0	0.731512037201478	0.0	0.242811333641606	0.186904551651694	0.0401744339602773	No Cancer Gene Mutations	1	50-59	2.0
GTEX-RN64	0.0	0.0	0.0	0.0	0.0138995153459397	0.0042486389158113	3.94369713938266e-18	0.0	0.0	0.181024261551463	0.0120665344780146	0.009909623315548	0.0	6.647841812300709e-18	0.0742154204440494	0.0	1.20516461807711e-19	0.0056560423852188	0.0402600996857201	0.0	0.0864405650495696	0.0155656480377493	0.0132628490700204	4.05489572797466e-21	9.893784273532921e-17	0.0140347514574508	0.0	0.49320681963797	0.281994712955715	0.0037582951895023	0.102189325083168	0.0	0.0	2.1299326759279702e-19	9.405696497625591e-20	0.0304095403048974	0.0025462749307282	1.16852165023384e-17	0.0603059233197073	0.0	0.0	0.0	0.159861842878225	0.0951637282401659	2.21490315962677e-19	0.0	0.0040810726100001	0.0	0.0264259758964607	0.0	0.101064380058714	8.0637388063621e-18	0.0	4.40605784665839e-18	0.0	0.0017857974609633	0.0	0.0028704004921958	5.1932160827247895e-18	0.772410763928412	0.0	0.158823629499844	0.0	0.085100843165818	No Cancer Gene Mutations	1	50-59	1.0
GTEX-RN64	0.0	0.0	0.0	0.0	0.0138995153459397	0.0042486389158113	3.94369713938266e-18	0.0	0.0	0.181024261551463	0.0120665344780146	0.009909623315548	0.0	6.647841812300709e-18	0.0742154204440494	0.0	1.20516461807711e-19	0.0056560423852188	0.0402600996857201	0.0	0.0864405650495696	0.0155656480377493	0.0132628490700204	4.05489572797466e-21	9.893784273532921e-17	0.0140347514574508	0.0	0.49320681963797	0.281994712955715	0.0037582951895023	0.102189325083168	0.0	0.0	2.1299326759279702e-19	9.405696497625591e-20	0.0304095403048974	0.0025462749307282	1.16852165023384e-17	0.0603059233197073	0.0	0.0	0.0	0.159861842878225	0.0951637282401659	2.21490315962677e-19	0.0	0.0040810726100001	0.0	0.0264259758964607	0.0	0.101064380058714	8.0637388063621e-18	0.0	4.40605784665839e-18	0.0	0.0017857974609633	0.0	0.0028704004921958	5.1932160827247895e-18	0.772410763928412	0.0	0.158823629499844	0.0	0.085100843165818	No Cancer Gene Mutations	1	50-59	1.0
GTEX-XPVG	0.0220922561327874	5.773734634967641e-19	0.0	0.0512877528070944	0.0	0.0	8.152007497901981e-19	0.0	0.0	0.0279347934384802	0.0615218182823875	0.0302969756247794	0.0	1.60865781658516e-18	2.1389679342719301e-19	0.0	0.115936163363889	0.158076248868329	1.08411821238983e-19	0.0	0.0013018065479827	1.78224675729607e-18	0.0199160624060472	0.0	7.28327013163761e-18	0.0395709906548819	1.89918475624233e-18	0.465346246158312	0.499462513015329	0.0	2.52734667858529e-19	0.011607290074428	0.0048137335516885	0.0	0.0	1.76647589960136e-19	0.0	0.0	0.0	1.3147311148239301e-17	7.53283466286574e-18	6.270813698891131e-17	0.275280815342438	0.0	0.0165827949357389	0.0	0.0033299687753018	0.025026974199896	1.28204186488025e-18	0.365455033980683	0.103922489356528	3.62642160409801e-19	4.50624794389897e-17	0.0721441881199014	0.0	0.0	4.01511202809305e-17	1.58497508658079e-19	4.99432064437864e-19	0.302259685822368	6.2195670403384e-17	0.233439066910633	0.0690732491803381	0.0	No Cancer Gene Mutations	1	50-59	0.0
GTEX-11GS4	7.6078608724497e-18	0.0	6.2103259821453e-17	0.0042973811856708	0.0	0.0	1.0349952364635401e-17	6.78405072662069e-20	0.0	6.848665260030209e-18	0.0884874934941367	0.0205301137716602	2.1536378202478698e-18	4.1465478942012e-18	5.67399033635995e-20	5.8240352257282e-18	9.6106376907422e-18	0.0	0.0	0.004933507916241	0.0	0.0326289462694555	0.0040339006080326	0.0015145083027384	6.10613780992999e-17	0.199564038086957	8.67071351171115e-18	0.331819386762625	0.700564591352249	0.0	0.0043419807775697	0.0452167678936406	2.32142924291006e-18	1.40747076294788e-19	0.0039138838206748	0.0088902321697616	0.0114985242017061	2.60933927552293e-17	0.0362203767390115	0.0	1.47408446552827e-17	0.0	0.446928955298116	0.0193139792467557	0.0354207625638876	0.0	0.0094249122764081	0.0547259456988057	7.9125031938104e-18	0.125182281629497	0.0	0.0	1.12271418504607e-17	0.0463792463493085	0.0	0.260736192382227	0.0	0.0	0.0	2.7705912369265402e-17	3.61994561835792e-17	4.25034685334415e-17	0.244821627320428	1.01309123951969e-18	No Mutations	1	60-69	2.0
GTEX-12WSG	0.0	0.0	0.0	0.0	0.118667364480599	0.0	1.2729070327758e-19	3.14444562276727e-17	0.027450826899303	0.0042850111333008	0.0	1.0527996541089e-17	0.0	0.0	0.0319156637235319	0.0	5.09799234537213e-19	0.0212768417327201	2.74693805905557e-20	0.0	0.0	0.0428765647548639	0.024506555608921	0.0	0.0	0.0	1.88853991808488e-19	0.218842948035475	0.13227209736764	2.2528562760408103e-19	3.52225129534252e-18	0.0	4.09233716696948e-18	0.0	0.0159616090073961	0.0031408418279419	0.0018728467352329	0.0	0.0297975472273164	0.0	0.0	5.648376852866511e-19	0.449926583185785	6.9403659400474e-18	0.0005751421584721	6.17896531110246e-18	0.0149302662774706	5.665235360067e-18	7.86053468745461e-18	0.286801983600946	0.0610211398257382	0.0143229983688579	0.0432562969839659	0.0748931764986357	1.14896386958204e-17	0.0	9.973561806567589e-18	0.0	0.0	0.0415437401824749	0.0	0.202489858371009	4.7345021806250203e-17	0.0	No Mutations	2	50-59	0.0
GTEX-13112	0.0110651103123306	0.0	9.722788017364989e-18	0.0475393931069066	0.0629890987189657	1.56255488810492e-18	3.0160087862716e-17	0.0	2.21678945116861e-17	0.0427508444162732	0.0	0.0634286132656664	0.0	7.485858261243949e-18	0.0	1.5895968170380002e-17	0.0048510839912496	0.0055360486048316	3.54606323514961e-18	0.0058887404324403	0.0379473122036959	0.0169564563828205	0.002867084785423	0.0	0.0	1.45160794044409e-17	2.0363194528090502e-20	0.0948146108152276	0.325625028646834	0.0	0.0891195543569122	0.0107113945721838	4.64101411465061e-18	0.0	0.0409879884733648	0.0010437806518814	0.0282999554925573	0.0201000808302478	0.0675857090899943	0.0	0.0	1.14348849383114e-18	0.365214854355626	0.0641376461757407	0.0625850698606206	0.0077135116676782	0.0102649507998334	0.0135301424184882	3.67199951020696e-17	0.0051030979686171	0.1885137935169	0.0629262920114306	2.82720759518058e-17	0.0274565554315788	1.2356487355261499e-18	0.109166489318025	0.0428960526019343	0.0	0.0283541065087428	0.357001518449422	0.0	0.0	0.589025864547788	0.0	No Mutations	1	50-59	2.0
GTEX-13OVI	0.0	1.67919725119202e-19	0.0	0.0797235374016984	0.0703351500843003	1.02518372009339e-18	0.0	1.31725157903699e-18	0.0	0.219419742475151	0.143554290021801	0.184047588042031	8.0265703487589e-18	3.81936008648814e-18	0.227993589422149	0.0038675027417499	0.116851988501491	0.0011709300880826	3.9470878353806703e-19	0.0444811886649799	1.17830924215419e-18	6.27833310937437e-05	0.0195026149585377	0.0	0.140802973914724	0.0952948814135027	1.2096541344485e-18	3.0641871767912897e-18	1.14474751149984	0.0	0.0035414926745983	7.27083911677181e-18	0.0	0.0037959409419167	0.0415074459463598	0.0148289249842197	0.0076384523138731	3.46217870277641e-18	0.0410189623838363	1.31131307473258e-17	0.0	0.0174008500791889	0.226295232831878	0.0039609390650169	0.0857660985562182	6.01919942313783e-18	0.0069961671881808	0.020924567547463	1.0836081334420199e-18	0.115384752676472	0.141381786424113	0.007575851019662	1.33257127206381e-17	0.0985999461548974	2.5254632613429303e-20	0.0	0.0396197076229956	0.0	0.0	0.57621212397475	4.5142083804167904e-17	0.287477599028544	0.0005448123001095	0.022974497680692	No Mutations	2	60-69	0.0
GTEX-13OVL	0.0446967896207653	8.89648267319397e-19	0.0	0.0274833324248947	0.0228552353172526	1.05743372410138e-18	0.0	0.0	8.78980394711035e-18	0.0	7.508955026344689e-18	0.0252985249530784	0.0	0.0	0.193133768421724	1.15397987712278e-18	0.0	0.104595425813219	2.9228509169528497e-18	0.0060082008525669	7.88789695422595e-20	0.0150755449266001	0.0082289994643385	6.47403817360365e-19	0.0	0.0	0.0	0.0415692620163221	0.738474299447802	5.85580938723908e-20	0.0	0.0389109103586343	0.0	0.0198855313253548	0.0336254005107246	0.0167160820400061	0.0008696230909235	0.0040024749686299	0.0453042499261747	0.0	0.0	0.0	0.0806195406918289	0.0	7.440136134481519e-18	0.0057999151345541	0.0125449170691197	0.0172229558000118	7.579183017946731e-17	0.561262082907428	0.180726318495326	0.0043896227691876	3.99586373401386e-17	0.0158982344725686	3.55599643353902e-19	0.141742015146613	5.18398276119171e-18	2.23163703766758e-19	0.0	0.425232638976111	0.0	0.0518716538958035	0.106416339114393	0.0	No Mutations	1	50-59	2.0
GTEX-13RTJ	0.0	2.2993758233625197e-18	0.0	0.0657081291363302	0.0150420460826051	0.0	2.35119946519775e-18	0.0	6.6902033888592805e-19	3.40199489270587e-17	1.78032884427799e-18	0.089637572838899	0.039820920794764	0.0	0.0047789470874352	0.0	0.0148765952011201	0.0026131560741341	7.62051390444702e-22	0.0	0.0	0.0098456581922269	0.0217078869067383	0.000331937090617	0.052490129085765	6.15839703197288e-20	4.3037439699171903e-19	0.297655477448876	0.838791912452643	0.0	0.0103625207773622	0.0	0.0	2.27710448170332e-19	0.0027190457851133	0.0043752437622859	0.0053103913110271	0.0726130789220603	0.0423704031722571	0.0	2.44857781241969e-18	0.0	0.444534305436028	1.97137421155501e-19	0.0099225527264365	0.010377044493491	0.0004591733449112	0.0342569684225435	3.59576424099688e-18	0.476848715551058	0.0797170147664469	0.0298333321351912	0.0	0.0644927016944366	0.0	0.13388784396689	0.027557894079922	0.0	0.0111164991777742	0.360000678409726	3.2257575298628403e-17	0.073132492504254	0.0625689994705807	0.0176648329030866	No Mutations	1	60-69	4.0
GTEX-1497J	0.0793727730093345	3.31020788319049e-20	5.87649095190223e-18	0.0039948405975114	0.353541493734136	0.0	1.81738665258501e-17	1.40050747096958e-17	3.0580810440371597e-18	0.0	7.87331963617819e-19	2.1114111954522102e-17	0.0	0.0	2.88951381825455e-18	7.92631548656946e-18	0.0	0.0533859190024614	0.0	0.0	0.0	0.0	0.0	0.0	0.0	3.76965065447549e-17	0.0077192858031215	0.275779099614232	3.846921365043e-17	8.03281422211257e-18	0.0059235613166101	0.0171048542742586	3.88757472161279e-18	1.29308055969329e-17	0.034088711659798	1.45079251488879e-18	0.0087768408421357	0.0	0.0025838555788105	0.0	0.0	0.0	0.224136199616448	8.169326912646311e-20	0.028207162314109	1.73440921075733e-18	0.0040402517463038	3.88283222355958e-19	5.83157225379479e-17	0.366886306387219	0.0256193114204464	7.00802074366707e-18	0.0205157563616914	0.0550024228103564	1.36972093361153e-17	1.07191039749173e-17	0.0	4.28645189624459e-19	0.0126341741887075	0.158013468620368	1.87434350675558e-16	0.191953842407791	0.0890429169944886	0.0444110931242259	No Mutations	1	60-69	0.0
GTEX-NPJ8	0.0	0.0	0.0	0.0	0.0600591456085554	0.0006727266383789	4.10781930208249e-18	0.0	0.0	0.0	0.0830326642896654	0.130970366766488	0.0	4.08369563356036e-17	0.281570433829507	0.0089827332764467	0.201271188559653	0.0548871692982644	0.0354010490285114	0.0101563509450224	0.0666728753344452	0.0703463422085378	0.016279022511422	0.0015837169053473	0.0	0.0665238002127162	0.0	0.482375497134417	0.919507089247302	1.21851196773852e-21	0.0327429884209502	0.0053995525523322	0.0017136913133094	0.0058763926404609	0.04679790438647	0.0213057357403129	0.0099716197047649	9.544825580717329e-18	0.0019924358248356	0.0	6.68327707148455e-17	4.4846209827775803e-17	0.329676808970364	0.0676739101461655	0.0046506236265477	1.82934184757385e-17	0.0	0.0086869128010372	8.16017147218468e-18	0.0633230993409112	2.42118383712048e-17	0.0759532832518487	4.08698381447292e-17	0.0846373751930109	0.0	0.11323293939157	5.298968617954991e-19	0.0005256855186256	0.0	0.100721034491657	8.196878923902039e-18	3.3166918575333297e-18	0.0	7.69156808968295e-18	No Mutations	1	40-49	4.0
GTEX-P4QS	0.231350801506074	1.01272138168556e-18	4.11048998396589e-18	0.0284062072112483	0.0	0.0008961132021093	0.0317011892250643	8.33692114450974e-19	0.0329108060000819	0.097155929619939	0.0655010975164144	0.0077467516969635	1.4537245406909498e-18	0.0	0.113462214623958	0.0	0.04945147398733	0.0829212747645849	1.51447502575689e-17	0.0300561644639962	0.006746901582919	0.0836081757886888	0.0205841909394471	0.0	0.0	0.0727741509779683	0.0	0.0	0.913729894501112	0.0036073112313812	0.027740566086322	0.0340939605309179	8.59846161685288e-20	0.0	0.0	0.0064068463555913	0.0079326223082658	1.8536936328133e-17	0.0253134754839482	2.0329930951260297e-18	9.50936456994649e-18	0.0608789808714535	0.523449747185398	0.0031744534025473	8.4999007117488e-18	0.0074816312898353	0.0014347037608678	0.0222653338715193	0.0375092630357182	0.143979593548642	0.0	0.0063584749196132	0.0773852721437635	0.0507883788524388	0.0052275030308206	0.0	0.0663541749326139	0.0023160401458796	0.0	0.26948593110573	0.0	0.187911347382083	0.0162566080145014	1.96721073742461e-18	No Mutations	1	60-69	0.0
GTEX-QDVN	0.0	0.0	0.0	0.0	0.0	0.0	0.0156211055746512	1.5834531376047302e-17	2.62440342831409e-17	0.0	0.0536333632502698	0.0	0.0	3.43846449225776e-18	0.0266799091111409	0.0	0.0460393155266967	0.178387846723309	1.79985407766583e-17	0.0048570235996268	0.0	0.0	0.0036099547782696	0.0006424121876087	2.3507356439040902e-17	0.0990922814798843	0.0	0.518928063385946	0.455018088572878	0.0	0.0114910340269689	0.0226921640700577	1.8265244699002802e-19	5.64003361518313e-19	1.0356690280699399e-18	0.0089164463241617	0.0058623636523731	1.5030479342500802e-17	0.0696799849841512	0.0	5.0701708062022705e-17	0.0	0.0688404699785847	0.0083438015122945	0.0016524303787189	1.1073105451049301e-17	0.0	0.012554900445327	0.0	0.132129487450627	0.0048684468705588	0.0	0.0	0.0490946338288947	0.0	0.160082617913039	1.00683481486095e-17	2.15304351890919e-20	5.60042733734415e-19	0.510171675900894	4.80220271019333e-17	0.226832593364076	0.084595819633939	0.0	No Mutations	1	50-59	0.0
GTEX-T5JC	0.0	6.27812210098057e-19	8.56367028025823e-18	0.0111056562698206	7.56134849213863e-18	1.66696359141634e-18	0.112288080659506	0.0198480053194819	0.0228166657173741	0.0042976563354309	0.0827026001595578	0.008004852602631	0.0	2.23683878478692e-18	0.0087942823763245	5.5049780978042596e-18	0.0212138962539799	0.131813782933159	2.9879044820252098e-18	2.00448747401323e-21	0.0453381611208001	0.0655206438441104	0.0	0.0	0.0	0.0	8.59043521937543e-19	0.126177971245842	0.325617868177271	0.0	0.049623013593066	0.0058108418366841	1.0601630634779899e-18	0.0134792241728045	3.2851740387995e-18	0.02197175659084	0.0011400324802363	0.0	4.980231246140391e-19	0.0	2.99878026793142e-18	6.518562795267669e-18	0.273738245441586	0.0414707064249234	0.0086399386350107	0.0	0.0011415310532933	0.0005743845523752	0.0025083066638578	0.0	9.56382931321326e-18	0.0	0.258216855359926	0.0379418944696362	0.0061164817411618	0.179263987154707	6.5538147534329e-18	0.0	5.04792112867698e-19	0.19523006391727	3.65881618268056e-18	0.0056450427095126	0.0401213181974818	2.45162420073973e-17	No Mutations	1	20-29	2.0
GTEX-Y5V6	0.0	3.27718050900347e-20	4.23665893248226e-17	1.9705766293589697e-18	0.0716137769139091	3.57185700512596e-19	1.7758261306500097e-18	4.01945401137342e-18	0.0	1.9592386338846902e-17	4.80599347400854e-19	0.0	0.0	3.6753408893533404e-17	0.0697153958062757	0.0	0.0015592283764024	1.22617581518457e-18	0.0	0.0213073552970235	0.0329498213109945	0.0250898835862723	0.0126350784488263	2.3587982968133802e-21	0.0	0.0337665967448756	1.38302037064939e-05	0.12746833951507	0.847794261333858	0.0	0.0442488445539018	6.04124540139576e-05	7.77404176613553e-18	0.0311676438261337	1.03493106402177e-19	0.0029739194708182	0.008611898203232	5.72485783313047e-18	0.0570070637073098	0.0	1.28118932165231e-17	0.028038362809108	0.49230659724549	0.0133202711246414	4.46171736721057e-05	4.0185342386545803e-19	0.0	0.0305687967327748	0.0	0.166428083726439	3.46407327732019e-17	0.0149928118424259	0.197316297361782	0.0028032869654147	1.59752802897083e-17	0.0297723966276296	4.0094872452640203e-19	6.019328298786901e-20	0.0	0.0902684158384294	0.0	0.0	2.66749505202915e-19	0.0035003736684671	No Mutations	1	60-69	0.0
GTEX-ZC5H	0.0	0.0	4.55409579219308e-17	1.2973079587966701e-19	0.0210002731857488	0.0090189692883104	1.67344819878445e-18	9.2471348217574e-18	9.357994529377169e-18	0.142998758194098	0.0220566732429888	5.54476809408036e-18	0.0	0.0	0.0964735440684985	2.63629790835864e-17	5.5012111272554e-19	0.0388608136382397	1.78328398341917e-19	0.0	0.0930166595782132	0.0580389126755975	0.0059352656417682	0.0	0.165550495546671	0.0749088203695881	1.4244358027346999e-19	0.108707599361163	0.551647935923745	5.47560100468858e-20	0.0878808609132022	0.0585061054331494	0.0182907182174067	0.0148229460977854	0.0	0.0006312925832683	0.0191053610627034	1.6645006209305e-17	0.0	0.0	5.69438042538789e-17	5.4021006751938795e-18	0.279154896399057	0.074708112781755	3.5121935759571803e-19	4.52622428704002e-18	0.0061562407359269	0.0218935851896027	2.76502510324112e-19	0.39818117332892	0.0	0.0381328986923141	0.0	0.0541728171551913	0.0	0.0340596527956193	7.17342771302097e-18	9.24383029666968e-21	8.411535691191109e-18	0.0	3.91456800639769e-17	2.79533442152004e-17	0.156590655127224	3.9071159738462904e-19	No Mutations	2	40-49	0.0
GTEX-ZLFU	0.0	5.792498945557e-19	0.0	0.0085379371599546	0.14422587765799	0.0	7.44896430335317e-18	0.0	3.53593808414447e-17	0.189261382794727	0.0	0.0816361476150129	2.8855280492607497e-18	0.0	0.0360552453536876	0.0	0.0	6.87119999554608e-19	0.0	0.0244859800841817	0.0138269057526811	0.0024402035939711	5.88224630173463e-05	0.0	0.0	0.0562974078434053	2.83558379579373e-20	0.507479561214092	0.767074797037136	0.0	0.0187057528941824	4.428575359962371e-19	0.0	0.0125350372458054	0.020898143449328	0.0	0.0195431257518897	1.1634229589542501e-17	0.080999234479005	1.19292095487225e-17	0.0	1.1839947865802699e-18	0.0285724853577347	0.0502915081823178	0.0062766938797706	0.0	0.0046361058110005	2.87047007444612e-19	0.0	0.0341797023137399	0.260680643471584	6.300200594801891e-19	0.0709564306526509	0.103079369671151	4.4277326912642694e-18	0.0	0.0128571325825332	0.0	0.0	0.618020005665715	3.76662970344836e-17	0.142917639822792	0.201584243498637	0.0	No Mutations	1	40-49	0.0
GTEX-ZVZP	3.44790634091415e-17	0.0	1.6723540213930299e-18	0.0697121976056411	0.334420665861603	0.0	1.5656158013792802e-17	0.0	1.19402625620799e-17	0.0	3.52280014873596e-18	0.0	0.0	9.28747386961801e-17	0.141171037839086	0.0	0.0843625222583925	0.0142806821486857	0.0	0.0464062793730458	0.0346050541560225	8.590986438573729e-18	0.0172742191871512	0.0002320913733236	3.41099146174438e-17	0.0329797333481701	0.0	0.0955821854889431	0.709574460420731	0.0	0.0249868753476781	0.0	6.76596615608302e-19	8.745957008236731e-19	0.01408510171969	0.0056100167540559	0.0174564253534274	0.0431982373360991	0.0642602607691583	4.47043231135683e-18	3.86219846322703e-17	2.99792138834238e-17	0.62150733386968	0.0129072991161073	0.0344142800800836	2.9026457938480198e-18	0.0029329743445231	0.0118179919945012	2.88951162394592e-17	0.0	0.114076212915275	0.0	0.172260593851899	0.0653868347038057	0.0	4.16140713123664e-17	0.0362372287016704	0.0007211204880251	0.0	0.153651978930059	7.592696303505381e-17	2.74432214770209e-17	0.674415558641876	0.0	No Mutations	1	50-59	0.0
GTEX-ZYFG	0.0	2.9097363223331e-19	7.22617629685916e-17	0.0879185122358575	0.261017713685831	5.8714586393001896e-18	1.1233437302952e-17	0.0	0.0	7.15175131570657e-18	1.09279292886017e-19	2.1375745992948902e-19	0.0	0.0	0.063414314220835	9.1618217192024e-18	0.0353933356529945	0.117412289847372	0.0122425426266167	0.0235209503448114	0.0	0.0098799611455946	2.11868686895909e-20	0.0019351184895472	1.6432477279424e-18	0.0051738540185246	0.0033282429915518	0.155733958199101	0.307655419237914	0.0	0.020379222466503	0.0198282298818161	0.0	3.94435748710508e-18	0.0105351761428049	0.0	0.0303038128431684	0.0033422243570422	0.0237631686310935	1.29607378545311e-17	8.720814951465189e-18	0.0033833268658309	0.0641358301945688	0.0017723118944155	0.0	0.0	0.0022870834218583	0.0325725168474399	7.5944623797229e-17	0.642736899164323	0.180907676994706	0.0	0.185078582416085	0.0953702578308854	0.0	2.20905355231156e-18	1.55178791352775e-18	0.0	0.0104548830221892	0.534142885764823	0.0	0.104394791113138	0.367525353665521	0.0	No Mutations	2	60-69	0.0
GTEX-ZYT6	9.56406681950481e-19	0.0	1.17695376709703e-17	0.0189162359228466	0.267310222571082	0.0073297310030908	0.0	2.6927911752781402e-17	0.0114070658232066	0.0555379159511764	5.74212584634486e-19	0.0	0.0	6.3485151212835394e-18	0.125303808283111	1.60318553747622e-17	0.0	0.0584523755621489	1.74857966170932e-19	8.207914476109491e-20	0.0385810092373206	5.963517436975321e-20	0.0078235190333984	7.99011273457158e-20	0.0628639554021527	0.0	0.0070001747018004	0.231058378694043	0.122968205876644	0.0	0.0446296825126763	0.0211139198967938	0.0090252795422825	0.0077764301699871	0.0240982642194524	0.0096281271615424	3.57477531379131e-20	5.45183046870907e-18	0.0267072622265074	0.0	9.980403298217889e-18	4.00366013718466e-19	0.0	0.055334858730965	0.0171662055196898	0.0	0.0033748393536132	3.00602407260481e-21	1.9210586206647802e-17	0.0	1.37648848017118e-17	0.0098285664170107	0.077374535307503	0.115325635040268	0.0	0.119613499376059	0.0254850246065977	0.0	1.05254755456413e-18	0.281375821099562	0.0	4.88254406322826e-17	0.284745818904594	5.00663991294222e-18	No Mutations	1	30-39	1.0
