Sample ID	CPM.UID	Current.Label	Date.drawn	Baseline.sample.Relapse	Timepoint	CMA available	CMA result	Profile.result	Stage At Diagnosis	Stage at Relapse	Localized.Metastatic	Location of Mets	Tumor.type	Tumor type	TT	Sex	Age..at.enrollment.	Abnormal.LB.BEFORE.clinical.relapse	Relapse Dates on Study	NOTES	Oncokids	Serial samples analyzed	1	2	3	4	5	6	7	8	9	10	11	12	13	14	15	16	17	18	19	20	21	22	X	Y	MT	mt_copy_number	1_mean_fragsize	2_mean_fragsize	3_mean_fragsize	4_mean_fragsize	5_mean_fragsize	6_mean_fragsize	7_mean_fragsize	8_mean_fragsize	9_mean_fragsize	10_mean_fragsize	11_mean_fragsize	12_mean_fragsize	13_mean_fragsize	14_mean_fragsize	15_mean_fragsize	16_mean_fragsize	17_mean_fragsize	18_mean_fragsize	19_mean_fragsize	20_mean_fragsize	21_mean_fragsize	22_mean_fragsize	X_mean_fragsize	Y_mean_fragsize	MT_mean_fragsize	CMA_abnormal	cancer
CPM00009466-PL-D-20191004_20211104	CPM00009466	ctDNA-1N-1	10/4/2019	True Baseline 	At diagnosis	YES	Abnormal	Abnormal	Metastatic	Metastatic	Metastatic	Bilateral lung mets	Osteosarcoma - Primary Site: R proximal femur	Osteosarcoma	Osteosarcoma	M	15		5/19/2021 - scan showed recurrence 06/08/2021 - biopsy confirmed relapse		A TP53 missense mutation of strong clinical significance was identified	6.0	-0.2074980215030451	-0.2102367989743176	-0.2189564498974474	-0.2127073851233805	-0.21546333211638	-0.2139804978922699	-0.2012675434669845	-0.2074691594966034	-0.2136287137483967	-0.2138587072129265	-0.2062125810460095	-0.2122058618547437	-0.2171981488972545	-0.2070827738730452	-0.2146241876416283	-0.1947757239923821	-0.1909732234668572	-0.2231960884683179	-0.1625705242052115	-0.2057809403628273	-0.1774294473372308	-0.2025599996544197	-0.198050346111704	-0.1707285235677055	4.89845497991109	6.322193184242714	185.602	187.618	186.57	186.196	189.064	184.004	189.446	180.938	182.166	187.35	185.86	189.186	183.38	185.676	191.224	185.154	185.02	186.484	187.558	189.472	191.28	181.92	183.18	176.138	175.778	1	1
CPM00010023-PL-D_20210720	CPM00010023	ctDNA-1N-2	1/9/2020	True Baseline 	At diagnosis	YES	Abnormal	Abnormal	Localized	Metastatic	Localized		Osteosarcoma - Primary site: L proximal femur	Osteosarcoma	Osteosarcoma	M	11		12/29/20 - CT chest shows new pulmonary nodule left lung                                                                                          06/24/2022 - CT chest - 2 new pulmonary nodules right lung		No clinically established variants were identified.	6.0	-0.1996670353945494	-0.2090102952723576	-0.2086832566599605	-0.2033939759661791	-0.2070320192825448	-0.205224798403618	-0.202900466143952	-0.1975548674302908	-0.2004624567098454	-0.2144240112933351	-0.2121061560313023	-0.2049597755026214	-0.2146472406508336	-0.19723701687201	-0.2100558072059735	-0.2176536719138909	-0.2047911660300908	-0.1963830901072109	-0.1981912605229169	-0.2173587018714791	-0.1928957350574055	-0.2198955400290867	-0.192339832892867	-0.1718658943159442	4.898734071560265	5.062358615875355	165.708	168.258	172.408	165.794	171.92	166.348	167.422	170.534	167.542	170.062	170.292	167.672	170.858	171.796	168.674	167.682	168.222	168.536	171.118	168.754	170.552	169.652	169.692	161.992	149.57	1	1
CPM00010162-PL-D-20200117_20211109	CPM00010162	ctDNA-1N-3	1/17/2020	True Baseline 	At diagnosis	YES	Abnormal	Abnormal	Localized		Localized		Osteosarcoma - Primary site; R distal femur	Osteosarcoma	Osteosarcoma	F	10				IGF1R gene amplification was detected.	0.0	-0.2428782963837536	-0.2484285965776295	-0.248062192644806	-0.2340035505709463	-0.253578874442847	-0.2414200546428044	-0.2506434159999103	-0.2331276877713458	-0.2479835812605689	-0.260154196725438	-0.257067337419516	-0.2427950532216843	-0.2448974642859711	-0.2450016621011613	-0.2589324763975558	-0.2583200819972916	-0.2491495982350791	-0.249575379638865	-0.2310233504049663	-0.260524718891134	-0.2318569803080875	-0.2605993132844312	-0.2606726714918053	0.9482557599560558	4.76244077474154	4.418734483377269	173.016	175.102	170.786	174.498	174.982	176.14	177.098	177.752	174.732	171.334	174.292	174.062	174.286	177.316	174.518	171.532	174.17	172.792	179.546	178.248	169.772	176.558	175.214	164.208	181.028	1	1
CPM00014150-PL-D-20201021_20211109	CPM00014150	ctDNA-1N-4	10/21/2020	True Baseline 	At diagnosis	YES	Abnormal	Abnormal	Metastatic	Metastatic	Metastatic	R lung nodules 	Osteosarcoma - Primary site: R proximal tibia 	Osteosarcoma	Osteosarcoma	F	7		 2/22/2022 - MRI right Tibia/Fibula- disease progression of primary tumor		A TP53 TRUNCATING VARIANT (C.991C>T,P.GLN331TER) WAS IDENTIFIED	2.0	-0.2768947826177926	-0.2868599877840229	-0.2873931076942527	-0.2809450859944487	-0.2868879726810516	-0.2778295958076197	-0.2782275840977648	-0.2846987949312906	-0.2754709321324819	-0.2845348940456453	-0.2831212003205308	-0.2849743010964398	-0.2942753454658033	-0.2827448761477478	-0.2747967655703144	-0.2675612996590985	-0.2501953568461596	-0.2985796609194892	-0.2324115841759611	-0.2821984036672003	-0.2471948057733351	-0.2714440694328814	-0.2827787267930488	1.9760019341214028	4.396017199532981	2.434608582995917	181.944	183.322	183.924	183.52	181.934	182.162	178.798	183.128	179.288	183.912	185.324	183.128	178.63	183.148	181.88	178.086	181.186	183.898	184.804	177.462	187.45	185.052	180.978	162.49	183.154	1	1
CPM00013994-PL-D-20201022_20211109	CPM00013994	ctDNA-1N-5	10/22/2020	True Baseline 	At diagnosis	YES	Abnormal	Non-informative	Localized		Localized		Osteosarcoma - Primary site; R distal femur 	Osteosarcoma	Osteosarcoma	M	12				NEGATIVE FOR CLINICALLY SIGNIFICANT VARIANTS.	0.0	-0.2078050729700263	-0.2131594371032252	-0.2139868517014325	-0.2135946916574764	-0.2155290805808219	-0.2101539785261049	-0.2062785189249986	-0.2164440298702373	-0.2115601482744469	-0.2082945104185279	-0.2114096213666201	-0.2059125351175935	-0.2168345020856837	-0.21360204772941	-0.2100556489104007	-0.188576573768602	-0.1940887459095102	-0.2193890648786192	-0.1781541989444401	-0.2043724548939887	-0.1924994067012698	-0.1979166852710194	-0.2102207224406157	-0.1384755287290256	4.898314056774098	9.776256388593062	175.164	177.314	173.506	172.538	175.2	176.824	176.212	175.904	179.05	177.534	179.39	177.942	175.494	175.214	177.094	172.506	182.412	176.36	177.456	173.378	177.44	176.108	176.01	167.868	185.22	1	1
CPM00014196-PL-D-20210211_20211202	CPM00014196	ctDNA-1N-6	2/11/2021	Baseline/Pre C3	On therapy	YES	Abnormal	Non-informative	Localized		Localized		Osteosarcoma - Primary site; R proximal humerus 	Osteosarcoma	Osteosarcoma	F	11				A TP53 c.713G>A, p.Cys238Tyr variant was detected by OncoKids	0.0	-0.2655354733584809	-0.2694722404041836	-0.2692539559246839	-0.2649871493456779	-0.2733663700848467	-0.2650386098442963	-0.2624901760701856	-0.27345586363607	-0.2701624626392948	-0.2693091361402533	-0.27281712167731	-0.2660377814442157	-0.2688467963623943	-0.2714573929449315	-0.2695152901100848	-0.2558940097881868	-0.2537929736386065	-0.2745800330051418	-0.2228224183365417	-0.2733947740407414	-0.2491636369719003	-0.2630494028250938	-0.275594340357204	1.5050203293290547	4.595017079621275	1.3989329187718949	169.262	167.814	169.89	167.456	166.512	167.56	165.374	165.986	171.106	168.744	172.28	168.188	168.312	169.04	166.87	167.208	172.576	169.518	173.534	169.282	168.216	172.12	170.522	156.11	155.392	1	1
CPM00018782-PL-D-20210402_20211111	CPM00018782	ctDNA-1N-7	4/2/2021	True Baseline 	At diagnosis	YES	Abnormal	Abnormal	Localized		Localized		Osteosarcoma - Primary site; R proximal tibia	Osteosarcoma	Osteosarcoma	M	19				A TP53 P.HIS179GLN VARIANT WAS IDENTIFIED.	0.0	-0.1988185237637049	-0.213272914778883	-0.2275138611994787	-0.2270221809718026	-0.2297777606775887	-0.2235206330977039	-0.2116014203142267	-0.2266674324173099	-0.2044939533895877	-0.2171100023537855	-0.2105956670933828	-0.2006154578793319	-0.2323201402863483	-0.2090684838434685	-0.1992715336611961	-0.1923449458393967	-0.168426901488557	-0.227521363429502	-0.1230639130257447	-0.1987249329736703	-0.1938112290790063	-0.1682053831258143	-0.2127909055219081	-0.1810074670368401	4.897567007248238	2.6433579517491927	178.23	177.194	174.53	179.982	178.332	173.67	177.13	175.448	175.68	177.436	178.528	176.886	174.582	177.352	176.176	177.87	180.862	177.616	175.182	178.49	178.63	176.186	172.462	170.722	164.604	1	1
CPM00020195-PL-D-20210812_20211111	CPM00020195	ctDNA-1N-8	8/12/2021	True Baseline 	At diagnosis	YES	Abnormal	Abnormal	Localized		Localized		Osteosarcoma - Primary site; L proximal humerus 	Osteosarcoma	Osteosarcoma	F	12				An RB1 c.951_954delTTCT, p.Ser318Asnfs*13 inactivating variant was identified.	0.0	-0.2517353748788632	-0.249481701819332	-0.2512798530682251	-0.2463151738707568	-0.2552377095454269	-0.2366549270591559	-0.2534934516502487	-0.2508572983043595	-0.2482641892133658	-0.2591966834865386	-0.258825764158025	-0.242337211446859	-0.2449119625323105	-0.259306837945188	-0.261455858946278	-0.2596860027861578	-0.2563297525321972	-0.2508534276541383	-0.2533763352086261	-0.2608259547006429	-0.2436263626701393	-0.2906510003742618	-0.2485762091671706	1.1132226247151913	4.720056418303076	4.220843307498536	178.166	176.624	182.306	176.926	173.874	176.74	176.618	177.442	178.824	182.246	176.076	176.77	176.936	175.828	182.218	177.658	180.582	178.92	180.296	180.968	176.156	181.842	179.52	157.876	161.216	1	1
CPM00021296-PL-D-20211020_20211129	CPM00021296	ctDNA-1N-9	10/20/2021	True Baseline 	At diagnosis	YES	Non-informative	Non-informative	Localized		Localized		Osteosarcoma - Primary site; L distal tibia 	Osteosarcoma	Osteosarcoma	F	15			Low grade osteosarcoma	Negative for clinically significant variants.	0.0	-0.2406115542799487	-0.2446443631065769	-0.2460457098270596	-0.2421089391132713	-0.2463091100248434	-0.2430450963617106	-0.2393922011124664	-0.2490817341142232	-0.2419628440689053	-0.2438707813068599	-0.245065896443726	-0.2386420949869606	-0.2413359538440181	-0.242643100807452	-0.2431654842054581	-0.2293696260908506	-0.2278443241302209	-0.2470770592457253	-0.2018514358564453	-0.2441273229868348	-0.2318373585495587	-0.2362591710442391	-0.2501081728287242	0.7015796834323732	4.814819650903707	5.4596333982551934	177.496	176.178	177.724	174.362	174.302	177.454	177.82	175.704	174.622	180.69	176.696	175.484	174.418	179.002	177.342	174.492	180.002	172.328	179.53	176.326	176.234	176.618	175.926	161.962	153.77	0	1
CPM00005237-PL-D-20191001_20211111	CPM00005237	ctDNA-1R-1	10/1/2019	ON therapy baseline	On therapy	YES	Abnormal	Abnormal	Localized	Metastatic	Metastatic	Bilateral lung mets	Osteosarcoma - Primary site; R proximal tibia (2017)                               Relpase site - Bilateral lung nodules (9/2019)                       	Osteosarcoma	Osteosarcoma	M	17	YES?	11/1/19 CT progressive lung disease.                    07/18/2022 - Scan shows new pulmonary nodule 	11/01/2019 CT shows progression	CHD7 unknown significance, no fusions	0.0	-0.208532084323365	-0.2145085104271075	-0.2161073980583028	-0.2178606766149874	-0.220969596685175	-0.2132938307838061	-0.2109522094222636	-0.2149011205685473	-0.2125311754038106	-0.2102863302911771	-0.2172859878442394	-0.2096463320062308	-0.224677364649543	-0.218178148289126	-0.2140254920111906	-0.1882318612196567	-0.1967127060865265	-0.218881744794429	-0.1833903212851377	-0.210258435569396	-0.1965797186408964	-0.2052219686348422	-0.2031148355043148	-0.0707882606350885	4.8969361097491575	1.984520149039373	178.248	178.202	177.838	177.388	178.94	180.982	178.072	177.852	178.738	182.382	176.858	180.0	177.082	174.492	176.536	177.048	174.522	176.408	180.788	180.36	178.636	180.908	174.482	169.246	176.266	1	1
CPM00007590-PL-D-20191029_20211111	CPM00007590	ctDNA-1R1-1	10/29/2019	True Baseline Relapse	At relapse	YES	Abnormal	Non-informative	Localized	Metastatic	Metastatic	R lung mets	Osteosarcoma - Primary site; L proximal humerus (12/2018)                                                                     Relapse 10/22/2019 - R lung met	Osteosarcoma	Osteosarcoma	F	10				A TP53 missense mutation of strong clinical significance was identified. Additionally, MYC amplification was observed.	0.0	-0.2621472656977736	-0.2666179776625323	-0.2626249498285152	-0.2579596794547129	-0.2646840329915955	-0.260854048514398	-0.2595831167990352	-0.2679798080463173	-0.2655335799641707	-0.265836028611169	-0.2671721138303086	-0.2597538902983453	-0.2614341981296271	-0.2617873590205578	-0.2717607304035131	-0.2503513943227905	-0.2499497307825774	-0.2698651239030697	-0.2287780500037729	-0.2701115495885954	-0.235172521524516	-0.2635586056729695	-0.2705153531581381	1.3430528104733477	4.650978297735654	4.168114667470485	174.92	171.932	174.638	178.092	175.336	174.218	172.186	174.728	175.99	176.02	172.182	180.384	172.592	172.724	171.864	174.478	176.254	172.828	177.144	177.808	176.696	176.638	174.378	160.376	174.144	1	1
CPM00007090-PL-D-20191120_20211116	CPM00007090	ctDNA-1R1-2	11/20/2019	True Baseline Relapse	At relapse	YES	Abnormal	Abnormal	Metastatic	Metastatic	Metastatic		Osteosarcoma - Primary site; L distal femur (2018)                                                                                   Relapse site: L genoid mass 11/14/2019	Osteosarcoma	Osteosarcoma	F	14		 10/18/21 - CT chest showed increasing size of a right lung lesion                                                              2/11/22 - recurrence left lung single nodule	Status post chemo and surgery completed on 07/07/2020	A CDKN2A frameshift mutation was identified	2.0	-0.2600310039059596	-0.2645028578714283	-0.275718796036614	-0.2698856246624863	-0.2708340725550761	-0.270099753694671	-0.2641266160075885	-0.2634460330445652	-0.2686729958252903	-0.2701866205519583	-0.2661400030091886	-0.2626499267828797	-0.2749938897912937	-0.26761566172428	-0.2660236940174473	-0.2430895363531769	-0.2418670961495002	-0.2799072005242893	-0.202797396102088	-0.2588513458027718	-0.2429926428537137	-0.2447578532979346	-0.2737256385249385	1.3568257886677064	4.646090470421433	4.729560800758081	175.498	173.182	180.474	176.43	174.082	180.554	174.938	175.454	175.272	179.036	176.066	175.318	176.842	175.192	175.244	174.922	178.186	175.466	174.966	177.302	179.736	177.02	173.242	163.568	178.678	1	1
CPM00020423-PL-D-20210308_20211116	CPM00020423	ctDNA-1R1-3	3/8/2021	True Baseline Relapse	At relapse	NO		Non-informative	Localized	Metastatic	Metastatic	R lung nodule 	Osteosarcoma - Primary site; L proximal fibula                                               Relapse site: R lung nodule	Osteosarcoma	Osteosarcoma	F	18					0.0	-0.2408079722180205	-0.2423142123641229	-0.2433614174042909	-0.2425513280549874	-0.2461737168562561	-0.2407233260257369	-0.2393207901519553	-0.2442237507958553	-0.2430639533695261	-0.2413528327045127	-0.2415347504024983	-0.2394453389024829	-0.2428313561006341	-0.2417696772089919	-0.2417524253390065	-0.2329678312778479	-0.2325938811513656	-0.2426549023227441	-0.2226100384098298	-0.2419304855138107	-0.2300219637172076	-0.2347923181430168	-0.2482373759847098	0.7021787378608582	4.8148569065585525	5.987180572071743	181.698	178.78	177.804	178.814	179.564	176.604	173.398	175.976	177.324	176.562	179.256	180.896	177.842	178.374	178.922	176.782	179.512	179.0	176.434	176.11	178.502	181.578	177.614	165.502	164.172	0	1
CPM00021797-PL-D-20211207_20220119	CPM00021797	ctDNA-1R1-4	12/7/2021	True Baseline Relapse	At relapse	NO		Non-informative	Localized	Metastatic	Metastatic	R lung nodules 	Osteosarcoma - Primary site; L proximal fibula                                                              Relapse site:  left leg mass 8/17/2021- recurrent osteosarcoma	Osteosarcoma	Osteosarcoma	M	20		1/26/2022 -  CT Chest UiPD with increase in size of right pleural based nodule and right lower lobe nodules changes from solid to cystic			1.0	-0.2094508790096025	-0.2144238316198375	-0.215926590618326	-0.2062725127229942	-0.2165166708001187	-0.2149802636322661	-0.2076683296644198	-0.2207017177737783	-0.2107448378399214	-0.2154959120458718	-0.2161983954737899	-0.2060276607944673	-0.2072971504134548	-0.2153556593614763	-0.2151160888849156	-0.1961490453780535	-0.1911265644349673	-0.2228924817389043	-0.1545926062144218	-0.2150075096549605	-0.1896942791013474	-0.2030673643523927	-0.205305195863155	-0.1279302652625467	4.897941812655988	6.546115294372705	177.308	179.242	170.51	179.238	176.938	174.192	175.814	173.71	175.502	176.41	177.116	179.922	175.924	174.824	180.184	175.046	177.064	171.214	175.496	178.762	176.12	177.38	177.568	171.784	187.684	0	1
CPM00009084-PL-D-20220411_20220526	CPM00009084	ctDNA-1R1-5	4/11/2022	True Baseline Relapse	At relapse	YES	Non-informative	Non-informative	Localized	Metastatic	Metastatic		Osteosarcoma - Primary site; R proximal tibia 3/2019                                                      Relapse site: Increased uptake right proximal humerus 03/22/2022	Osteosarcoma	Osteosarcoma	M	13				NF1 variant of unknown clinical significance	0.0	-0.2077448194965834	-0.2196955543765909	-0.2121722007815249	-0.2192467714168394	-0.2208571001191746	-0.2146371723213778	-0.2101360799858197	-0.2181883301244677	-0.2178320284320173	-0.2083851091813125	-0.2172147920299868	-0.214088670711442	-0.2231148259442914	-0.215527149473711	-0.2076439140187022	-0.1920507565768778	-0.1997768445327009	-0.2162461023701499	-0.1578399548057985	-0.212466952415031	-0.1817532377984437	-0.2011205802556084	-0.195465447481277	-0.1144719239219022	4.897676318571631	4.14619388316237	181.348	178.082	179.748	179.726	178.872	180.372	180.5	176.652	178.632	179.844	182.866	178.212	179.992	181.156	175.44	178.124	175.73	179.682	176.58	178.65	180.576	179.332	179.47	176.588	190.608	0	1
CPM00020428-PL-D-20191022_20211116	CPM00020428	ctDNA-1R-2	10/22/2019	ON therapy baseline	On therapy	NO		Non-informative	Localized	Metastatic	Metastatic	Bilateral lung mets	Osteosarcoma - Primary site; L distal tibia                                                                           Relapse site: CT Chest Progressive Disease in bilateral lung mets 02/19/19	Osteosarcoma	Osteosarcoma	M	14		05/04/2020 - New Lung lesion                                                                                       10/2/20 - Disease evaluation - CT chest with progressive disease			0.0	-0.2072195078652641	-0.2106756127299144	-0.209439410509887	-0.2044038075928665	-0.2134964564907077	-0.210316329569804	-0.2070512069255542	-0.2079004297380126	-0.2084836384037779	-0.2151880569242722	-0.2134268087552796	-0.2088632251045747	-0.2046460422960913	-0.2084090119099884	-0.2133710036345602	-0.1949954050839564	-0.1993642740290027	-0.2118480666239178	-0.1801458161836761	-0.214412358693002	-0.1986275602221383	-0.2037710446396492	-0.2026812098519907	-0.149810778664272	4.898547062442159	8.157020032982619	169.22	176.248	176.102	178.786	173.506	174.874	171.598	174.4	172.78	178.17	175.762	175.978	176.468	182.924	172.47	178.792	177.174	175.758	174.31	176.708	174.73	181.602	177.758	171.494	157.108	0	1
CPM00016461-PL-D_20210720	CPM00016461	ctDNA-1R-3	2/1/2021	True Baseline Relapse	At relapse	YES	Abnormal	Non-informative	Metastatic	Metastatic	Metastatic	Bilateral lung mets	Osteosarcoma - Primary site; R distal femur                                                            Relapse site: Bilateral enlarging pulmonary mets 12/14/2020	Osteosarcoma	Osteosarcoma	M	19					0.0	-0.2072865926169863	-0.2099611965324439	-0.2052288569298875	-0.2016956482411416	-0.2099227025551781	-0.2054237901890019	-0.2067088702405821	-0.2090290049379692	-0.2076353720118069	-0.2126885302659066	-0.2094389752426251	-0.2063017382577333	-0.1982620726093065	-0.2061094147912512	-0.2126830663864275	-0.2047978644625979	-0.2041815144859004	-0.2123709073486386	-0.1863841706390398	-0.2197041056107709	-0.1904190021906696	-0.2137698101038126	-0.1979266288904858	-0.1607385588416431	4.898668394381808	1.630482284709628	182.72	180.018	180.328	181.008	182.93	181.952	181.32	180.084	179.94	181.456	179.464	182.91	178.816	186.214	180.602	182.066	184.534	183.438	179.476	178.574	182.212	176.6	179.964	172.776	167.95	1	1
CPM00007351-PL-D-20200204_20211202	CPM00007351	ctDNA-1R3-1	2/4/2020	True Baseline Relapse	At relapse	YES	Abnormal	Abnormal	Localized	Metastatic	Localized	No evidence of distant mets 	Osteosarcoma - Primary site; R distal femur                                                              Relapse site: 3rd relapse - L clavical 	Osteosarcoma	Osteosarcoma	M	18					3.0	-0.2102790074471131	-0.2229764234855706	-0.2262625876645716	-0.236820177625321	-0.2306092393843155	-0.2232491073621469	-0.2096752805074432	-0.2262874271084519	-0.2133371674310926	-0.2247416877620537	-0.2182396754056196	-0.2162928414734373	-0.2469803137510804	-0.2190892287988673	-0.2121723488097642	-0.1710154471354257	-0.174500490469437	-0.2430358439486859	-0.1246749387663313	-0.1947442667218854	-0.1983047608258974	-0.1764602746884273	-0.2025330088931076	-0.0733341640431085	4.895615709509157	3.718291526747456	180.092	181.838	178.298	175.85	176.194	178.056	181.328	174.744	175.944	179.296	177.572	173.29	174.464	181.088	177.954	175.584	179.848	177.196	176.692	179.732	179.16	176.152	174.226	170.13	188.424	1	1
CPM00020923-PL-D-20211026_20211129	CPM00020923	ctDNA-1R3-2	10/26/2021	True Baseline Relapse	At relapse	YES	Abnormal	Abnormal	Metastatic	Metastatic	Metastatic	Bilateral lung mets	Osteosarcoma - Primary site; R proximal humerus 1/2020                                           Relapse site: left distal femur and proximal tibia 10/2021	Osteosarcoma	Osteosarcoma	F	12		12/20/21 - Progressive  disease (new lesions present on bone scan)                                                                                  01/04/2022 - new lesions in femur                                                                                02/01/2022: Additional multiple pulmonary metastases		Gene amplification of CDK4 and GLI1 was detected.	3.0	-0.2551433126129278	-0.2490051635948132	-0.2549576918624873	-0.2468206683570367	-0.2503161926012817	-0.2534074171041953	-0.2466737630362499	-0.230399720773839	-0.2605010452670859	-0.2609015544020108	-0.2505564238932432	-0.2358812830348851	-0.2440900532516425	-0.261423304320048	-0.2543131189105219	-0.2561650610086026	-0.2435282962664871	-0.2532391823680343	-0.2320336467480842	-0.2584765086823722	-0.2380594602981617	-0.2700622940643313	-0.2679731362464777	1.0323783654282632	4.741549933276556	5.287804777072531	172.822	172.318	171.63	171.722	169.434	172.252	173.586	169.282	174.0	171.844	173.272	171.078	169.858	172.72	173.348	176.148	169.892	170.57	174.068	171.908	168.908	174.132	169.71	155.338	157.392	1	1
CPM00006300-PL-D_20210720	CPM00006300	ctDNA-1R4-1	2/16/2021	True Baseline Relapse	At relapse	YES	Abnormal	Non-informative	Metastatic	Metastatic	Metastatic	Bilateral lung mets	Osteosarcoma - Primary site; R proximal tibia 1/2014                                                   Relapse site: bilateral pulmonary mets	Osteosarcoma	Osteosarcoma	F	19		3/29/2021 - Progressive right sided chest disease on CT chest 		Strong Clinical Significance (Tier I) TP53 8 chr17:7,577,147 c.788_790delATC insGGAACTCTGAGTACTGGGGTACTCAGGGTAGGAACCCTGAG    (NM_000546.5) p.Asn263fs 80%	0.0	-0.2310419509467555	-0.2347634669692461	-0.2302103070593535	-0.2284642422100443	-0.2348256938993133	-0.2339023640603977	-0.2201990494667284	-0.2257418125467987	-0.2354861806337339	-0.2427997167986498	-0.2410754415023125	-0.2344458821274874	-0.2324687722942472	-0.215793910125815	-0.2421226273268215	-0.2413617886952106	-0.241327369271721	-0.2302652937244457	-0.2294203123326832	-0.2452798320752715	-0.2134587417755979	-0.2523222178625652	-0.2378574341792345	0.5310674924875095	4.843566915396925	2.0307841001339586	169.722	169.714	168.576	169.226	168.838	172.464	166.194	171.754	168.608	170.98	171.222	165.988	170.026	172.968	172.1	169.218	175.702	172.61	173.134	170.084	171.096	170.37	168.586	156.004	140.564	1	1
CPM00014875-PL-D-20190709_20211129	CPM00014875	ctDNA-2N-1	7/9/2019	True Baseline	At diagnosis	YES	Non-informative	Non-informative	Localized		Localized		Ewing's - primary site; L distal femur	Ewing sarcoma	Ewing sarcoma	F	14		12/2/2020 - Diagnosed with secondary AML	Were more samples analyzed on this patient? Secondary AML	Abnormal CBFB-MYH11 fusion; NOTCH1 variant of unknown significance.	0.0	-0.2908841199159847	-0.2766082459186328	-0.2623130209836402	-0.2368586710617856	-0.2660221571443186	-0.2602056184705756	-0.2503143626414189	-0.2772015494614942	-0.2798141758601422	-0.2940531204390504	-0.2913272381747021	-0.2663084561421761	-0.2327441966519768	-0.2714016581789275	-0.2994764636589781	-0.274943009749914	-0.2757655442701294	-0.2797621367932018	-0.2166429859678673	-0.3193789381489892	-0.2549344126448279	-0.3018309589393432	-0.2959715076532456	1.7977801747846185	4.476982374086709	60.63467396066339	174.506	174.416	173.15	178.138	178.628	173.882	177.794	178.69	175.06	177.502	170.548	173.706	172.686	175.328	176.31	177.468	173.108	172.534	175.606	176.302	178.432	172.232	170.866	162.194	179.714	0	1
CPM00020143-PL-D-20210910_20211129	CPM00020143	ctDNA-2N-10	9/10/2021	Baseline/Pre C2	On therapy	YES	Non-informative	Non-informative	Metastatic		Metastatic	R lung met 	Ewing's - Primary site; Hemithorax mass	Ewing sarcoma	Ewing sarcoma	F	6 months				An EWSR1-ERG fusion was identified by OncoKids	0.0	-0.2638877890697063	-0.268841788598563	-0.2726274946141854	-0.2709440216090072	-0.2730861533239859	-0.2690206803657036	-0.2643955476269793	-0.2720967218483835	-0.2671034662621524	-0.2644006275771056	-0.26657919895788	-0.2650341253391967	-0.2693132370822415	-0.2668795263367303	-0.2644253800149561	-0.2350734919948274	-0.2472154634710052	-0.2690519205908891	-0.225599771812122	-0.2539097159445383	-0.2451587083547135	-0.2448913767116012	-0.2719685216403715	1.3692987085430377	4.642206020603809	0.4412170994361759	178.3610880971205	178.12740444428636	178.18009730428378	177.6031270519357	177.88883854573226	178.10040584834812	178.02791367212438	177.82461683096432	177.91880399843777	178.37033006739156	178.3504191966578	178.2707438961326	177.84465230687434	178.1954069318625	178.36852738693844	177.50491737595902	179.00905683280502	177.94766645921857	179.19186070139605	178.9396378509684	177.9948314322765	179.3047388432572	177.13118621576805	166.7889434563313	164.7456647398844	0	1
CPM00020807-PL-D-20211011_20211129	CPM00020807	ctDNA-2N-11	10/11/2021	True Baseline	At diagnosis	YES	Abnormal	Abnormal	Localized		Localized		Ewing's - Primary site; Right 4th rib	Ewing sarcoma	Ewing sarcoma	M	7				An EWSR1-FLI1 fusion was detected by OncoKids	0.0	-0.2111771139091788	-0.2051162295626823	-0.231206925101197	-0.1820195551640064	-0.2190958800141363	-0.2163578129040335	-0.1878672361078696	-0.1807713266319776	-0.1993031320689761	-0.2356110302807031	-0.2351951634857807	-0.1838795818707417	-0.1774942934287863	-0.2225246451296672	-0.2215790068068157	-0.2149290138001838	-0.2023109368767931	-0.2108001691305114	-0.1731475927414607	-0.2154034701774599	-0.1996937356465403	-0.245156036710673	-0.2169543019583308	-0.1095965326239959	4.897190722132496	12.785741973528005	162.498	163.938	163.896	162.756	162.212	163.43	165.904	163.982	165.708	163.664	169.694	161.188	164.772	168.0	166.402	164.938	166.374	167.048	167.482	163.792	167.208	170.78	164.842	160.082	161.154	1	1
CPM00021286-PL-D-20211026_20211202	CPM00021286	ctDNA-2N-12	10/26/2021	True Baseline	At diagnosis	YES	Abnormal	Abnormal	Localized		Localized		Ewing's - Primary site; R 12th rib 	Ewing sarcoma	Ewing sarcoma	M	11				An EWSR1-FLI1 fusion was identified by OncoKids	0.0	-0.2198066323755143	-0.2286901865388922	-0.2489468098195232	-0.2384719969665752	-0.2486160105525269	-0.2329204725080927	-0.1972311006346928	-0.1359690468134087	-0.2129081940430015	-0.2230298433912738	-0.2292222640586672	-0.2235153074297604	-0.2298419051236634	-0.237208448108696	-0.2229790266698793	-0.2014178879914919	-0.1630603532437598	-0.2445894021264757	-0.1171655313274681	-0.1962635213458768	-0.1724301203982814	-0.1968574245883206	-0.2180652979480458	-0.0549143759576839	4.894121159961575	27.03046771961917	181.974	190.17	189.866	190.354	190.308	188.268	186.336	191.464	191.24	190.83	188.192	183.888	187.724	189.604	189.358	189.404	192.188	190.382	186.112	196.186	192.086	192.854	187.342	182.64	198.466	1	1
CPM00022115-PL-D-20220208_20220302	CPM00022115	ctDNA-2N-13	2/8/2022	True Baseline	At diagnosis	YES	Abnormal	Abnormal	Localized		Localized		Ewing's - Primary site; R proximal femur	Ewing sarcoma	Ewing sarcoma	F	12				An EWSR1-FLI1 fusion was identified	0.0	-0.2684038728847904	-0.267829921406183	-0.2679444455964852	-0.2645157207285235	-0.2731732978678228	-0.2660922045103267	-0.2633833754709384	-0.2750745378798132	-0.2687008677346909	-0.2680987588651566	-0.27349804961892	-0.2615357130440551	-0.2697009764156441	-0.2647113570451927	-0.2735451329951999	-0.2296426097147704	-0.2594424178248857	-0.2798397830288225	-0.2346652628631658	-0.2745774492708694	-0.2459936979983261	-0.2665982860175059	-0.2775035281291333	1.4963683621032715	4.598102904807951	12.39082723168364	171.812	169.89	168.924	170.652	171.58	171.334	171.05	171.89	168.892	168.866	169.03	170.18	169.274	168.82	170.012	171.776	169.64	171.492	167.994	169.56	169.904	170.702	169.514	159.834	183.964	1	1
CPM00009467-PL-D-20191021_20211104	CPM00009467	ctDNA-2N-2	10/21/2019	True Baseline	At diagnosis	YES	Abnormal	Non-informative	Metastatic	Metastatic	Metastatic	Bilateral lung mets, L2 & L3 vertebral bodies, 7th rib	Ewing's - Primary site; L distal femur	Ewing sarcoma	Ewing sarcoma	M	10		03/24/2021 - Diagnosed with AML                                               04/27/2021 - Relapsed Ewing (R proximal Tibia)	Diagnosed with AML 3/24/2021		2.0	-0.2147455520348645	-0.2219109850652899	-0.2221899855970552	-0.2174456498574441	-0.2251436972539504	-0.2230277994344557	-0.2104030250434461	-0.2293494249881516	-0.217159862871987	-0.2158244179324006	-0.2174925341062915	-0.2193078030854914	-0.2089852369187871	-0.2175265418900565	-0.2216283470812914	-0.1793295885840618	-0.1939610152121288	-0.221354955834123	-0.1464522107767915	-0.2153209389323291	-0.1752043021982995	-0.1922283778681509	-0.2119775575433965	-0.0785690400238953	4.896538850134142	17.87966518605405	169.866	174.456	174.824	174.274	174.638	176.034	174.774	173.976	170.524	175.252	174.892	172.536	173.516	175.548	176.11	172.45	172.918	173.714	174.498	172.064	173.42	171.97	171.394	171.598	211.936	1	1
CPM00011849-PL-D_20210720	CPM00011849	ctDNA-2N-3	7/21/2020	True baseline ü	At diagnosis	YES	Abnormal	Abnormal	Metastatic		Metastatic	Bilateral lung mets	Ewing's - Primary site; R proximal humerus 	Ewing sarcoma	Ewing sarcoma	F	19				A CDKN2A p.His83Asn hotspot mutation and a TP53 p.Met160_Ala161del in-frame deletion within the DNA binding domain were identified.(NM_001195132.1) p.His83Asn 50%	5.0	-0.2122079293830147	-0.2131377184943624	-0.2239997089293207	-0.2175921777329472	-0.2246420609472848	-0.2147111986738303	-0.2076260601224841	-0.1914265264949511	-0.2207554663257471	-0.2306349467051577	-0.2252780988656008	-0.2098351054561128	-0.2034626894789501	-0.2502799230854859	-0.2251816671290381	-0.2293762309085757	-0.2297899066930553	-0.2228184645020938	-0.2244417940911694	-0.2310840461529573	-0.2170622441507281	-0.2340773471584311	-0.2276319813144552	0.2055113692932493	4.881541923502505	6.066590656664356	171.894	172.138	176.204	176.87	171.538	172.122	177.524	176.38	176.414	177.26	173.982	171.526	172.172	171.448	175.33	169.836	178.996	175.706	171.034	176.264	173.506	173.156	177.842	158.05	137.744	1	1
CPM00011851-PL-D_20210720	CPM00011851	ctDNA-2N-4	7/28/2020	True Baseline ü	At diagnosis	YES	Non-informative	Non-informative	Localized		Localized		Ewing's - Primary site; R buttock	Ewing sarcoma	Ewing sarcoma	F	17				Fusion Tier I EWSR1-FLI1	0.0	-0.2587118228147125	-0.2514043844597646	-0.2377020861828323	-0.2372283915116122	-0.2618683242647933	-0.2478905003685832	-0.2595825279008488	-0.2825637508244144	-0.2556444542156204	-0.2925166145696641	-0.2708985745435575	-0.2535129027317025	-0.2502346026348973	-0.2429262302381954	-0.2851081745250788	-0.3296372460775238	-0.2789333749613105	-0.2653465859573484	-0.2948597666681394	-0.3138138890080487	-0.2799459262706411	-0.3462428786473862	-0.3454900366101269	1.9225227246568877	4.419540321329916	22.91883763974575	140.526	142.532	141.752	140.708	140.15	141.216	138.494	140.302	143.118	138.604	141.342	139.806	138.632	142.484	142.228	143.228	140.966	141.696	139.442	142.322	140.484	143.4	141.798	128.314	126.954	0	1
CPM00013545-PL-D-20200929_20211109	CPM00013545	ctDNA-2N-5	9/29/2020	True Baseline ü	At diagnosis	YES	Abnormal	Abnormal	Metastatic		Metastatic	Bilateral lung mets, acetabulum, sternum, iliac bones, multiple lumbar and t spine mets	Ewing's - Primary site; L calf	Ewing sarcoma	Ewing sarcoma	F	12				An EWSR1-FLI1 fusion detected.	0.0	-0.2115057101469974	-0.1968541660014754	-0.272379272740511	-0.2409799175113285	-0.2594936550371348	-0.2666193013407508	-0.2405085418172099	-0.1352650646006109	-0.2761470119167408	-0.264765844105525	-0.2833321279081321	-0.2375659754257392	-0.2487836621083921	-0.2701367250202912	-0.2888017157570691	-0.3015420229055964	-0.2906954151647345	-0.2708237066840361	-0.2820973497896482	-0.2478704300079345	-0.2465327064634001	-0.2964399138117025	-0.5077421435680254	1.5782354223819992	4.558646957450987	6.323226192577763	167.962	162.716	168.35	168.96	168.626	168.868	165.166	166.414	168.594	167.03	170.846	166.01	165.11	165.498	160.738	166.876	170.972	167.804	167.924	167.24	170.09	167.024	171.418	152.828	160.414	1	1
CPM00018619-PL-D-20210319_20211109	CPM00018619	ctDNA-2N-6	3/19/2021	True Baselineü	At diagnosis	NO		Abnormal	Localized		Localized		Ewing's - Primary site; Right ilium	Ewing sarcoma	Ewing sarcoma	F	6				AN EWSR1-FLI1 FUSION WAS DETECTED.	0.0	-0.2883768062083687	-0.2762788138776877	-0.2923865635484429	-0.236196358469585	-0.2961181556317903	-0.262852216034404	-0.2835856742175361	-0.2254887791879462	-0.2936854834547036	-0.2882860527499081	-0.2941668266152235	-0.2328299553086263	-0.262099808720358	-0.2635253609057809	-0.2653159299777067	-0.2786295012332895	-0.2750383870972141	-0.2729936588528022	-0.2497695531815866	-0.2467566503929202	-0.2361597310628284	-0.2647406841973585	-0.2815112141952735	1.613413360282961	4.553378804838379	17.27696827898766	170.358	176.138	169.526	174.78	175.766	174.422	173.438	176.51	175.414	177.328	170.82	174.254	174.9	173.792	176.728	175.488	176.778	175.028	168.496	176.904	173.124	181.394	176.322	160.528	178.828	0	1
CPM00018705-PL-D-20210414_20211109	CPM00018705	ctDNA-2N-7	4/14/2021	True Baseline ü	At diagnosis	YES	Non-informative	Non-informative	Localized		Localized		Ewing's - Primary site; Crown of head	Ewing sarcoma	Ewing sarcoma	F	14			 EOE	An EWSR1-FLI1 fusion was detected.	0.0	-0.2687953204446418	-0.2822113611089498	-0.284050469669294	-0.2865461741782942	-0.2882669827596121	-0.2852645721267441	-0.2654401016908775	-0.288143271898949	-0.2773457956744953	-0.2742070420888621	-0.270960718478558	-0.2679280770107184	-0.282836133104089	-0.276401935580182	-0.2716209233182913	-0.2279702939456458	-0.2209130362125564	-0.2926680327563746	-0.1700220220222017	-0.2619181440373763	-0.2504666460291048	-0.2249398186783596	-0.2918504439617941	1.524585960833556	4.586181355942415	13.683610653135414	175.408	171.882	177.07	173.4	172.646	172.77	176.376	172.086	179.186	175.156	177.082	175.604	173.264	172.398	176.064	173.916	173.04	174.108	177.792	177.25	175.134	179.044	173.502	161.28	188.89	0	1
CPM00018811-PL-D-20210413_20211111	CPM00018811	ctDNA-2N-8	4/13/2021	True Baseline ü	At diagnosis	NO		Abnormal	Metastatic		Metastatic	R pubic bone	Ewing's - Primary site; L prox femur	Ewing sarcoma	Ewing sarcoma	M	19		06/28/2022 Lung nodule biopsy - confirmed relapse	Relapse 06.28.2022	An EWSR1-FLI1 fusion and a TP53 truncating mutation were identified by OncoKids	0.0	-0.2140362042116552	-0.2109034275148722	-0.216631552408512	-0.2021535939924211	-0.2109785668663183	-0.2076312138940105	-0.2044142743950776	-0.212690975143974	-0.2167429829152659	-0.2106068830282714	-0.2235619921754675	-0.2078982746311423	-0.2096287970062191	-0.2192170029210622	-0.2213356613920212	-0.2020142216204611	-0.2161778326649626	-0.2204638180919661	-0.1957573269730607	-0.2285768244673762	-0.1830642960813378	-0.2334494098899962	-0.2030434929622328	-0.0244470667813898	4.895425692029075	5.757101303237253	159.198	163.39	161.034	162.602	160.742	163.152	158.892	160.046	160.756	160.35	159.758	162.088	162.092	164.722	161.744	161.108	161.91	164.072	163.578	164.466	160.616	162.662	161.846	157.574	148.134	0	1
CPM00019420-PL-D-20210715_20211111	CPM00019420	ctDNA-2N-9	7/15/2021	True Baseline ü	At diagnosis	YES	Abnormal	Abnormal	Metastatic		Metastatic	"Bilateral lung mets,  bony lesions in multiple vertebral bodies, the pelvis, right proximal humerus, and bilateral femurs.	
- Malignant neoplasm metastatic to	
bone marrow."	Ewing's - Primary site; Sternum	Ewing sarcoma	Ewing sarcoma	M	17				An EWSR1-ERG fusion was detected.	0.0	-0.2187292423156395	-0.211635985904387	-0.217655184456693	-0.2023529537487443	-0.1520460979968976	-0.2044661244836435	-0.2135523786587127	-0.1109607497961721	-0.221107777994679	-0.2176944248378546	-0.2293477194563438	-0.209751930978863	-0.1975286792263032	-0.2230343764265079	-0.2344564866755031	-0.2172707283171743	-0.216813336474322	-0.2179842518715426	-0.1910409527652195	-0.2482053494425689	-0.1910431997370675	-0.2472399374233449	-0.2073241191675259	-0.0946939591840966	4.895935947339809	13.904440970261655	174.566	173.8	175.46	174.63	175.79	178.358	174.236	174.564	171.404	174.578	178.118	174.776	175.86	172.31	175.85	177.302	178.762	173.056	178.112	176.512	176.188	174.564	174.484	166.29	173.404	1	1
CPM00021417-PL-D-20191223_20211111	CPM00021417	ctDNA-2R-1	12/23/2019	True Baseline Relapse ü	At relapse	NO		Abnormal	Metastatic	Metastatic	Metastatic	pancreas and multiple bony sites	Ewing's - Primary site; L iliac fossa (2017)                                                         Relapse site: multiple sites 12/2019     	Ewing sarcoma	Ewing sarcoma	F	28		2/12/2021 MRI Indicates progressive disease	02/18/2021 sample		0.0	-0.263008965784143	-0.2737163682113161	-0.2810992358718557	-0.2779087527488038	-0.2592914191351229	-0.2992969303873977	-0.2682054582548355	-0.2822118223875963	-0.2501861822718303	-0.2679743959645793	-0.2710575120841633	-0.271997200233401	-0.2766067542371722	-0.2772890053239125	-0.2715147132069644	-0.2453603030358245	-0.2343674451257983	-0.2951465068382888	-0.2300623247050706	-0.2581508541776649	-0.253770581642385	-0.2298868740083454	-0.2451792806906508	1.4796082003704294	4.603680685956694	2.419568868270156	183.224	182.276	181.316	183.91	183.04	178.546	182.032	180.938	181.274	180.006	182.176	182.956	181.202	182.894	179.886	185.128	179.896	177.844	187.23	179.426	178.892	181.61	179.556	165.398	170.554	0	1
CPM00007659-PL-D-20210430_20211111	CPM00007659	ctDNA-2R-2	4/30/2021	On therapy Basleine Relapse ü	On therapy	YES	Abnormal	Abnormal	Metastatic	Metastatic	Metastatic	R lung and bone marrow	Ewing's - Primary site; R gluteal 	Ewing sarcoma	Ewing sarcoma	M	21			mid chemo baseline	An EWSR1-FLI1 fusion was identified	0.0	-0.2119236179131347	-0.2111161541241739	-0.2233463795637765	-0.1987382101305778	-0.2208207787039991	-0.2125873966548211	-0.1908613120966599	-0.2215346387195418	-0.2246263343353589	-0.2208383955278689	-0.2289141904979807	-0.2047925275377102	-0.2086527810984539	-0.2210452092262592	-0.2206293180617327	-0.2154318877552105	-0.2037241473555535	-0.2134647874576073	-0.1767688144334178	-0.2357112335872694	-0.1765213950769073	-0.2276017012037494	-0.187833602211367	-0.038130379013919	4.8956151922870506	10.19682705614236	205.416	202.212	214.632	206.39	213.94	210.924	207.078	213.076	203.162	208.136	210.568	205.498	206.814	215.484	211.164	219.678	212.196	207.626	205.768	213.44	204.096	213.464	206.572	206.03	207.878	1	1
CPM00010094-PL-D-20200123_20211104	CPM00010094	ctDNA-3N-1	1/23/2020	True Baseline ü	At diagnosis	YES	Abnormal	Abnormal	Localized		Metastatic	R lung mets	Alveolar Rhabdomyosarcoma	Other sarcoma	ARMS	F	4				A PAX7-FOXO1 fusion was detected	0.0	-0.2868614349110611	-0.2900970644934859	-0.3229533933822213	-0.3173193081135845	-0.3004239817748979	-0.2883869200012854	-0.2817771587345549	-0.2951575289497077	-0.2735151856062449	-0.295047856218817	-0.2914086042648959	-0.2204542466990643	-0.269396817437476	-0.2770163011775302	-0.2783166657656362	-0.2877548776840796	-0.2406979674489158	-0.4490818307250075	-0.2062974869618824	-0.139180568522986	-0.2834136936037535	-0.2366784921617544	-0.3171969069552136	2.143934521351503	4.304499770242559	8.963072829131415	161.3	156.38	155.714	155.192	156.932	155.168	159.524	160.12	154.884	154.988	157.412	157.808	155.906	156.38	154.966	157.314	159.916	162.632	154.594	154.646	161.656	159.084	153.174	138.686	160.952	1	1
CPM00015881-PL-D-20201224_20211104	CPM00015881	ctDNA-3N-2	12/24/2020	True Baseline ü	At diagnosis	YES	Abnormal	Non-informative	Localized		Localized		Stage III Group III Embryonal  RMS	Other sarcoma	ERMS	M	7				OncoKids is negative for clinically significant variants	0.0	-0.2046842064676392	-0.2075055176668608	-0.2073113596616187	-0.2195108952125785	-0.2164484305510235	-0.2090563332786063	-0.2149659498728873	-0.2122555569857484	-0.2137057882010735	-0.2057243867405738	-0.209581836886224	-0.2012063746387788	-0.2031649926685247	-0.2159860727350221	-0.2106774410840322	-0.1991099452699863	-0.1879975311238599	-0.2162656683123625	-0.1566320319319668	-0.2034995105638097	-0.1937804891913443	-0.1948597160863751	-0.220334764019818	-0.1742273403265242	4.898492139477239	3.4843968961343865	178.714	175.816	174.216	171.672	175.516	175.05	176.882	172.78	176.798	177.544	174.174	175.75	173.876	176.678	176.18	174.854	175.044	175.01	175.148	175.006	172.174	178.944	175.848	169.94	205.574	1	1
CPM00019591-PL-D-20210714_20211104	CPM00019591	ctDNA-3N-3	7/14/2021	Post surgery / pre chemo baseline ü	On therapy	YES	Abnormal	Non-informative	Localized		Localized		Stage II Group II Alveolar RMS	Other sarcoma	ARMS	F	14				A PAX3-FOXO1 fusion is detected.	0.0	-0.2682342761671832	-0.2829387140935818	-0.2865870496301925	-0.2850868724980324	-0.289199111762932	-0.2779645203556339	-0.2710739920080278	-0.2925228482086487	-0.280679275536435	-0.2709246018748745	-0.276598334692431	-0.2764680027569414	-0.284342575192511	-0.2737429481866146	-0.2726453902304308	-0.238314584117333	-0.236165281734108	-0.2810665657659695	-0.1929991357669287	-0.2574184540265535	-0.2478251498542893	-0.2395412229651938	-0.2950026988651218	1.631152897699348	4.54618870859062	7.20003991730761	179.802	175.224	176.552	177.248	176.418	177.382	177.872	174.742	175.646	177.534	175.614	173.3	178.088	176.832	180.932	175.244	176.398	175.572	180.322	176.594	175.982	177.378	177.07	163.772	198.964	1	1
CPM00021541-PL-D-20211105_20211202	CPM00021541	ctDNA-3N-4	11/5/2021	True baseline ü	At diagnosis	YES	Abnormal	Non-informative	Metastatic	Metastatic	Metastatic	Mets in rectum, breasts, lungs, lymph nodes, skull base, orbit, vertebrae, pancreas, and bone marrow	Stage IV Group IV Alveolar RMS	Other sarcoma	ARMS	F	12		1/21/22 - PET CT shows progression		PAX3-FOXO1 fusion identified. Amplifications of CDK4, MYCN, and GLI1 genes also	1.0	-0.2971204753371783	-0.3014109550924559	-0.3158746323939777	-0.3144314140793227	-0.3195166904312683	-0.3085698201710478	-0.2953715560985596	-0.3183618153948172	-0.2980629912504387	-0.2952899133494248	-0.3080244491864806	-0.2970519881669304	-0.3123866520410341	-0.3001036905328635	-0.2968907719105647	-0.2696889670662878	-0.2511633826207661	-0.3130917379133862	-0.2214515412628224	-0.2856336104789568	-0.2558101230209235	-0.2447209898713548	-0.3486742167963266	3.1814498992484546	3.5872524852187366	7.082998183758727	176.194	179.616	180.302	182.304	174.56	175.02	175.596	176.498	174.876	175.246	173.228	181.848	177.782	180.316	176.782	176.164	179.866	178.534	173.634	176.062	176.456	179.066	174.732	162.936	178.876	1	1
CPM00002066-PL-D-20191015_20211104	CPM00002066	ctDNA-3R-1	10/15/2019	On therapy baseline ü	On therapy	YES	Abnormal	Non-informative	Localized	Localized	Localized	Proximal sigmoid colon and omentum	Stage III Group II Embryonal RMS	Other sarcoma	ERMS	M	6				c.1100A>C (p.Gln367Pro) variant of strong clinical significance in CBL	0.0	-0.2061837331726419	-0.2189928609489776	-0.2216244910926141	-0.2209937805688344	-0.2216115146891068	-0.2175534281628673	-0.2110254145326022	-0.2224496178582623	-0.2107327407772256	-0.2114220645051807	-0.2133266482389328	-0.209191174522988	-0.2182389143779184	-0.2151768730510524	-0.2128161531288343	-0.1878980592187985	-0.1764369571098389	-0.2263355884216342	-0.1424773411311342	-0.2037496060451541	-0.197695654679545	-0.1776214443631353	-0.2133566847296224	-0.1408491034288626	4.897759848755764	4.523484853501027	180.286	187.172	184.934	186.72	183.45	184.884	187.564	183.164	187.012	183.536	184.774	183.036	184.212	190.298	181.872	185.352	183.41	187.56	187.218	184.306	185.698	185.032	183.066	177.632	204.786	1	1
CPM00013771-PL-D-20201008_20211027	CPM00013771	ctDNA-4N-2	10/8/2020	True Baseline ü	At diagnosis	YES	Abnormal	Abnormal	Localized		Localized		Synovial sarc	Other sarcoma	Synovial sarcoma	F	13				An SS18-SSX1 fusion identified	0.0	-0.2363547527482389	-0.238788739863802	-0.2375452458944867	-0.2322169243942888	-0.2384319511687545	-0.2362350160456968	-0.2380482312289539	-0.2402432657059853	-0.2385252571650266	-0.2401601042643197	-0.2413911079111351	-0.2358636144956055	-0.2364538782311286	-0.2375982280669159	-0.2428209276331429	-0.2305586721049299	-0.2346992466215379	-0.2394551153582318	-0.2237951038248542	-0.2468327192372885	-0.2288933918596881	-0.2429114653998007	-0.2808832322095852	0.6799139637383353	4.818792227695062	3.4638900114909617	171.782	170.658	169.89	166.766	174.264	167.652	172.1	170.292	170.204	172.924	172.99	168.266	169.228	170.302	169.168	170.694	170.258	170.238	174.212	168.606	172.01	172.808	170.226	159.02	143.3	1	1
CPM00007071-PL-D-20190712_20211018	CPM00007071	ctDNA-4R-1	7/12/2019	True Baseline Relapse ü	At relapse	YES	Abnormal	Non-informative	Metastatic	Metastatic	Metastatic	Bilateral pulmonary mets	Synovial sarc	Other sarcoma	Synovial sarcoma	M	11			died of toxicity 	An SS18-SSX2 fusion strong clinical significance was identified.	0.0	-0.2062693930769767	-0.2213524942359495	-0.227281372165393	-0.2302297788059523	-0.2288546877986675	-0.2183341452635088	-0.2178877893694829	-0.2248877868610328	-0.2182748696727754	-0.2163722216210392	-0.2104469349555515	-0.2129946684193443	-0.2296137545696794	-0.2216193114893219	-0.2131780123025631	-0.1814507396455013	-0.167015833206957	-0.2315790553002745	-0.113127259360357	-0.20297881793082	-0.1885855616061129	-0.1583210475854541	-0.2132706607245562	-0.1429410995492465	4.896867295516519	17.833385231907872	172.498	172.25	172.224	170.25	171.442	168.872	171.754	171.882	174.116	172.026	172.548	172.516	169.508	170.03	168.466	172.324	170.044	172.316	168.02	171.234	170.996	172.512	174.448	169.772	164.572	1	1
CPM00009747-PL-D-20191122_20211027	CPM00009747	ctDNA-5N-1	11/22/2019	True Baseline ü	At diagnosis	YES	Non-informative	Non-informative	Localized		Localized		NRSTS - BCOR-CCNB3 fusion + sarcoma - Primary site; L paraspinal 	Other sarcoma	NRSTS	F	11				A BCOR-CCNB3 gene fusion was identified	0.0	-0.2479055829932679	-0.2509013781543925	-0.2460029353102487	-0.2397618773599711	-0.2476695927905551	-0.2446540964750045	-0.2474924804246794	-0.2513324019545185	-0.2518335392159913	-0.2489023322168833	-0.2546400403851366	-0.246390988527504	-0.2447791353347503	-0.2478442570889676	-0.2551746686718882	-0.2375746558804555	-0.2467579323493318	-0.2517660396637557	-0.2270797042943973	-0.2557870795904834	-0.236188961127091	-0.2508594131622508	-0.259966900378951	0.9227017502089434	4.768564243141535	6.161467429682649	169.99	170.142	174.09	172.576	173.114	170.7	174.112	173.94	172.428	169.714	171.326	173.886	166.638	171.386	173.808	169.426	170.64	172.836	171.976	173.846	169.096	169.67	167.924	162.818	179.834	0	1
CPM00018706-PL-D-20210216_20211116	CPM00018706	ctDNA-5N-3	2/16/2021	True Baseline ü	At diagnosis	YES	Abnormal	Abnormal	Localized	Localized	Localized		NRSTS -Soft Tissue Sarcoma Type 1 neurofibromatosis - Primary site; Retroperitoneum 	Other sarcoma	NRSTS	F	15		10/22/2021 PET CT: Concern for progressive disease	10/22/2021 PET CT: Marked hypermetabolic activity along patient's retroperitoneal soft tissue mass within the right suprarenal fossa concerning for recurrent disease.	OncoKids detected inactivating variants in the NF1 (c.204+1G>T) and SUZ12 genes (c.1150_1151delAG, p.Leu385Profs*10)	2.0	-0.2956598550196766	-0.2944328166129117	-0.3137251216653079	-0.3129388262740383	-0.3119177804164411	-0.3001329821680917	-0.2854038347109045	-0.3012337469886025	-0.2974454080272619	-0.303456420344711	-0.2978512958046966	-0.3051102658308264	-0.2989599332593251	-0.2964223224686125	-0.2958682063111316	-0.2641468007300558	-0.2639896105922805	-0.2981278297301069	-0.2122905531058539	-0.2803382086735776	-0.2621706431572899	-0.2428940580411449	-0.3144021789966844	2.6315734870450216	4.017345211884511	6.176765025133993	175.538	178.19	180.85	176.482	173.146	175.29	179.454	173.44	178.408	178.35	179.156	178.514	175.102	171.67	175.24	174.644	181.23	175.97	178.918	177.174	174.956	174.762	177.084	165.658	198.872	1	1
CPM00019339-PL-D-20210709_20211129	CPM00019339	ctDNA-5N-4	7/9/2021	Pre Chemo/Post Surgery Baseline ü	On therapy	YES	Abnormal	Non-informative	Localized		Localized		Undifferentiated Embryonal sarcoma of the liver	Hepatic tumor	UES Liver	F	6				A TP53 p.Arg282Trp mutation identified	0.0	-0.2727827841349384	-0.2787453010455327	-0.2820659952367136	-0.2819508365610221	-0.2808526450125263	-0.2771862409734217	-0.2693256997637828	-0.2814129220552812	-0.2777551535842889	-0.2750516611360915	-0.2775768328527674	-0.2729439115803911	-0.2799218539502414	-0.2795628224532125	-0.277822473795854	-0.2533217426417613	-0.2492597168323913	-0.2849608730167176	-0.2193584898943746	-0.2671594291542843	-0.2484327718044338	-0.2589810454837956	-0.2966682633804295	1.7410783121981108	4.502021154146142	16.098219665581848	173.092	172.234	170.922	170.716	172.25	173.676	176.054	171.982	169.146	173.008	171.674	172.878	169.19	171.482	173.216	169.274	173.56	173.31	168.008	172.16	169.864	170.822	167.864	158.462	187.54	1	1
CPM00022771-PL-D-20220421_20220526	CPM00022771	ctDNA-5N-5	4/21/2022	True Baseline? ü	At diagnosis	YES	Abnormal	Abnormal	Localized		Localized		Undifferentiated Embryonal sarcoma of the liver	Hepatic tumor	UES Liver	M	14				A TP53 truncating variant identified	0.0	-0.1997712029899249	-0.202698752264345	-0.2049096989780572	-0.1996003637558073	-0.2005030255080596	-0.1980851353335582	-0.1978520052838075	-0.2131111870275109	-0.2056180122288015	-0.2030031601075904	-0.2014819082006224	-0.2048876459691282	-0.1924196013438895	-0.2082901146657073	-0.2097212960996118	-0.2132457533353142	-0.2086607131000249	-0.2151164648618448	-0.2049696144074734	-0.2066588720864524	-0.2059082302791798	-0.2157983655360645	-0.1981553875465789	-0.1884088895504757	4.89887540045983	7.622143587700823	157.758	156.322	156.484	155.284	154.846	156.938	155.106	156.892	154.76	156.192	155.49	156.376	154.032	156.824	157.076	156.52	155.63	155.874	156.62	155.96	155.196	155.68	154.714	153.034	133.078	1	1
CPM00009001-PL-D-20190808_20211202	CPM00009001	ctDNA-6N-1	8/8/2019	True Baseline ü	At diagnosis	YES	Non-informative	Non-informative	Localized	Localized	Localized		Hepatoblastoma (fetal and embryonal) Stage 1 Pretext I	Hepatic tumor	Hepatoblastoma	M	1		6/15/2020 - Pathology consistent with epithelial subtype hepatoblastoma relpase	run relapse baseline sample 	Negative for variants with established clinical significance	0.0	-0.2056813696541335	-0.2080008356841003	-0.2091034603785543	-0.2073339935696744	-0.2104230256359248	-0.2065676754157456	-0.2046693138746209	-0.2109348429129701	-0.2082951101475705	-0.2078700933991604	-0.2095316636746356	-0.2062430242941568	-0.2061222076949412	-0.2086023899567807	-0.2090847640855751	-0.2025041370845005	-0.1981201618314065	-0.210218072845688	-0.1890658326867164	-0.2063570227293327	-0.1944704077784727	-0.202400470721766	-0.2078024370578512	-0.1693927512942505	4.89879506440853	3.249520373141749	177.296	174.486	175.666	176.16	177.24	177.486	172.378	177.89	174.446	178.922	176.024	174.202	177.418	175.282	175.732	177.246	177.214	177.588	175.596	178.244	176.834	180.088	177.372	171.406	166.038	0	1
CPM00017466-PL-D-20210121_20211202	CPM00017466	ctDNA-6N-3	1/21/2021	True Baseline ü	At diagnosis	YES	Abnormal	Abnormal	Localized	Metastatic	Localized		Hepatoblastoma Stage I (PRETEXT II)	Hepatic tumor	Hepatoblastoma	M	2		6/8/21: Multiple enlarging liver masses in this patient post hepatectomy. Pulmonary nodules suspicious for distant metastatic disease.		OncoKids is negative for clinically significant variants	1.0	-0.1868090021008987	-0.1651205614499983	-0.2228846784635539	-0.2178036660307148	-0.2304236401126946	-0.215379173567089	-0.2154568800194947	-0.215652699994316	-0.2249517689550264	-0.2263641151604553	-0.2388635916984036	-0.2125526963061059	-0.2232177885519893	-0.2152960439612161	-0.2246921625006934	-0.1940945669440045	-0.2023481382656654	-0.2292694376098807	-0.1776923976124596	-0.1789369118802256	-0.1837994116298787	-0.232388565353434	-0.2100804883134933	-0.0516547887949419	4.895733175276632	10.10715389612214	158.682	154.702	158.112	157.588	159.028	158.222	157.698	154.626	155.744	159.328	158.458	157.626	156.91	155.396	157.872	157.45	159.79	159.02	160.058	156.748	157.194	158.382	154.59	155.054	147.52	1	1
CPM00022116-PL-D-20211118_20220302	CPM00022116	ctDNA-6N-4	11/18/2021	True baseline ü	At diagnosis	YES	Abnormal	Abnormal	Localized		Localized		Hepatoblastoma Stage 1 (PRETEXT III) 	Hepatic tumor	Hepatoblastoma	M	15 mo				Negative for variants with established clinical significance	1.0	-0.1861774068585201	-0.1805367459960543	-0.2161857318155933	-0.2001857630362961	-0.186220090530801	-0.2105454968831883	-0.211546332260783	-0.1930874741830788	-0.2198387191367337	-0.2224703445950399	-0.2234382790226062	-0.1936511163611717	-0.207342246154343	-0.2156875134905247	-0.2321674595960831	-0.2118216245217629	-0.2203665141453982	-0.2160897511933796	-0.1913364086072543	-0.208248286963241	-0.1935524499208428	-0.2379621315522261	-0.1975729855427292	-0.1217425310380145	4.897773403405666	34.6697402669323	164.556	162.548	162.096	164.344	164.934	162.966	163.364	161.814	163.206	165.154	163.94	164.866	161.788	163.71	161.948	164.51	162.662	163.464	160.836	164.022	161.554	168.432	164.67	158.672	162.272	1	1
CPM00008709-PL-D-20191028_20211018	CPM00008709	ctDNA-7N-1	10/28/2019	Post Surgery/Mid chemo Baseline ü	On therapy	YES	Abnormal	Non-informative	Localized		Localized		Stage III Wilms Tumor	Renal tumor	Wilms tumor	F	5				OncoKids detected a WT1 frameshift mutation along with a hotspot mutation in CTNNB1 (beta-catenin).	0.0	-0.2458685294214869	-0.2598537996870024	-0.2579401663570842	-0.2698338234909992	-0.2626573981991043	-0.2578633235141298	-0.2537392668407588	-0.2572058182712569	-0.254813142187605	-0.246364235821781	-0.2498457818067748	-0.2482386710945958	-0.2741409490045737	-0.255338848750376	-0.2460461877381071	-0.2180527786185757	-0.2198960918935102	-0.2641337852754933	-0.1800958238158529	-0.2381952286036004	-0.2416408270674264	-0.225129824260735	-0.2618508456934441	0.9204819385161412	4.768263208898133	5.261879090405671	175.556	174.014	177.378	179.226	179.06	174.084	177.98	175.034	175.854	176.698	175.78	176.284	178.69	176.628	174.246	174.722	171.512	176.79	175.386	177.698	174.568	176.272	179.416	163.144	176.308	1	1
CPM00011650-PL-D-20200713_20211018	CPM00011650	ctDNA-7N-2	7/13/2020	True Baseline ü	At diagnosis	YES	Abnormal	Non-informative	Localized		Localized		Stage III Wilms Tumor	Renal tumor	Wilms tumor	F	5				Negative for clinically significant variants	0.0	-0.2352115034162445	-0.2393435875247024	-0.2381927402608114	-0.239073358331892	-0.2403066435139584	-0.2349539739033581	-0.2351853431745147	-0.2409363180364455	-0.2369218916162998	-0.2406292630224111	-0.2415003264901964	-0.2333847497264567	-0.2352904789893541	-0.2409557239309689	-0.2391371033613351	-0.2306837653446603	-0.2227320838620885	-0.2466363464285399	-0.1998373458687092	-0.2429403040819475	-0.2332181434226396	-0.2320711791414655	-0.2503998384062444	0.596253591562131	4.833288420293111	5.77503931090325	177.372	183.244	179.456	176.752	181.928	180.408	180.112	178.536	178.226	177.308	179.88	180.556	178.088	177.09	176.814	177.406	181.522	180.308	179.742	179.698	175.526	184.246	180.454	164.124	165.84	1	1
CPM00012320-PL-D-20200825_20210909	CPM00012320	ctDNA-7N-3	8/25/2020	Post Surgery/Mid chemo Baseline 	On therapy	YES	Non-informative	Non-informative	Localized		Localized		Clear Cell Sarcoma of Kidney 	Renal tumor	CC Kidney	M	18 mo				Negative for clinically significant variants.	0.0	-0.2084769447900825	-0.213245496482846	-0.2087152115350436	-0.2065535887853385	-0.2083695924915691	-0.2088041830348623	-0.2087797172173018	-0.2113423206653587	-0.2117448722106022	-0.2127050584160498	-0.2090322841332223	-0.2083489342558432	-0.2067565833947968	-0.2091553745311355	-0.2130105216063389	-0.1941641475295807	-0.1989474482745363	-0.2114445826166763	-0.1817365656520197	-0.2132694984842083	-0.1952944676862768	-0.2068297041705147	-0.2010899827335514	-0.1507473773736607	4.898564458071417	2.135165526929854	186.0710866320431	185.86706748883395	185.94671777289167	185.3101455869129	185.5834825070868	185.80226445875624	185.66378323905775	185.4849161491149	185.4178252394897	186.1420955243549	186.03804140687427	186.1590615490524	185.61037811710096	185.99979789951908	186.1182424871112	184.49146731708544	186.667543840755	185.81514612844225	186.52094046768855	186.60866528026463	185.30002103484296	186.9053174037681	184.51650813767503	177.02146387666102	161.54618473895582	0	1
CPM00013846-PL-D-20201002_20211018 	CPM00013846 	ctDNA-7N-4	10/2/2020	True Baseline ü	At diagnosis	YES	Abnormal	Abnormal	Localized		Localized		Stage III Wilms Tumor	Renal tumor	Wilms tumor	M	2					0.0	-0.2045600859115116	-0.2002820306893587	-0.1991098288097552	-0.1955139171865473	-0.1993666309547498	-0.2003530484419934	-0.2031266018636341	-0.2015021462228703	-0.2034088281071583	-0.2030145562084166	-0.2062745074801907	-0.2014596266970617	-0.1968026650285407	-0.2022922859712324	-0.2066008641586037	-0.2120726690684229	-0.2100175077220996	-0.1991676038608656	-0.2173684174725485	-0.213550669335573	-0.200174795971435	-0.2225081701049409	-0.1985652205619658	-0.2017876322542521	4.898880310083729	5.01775049023079	152.84	155.03	153.976	150.978	152.464	154.084	152.066	151.948	158.296	155.728	152.45	155.86	155.708	153.442	157.052	153.974	154.436	152.292	158.864	154.028	152.068	155.722	156.416	152.366	108.874	1	1
CPM00017950-PL-D-1-0_20210824	CPM00017950	ctDNA-7N-5	2/9/2021	True Baseline ü	At diagnosis	YES	Abnormal	Abnormal	Localized		Localized		Stage III Wilms Tumor	Renal tumor	Wilms tumor	F	8			 run a post nephrectomy sample and first post chemotherapy sample 	A frameshift truncating variant was observed in the SUFU gene. SUFU abnormalities are infrequent in Wilms tumor, and the clinical significance of this finding is uncertain	0.0	-0.2891123100930929	-0.293144087702279	-0.300480188407165	-0.2936418096917312	-0.2982162330276066	-0.2940495640313247	-0.2878366943836409	-0.3011168165629414	-0.2955930180108612	-0.2801031015224295	-0.2983148442110214	-0.2889750990756166	-0.2882079365555003	-0.2966877278158998	-0.2910544115832066	-0.2650823028809004	-0.2565105901563506	-0.2888289186068657	-0.2362280467181429	-0.2803947938569551	-0.2634818722533008	-0.2545338553655611	-0.3195400665980548	2.3871341683419542	4.174000120768493	0.8023785129275269	180.6839302607195	180.33712184922663	180.37622046764864	179.7834848359746	180.06058774146976	180.2191089159268	180.19882980572467	179.85969563144835	179.94240862168115	180.10303424867152	180.4520152872414	180.5761077557044	180.1854775928772	180.57062887442615	180.6216648266025	179.8002098487331	181.5732754123489	180.51432380951096	182.10318031490007	181.61963286004644	179.86083721410725	180.9252569952576	178.52863546276652	161.93409580950595	184.963963963964	1	1
CPM00018469-PL-D-20210316_20211004	CPM00018469	ctDNA-7N-6	3/16/2021	Post Surgery/Pre Chemo Baseline ü	On therapy	YES	Abnormal	Abnormal	Localized		Localized		Stage II Wilms Tumor	Renal tumor	Wilms tumor	M	3				No clinically established variants were identified by OncoKids	0.0	-0.2324157673952664	-0.2440994318217202	-0.2567925174789664	-0.2242928115606662	-0.2490686037472881	-0.243217921309678	-0.2017096645516422	-0.2515523835473953	-0.2318527747916168	-0.2440520611541002	-0.2688551433160873	-0.2103620739477392	-0.2365602523530699	-0.2574430733818216	-0.2945775295642589	-0.1716124837489379	-0.1548887566973549	-0.2973935862173412	-0.0016152336282473	-0.2744203308528212	-0.1245618633970061	-0.1552819535815888	-0.1945002515090558	0.1435377031114716	4.877588766442184	36.42552215444698	182.968	183.678	184.82	180.422	187.51	182.864	183.722	184.116	184.91	185.368	188.296	179.754	185.258	182.962	189.77	183.57	181.69	183.778	182.072	185.952	185.962	188.696	184.772	175.188	276.924	1	1
CPM00019098-PL-D-20210512_20211018	CPM00019098	ctDNA-7N-7	5/12/2021	True Baseline ü	At diagnosis	YES	Abnormal	Abnormal	Metastatic	Metastatic	Metastatic	Bilateral pulmonary mets	Stage IV Wilms Tumor                                                    	Renal tumor	Wilms tumor	M	3		"08/02/2022: There are multiple
nodules/masses throughout the bilateral lungs which are new"	run 3 mo off therapy pre relapse sample 	A TP53 c.838A>G, p.Arg280Gly variant and a TSPAN4-CD151 fusion of uncertain significance	2.0	-0.2037952495895509	-0.2131568002827115	-0.2137452821898147	-0.2167153902732666	-0.2216320737928165	-0.2121762793422224	-0.2059131096981652	-0.2129328366414798	-0.200826919940417	-0.2047023525718803	-0.2114385447843108	-0.2117636843504647	-0.2141022839321781	-0.2073858849778769	-0.208641542722432	-0.1941667094293725	-0.1941774074521246	-0.210120731096571	-0.1717241153797976	-0.2069053164420416	-0.2010946744461723	-0.1941336766179016	-0.214483314615038	-0.1527370481880795	4.898471228756686	2.866527147679465	177.416	177.472	178.774	177.588	175.286	175.788	176.65	177.556	178.326	175.552	179.068	179.764	174.568	177.718	175.858	178.264	174.97	177.782	178.412	178.714	174.628	178.24	174.894	168.258	159.082	1	1
CPM00009465-PL-D-20191011_20210901	CPM00009465	ctDNA-7R1-1	10/11/2019	True Baseline Relapse ü	At relapse	YES	Abnormal	Abnormal	Localized	Metastatic	Metastatic	Bilateral pulmonary mets	Stage III Wilms Tumor                                         Relapse site: Blateral lung mets	Renal tumor	Wilms tumor	F	11		Disease Progression: 06/16/2020                                                                           Disease Progression: 08/11/2020	run 5/6 and 6/23/20 samples around time of first progressive disease	A TP53 FRAMESHIFT MUTATION WAS IDENTIFIED	1.0	-0.2694659464473788	-0.2816835986701572	-0.2591925547982318	-0.275015946245065	-0.268168040562105	-0.2646150067092578	-0.2683992143849172	-0.2691585797698145	-0.2593094846300972	-0.2533445366997666	-0.3010817599594194	-0.2593386892535313	-0.2312154604382281	-0.2697692016376435	-0.333915364482934	-0.3009287719874266	-0.1915348944847694	-0.1680700289970429	-0.2690239047283618	-0.363088515724988	-0.2643214308955616	-0.3024332099583063	-0.2704310340099326	1.6618614942882015	4.531643681186729	3.05564549648773	166.556	169.092	171.498	164.058	162.95	164.502	164.844	168.346	164.566	164.708	170.566	166.986	164.268	166.094	165.722	167.536	165.036	162.53	167.414	168.812	167.718	166.68	166.854	150.504	157.002	1	1
CPM00007325-PL-D-20201105_20210901	CPM00007325	ctDNA-7R1-2	11/5/2020	True Baseline Relapse	At relapse	YES	Abnormal	Abnormal	Metastatic	Metastatic	Metastatic	Bilateral pulmonary mets	Stage II Abdominal Wilms                               Relapse site: Lung (11/4/20) and Rib (04/26/21)	Renal tumor	Wilms tumor	F	9				No clinically established variants were identified	1.0	-0.1865498864321506	-0.2897455762930817	-0.2932050763192689	-0.29010536290587	-0.2934622064313792	-0.2912328442469687	-0.2559867003102882	-0.2988666577465372	-0.2862302709328468	-0.179185570084595	-0.3118203223203961	-0.1824856097348966	-0.294612329808268	-0.2944682071976701	-0.2890894123224606	-0.2668117994482199	-0.2609590359511038	-0.2860399050669085	-0.2477561857132937	-0.1807722021610817	-0.2719674750333599	-0.2693525216940307	-0.2950584826741951	1.535769363988722	4.579994276840147	2.600947364154093	171.92254886891175	172.62478485566584	172.73956706362995	172.5019332959867	172.551414385917	172.68312660229182	172.3288623659527	172.3909246580168	172.38870245222537	172.0649874594312	172.93784044337457	172.03205790534787	172.70946443611382	172.75560459250707	172.77972380145528	171.9997263243292	173.13392639438217	172.7200306105941	173.24273660313386	172.2013602672688	172.3267340748231	173.34321679552824	171.43069828290322	157.36637404156016	158.3708609271523	1	1
CPM00020422-PL-D-20210216_20211104	CPM00020422	ctDNA-7R1-3	2/16/2021	True Baseline Relapse ü	At relapse	NO		Abnormal	Metastatic	Metastatic	Metastatic	Bilateral lung mets and liver mets	Mesoblastic Nephroma	Renal tumor	Mesoblastic Nephroma	F	2					0.0	-0.3006658220741622	-0.3000972138304433	-0.3079595772107828	-0.3080017356330343	-0.3077193439358592	-0.3008010511675833	-0.2930470147630507	-0.2881579843392447	-0.2897655875554914	-0.2940762911026069	-0.2885710261959744	-0.2957342935500266	-0.3175395468776001	-0.303788737118175	-0.2919474748672898	-0.2614407021199531	-0.2595810259950205	-0.3056390784557723	-0.2476330348379833	-0.2790053894417554	-0.2608551832443784	-0.2671515223441099	-0.3385488790212577	2.835658001943961	3.8720695137375927	2.23147592876022	165.928	168.098	167.794	166.494	166.628	167.99	169.336	167.72	164.332	167.024	167.62	166.59	166.628	163.684	169.688	168.084	170.208	165.976	164.956	171.208	165.886	167.856	169.9	150.18	175.456	0	1
CPM00022117-PL-D-20211116_20220302	CPM00022117	ctDNA-7R1-4	11/16/2021	True Baseline relpase ü	At relapse	YES	Abnormal	Abnormal	Localized	Metastatic	Metastatic		Stage III Wilms Tumor                                    Relpase site: Bilateral lung and liver 11/2021	Renal tumor	Wilms tumor	M	7		Progression: 01/03/2022                                                                                                     Progression: 01/13/2022		A TP53 c.743g>A, p.Arg248Gln VARIANT and a FBXW7 c.1450A>G, p.Arg484Gly variant were identified	2.0	-0.1939958330279022	-0.2307152864095251	-0.2244253569865312	-0.2706491461491656	-0.2316034795920221	-0.3080948714537577	-0.2133179570192498	-0.2351998662074299	-0.2042012029099083	-0.2060325763949303	-0.2038700849391852	-0.204942581727807	-0.2344987461760024	-0.2492577802265138	-0.1275098611686754	-0.1900334924007252	-0.162524702093283	-0.1364967037981595	-0.0898798199834146	-0.1876500940629002	-0.196705754587385	-0.1237587914452328	-0.2323514215418231	-0.2358489090502704	4.8935643193518015	11.866916917064913	167.068	165.492	167.066	167.254	166.78	169.894	166.024	165.182	164.418	168.224	168.924	166.234	167.234	169.09	167.296	166.322	166.17	166.112	166.446	167.072	167.9	163.102	164.886	163.682	155.97	1	1
CPM00022772-PL-D-20220430_20220526	CPM00022772	ctDNA-7R1-5	4/30/2022	True Baseline Relpase ü	At relapse	NO		Abnormal	Metastatic	Metastatic	Metastatic	Bilateral lung mets	Clear Cell Sarcoma of Kidney 	Renal tumor	CC Kidney	F	5		Disease Progression: 06/10/2022 			0.0	-0.2301853011752068	-0.2514383473551273	-0.3135828138711143	-0.3439378549629587	-0.2950453655917226	-0.2948170855028518	-0.2622435436199152	-0.2623158899412041	-0.3200592569820055	-0.3076119532326566	-0.3214287057871101	-0.2989072763893114	-0.2852889632120188	-0.2941819669021567	-0.3137107806392116	-0.2741569203733175	-0.306739145312465	-0.3011444193556744	-0.2798243083468527	-0.3187690074406044	-0.2522115724078984	-0.3005581210026793	-0.3252532621281969	3.68949015669754	3.0639217048347183	6.752370979076691	183.014	181.578	180.262	181.374	180.612	183.53	183.16	185.63	180.016	177.938	183.156	178.246	179.584	185.446	180.046	183.234	183.96	180.356	180.238	180.346	185.484	184.978	178.892	166.604	184.988	0	1
CPM00022118-PL-D-20211217_20220302	CPM00022118	ctDNA-8N-1	12/17/2021	Post Surgery/Pre Therapy Baseline ü	On therapy	NO		Non-informative	Metastatic		Metastatic	Bilateral Lung mets	Papillary Thyroid Carcinoma	Thyroid tumor	Thyroid tumor	F	6				A TPR-NTRK1 fusion was identified	0.0	-0.2229558784229542	-0.2258117396943738	-0.2248622803090329	-0.225900373426469	-0.2267384699515044	-0.2249965462448528	-0.2228188749102331	-0.2268013566794587	-0.2238173779172111	-0.2239172172788283	-0.2238815801692281	-0.2247209639424018	-0.225201717554409	-0.2239303681378795	-0.2264329146933885	-0.2153194858432398	-0.2170231652890937	-0.2268095691991924	-0.2062121417105159	-0.2220644972735102	-0.2178827351401887	-0.2168666372911822	-0.227298362289591	0.2438176887028813	4.878446564665859	2.878502877451949	178.036	181.18	178.942	176.802	180.78	180.036	177.712	177.678	176.408	175.39	179.854	178.398	177.056	174.874	180.82	177.246	179.968	177.092	179.12	181.056	174.832	183.834	178.18	168.682	153.622	0	1
CPM00009805-PL-D-20191112_20220330	CPM00009805	ctDNA-8R-1	11/12/2019	True Baseline Relapse	At relapse	NO		Non-informative	Localized	Metastatic	Metastatic	Thyroid bed	Stage III Medullary Carcinoma (2017)                      Relapse site; L neck and L supraclavicular nodes 11/2019	Thyroid tumor	Thyroid tumor	F	9				A RET p.Met918Thr activating mutation identified	0.0	-0.2498481547597915	-0.2547477849780162	-0.2560186523247932	-0.2523036318659851	-0.2520217149641853	-0.2494593356111711	-0.2444046137708576	-0.2564073508731893	-0.2525511960945393	-0.2479529283419048	-0.2529777229830606	-0.2540189101922532	-0.2535707925547367	-0.2465695483267625	-0.2518075343474721	-0.2366382040229587	-0.2292194698826746	-0.2550323104001691	-0.2041639900112319	-0.2431186745967176	-0.22747541641871	-0.2411907089431885	-0.2617876508066228	0.8996279301496177	4.773658366921374	5.457766702500862	166.07	166.46	169.664	168.58	167.236	165.336	168.172	167.022	170.09	169.332	168.24	168.496	164.844	166.75	169.526	169.112	167.998	167.906	167.398	170.244	168.184	167.736	168.128	158.668	163.742	0	1
CPM00009029-PL-D-20190807_20220330	CPM00009029	ctDNA-9N-1	8/7/2019	Post Surgery/Pre Chemo Baseline	On therapy	YES	Non-informative	Non-informative	Localized		Localized		Stage II Left testicular mixed germ cell tumor	Germ cell tumor	Germ cell tumor	M	16				No clinically established variants	0.0	-0.2074353382247344	-0.2151820445820027	-0.2078407904022945	-0.2066940419939248	-0.2135406643589755	-0.2069369196373999	-0.2069705422906912	-0.213098219340542	-0.2079723901186877	-0.2019723886905341	-0.2087845443767484	-0.2058467464064633	-0.2108908937387775	-0.2066456561124296	-0.2149303994021975	-0.2013332173634669	-0.1942697188525309	-0.2114552911564168	-0.1802532240865579	-0.2115758786675491	-0.1887490384776581	-0.1916401956372387	-0.2105062362927172	-0.1741940118756001	4.898718392086138	2.6538246994982675	179.8338264527914	179.606394282916	179.664757732789	179.17603278244368	179.36150080103778	179.6390975694536	179.51577147726528	179.2683394464394	179.3990032555271	179.7820345026588	179.84195564154643	179.79698666453095	179.5320283457433	179.78478285723062	179.86887497537597	179.47020970201572	180.5844178515457	179.51815101790646	181.1386174565116	180.166293583003	179.35094746760703	180.9647297567668	178.73742086547637	173.13260112797272	166.21621621621622	0	1
CPM00020421-PL-D-20190926_20211027	CPM00020421	ctDNA-9N-2	9/26/2019	Post Surgery/Pre Chemo Baseline	On therapy	NO		Non-informative	Localized		Localized		Stage III Left testicular mixed germ cell tumor 	Germ cell tumor	Germ cell tumor	M	16					0.0	-0.2167451996277783	-0.2399582683940608	-0.2456445655893182	-0.2674041895304879	-0.2518658999007649	-0.2461681709927289	-0.217531730707094	-0.2287841119681472	-0.2263699925281587	-0.2183934042421961	-0.2261635819413135	-0.2196887594177319	-0.2696956497142468	-0.2379061946804458	-0.2082511708702363	-0.1302589240552479	-0.1520448335898016	-0.2461338832293379	-0.0865727852620028	-0.1829799384716247	-0.1876323012963299	-0.1366130572422247	-0.2151077898378472	-0.0335001174046991	4.891414520493824	33.618513723882764	180.556	182.514	180.31	181.178	179.73	181.226	183.394	181.82	181.414	181.044	180.932	183.608	181.892	182.182	185.086	181.14	179.536	181.882	178.02	178.872	181.086	180.736	179.1	174.58	200.092	0	1
CPM00011754-PL-D-20200708_20211027	CPM00011754	ctDNA-9N-3	7/8/2020	True Baseline ü	At diagnosis	YES	Abnormal	Abnormal	Metastatic		Metastatic	Bilateral Lung mets	Stage III Left testicular mixed germ cell tumor	Germ cell tumor	Germ cell tumor	M	14				No Oncokids?	0.0	-0.2120176211835189	-0.210484372407851	-0.2072080065565241	-0.1954677472328902	-0.2094596838809163	-0.2016016160734564	-0.2092086009583263	-0.2138390621191658	-0.2067349204211828	-0.2108936662137923	-0.2084232851189424	-0.2161242176612977	-0.2066914565742547	-0.2101072587193763	-0.2168117800184228	-0.201709318471302	-0.2090829199601302	-0.2084039077166361	-0.1844377075145251	-0.2264008234829266	-0.191103466144606	-0.216530960319021	-0.1977536369869047	-0.1277096934383004	4.898205729174273	4.040762568688972	179.264	179.572	178.63	178.204	180.062	178.698	179.276	178.236	179.862	175.522	178.096	175.262	178.27	179.13	181.946	174.818	179.166	181.036	181.0	177.936	176.872	175.898	177.596	172.924	176.24	1	1
CPM00020419-PL-D-20210322_20220330	CPM00020419	ctDNA-9N-4 (R)	3/22/2021	Post Surgery/Pre Chemo Baseline	On therapy	NO		Non-informative	Metastatic	Metastatic	Metastatic	Bilateral Lung mets	Stage I Left testicular mixed germ cell tumor	Germ cell tumor	Germ cell tumor	M	16			 Came on study as relapse	No Oncokids?	0.0	-0.2076362269904574	-0.2092439851271624	-0.2059660655867803	-0.2001013855316492	-0.2056348272750085	-0.2043733733358632	-0.2083893215842517	-0.2100406369706681	-0.2102367360773168	-0.2128602006964784	-0.2054295923838245	-0.2031167995881437	-0.2032346285516725	-0.2066636897862197	-0.2143148915249288	-0.2083870941504148	-0.2028071855510904	-0.2091851101185401	-0.1887463004949185	-0.2143680876581922	-0.1909641570107743	-0.2153529753700247	-0.1993314432253422	-0.1623206294963395	4.898705344086063	3.3663931331719925	173.476	175.962	175.702	171.428	174.796	174.696	174.076	172.894	176.176	173.728	173.844	174.788	174.73	176.776	174.798	175.542	174.554	172.314	174.152	175.95	173.002	175.784	172.152	171.766	162.864	0	1
CPM00019054-PL-D-20210429_20211027	CPM00019054	ctDNA-9N-5	4/29/2021	True Baseline 	At diagnosis	YES	Abnormal	Abnormal	Localized		Localized		Stage I Ovarian mixed malignant GCT	Germ cell tumor	Germ cell tumor	F	9		11/19/2021 - CT showed Progressive enlargement of soft tissue lesion and rising AFP		Activating hot-spot mutation c.2447A>T (p.Asp816Val) was detected in the KIT gene.	2.0	-0.2804506207067625	-0.2836206956199316	-0.2853951437968574	-0.2818107720736494	-0.2892594715581991	-0.2755116715341206	-0.2807220143025543	-0.2847721610578864	-0.2889277845955247	-0.2786131319714502	-0.2801084548393965	-0.2690468672927671	-0.3033286622861012	-0.2832828769757597	-0.2875890045133682	-0.2618759072045306	-0.2654795285848724	-0.2845229381695407	-0.2365980373158636	-0.2764808652917927	-0.2565004752796085	-0.275130944224122	-0.2985325365525303	2.045724691052134	4.361835874695059	2.344858383522649	163.992	164.418	166.494	165.634	164.426	165.228	165.986	164.972	165.112	165.914	165.618	165.874	167.064	164.364	165.924	165.866	165.096	164.23	166.16	165.538	163.386	164.4	164.734	160.566	165.682	1	1
CPM00019463-PL-D-20210517_20210909	CPM00019463	ctDNA-9N-6	5/17/2021	True Baseline 	At diagnosis	YES	Abnormal	Abnormal	Localized		Localized		Mediastinal Germ Cell Tumor	Germ cell tumor	Germ cell tumor	M	18		07/02/2021 - Newly appearing mass within the left kidney which could represent a new focus of germ cell tumor                                                                                                  08/05/2021 - CT Chest shows further progression		KRAS p.Gln61Arg and TP53 p.Leu194Pro variants were identified.	2.0	-0.219450453289972	-0.1900774192983781	-0.1741890302444045	-0.2167645297054576	-0.2617504584123489	-0.2577553739864212	-0.2214399428310343	-0.2922845903980438	-0.1911392098800438	-0.2223819282787415	-0.252611814144111	-0.2376696131807318	-0.2596240428677377	-0.171799654289157	-0.2282924425242224	-0.1403921119859672	-0.1536165395052086	-0.2262323758546153	-0.1521203383290592	-0.2041044957819617	-0.1728075824559112	-0.1391747238323942	-0.2218315536144186	-0.0862082138282053	4.893718438518546	7.04370353321911	178.064	177.678	179.49	176.96	178.862	179.17	176.114	180.386	174.858	177.308	180.198	179.016	174.348	177.568	179.698	173.526	180.858	174.432	179.248	173.462	176.25	174.604	173.912	170.912	179.76	1	1
CPM00022119-PL-D-20210910_20220302	CPM00022119	ctDNA-9N-7 (R)	9/10/2021	Post Surgery/Pre Chemo Baseline	On therapy	NO		Non-informative	Localized	Localized	Localized		Stage I mixed malignant left testicular Germ Cell Tumor	Germ cell tumor	Germ cell tumor	M	16	Pablo	11.09.2021 - disease recurrence radiographically confirmed on 	Elevated Beta HCG post orchiectomy (5/31/21)	No CMA/Oncokids	0.0	-0.2181957678432184	-0.2240041179815429	-0.2225981484153998	-0.211719404737508	-0.2186628885066012	-0.2138368794053636	-0.201737703672706	-0.2159232047442929	-0.2247083229617092	-0.2199416145828567	-0.2132133802848127	-0.2100219722595771	-0.2188707607129093	-0.2093054599858851	-0.2164291503974161	-0.1949330935739879	-0.2110240580019674	-0.2214080915185342	-0.1497758183156565	-0.2120053249213385	-0.1973463357457293	-0.2026452580423172	-0.1985541668773734	-0.0697456048703238	4.896606528359032	4.609222978881325	183.416	175.722	173.812	173.968	178.694	179.658	176.008	175.164	175.22	174.754	177.848	176.308	173.838	178.216	177.552	177.65	179.006	172.83	173.502	177.76	177.678	174.562	174.568	169.034	191.4705882352941	0	1
CPM00022120-PL-D-20210831_20220302	CPM00022120	ctDNA-9N-8	8/31/2021	Post Surgery/Pre Chemo Baseline	On therapy	YES	Abnormal	Abnormal	Metastatic		Metastatic	Retroperitoneal mass	Metastatic Right testicular malignant mixed germ cell tumor (predominatnt yolk sac tumor)	Germ cell tumor	Germ cell tumor	M	18		1/19/22 - Admitted with increased AFP and abdominal pain and distention, found to have recurrent disease 		KRAS gene amplification was identified	5.0	-0.1816857176040545	-0.2114615542731504	-0.1996146166373028	-0.2264823710812322	-0.218877520430006	-0.2287737612318307	-0.1952071022934649	-0.2160839034510356	-0.2230941334577086	-0.2010902169755735	-0.2225615721896258	-0.1512253694322168	-0.2377498986739514	-0.1913808225026612	-0.225031620558226	-0.2041811067077207	-0.1874036499542192	-0.2493555411713875	-0.2155015170975828	-0.1748119546904885	-0.1856792258735546	-0.2065030062454099	-0.1434137724307608	-0.2003668025755361	4.897536757538703	18.807900096731327	166.874	168.284	166.158	167.802	171.16	165.318	165.336	166.584	170.942	168.074	167.702	167.396	166.626	165.156	168.518	161.938	170.204	166.094	168.118	167.382	166.612	168.996	164.606	165.03	131.088	1	1
CPM00020420-PL-D-20191029_20211202	CPM00020420	ctDNA-9R-1	10/29/2019	True Baseline Relapse	At relapse	NO		Abnormal	Localized	Metastatic	Metastatic	Bilateral lung mets and L kidney 10/28/2019	Stage I Left testicular mixed Germ Cell Tumor 11/30/2018	Germ cell tumor	Germ cell tumor	M	18					0.0	-0.2048366300460364	-0.2139589105373284	-0.2049918762709621	-0.2051346977959345	-0.210183169092069	-0.2140042703208708	-0.1987719784451103	-0.2175181772001298	-0.2134635372862219	-0.2136137490763605	-0.2051809272081741	-0.1974624942206159	-0.2084455691275284	-0.2077235875858561	-0.2198287247362746	-0.1994994350386292	-0.2099218996800743	-0.2139390342654575	-0.1860372353884107	-0.209500245288233	-0.1883398151547954	-0.2218411721697751	-0.1829033557675914	-0.151364899899981	4.898465391602421	10.834072516876226	175.374	177.48	180.456	171.716	180.022	180.5	177.022	172.662	177.492	178.192	177.232	175.964	177.746	175.612	176.7	177.338	181.318	174.044	176.752	175.836	173.626	175.318	177.548	171.22	170.618	0	1
CPM00011648-PL-D-20220225_20220406	CPM00011648	ctDNA-9R-2	2/25/2022	True Baseline Relapse	At relapse	YES	Abnormal	Non-informative	Metastatic	Metastatic	Metastatic	Bilateral Lung mets	Stage IV left testicular mixed germ cell tumor	Germ cell tumor	Germ cell tumor	M	18					0.0	-0.2236020005264647	-0.2221531109716923	-0.2305197964748317	-0.2094395652663755	-0.2268709016744427	-0.2159522388640745	-0.2161553340566724	-0.2255876207967581	-0.2273831630436826	-0.2140268079167738	-0.2244594249374	-0.2133526004060439	-0.2317306970505604	-0.2245475692869557	-0.2344155072371379	-0.1903468706312532	-0.1955981797743138	-0.2208129673681374	-0.1658878698277225	-0.2217980588349693	-0.1603248680896127	-0.2324362582073085	-0.19733819551916	0.0323205645532818	4.892419042209063	2.04087669855088	175.916	177.97	178.242	182.886	178.178	178.192	178.966	176.27	175.978	176.82	181.53	180.032	176.34	178.044	181.256	185.394	177.362	179.542	178.714	178.714	180.734	175.962	178.686	173.242	202.79768786127167	1	1
CPM00010410-PL-D_20220302	CPM00010410	Control	Control	Control	Control	Control	Control	Non-informative	Control	Control	Control	Control	Control	Control	Control								-0.2333233246571549	-0.2402733192483756	-0.2428082222864883	-0.2446895700290192	-0.2447583330047106	-0.2397895709336986	-0.2381181166403773	-0.243594026268533	-0.2371448109485485	-0.2392408580416039	-0.2377714865398122	-0.2372472715524134	-0.2447595487023768	-0.2404131846060972	-0.2367928160399707	-0.2256904253947752	-0.2199466985148916	-0.2440288015452714	-0.1998318722331068	-0.2325931792438953	-0.2310536244612089	-0.221505952000962	-0.2498353145990997	0.5911354884989016	4.834074838993492	4.9241084229640855	180.978	184.47	182.13	181.812	179.978	183.518	184.128	179.238	179.836	179.022	182.21	182.546	179.826	180.986	181.592	181.486	185.732	178.922	182.908	178.954	183.23	183.84	180.68	167.072	157.93	0	0
CPM00010412-PL-D_20220302	CPM00010412	Control	Control	Control	Control	Control	Control	Non-informative	Control	Control	Control	Control	Control	Control	Control								-0.2080320762177186	-0.2055442720026213	-0.2056888312314932	-0.2030405273575517	-0.2058867018289611	-0.2037368416500824	-0.2049033447809735	-0.2080529488274525	-0.2068266210421801	-0.2080738473699956	-0.2080760230192479	-0.2054471594734478	-0.2028320372414226	-0.207315231780602	-0.2128422262186766	-0.203652881345542	-0.2053239586028765	-0.2068700727969857	-0.193609656788626	-0.2107588253451304	-0.1959118461790996	-0.2132687994334596	-0.2014056766136168	-0.1717281808098662	4.898828587957631	5.978715482637072	171.632	171.312	173.516	168.704	171.766	169.874	172.866	169.67	170.548	173.27	172.636	169.898	170.934	174.534	172.544	172.634	175.148	174.08	171.188	175.228	174.204	174.322	174.856	167.858	155.732	0	0
CPM00010411-PL-D_20220302	CPM00010411	Control	Control	Control	Control	Control	Control	Non-informative	Control	Control	Control	Control	Control	Control	Control								-0.2817790827595322	-0.2874427300408789	-0.2905144206455534	-0.292401382756896	-0.2934568873075703	-0.2850233370055447	-0.2791061410327671	-0.2926052964378973	-0.2813874388772986	-0.2803272348831297	-0.2896032141834706	-0.2854381489431716	-0.293931023116269	-0.2924883263866158	-0.282798565195078	-0.270456855905675	-0.2526586333916422	-0.2928167787444314	-0.2193565502448128	-0.2847436301542189	-0.2626315715243005	-0.2468899907369525	-0.3072500371159612	2.1234126370533737	4.321694640336293	18.354851884182903	177.44	180.844	176.672	177.316	181.136	179.772	176.22	173.952	174.128	175.944	177.116	178.646	173.784	179.154	176.446	176.344	181.436	177.184	180.166	176.946	178.34	180.414	178.708	166.534	180.308	0	0
CPM00010413-PL-D_20220302	CPM00010413	Control	Control	Control	Control	Control	Control	Non-informative	Control	Control	Control	Control	Control	Control	Control								-0.2136267866889847	-0.2166080532550765	-0.2200038338085341	-0.2075934480331967	-0.2205559577200494	-0.2094594059925434	-0.2079434802412754	-0.2201766810109704	-0.2086711003866791	-0.2161998740508237	-0.2160628936688695	-0.2099688440420886	-0.2051488060920727	-0.2159895297456999	-0.2148252903270877	-0.189500620650756	-0.202577302214646	-0.2273460836345889	-0.1715361727727812	-0.2265904595768226	-0.1730859146281246	-0.2073836852420894	-0.2067141071887205	-0.0896383423210091	4.897206673293494	15.762045014679453	174.984	174.376	174.556	173.178	170.782	171.892	173.308	173.7	170.736	175.084	170.798	180.084	172.22	174.702	175.118	173.596	176.182	172.306	175.276	171.19	171.512	174.448	172.514	164.892	195.35	0	0
CPM00011386-PL-D_20220330	CPM00011386	Control	Control	Control	Control	Control	Control	Non-informative	Control	Control	Control	Control	Control	Control	Control								-0.2273236093343797	-0.2361983288064667	-0.2353655904103747	-0.2393483436876071	-0.2359061017795175	-0.2333338460245727	-0.2304836521711948	-0.2369088557481045	-0.2312179105954335	-0.2330447867722735	-0.2326027624700417	-0.2291737504718702	-0.2393351454246812	-0.2296442445377353	-0.2307021368894442	-0.2200214060040535	-0.209908281067312	-0.2427521220655431	-0.1849558850833053	-0.22071709169784	-0.2320273261312121	-0.2145804563005108	-0.2429555285211351	0.4081526829261877	4.860354479068424	5.267554851646285	173.4	174.378	177.274	173.92	176.174	177.156	179.484	175.51	176.604	175.762	173.122	175.444	176.68	175.236	178.398	175.72	175.386	174.244	172.456	175.0	176.62	177.24	170.462	163.434	152.31	0	0
CPM00011381-PL-D_20220330	CPM00011381	Control	Control	Control	Control	Control	Control	Non-informative	Control	Control	Control	Control	Control	Control	Control								-0.2077144754650452	-0.2119622793987177	-0.2097995126764731	-0.2096663354104043	-0.2107045526762319	-0.2034758352469247	-0.2050614998539014	-0.2112546705927797	-0.2124321347123481	-0.2102008400321897	-0.2076652465654932	-0.2038165202860931	-0.2124502095106125	-0.2113523893124867	-0.2145593964064354	-0.1977351746846196	-0.19086349004982	-0.2148095163332376	-0.1657926782899148	-0.206922847791165	-0.2011718026184217	-0.2070402871278505	-0.1951245279688939	-0.1770878668290299	4.89866408983909	15.774671423759235	166.248	167.238	165.364	161.978	165.57	165.182	163.842	165.16	161.59	164.65	166.686	164.514	162.654	166.072	165.858	165.798	163.27	167.12	165.206	162.328	164.394	163.008	164.106	163.908	160.308	0	0
CPM00011387-PL-D_20220330	CPM00011387	Control	Control	Control	Control	Control	Control	Non-informative	Control	Control	Control	Control	Control	Control	Control								-0.2100863788916204	-0.224510002366365	-0.2264577292509924	-0.2221983001970821	-0.2249471285508757	-0.2227981698990639	-0.2143758097918133	-0.2279976416555303	-0.2137236114334142	-0.222892529438806	-0.2184384391861496	-0.2094627878636424	-0.2233969355239596	-0.2145925004666958	-0.2134390938472374	-0.1744168910688705	-0.1829537048090688	-0.2242162975844415	-0.1299953349606726	-0.2011213040926334	-0.2024387202659477	-0.1802189578174372	-0.2009551769205669	-0.1113458646717272	4.896979310554618	8.833586130419425	181.316	184.304	182.132	185.398	182.63	181.722	180.536	181.328	179.29	177.586	180.228	181.282	184.14	181.188	183.382	182.898	182.842	180.808	183.494	180.67	179.21	181.362	179.53	173.216	169.596	0	0
CPM00017273-PL-D_20220330	CPM00017273	Control	Control	Control	Control	Control	Control	Non-informative	Control	Control	Control	Control	Control	Control	Control								-0.2011316995176143	-0.2177585350528129	-0.219749560399433	-0.2255695376752466	-0.2212845430838221	-0.218738299664264	-0.216569117773186	-0.2298142284695128	-0.2151925573717848	-0.2127160948992882	-0.2106845267225846	-0.2098797243258761	-0.2253308150207364	-0.2088770831872355	-0.2162958747962409	-0.1765206426017743	-0.1701497893391773	-0.2381052027064806	-0.1291498331793088	-0.2107731968012879	-0.2062656407102868	-0.1800934353357131	-0.2042972021795286	-0.1323085304527437	4.897255671265941	8.021004956496947	179.056	181.242	184.4	183.696	180.042	181.246	187.358	180.404	178.984	185.896	178.54	185.324	183.88	184.88	176.568	183.234	181.68	182.892	182.516	181.948	182.638	181.168	180.554	178.434	176.778	0	0
CPM00013753-PL-D_20220330	CPM00013753	Control	Control	Control	Control	Control	Control	Abnormal	Control	Control	Control	Control	Control	Control	Control								-0.2285934375457875	-0.2317710638525166	-0.2287393559391151	-0.2286063973990745	-0.232678939208507	-0.2297169565812452	-0.2240909932941999	-0.231889785280156	-0.2283251396650272	-0.2305816110417034	-0.2254888185675676	-0.2279108513790302	-0.2279022450150725	-0.227096581205605	-0.2315883420884283	-0.217525116835185	-0.213005614810669	-0.2354829506026665	-0.1866902582508819	-0.2269414144446622	-0.219104808372942	-0.2213505924394048	-0.2264239357718986	0.3096842155054087	4.871820994085937	6.495524222512923	173.186	174.018	174.76	173.878	171.856	171.894	174.258	169.994	170.572	177.022	172.4	172.812	169.208	172.938	174.516	171.464	173.464	174.024	169.744	171.612	171.086	172.49	169.798	160.87	160.486	0	0
CPM00012465-PL-D_20220330	CPM00012465	Control	Control	Control	Control	Control	Control	Non-informative	Control	Control	Control	Control	Control	Control	Control								-0.2528911249012969	-0.2714723792543159	-0.259978705998437	-0.2732248149949041	-0.2703208293462864	-0.262344934979212	-0.2583895184353093	-0.2730964558864715	-0.2726830811394225	-0.26196706251865	-0.2584452470599122	-0.2508292208444745	-0.267395689084484	-0.2603566949242145	-0.2607924431483454	-0.2253448164798047	-0.2173680240359702	-0.2717021391627424	-0.1521854175668382	-0.2426259113040747	-0.2481455022465492	-0.2202543276792034	-0.2750303531759011	1.0789305246907472	4.727914169476072	221.7228911369922	172.828	169.106	172.506	173.92	171.926	172.982	169.888	172.866	169.806	170.54	172.218	175.314	172.016	171.132	169.188	169.006	174.414	174.032	171.356	172.584	174.366	168.824	170.29	159.98	177.546	0	0
CPM00012343-PL-D_20220330	CPM00012343	Control	Control	Control	Control	Control	Control	Non-informative	Control	Control	Control	Control	Control	Control	Control								-0.2059582316572871	-0.2193691620592006	-0.215717347986752	-0.2321224033740817	-0.2249457269949288	-0.2167129560097774	-0.2117605594916422	-0.2322286047971729	-0.2016424122480527	-0.2137847025809647	-0.2163996451521791	-0.2107622322514788	-0.229546196464236	-0.2140580200735199	-0.2101660253931971	-0.1790236971157909	-0.1711413903633908	-0.2271030156875351	-0.1249582844052192	-0.2018545502884875	-0.2023504611340783	-0.1945604865941404	-0.1938107127625966	-0.1474740983596094	4.897450923245315	29.235874490938333	173.414	174.324	177.352	172.294	173.52	174.604	175.258	169.436	176.934	172.112	174.168	173.96	173.36	175.288	174.004	171.282	171.198	175.124	175.494	177.726	176.758	178.14	173.716	167.368	172.282	0	0
CPM00012460-PL-D_20220330	CPM00012460	Control	Control	Control	Control	Control	Control	Non-informative	Control	Control	Control	Control	Control	Control	Control								-0.2210068673269315	-0.2229356307177159	-0.2218936675005592	-0.2235305286527612	-0.2210380562274184	-0.2205624222746388	-0.2200480026727203	-0.222524347365871	-0.2219834011144399	-0.2231434709049445	-0.2194087630013176	-0.2192167524354467	-0.2239375966159888	-0.2166511882588682	-0.2174978974058597	-0.2122561114621711	-0.2115131928120744	-0.2235624720472875	-0.1985519787470421	-0.218542028743442	-0.2157505744397093	-0.2163112915543556	-0.2212905247307157	0.1468150899344633	4.886341677077816	4.673121431530522	177.426	177.966	174.852	175.222	170.876	178.284	177.402	176.65	175.47	174.772	175.346	178.77	176.236	177.798	174.11	174.728	180.598	179.09	174.802	176.992	175.498	176.404	174.61	159.766	138.098	0	0
CPM00012462-PL-D_20220330	CPM00012462	Control	Control	Control	Control	Control	Control	Abnormal	Control	Control	Control	Control	Control	Control	Control								-0.2063400159852342	-0.2100552305529658	-0.2041966703771224	-0.2072547971182485	-0.2086453956593327	-0.2068664662337321	-0.2050789662450859	-0.2095930312625141	-0.2087576093124435	-0.2102430160755271	-0.2065957107372729	-0.2031420554827621	-0.2050707719673745	-0.2025950467446492	-0.2100197389156312	-0.1982638231797592	-0.2050883547333736	-0.2112407058849366	-0.1857814881793361	-0.2150193014113499	-0.2064498681942936	-0.2131428932556695	-0.1930866391415918	-0.1662168042708783	4.898744400921085	11.160512815391897	170.348	168.464	170.622	171.852	170.312	164.48	171.318	170.416	171.812	167.536	171.514	171.466	171.914	168.808	167.748	168.618	169.286	169.35	171.564	168.336	171.8	172.602	170.2	165.052	140.662	0	0
CPM00012344-PL-D_20220330	CPM00012344	Control	Control	Control	Control	Control	Control	Non-informative	Control	Control	Control	Control	Control	Control	Control								-0.2063525281715157	-0.2097194851994408	-0.2093790547637803	-0.2084214519806687	-0.2119554553903485	-0.2057124453598262	-0.2083889529447309	-0.2130523155772034	-0.2072661639667822	-0.2073390013061716	-0.2039529295820341	-0.2015247649702046	-0.2088398584231521	-0.2084259144350775	-0.2078113864597468	-0.1989066927356221	-0.1942360699388733	-0.2164645200974166	-0.1726684438597394	-0.2020015263989493	-0.206433927738949	-0.2045813961337022	-0.2002279666490632	-0.1851233829974967	4.898785635080495	4.791045130785382	172.39	176.018	174.808	175.33	174.604	171.054	171.68	174.502	173.536	171.456	169.72	173.676	172.544	169.854	177.47	176.062	176.026	173.68	176.452	176.974	174.512	171.332	171.328	170.938	154.302	0	0
CPM00011382-PL-D_20220330	CPM00011382	Control	Control	Control	Control	Control	Control	Non-informative	Control	Control	Control	Control	Control	Control	Control								-0.2041217526624324	-0.2154238855010706	-0.2118618729947818	-0.2196857003926942	-0.2184217894738322	-0.21234680412015	-0.2065235490793432	-0.2198516269774676	-0.2097897007542155	-0.2101405565664332	-0.208795797850364	-0.2049923809248819	-0.2206742846833567	-0.2103876160810731	-0.2085510699467134	-0.1854674122261199	-0.1922420337574738	-0.2204813090598951	-0.1595783544412909	-0.2062040582143397	-0.2051024094088102	-0.1901744437519739	-0.2026339026576827	-0.1548659567409832	4.89831826826738	23.53904866968778	186.756	186.566	182.886	189.864	191.56	192.902	186.44	188.562	187.186	186.156	188.324	188.624	193.378	190.108	188.666	188.982	187.74	187.26	183.048	188.22	188.026	187.728	186.132	178.204	174.352	0	0
CPM00011389-PL-D_20220330	CPM00011389	Control	Control	Control	Control	Control	Control	Non-informative	Control	Control	Control	Control	Control	Control	Control								-0.2089159245817613	-0.2233647920181639	-0.2221299601981096	-0.2292929295834086	-0.2228757569762636	-0.2200674713536426	-0.2130508956266165	-0.223941736570782	-0.2133088232020971	-0.2180772194663626	-0.2154706512139398	-0.2112077089315181	-0.2246336475317098	-0.2096918756821467	-0.2077260276451958	-0.1780710667002055	-0.1753655806932143	-0.2267823509624681	-0.1291886474974594	-0.2080684498601217	-0.2113773684968749	-0.1756332135555839	-0.2006649604920685	-0.1283456913343506	4.897252750174067	36.9078814856864	176.642	174.872	177.48	173.96	175.886	177.118	177.236	177.092	175.626	180.204	177.128	176.652	173.72	172.662	177.638	176.8	173.496	173.42	176.662	177.462	178.642	178.472	174.108	172.084	174.5	0	0
CPM00011390-PL-D_20220330	CPM00011390	Control	Control	Control	Control	Control	Control	Non-informative	Control	Control	Control	Control	Control	Control	Control								-0.2305486385624554	-0.2415588432564687	-0.241883183081804	-0.2476712350898534	-0.2444882823892082	-0.2433979028769342	-0.2374308617643213	-0.2395756698184734	-0.2380989393644748	-0.2401074592337773	-0.2391564647658227	-0.2329462746647299	-0.2448874153098727	-0.2361570220686521	-0.2329130305064743	-0.2068258354573632	-0.2190137982818678	-0.2485871204591821	-0.1842589323041164	-0.2306807960631849	-0.2357223877847646	-0.2186331269035324	-0.248290612314275	0.5410795057637184	4.84175432655789	6.605010026705857	176.45	178.634	173.522	177.372	178.25	175.474	179.658	176.36	171.228	176.158	174.626	177.65	178.072	179.95	181.054	175.512	176.776	176.896	175.112	175.718	176.704	175.474	176.436	162.646	162.806	0	0
CPM00012461-PL-D_20220330	CPM00012461	Control	Control	Control	Control	Control	Control	Abnormal	Control	Control	Control	Control	Control	Control	Control								-0.2233368968598444	-0.257837509037897	-0.2673280818589278	-0.2936303905613319	-0.2730585274667811	-0.2674769861830007	-0.2470920956383059	-0.2694425289308167	-0.2427701968628634	-0.2354850627554467	-0.2388303420063943	-0.2434305835907494	-0.2898326623971272	-0.2461029779382806	-0.2236552870472539	-0.1902996629085284	-0.1378564633219925	-0.2761656854820001	-0.0546206260397627	-0.1951738086841985	-0.2471949489786838	-0.1113729243713611	-0.2763424382998453	0.462221415070742	4.846115272150652	4.116289201935658	159.79	159.34	161.994	160.322	161.034	164.816	162.096	162.202	163.498	159.554	162.34	163.746	162.032	162.966	165.886	158.66	161.21	161.286	161.536	159.278	161.45	163.082	161.992	152.314	134.364	0	0
CPM00022322-PL-D_20220330	CPM00022322	Control	Control	Control	Control	Control	Control	Non-informative	Control	Control	Control	Control	Control	Control	Control								-0.201270773292747	-0.2160572814700657	-0.2111216484779544	-0.2192336596777315	-0.2174149153679277	-0.2129988963542429	-0.2117586387152314	-0.2172785023170564	-0.2041058801856191	-0.2066328301682652	-0.2058387913075449	-0.205615303485409	-0.2191510785591477	-0.2151369360356749	-0.210890400361522	-0.1843835750597996	-0.1837137318015418	-0.2218063431995502	-0.1510657252970359	-0.1982747193324058	-0.1993540730919215	-0.1809988666292347	-0.204565930524215	-0.1997363816836808	4.898404882395528	44.86309061017489	172.306	177.188	177.158	171.65	172.258	174.716	171.72	172.64	175.712	175.146	175.634	173.856	172.67	172.686	176.598	173.88	175.44	173.822	173.634	173.332	174.372	179.328	169.758	170.338	168.244	0	0
