,aDC,Adipocytes,Astrocytes,B-cells,Basophils,CD4+ memory T-cells,CD4+ naive T-cells,CD4+ T-cells,CD4+ Tcm,CD4+ Tem,CD8+ naive T-cells,CD8+ T-cells,CD8+ Tcm,CD8+ Tem,cDC,Chondrocytes,Class-switched memory B-cells,CLP,CMP,DC,Endothelial cells,Eosinophils,Epithelial cells,Erythrocytes,Fibroblasts,GMP,Hepatocytes,HSC,iDC,Keratinocytes,ly Endothelial cells,Macrophages,Macrophages M1,Macrophages M2,Mast cells,Megakaryocytes,Melanocytes,Memory B-cells,MEP,Mesangial cells,Monocytes,MPP,MSC,mv Endothelial cells,Myocytes,naive B-cells,Neurons,Neutrophils,NK cells,NKT,Osteoblast,pDC,Pericytes,Plasma cells,Platelets,Preadipocytes,pro B-cells,Sebocytes,Skeletal muscle,Smooth muscle,Tgd cells,Th1 cells,Th2 cells,Tregs
Mutation in Cancer Gene,NA,NA,NA,NA,NA,NA,NA,NA,NA,NA,NA,NA,NA,NA,NA,NA,NA,NA,NA,NA,NA,NA,NA,NA,NA,NA,NA,NA,NA,NA,NA,NA,NA,NA,NA,NA,NA,NA,NA,NA,NA,NA,NA,NA,NA,NA,NA,NA,NA,NA,NA,NA,NA,NA,NA,NA,NA,NA,NA,NA,NA,NA,NA,NA
No Cancer Gene Mutations,0.0294272399554322,0.0164549303827386,3.2679435000301397e-18,0.01670462612250615,0.205692413808253,1.35537912183311e-18,1.8399996155661448e-18,6.9375691954761506e-18,2.186442282236095e-17,0.1052284775674619,0.0489767925091984,0.0193428935907101,2.894260735537455e-19,3.1069542012126598e-18,0.002074964912839,0.0,0.07868541712511265,0.2098589699204415,3.46267239238253e-18,6.046821076413051e-20,0.01677507340645955,3.973569554157945e-18,0.00182845496440665,0.0,1.243168038842905e-17,6.23697284100853e-18,0.0,0.060482364956116,0.0594381122351829,0.0013595486405028503,0.0098675328016839,0.023221906094037348,0.016124347849900397,0.00854584572735635,0.0034800965282527,0.0,0.0032723571521922,0.0062019533266126,1.64710268960471e-19,0.01561702113939165,4.333325022909655e-19,0.012039875110838164,0.0753989479303515,0.00351852888374025,0.0005448544220907,7.6399631514768e-18,0.0018560304693047,0.0,2.8238164189529398e-18,0.0,0.0651944638995795,0.01137641404664905,2.7866134719729606e-17,0.04482864742458695,0.005517058430446002,0.006373557571385304,0.00468980394666665,0.00142704836243995,0.004011000274294253,0.20586540906578174,1.05680540764076e-18,0.0222475673834973,0.03811308586796185,0.001947680255045607
No Mutations,1.6008398644272602e-17,0.0085536074058415,3.39652294041154e-18,0.0,0.0374819677105646,0.0125912639847321,0.0,1.28562088185837e-18,5.04863096281585e-19,0.0963590668583664,0.0270494933630923,9.15270384929196e-19,0.0073516653360336,0.0,0.0361358025074596,0.0137010748519041,1.33021414627703e-17,0.109607666605427,3.5266800380456e-18,0.0042293169061426,0.0031242709750257,0.0115959432850507,1.91172325797821e-19,0.0,0.0350049620750462,2.85590545676363e-18,1.4161778394120699e-18,0.196610567843025,0.282952116274496,1.81567044231617e-18,0.002148908511079,9.18758753156587e-18,2.04226273692084e-18,0.012926701790757,0.0042570370321718,0.0153105957842228,0.0039365545339219,0.0,2.3380563169496098e-18,0.0015511178272851,0.0,1.24895578270176e-18,4.38931686525876e-17,0.012897763052705,0.0123382366619441,1.2629558048849499e-18,0.0017354435075794,1.5684952038612299e-18,6.89475856967544e-18,0.0183717211303045,2.26769086368296e-17,0.0195460290803662,0.0311055037370458,0.0696396263872981,4.1715655174975004e-18,0.149817456165611,5.08573402141341e-18,0.0,0.0138435020853749,0.0952870861254783,4.54089441051093e-18,5.64211221118411e-19,0.307639941648357,7.85769486362852e-18
