,aDC,Adipocytes,Astrocytes,B-cells,Basophils,CD4+ memory T-cells,CD4+ naive T-cells,CD4+ T-cells,CD4+ Tcm,CD4+ Tem,CD8+ naive T-cells,CD8+ T-cells,CD8+ Tcm,CD8+ Tem,cDC,Chondrocytes,Class-switched memory B-cells,CLP,CMP,DC,Endothelial cells,Eosinophils,Epithelial cells,Erythrocytes,Fibroblasts,GMP,Hepatocytes,HSC,iDC,Keratinocytes,ly Endothelial cells,Macrophages,Macrophages M1,Macrophages M2,Mast cells,Megakaryocytes,Melanocytes,Memory B-cells,MEP,Mesangial cells,Monocytes,MPP,MSC,mv Endothelial cells,Myocytes,naive B-cells,Neurons,Neutrophils,NK cells,NKT,Osteoblast,pDC,Pericytes,Plasma cells,Platelets,Preadipocytes,pro B-cells,Sebocytes,Skeletal muscle,Smooth muscle,Tgd cells,Th1 cells,Th2 cells,Tregs
Mutation in Cancer Gene,0.025832853799484905,0.00500883410839155,3.128251870396435e-17,0.052427097779417606,0.393124306699057,0.0080351802373944,0.0,0.0,0.0,0.02810493216828545,0.013720596525328,0.0475703441446908,1.0455499796832464e-18,5.19487806949978e-18,0.10444054802391936,2.79680140555779e-17,0.1403012863071135,0.1422054206982005,2.317420405402165e-20,0.04793954731473085,0.014455541891476048,0.005674922866807,0.0150415229880363,0.00490133685222445,0.02096281684016825,0.0024920129385322,0.00405511822503355,0.335235873075046,0.13002085873598704,0.0,9.748953159635261e-19,0.01633118362980815,4.348982335555039e-18,0.0523176013743407,0.04959576279130795,0.029846089873631403,0.022600806801996998,6.34417807962693e-19,0.027220759349964298,0.00567727232231395,2.412513296688431e-17,2.6370554927566202e-17,0.2485949391177465,0.0033697874905095,0.04398783019442826,2.18235644738738e-18,0.0032830857892579,0.0015761574728568005,1.63425930591455e-17,0.1390137987340985,2.26175334318083e-17,0.116864955306144,0.0390208067376033,0.05670248061693395,0.0,0.28440940549713645,1.9642281536913155e-18,0.00068805647148255,0.0103388357746088,0.37879862360949845,4.0867650343143603e-19,0.012886702721844055,0.596098308758626,5.95590722105153e-19
No Cancer Gene Mutations,0.053453585033937795,0.01599119565036755,1.1997346905338901e-17,0.0073118096274996,0.1973623328735205,1.42712945977906e-19,2.7593777391339397e-18,6.823482919996979e-18,3.46894722642845e-18,6.02938056394805e-17,0.035692744887383096,1.219362708368425e-18,5.99354658800446e-18,0.0,0.138565549719869,6.849813959454215e-18,0.131207455675279,0.141586335924923,6.70943066707731e-18,0.0215176901006595,0.0296360776640085,0.0035448259413281,0.0108732909403191,0.0007366262949207,1.32566163302995e-18,0.01669306712722235,0.0036948047909275998,0.517206620030887,0.2010249377839585,0.0,9.46247882888654e-19,0.0023835014949934,2.23485182352254e-19,0.0279994802125224,0.0229042372645871,0.0426919462398553,0.0290479711658594,4.9185800144450045e-18,3.89722663698795e-17,6.4036449334482196e-18,5.67423916576106e-18,1.88852169460477e-18,0.40034697364253546,0.00930148991881815,0.032255917952587,3.72943363731067e-18,0.0067320252391957006,0.0028445784227047,2.76566415800195e-18,0.22297001292122498,6.464326910961935e-18,0.0842494694184764,0.06998989847857334,0.071632561740943,4.9852512418901e-19,0.326060993538704,1.0653493738117651e-17,0.0032148530558814004,0.00743225190869235,0.1506691982228605,7.930359760513884e-18,0.0345988473373561,0.3388661768829355,0.0112425522667543
No Mutations,0.013842455462869399,0.020563888951794652,2.2113766108954003e-17,7.631631864575751e-18,0.21190507664435998,3.38034246847631e-19,5.401490556656449e-19,0.0,7.363923267306965e-19,4.9832537082315555e-17,0.0401721981701085,8.062895070272524e-18,2.24259191524959e-18,3.442622852660315e-18,0.1457976060684035,3.06038806291259e-18,0.0852879084961217,0.1472975431234935,9.920054993012395e-19,0.023053429903255998,0.024016195787614047,5.035908006529089e-18,0.0098383516390807,0.00025875211148535,2.976556871791815e-17,0.017386405787315297,0.0055523378860210994,0.543433815566005,0.2720522786697465,4.0324086261230897e-22,0.00090705503320905,0.0029569243926955502,1.14935363301738e-17,0.0311226682391472,0.01183403490267565,0.0434809419044885,0.029151388942430502,5.44009134041341e-17,0.01624244212413915,7.977736825265534e-18,2.1377654788658e-19,3.66449866368687e-18,0.369058174660315,0.01163367625081255,0.042809815070305596,3.0248715588449148e-18,0.0049123403761472,5.439406020708995e-18,8.837561425215984e-18,0.253606718712603,1.62194715389219e-17,0.09345608863407434,0.062212779279664246,0.06510930118615729,9.754740009248641e-05,0.3590653656038335,5.54748264312519e-18,0.0008681582000001999,0.0058299201319147,0.111533404189329,0.0,0.03413629741261125,0.454102118404607,2.993023216715605e-17
