,aDC,Adipocytes,Astrocytes,B-cells,Basophils,CD4+ memory T-cells,CD4+ naive T-cells,CD4+ T-cells,CD4+ Tcm,CD4+ Tem,CD8+ naive T-cells,CD8+ T-cells,CD8+ Tcm,CD8+ Tem,cDC,Chondrocytes,Class-switched memory B-cells,CLP,CMP,DC,Endothelial cells,Eosinophils,Epithelial cells,Erythrocytes,Fibroblasts,GMP,Hepatocytes,HSC,iDC,Keratinocytes,ly Endothelial cells,Macrophages,Macrophages M1,Macrophages M2,Mast cells,Megakaryocytes,Melanocytes,Memory B-cells,MEP,Mesangial cells,Monocytes,MPP,MSC,mv Endothelial cells,Myocytes,naive B-cells,Neurons,Neutrophils,NK cells,NKT,Osteoblast,pDC,Pericytes,Plasma cells,Platelets,Preadipocytes,pro B-cells,Sebocytes,Skeletal muscle,Smooth muscle,Tgd cells,Th1 cells,Th2 cells,Tregs
Mutation in Cancer Gene,0.05889489024898545,0.002793012337429,0.0,0.04975330298575735,0.214368104595304,2.2271685448867047e-19,2.67663336313378e-19,9.116621003037241e-18,4.34726572287959e-18,0.026317781881286258,0.026430385666148498,0.0,0.026124178398452248,0.0,0.130437103486621,0.0022873035186859046,0.0345413646762529,0.06318079452900925,0.0,0.032093766392139705,0.048598597734948304,0.0184549254840388,0.0121738482869932,4.01051102593234e-18,0.02448678853827055,2.94906407115953e-18,0.0057928132420969995,0.0827704314309779,0.4980050663372235,3.680233920690285e-19,0.007295510062114399,0.0046433541717392,0.0183439182991225,0.0,0.01827767113569615,0.00790822212929305,0.0063664009626438495,0.01285637002491235,0.05680969590417785,0.0325158299734858,1.26726594300895e-17,4.007273464772811e-18,0.1199828207440335,0.023269769129036652,0.02639308054807645,0.0098368208790269,0.0054086697101536,4.7549596270857694e-18,1.5915118355101384e-18,0.0919993196107211,0.17127422297796,0.09569224053667885,0.17106681703347298,0.020973124157561848,0.0085009041923787,0.1816330046571935,0.005292269804288255,0.00079048648356735,0.0248466341401074,0.126495929069912,1.14762705356985e-19,0.01451690944131185,0.240185636811864,0.08858283613726961
No Cancer Gene Mutations,0.0,3.32914350856181e-19,1.3323449303080451e-17,0.0953252792240867,0.200107853774189,0.0134645957296226,1.08309862788844e-17,5.396500776836661e-19,0.0,2.282650449160625e-18,1.331642597824535e-19,4.0320404197912795e-18,4.58080843703913e-18,0.0,0.048405273762984355,0.0,0.06976801798818315,0.0270302987307989,0.0258882324726479,0.0224832760618818,0.0261341333829036,1.186669036521323e-18,0.047798253024439796,0.00407047613132945,0.178379588301316,0.119768128781469,0.0034958249598159,0.140246940487354,0.32037422280425054,3.726806792989446e-19,0.001269196867211,0.00448923546779345,0.0161785240629813,0.0042781032454496,0.0052835798694771,0.0012716689089579,0.0063603820679713,0.054860988224408144,0.0456345033595702,0.0454866339728528,1.1099218117336152e-17,3.77370882257293e-17,0.0612054890971599,0.0134435683126121,0.033018889777376,0.007026958465862,0.0010057864180745,1.4285212145771048e-19,1.44719123832808e-17,0.105491121267261,0.0971743999645631,0.002222755754093,0.119449093364082,0.01825287976743035,2.4412515884238903e-20,0.019375355728618,0.0119338443908624,0.0030778715947627003,0.015438144511234101,0.0892878594481475,0.0,6.417068297974511e-19,0.282122417633347,0.0757288413491511
No Mutations,0.0096865742149301,2.1589948138686201e-19,7.135338098313199e-19,0.0238293389510989,0.205125863907943,2.91075396414458e-19,1.4098388181138e-18,1.91872031659575e-18,1.16518926192532e-18,0.0150169784813586,0.0058658096898321,1.65117956622409e-17,0.0141260190427413,0.0,0.101231877168713,1.2331426167696299e-18,0.0215003918769262,0.0389947067728922,0.0093235805979217,0.026120843757621,0.0359183476140828,0.0015147752978872,0.0343201353746163,0.0011374106362678,0.0400639525069954,0.0283482194409759,0.0032107608168046,0.202509999685603,0.529774010231187,0.0,0.0015721147319843,1.8872045495469e-18,0.0156892255338467,0.0141382900451759,0.0151105926649997,0.0165841301910692,0.0073748956919627,1.71239129649025e-17,0.0530281664335297,0.0117990652128908,0.0,4.7851964105519694e-18,0.130082796713971,0.0077439324077636,0.0295812897325242,1.6819094527255998e-17,0.0042856689024649,0.0029114242623431,1.17271469170572e-18,0.174087126661363,0.0974247574959721,0.0438846760825088,0.136808794776042,0.0462601900126345,1.9620524268284897e-18,0.0470023956481866,8.503803399689039e-18,0.0001542417689258,0.005984187829932,0.14559764476012,6.59845196751535e-20,2.0166155134695998e-17,0.255765624974799,0.0415524435022227
