VAF	sample	mutation	ploidy	purity
0.226200388565085	CPM00013862-F-D_20210719	PAX5:ENSG00000196092:c.76dup_p.V26Gfs*49	2.0	0.8
0.0970485242621311	CPM00013862-F-D_20210719	PIK3CA:ENSG00000121879:c.263G>A_p.R88Q	2.0	0.8
0.181128293241695	CPM00013862-F-D_20210719	APC:ENSG00000134982:c.6610C>T_p.R2204*	2.0	0.8
0.131902718168813	CPM00013862-F-D_20210719	WT1:ENSG00000184937:c.1109G>A_p.R370H	2.0	0.6
0.191604848923467	CPM00013862-F-D_20210719	TP53:ENSG00000141510:c.844C>T_p.R282W	2.0	0.6
0.201708590412909	CPM00013862-F-D_20210719	TP53:ENSG00000141510:c.817C>T_p.R273C	2.0	0.6
0.219174757281553	CPM00013862-F-D_20210719	NF1:ENSG00000196712:c.1783G>T_p.E595*	2.0	0.6
