VAF	sample	mutation	ploidy	purity
0.113430127041742	CPM00011334-BM-D_20200623	NRAS:ENSG00000213281:c.181C>A_p.Q61K	2.0	0.6
0.100078802206462	CPM00011334-BM-D_20200623	APC:ENSG00000134982:c.2240C>A_p.S747*	2.0	0.8
0.120239328040502	CPM00011334-BM-D_20200623	RUNX1:ENSG00000159216:c.908C>A_p.S303*	2.0	0.8
