VAF	sample	mutation	ploidy	purity
0.140047206923682	CPM00007405-F-D_20181115	NRAS:ENSG00000213281:c.182A>G_p.Q61R	2.0	0.6
0.0951466959144502	CPM00007405-F-D_20181115	PTEN:ENSG00000171862:c.822G>T_p.W274C	2.0	0.6
