VAF	sample	mutation	ploidy	purity
0.0838323353293413	CPM00009147-BM-D_20190905	PTEN:ENSG00000171862:c.802-1G>T_p.X268_splice	2.0	0.8
0.030840400925212	CPM00009147-BM-D_20190905	RB1:ENSG00000139687:c.2326-1G>A_p.X776_splice	2.0	0.8
