VAF	sample	mutation	ploidy	purity
0.521290751829674	CPM00011849-F-D_20200908	TP53:ENSG00000141510:c.480_485del_p.M160_A161del	2.0	0.6
0.337792642140468	CPM00011849-F-D_20200908	CDKN2A:ENSG00000147889:c.247C>A_p.H83N	2.0	0.8
