VAF	sample	mutation	ploidy	purity
0.442935998806505	CPM00004702-F-D_20170829	ARID1A:ENSG00000117713:c.126_128dup_p.A45dup	1.0	0.6
0.418416572077185	CPM00004702-F-D_20170829	NF1:ENSG00000196712:c.6837A>T_p.L2279F	2.0	0.8
0.223817179604961	CPM00004702-F-D_20170829	NF1:ENSG00000196712:c.8146G>T_p.G2716*	2.0	0.8
