VAF	sample	mutation	ploidy	purity
0.847968545216252	CPM00009785-P-D_20210315	TP53:ENSG00000141510:c.375+1dup_p.X125_splice	2.0	0.8
0.0036991368680641	CPM00009785-P-D_20210315	RB1:ENSG00000139687:c.1118_1121del_p.T373Kfs*6	2.0	0.8
