VAF	sample	mutation	ploidy	purity
0.0301990391214825	CPM00014322-BM-D_20210225	KMT2D:ENSG00000167548:c.5962A>C_p.T1988P	2.0	0.6
0.33413834742108	CPM00014322-BM-D_20210225	KRAS:ENSG00000133703:c.35G>C_p.G12A	2.0	0.6
