VAF	sample	mutation	ploidy	purity
0.0824742268041237	CPM00005308-BM-D_20171012	NRAS:ENSG00000213281:c.37G>T_p.G13C	2.0	0.6
0.372719522591645	CPM00005308-BM-D_20171012	JAK2:ENSG00000096968:c.2049A>C_p.R683S	2.0	0.8
0.315418828762046	CPM00005308-BM-D_20171012	KRAS:ENSG00000133703:c.436G>A_p.A146T	2.0	0.6
