VAF	sample	mutation	ploidy	purity
0.0461883408071749	CPM00008186-BM-D_20190411	NRAS:ENSG00000213281:c.38G>A_p.G13D	2.0	0.6
0.301673944687045	CPM00008186-BM-D_20190411	KRAS:ENSG00000133703:c.436G>A_p.A146T	2.0	0.6
