VAF	sample	mutation	ploidy	purity
0.441007194244604	CPM00012899-BM-D_20200812	PAX5:ENSG00000196092:c.94C>T_p.P32S	2.0	0.8
0.258885017421603	CPM00012899-BM-D_20200812	KRAS:ENSG00000133703:c.35G>A_p.G12D	2.0	0.8
