VAF	sample	mutation	ploidy	purity
0.342626107046592	CPM00005015-BM-D_20170818	TPMT:ENSG00000137364:c.719A>G_p.Y240C	2.0	0.8
0.353224043715847	CPM00005015-BM-D_20170818	TPMT:ENSG00000137364:c.460G>A_p.A154T	2.0	0.8
