VAF	sample	mutation	ploidy	purity
0.0768712070128119	CPM00008776-F-D_20190701	PTEN:ENSG00000171862:c.802-1G>T_p.X268_splice	2.0	0.6
0.0581395348837209	CPM00008776-F-D_20190701	PTEN:ENSG00000171862:c.822G>T_p.W274C	2.0	0.6
