VAF	sample	mutation	ploidy	purity
0.440435128681348	CPM00014863-BM-D_20201203	ARID1A:ENSG00000117713:c.126_128dup_p.A45dup	1.0	0.6
0.0953436807095344	CPM00014863-BM-D_20201203	NF1:ENSG00000196712:c.1882dup_p.Y628Lfs*6	2.0	0.8
0.0539573938734256	CPM00014863-BM-D_20201203	KMT2D:ENSG00000167548:c.5962A>C_p.T1988P	2.0	0.8
0.850319829424307	CPM00014863-BM-D_20201203	TP53:ENSG00000141510:c.527G>A_p.C176Y	2.0	0.8
