VAF	sample	mutation	ploidy	purity
0.0543567331330238	CPM00012970-BM-D-RSQ2_20200818	ARID1A:ENSG00000117713:c.1326_1341dup_p.T448Gfs*180	2.0	0.6
0.0690989496959646	CPM00012970-BM-D-RSQ2_20200818	ARID1A:ENSG00000117713:c.1650dup_p.Y551Lfs*72	2.0	0.6
