VAF	sample	mutation	ploidy	purity
0.429355560073186	CPM00010190-B-D_20200129	JAK1:ENSG00000162434:c.2635C>T_p.R879C	2.0	0.6
0.470258620689655	CPM00010190-B-D_20200129	KMT2D:ENSG00000167548:c.10519C>T_p.Q3507*	2.0	0.6
