VAF	sample	mutation	ploidy	purity
0.288888888888889	CPM00010415-BM-D_20200309	HADH:ENSG00000138796:c.64_69del_p.A22_K23del	2.0	0.8
0.0403299725022915	CPM00010415-BM-D_20200309	NRAS:ENSG00000213281:c.35G>C_p.G12A	2.0	0.6
