VAF	sample	mutation	ploidy	purity
0.548863183087355	CPM00011529-P-D_20200629	TP53:ENSG00000141510:c.527G>A_p.C176Y	2.0	0.8
0.226636999364272	CPM00011529-P-D_20200629	TP53:ENSG00000141510:c.374C>T_p.T125M	2.0	0.8
