VAF	sample	mutation	ploidy	purity
0.437453737971873	CPM00006524-BM-D_20180801	NRAS:ENSG00000213281:c.38G>A_p.G13D	2.0	0.6
0.78014486578611	CPM00006524-BM-D_20180801	PAX5:ENSG00000196092:c.223A>G_p.T75A	2.0	0.8
