Mixture	B cells naive	B cells memory	Plasma cells	T cells CD8	T cells CD4 naive	T cells CD4 memory resting	T cells CD4 memory activated	T cells follicular helper	T cells regulatory (Tregs)	T cells gamma delta	NK cells resting	NK cells activated	Monocytes	Macrophages M0	Macrophages M1	Macrophages M2	Dendritic cells resting	Dendritic cells activated	Mast cells resting	Mast cells activated	Eosinophils	Neutrophils	P-value	Correlation	RMSE	Absolute score (sig.score)
GTEX.111CU.0226.SM.5GZXC	0.403979088396312	0	0	1.19661530297096	0	1.60621374422912	0	0	0.0299194564430681	0	0.10732617840974	0.208990035487297	1.2017211528432	0	0.739930562166185	2.45927920135536	0	0	0	0.451062922325377	0	0.0359221285302753	0.306	0.0491534852534639	1.06829760763678	8.4409597731569
GTEX.111FC.1026.SM.5GZX1	0.103091210866967	0.118856985010231	0	1.11029204286212	0	2.22336642773559	0	0.194082468803165	0.150918239533655	0	0.75641077922101	0.602398973210134	0.608650067655803	0.701842091346812	0.178279282957726	0	0	0	2.03112664629773	0	0	0	0.537	0.0155004468398612	1.1013450570839	8.77931521550095
GTEX.111YS.0726.SM.5GZY8	0.623482976651947	0	0.110005431351794	1.38722532022327	0	1.81819125297974	0	0.216506943934904	0	0	0.071775668770931	0.0587087011850022	0.301548187366826	0	1.02148798521166	2.88271662755242	0	0	0.317531037096637	0	0	0	0.293	0.0506779287653909	1.0713245564905	8.80918013232514
GTEX.1122O.0226.SM.5N9DA	0.0355120137905844	0	0.0616005415127695	1.57677988376928	0	2.06632835090816	0	0.326774554888432	0	0	0.389053455561317	0.258714173998516	0.355712764634857	0	0.171929745478727	1.72991016763128	0	0	0	0	0	0	0.517	0.0181369877649168	1.11247041097403	6.97231565217391
GTEX.1128S.0126.SM.5H12S	0.332143722501708	0	0.0278668415612274	2.3741964463205	0	1.96822971583401	0	0.525617578368548	0	0	0.890080513838972	0	0.933888846783948	0	1.98632285853071	2.46368196617498	0	0	0	0.0268246669852085	0	0	0.327	0.0462540337485445	1.0932021195386	11.5288531568998
GTEX.117XS.0526.SM.5987Q	0.133314318455455	0	0.00610122742986213	4.76868544817993	0	1.13946305799864	0.0339273608749013	0.538118890203799	0.114125682349857	0	0.00804475849047244	0.179154901906846	0.379718050024684	1.28064397828164	0.199993917322996	1.36110126318783	0	0	0.256419074359411	0	0.245916653164299	0	0.172	0.079739631801669	1.0893622369232	10.6447285822306
GTEX.117YW.0126.SM.5EGGN	0.914308650973033	0	0.271122970338863	5.06205234231976	0	1.87991864256217	0	1.48925225397974	0.487354002115177	0	0.0630037209947473	0.663944728080576	0.579502294820183	0.390830263905918	0.868389726687478	0.199874407055967	0	0	0	0.119051441325016	0.138181586977486	0	0.075	0.126495688877858	1.08567975267825	13.1267870321361
GTEX.117YX.1226.SM.5H11S	0.00201389804482024	0	0	2.0274536914318	0.303461286554131	1.02352396927827	0	0	0	0	0.0319749180108099	0.211461401168332	0.175870079226018	0	0.238570276506872	3.84286710272594	0	0	0.320117781589866	0	0	0	0.728	-0.00768059143857244	1.10790609848784	8.17731440453686
GTEX.1192W.0126.SM.5EGGS	0	0.0347982581160536	0.0387226095520558	3.90488862560274	0	0.784871280660161	0	0.662502587968627	0.538051942867327	0	1.15864070444245	0	0.633060812341105	0.503497102143384	1.03254972865035	0	0.0432769403369694	0	0.676416660020483	0	0.0877305166744682	0	0.337	0.0438182118736771	1.11866987688238	10.0990077693762
GTEX.1192X.1126.SM.5EGGU	0	0.0443092547605114	0.00429425020546849	2.73899793734505	0	1.80938810456248	0	0.013291895965695	0	0	2.54325735130741	0	1.01501846804865	0.691305934653953	0.219660105811549	0.149266284349808	0	0	1.97814012943555	0	0	0	0.319	0.0470608505545798	1.104929830593	11.2069297164461
GTEX.11DXX.0226.SM.5P9HL	0.0298285538158128	0	0	1.10567759203143	0	1.42322202577219	0	0.519397794870423	0	0	0.402792527603368	0.230651271246916	0.629881756660555	0.216253351259076	0.597398748703013	2.02584333870407	0	0	0.102505763340705	0	0	0	0.618	0.00551124605633273	1.09479241254246	7.28345272400756
GTEX.11DXY.0426.SM.5H12R	1.18967476439495	0	3.2562084285645	3.91160784887262	0	0.146071483111547	0	1.93090667177801	0	0	0.0235287837622991	0	0.289527200717708	0.12437379602888	1.00156767090498	2.35628882231276	0.0641733503326355	0	1.84603729378464	0	0.0279920517860724	0	0.002	0.382550149385839	0.926976756726128	16.1679581663516
GTEX.11DXZ.0926.SM.5N9CG	1.58460366357495	0	1.81213108961766	4.67370137626224	0	1.70104221133871	0	0.369221000779228	1.62809148848188	0	0.942451957816666	0	0.884073825272378	0.961639635912464	2.07057838385224	0.921057980528935	0	0	2.07478009301204	0	0.14769029922169	0	0.019	0.239399776885534	0.992232221646154	19.7710630056711
GTEX.11DZ1.2726.SM.5A5KH	0	0.333930881860061	0	3.31864791374075	0	1.11006979217802	0	0	0	0	0.764966808788738	0.300696144993274	0.914780553546015	0.966665919041294	0.0637876830310825	1.92267730085514	0	0.772574298946324	0	0.289066984262417	0.028318431475312	0.241481351553787	0.448	0.0279689128116845	1.08771921906525	11.0276640642722
GTEX.11EI6.0726.SM.59866	0.282061224319388	0	0.459697259428745	3.3302210207043	0	3.13325018516182	0	0.83401175149317	0	0	1.86440677707351	0.0343446272039477	0.704371287417348	0	0.106895518912379	0.942580562153344	0	0	0	0.428508582754359	0.257087454795453	0	0.144	0.0894010977389212	1.09504880172282	12.3774362514178
GTEX.11EM3.0126.SM.5985K	0	0.116696628961972	0.0443179381102487	0.484473989474031	0	1.36990305045185	0	0.0494537100611032	0	0	0.296844373620226	0	0.763980141480504	0	0.556320031186162	3.61494241121453	0	0	0.169301460789092	0	0	0	0.418	0.0317146767253179	1.08515315810835	7.46623373534972
GTEX.11EMC.0226.SM.5EGLP	0.443454068808002	0	0.169431914733292	2.70225904988197	0	0.858781464163208	0	0.267050028778576	0	0	0.644541293155838	0.568837621106686	0.48339914521312	0	0.247089178778967	3.82836229332581	0	0	0	1.02841756482224	0.118470630250137	0.45739359197269	0.179	0.0775490879984072	1.06229238165633	11.8174878449905
GTEX.11EQ9.0626.SM.5A5K1	0.450716391879362	0	0.248000925678587	1.43895185602904	0	0.903542604236123	0	0.017492249910981	0	0	0.286795624924104	0.0256219484435671	1.53691400617543	0	0.257115392556186	3.32684759664713	0	0	0.139534617130076	0	0	0	0.17	0.0809121961843336	1.05576386956092	8.63153321361059
GTEX.11GS4.0826.SM.5986J	1.10087431613421	0	0.584003722935376	2.70045332227277	0	4.00346568655154	0	1.68828004429036	0	0	0.38977886511411	0.127019442467524	0.435619588752966	0.0753438046520077	1.77557361668617	0.721313862019561	0	0	0	0.030108926611124	0	0	0.056	0.1455517601565	1.06250626906934	13.6318351984877
GTEX.11I78.0526.SM.5986A	0.606320294760214	0.173826121584231	0.0918493508292363	0.693865787444157	0	1.31141736847863	0	0.256188336469189	0	0	0.53623764499071	0.0183188011806156	1.1093081283577	0	0.0653610939381239	2.361328687471	0	0.0658748416832627	0.713674777416083	0	0	0.105042905283421	0.341	0.0430498868621892	1.05877886983027	8.10861413988658
GTEX.11LCK.0526.SM.5A5M9	0.563941279078109	0	0.466550210516975	0.832084024781393	0	4.57774084429935	0	0.0104328973034283	0	0	0.326808652200479	0.389553650070228	0.622761302042436	0	0.459340407275074	2.06318674553572	0	0	0.502397548333482	0	0	0	0.155	0.0856177155983372	1.06078070923328	10.8147975614367
GTEX.11NUK.1026.SM.5HL5J	0.0760500657096	0	0	1.71244424163843	0	3.30470987373816	0	0.767003327730695	0.00228108435146349	0	0	0.614098940542629	0.425787506259723	0.943531921278056	1.1848829760191	0.126365828239274	0.181617270914048	0	1.25600868602982	0	0.0949902019346356	0	0.177	0.0779932759257376	1.07664353061703	10.6897719243856
GTEX.11P7K.0226.SM.5986Z	0	0.0777683927510644	0	0.798445329370461	0	1.18450401142978	0	0.0721740410105235	0.0685070647936765	0	0.483442503471868	0.152437810123554	0.295612500612102	0.689145156336418	0.0506937862857552	1.34271154047015	0	0	2.8738338252726	0	0	0.103709028620246	0.902	-0.0253651379209405	1.10802311415248	8.1929849905482
GTEX.11P81.0126.SM.5HL5Y	0	0	0	1.97381131013319	0	1.3576869956249	0	0.209809636569928	0	0	0.434256972201992	0.390993588181016	0.945993142037472	0	0.557568878274283	2.97835483811159	0	0	0.471259648317431	0	0	0	0.612	0.00590226550424035	1.0918647566892	9.3197350094518
GTEX.11P82.0226.SM.5HL4O	0.316365400108086	0	0	1.02745457850052	0	1.32019387233164	0	0.573699259222674	0	0	0.201027089540727	0.180466719054734	1.09574784978959	0	0.137720972393232	1.50138353429807	0	0	0.195104618900606	0	0	0	0.554	0.0129802421733508	1.08629448695875	6.54916389413989
GTEX.11TT1.1126.SM.5P9GV	0	0.0257923219821568	0	1.08481395668399	0	2.62960998969765	0	0.371792023316335	0	0	0.459593251204396	0.250429794913542	0.70904989466002	0	0.329810385636631	1.80594618177695	0	0.388697791685041	0	0.168833784624759	0	0	0.631	0.00397412398949123	1.10107285353011	8.22436937618147
GTEX.11TUW.0226.SM.5LU8X	0.0384222723599729	0	0.0811896689306311	1.64424728534448	0	1.74685973868414	0	1.2305765903342	1.12918101617143	0	1.42790232396051	0	0.7649833326352	0.42943723003554	1.98887754505442	0.41884076150351	0	0	0	0.43153146588424	0.0734956273247947	0	0.383	0.0376410637864802	1.11266082512527	11.4055448582231
GTEX.11UD2.0626.SM.5GU6L	0.996697086919234	0	0.0609493726665661	1.03624312953454	0	2.04626343105297	0	1.46847278350574	0	0	1.86853417573792	0.351090774358878	0.501702476307539	0.585625381702081	2.15914598416733	0	0	0	0	0	0.121274080795781	0	0.34	0.0432318935597414	1.118091973434	11.1959986767486
GTEX.11VI4.0226.SM.5GU6C	1.11040265846824	0	3.85100936553135	3.08993624630287	0	3.10489189950628	0	0	0.112256016222078	0	0.550481692740072	0.393567442151632	0.478546731815052	0	0.0314133589362467	2.295079112309	0	0.1921468165742	0.151829302165099	0	0	0	0.002	0.381875136473392	0.934792066473445	15.3615606427221
GTEX.11ZTS.1126.SM.5LU9X	0.894600719124188	0	1.69023225083463	3.54689498831935	0	1.48974714449135	0	1.36899177023288	0	0	0.762048065011659	1.26957862837684	1.01052713292865	0	0.897404099673751	1.40192465993003	0	0	0	0	0.260590961335716	0.0823349483609878	0.019	0.232779500079641	1.00669981678448	14.67487536862
GTEX.11ZTT.1026.SM.5EQKF	0	0.0496718550503428	0	1.58181674707836	0	1.37465956845964	0	0.0687311541995616	0	0	0.348361892610373	0.320601776774453	0.249341056213191	0.00249426845500113	0.396589980456722	1.84633822097699	0	0	0.267391727689918	0	0	0.067252149010864	0.737	-0.00915974434490995	1.10978777176743	6.57325039697543
GTEX.11ZVC.0126.SM.5986G	0.0927902606268072	0	0.556164137585236	2.68014365232712	0	1.41310578308223	0	0.539671223136642	0.445642088040322	0	1.01803320014066	0.180222582910482	1.23063703807027	2.44192713218275	0.994300240202655	0	0	0	1.68093020423165	0	0.54324268430627	0	0.17	0.0804794128265984	1.05326674003245	13.8168102268431
GTEX.1211K.0726.SM.5FQUW	0.64832707718564	0	0.66788579593178	1.31931536858621	0	2.59026737462842	0	0.111397993465677	0	0	0	0.300649534845205	0.69327227888483	0	0.2379438079722	2.0157001810805	0	0	0.0141732717295494	0	0	0	0.041	0.168990896486458	1.02389193146321	8.59893268431002
GTEX.1212Z.0426.SM.5FQT6	0.0716536386880442	0	0.00803593303918935	4.413168418551	0	0.71843847285211	0	0.272754181394411	0	0	0.811412804876974	0	0.82413793760996	0.808511977312924	0.192628210720298	0.0791015921342007	0.0178847630261558	0	0.76403246313725	0	0.502545655806821	0	0.31	0.0487669049178439	1.10765910102642	9.48430604914934
GTEX.12584.0826.SM.5FQSK	0.487228370403671	0	0.108508181194635	1.2403487028213	0	2.62423322829439	0	0.437379680104745	0	0	1.63007120223471	0	1.04921982972028	1.82538561266841	0.206517521383696	0	0	0	0.417495066149413	0	0.157599769485993	0	0.311	0.0484666787480825	1.08217041351314	10.1839871644612
GTEX.1269C.0226.SM.5EGKS	0.814489956200103	0	0.187925213804615	0.792036011067454	0	4.35103168928646	0	0.766344245130389	0	0	1.68032116969267	0	0.715245371702991	0	1.00893703950883	1.55599849844148	0	0	0	0.482503330684853	0	0	0.104	0.106014142894174	1.05940488892932	12.3548325255198
GTEX.12BJ1.0426.SM.5FQSO	0.679408759962529	0	0.596271369828549	1.91121572579843	0	2.73744382125397	0	0	0	0	0.184474626348253	0.235256845898905	0.608615161007216	0.229410950119593	0.512566710650333	0.877917277087229	0	0	0.0934056024109267	0	0.281853593868481	0	0.053	0.150490112801625	1.03878221996401	8.94784044423441
GTEX.12WSC.0826.SM.5EQ5Q	0.457694563721297	0	0	3.99038813246022	0	2.14300293689918	0	1.07305676556298	0	0	2.18214228430475	0	1.02009235522101	0	0.632711038145928	1.38599874286398	0	0	0.0149817186264418	0.223218955768601	0.352567439051912	0.133758791381276	0.167	0.0830225334382908	1.09033201952272	13.6096137240076
GTEX.12WSD.0926.SM.5GCNL	0.524524926789473	0	0.0473761524640225	4.36751113562218	0	2.13521231880418	0	0.626806422994123	0	0	0.899899324628569	0	0.968600365934537	0.16253537467649	0.141522945515067	0.983086772596433	0.0142299656460845	0	0.328694514393338	0	0.496515621145332	0	0.165	0.0835573171081072	1.09042394268994	11.6965158412098
GTEX.12WSH.0226.SM.5GCOG	0	0.109922504239026	0.0156793333166146	2.6809044456618	0	3.2526756174364	0	0	0	0	0	0.820330629446096	0.547657851432451	0.985358258951642	1.70512804006892	0	0.0231221963955749	0	1.5091084684658	0	0.179400972166025	0	0.261	0.0561902296964003	1.09335663995643	11.8292883175803
GTEX.12WSJ.0326.SM.5GCMT	0	0.100875574838786	0.0770890144537766	2.153731783817	0.0127318867484991	0	0	0.450378873366274	0	0	0.164610164548648	0.402963180495156	1.57699530220025	0.067122184196033	0.152805608082724	1.70467744349776	0	0.00304217848598341	0.322448620013912	0	0	0	0.996	-0.0506918840637195	1.11464916648162	7.1894718147448
GTEX.12WSK.0926.SM.5CVNQ	1.0151395213613	0	0	1.67901778305115	0.369550381209445	1.27398285952488	0	0	0	0	1.32623937878884	0.0789534023369209	0.569785842557961	0.408189426221806	0.134312145996974	0.550323178746467	0	0	0.262229364340525	0	0	0.115211328340103	0.448	0.028020072354423	1.10243467096279	7.78293461247637
GTEX.12WSL.0626.SM.5GCOY	0.171773479618059	0	0.602707138217462	2.42794551699882	0	4.20170932777698	0	0	0	0	0.0228844506716283	0.466346701874122	0.777346482774211	0	0.550276747327568	2.99498113597805	0	0	0.446905956381255	0	0	0	0.124	0.0968016322101048	1.05875877908739	12.6628769376181
GTEX.12WSN.0726.SM.5GCMS	0	0.0550015220336589	0.0558283287334035	2.95101430804283	0	1.39722398605425	0	0.261889631966231	0	0	0.826258387570301	0.464403392090437	0.549936296135655	0	0.503662215947966	1.6806811367111	0	0	0	0	0	0.0473327039769259	0.655	0.000145257418319417	1.13185772406012	8.79323190926276
GTEX.12ZZX.1226.SM.5EGHS	5.73861656392011	5.19890144603881	17.067742623047	19.6064718458988	0	23.8732578462649	0	6.08698412820596	5.89239093817583	0	0	6.29825070960416	1.58887027132296	0	4.69927086300624	9.13087971224551	0	0	0.558410663271544	0	0.138627360642871	0	0.00700000000000001	0.316369702842015	0.96970687455684	105.878674971645
GTEX.12ZZY.0826.SM.5EQMT	1.03619221309814	0	3.0969871218544	3.4897214081888	0	3.04493968017567	0	1.5823753532411	0	0	0.6294830079262	2.41801391286642	1.07279970424276	0	0.175633359461692	2.62130298317432	0	0	1.10125346342541	0	0	0.061318453970794	0.014	0.26801489180441	0.986853884061772	20.3300206616257
GTEX.12ZZZ.1226.SM.59HK1	0	0	0	1.84498477599931	0	2.48870110659731	0	1.32220127906378	0	0	1.51325319264326	0.766829535967397	0.329785236759284	0	0.125379997875815	0.942491299759585	0	0.490691096121975	0	0	0.828294841495719	0.472451891024697	0.405	0.0340014822921851	1.11659219458362	11.1250642533081
GTEX.13111.0226.SM.5EQ55	2.16036598839436	0	0.0214900050662245	2.54032966114088	0	3.18832764310602	0	0.578212586934921	0	0	0	0.499172641492282	0.254779626602787	0	0.749881751394467	1.75473319212724	0	0	0.983431875385427	0	0	0	0.017	0.252598056372483	0.990810410100499	12.7307249716446
GTEX.13112.0326.SM.5P9IW	0.19803609775444	0	0.0132881469034737	0.386174137468252	0	3.89974513105317	0	0.687509612591946	0.302711869831003	0	1.58115794922995	0.074910980705971	0.851506387048169	0.571800093193882	0.100076019707698	0	0	0	1.35929492751036	0	0.0641933918031852	0	0.398	0.0354362360864981	1.10001273407695	10.0904047448015
GTEX.13113.0126.SM.5LZVX	0	0.10302255367344	0.00567215851394748	2.08271877580266	0	0.869659224666243	0	0.494404068541335	0	0	0	0.407063764267307	0.083736691434191	1.54670757648213	0.582204457360487	5.22100072652353	0.0746842284839118	0	0.349282753887169	0	0	0.0265199352974873	0.088	0.118799687246743	1.05386393440346	11.8466769149338
GTEX.1313W.0726.SM.5EGK1	0.101418436562601	0	0.00126095933815342	1.64544643183253	0	3.01291082809278	0	0.51104113217214	0.162401934149235	0	1.12248370894761	0.833112591280425	0.81054461123275	0.251043772823984	0.150764151541732	0.481938394261405	0.00858579973009204	0	0.700802372387211	0	0.195635367140726	0	0.562	0.0119010549396644	1.12782203796748	9.98939049149338
GTEX.131XE.0126.SM.5LZVC	0.0793556740591579	0	0	1.78813733003117	0	1.22236381616964	0	0.974369676600634	0	0	0.478082406679109	0.418817854295851	0.536201043479288	0	0.815291670740882	2.95191325613796	0	0	0.303055315284571	0	0	0	0.503	0.0200405068971525	1.09032215906755	9.56758804347826
GTEX.131XF.1826.SM.5EGKG	0.722929266371871	0	17.4930925180053	11.0504446141203	0	10.8745318018943	0	0.539575369221234	0	0	0	2.25985928174769	2.04934620767601	0	2.60478176773335	7.04549749512143	0	0	1.05660065164347	0	0	0	0.002	0.397928262917275	0.929133593339178	55.696658973535
GTEX.131XG.0226.SM.5IFG1	0.21278229366447	0	0.231397616318481	1.21410121172161	0	1.4011741372459	0	0.214923548239111	0.160294884025964	0	0.5182523318276	0	0.226803366429921	0.0702760707912686	0.952079300015669	2.95983469349377	0.0786412946779437	0	0.395267625839407	0	0	0	0.25	0.0581894208986546	1.06557092383023	8.63582837429112
GTEX.131XH.0526.SM.5DUX7	0	0.588451773895753	0.0952302559873084	3.10261075259741	0	2.82809484713137	0	0.632436300275584	0.0807235575778546	0	1.02196315290553	0	0.51393204557222	0.995933079276909	0.724551950660115	0	0.0265562670876066	0	1.79406340080725	0	0.022843126622059	0	0.178	0.0777295261919667	1.0767826124543	12.427390510397
GTEX.131YS.0726.SM.5P9G9	3.21024802439131	5.2040059058179	1.30876687319729	6.07019737512171	0	3.43378824619289	0	3.7525408046042	3.04564433215715	0	0.844031354410812	0.321424610050861	1.40356799615058	0.736416173707843	1.35121690285461	1.7213333151963	0	0	0.0789131334055246	0	0	0	0.003	0.35579184302604	0.946527507224085	32.482095047259
GTEX.132AR.1126.SM.5P9GA	0.57240881061338	0	2.33599544150512	1.30313477110964	0	3.12234563494844	0	0.162003305931919	0	0	0	0.662071691675021	0.46627884465777	0	0.751651145873124	7.08000535115164	0	0	0	0.853221325785368	0	0	0.018	0.246006170278343	0.987047035622423	17.3091163232514
GTEX.132NY.1026.SM.5P9IY	0.393515434765872	0	0	3.89635979164284	0	1.29673597571377	0	1.67056340941356	0.0476668453228432	0	0.728591668392649	0.335511940514668	0.428058200230337	0.219882344916546	0.294360497917861	0.742892867266812	0	0	0	0	0.0752483304245212	0.452910859829336	0.249	0.0584994004248903	1.11903094267869	10.5822981663516
GTEX.132QS.0326.SM.5IJFN	0	0.0338072791813158	0	0.758740069400433	0	2.51432908976413	0	0.32243983411066	0	0	0.409612091747688	0	1.37783661102557	0	0.525784980313746	1.87586937526932	0	0	0	0	0	0	0.584	0.0098317846730134	1.0935065269307	7.81841933081285
GTEX.133LE.0326.SM.5P9G4	0	0.269792109408572	0.0961797876651715	1.11495828285609	0	2.3733360925964	0	0.654511332834993	0.0280022354953113	0	0	0.533199478156333	2.24510896662481	0	0.451332680035979	2.59619979065519	0	0.127164707117639	0.200140534663147	0	0	0	0.183	0.0750909494667796	1.05769560090793	10.6899259981096
GTEX.139T6.0326.SM.5J2LY	1.78219038541008	0	0.223077009219579	0.731733823388892	0.222537537033544	1.27252602107353	0	0.208306584286674	0	0	0.471523622435277	0.175821603306496	0.871957848199047	0.349550924056466	0.127272997614912	1.34874601624741	0	0.208623059534716	0.228864911189766	0	0	0.201333271370342	0.228	0.0636695771590433	1.05976680675184	8.42406561436673
GTEX.139UW.0126.SM.5KM1B	13.0784071763912	0	28.9403792576519	20.593152057852	0	20.256673317966	0.324894285896067	4.47776196099701	0	0	5.71587919131364	0	0	6.05975137217577	12.3671921571498	1.3424634302637	0.63776483346691	0	3.2995563503683	0	0.730678897732563	0	0.002	0.402917589720013	0.925476925473039	117.824554289225
GTEX.139YR.1226.SM.5IFEU	0.65503975771277	0	0.388090112409057	0.975115149093114	0	2.2185797531214	0	0.134729934943358	0	0	0.11670761675476	0.192162932204472	2.74674374390821	0	0.472531911348821	5.39028720115859	0	0.189745402018472	0.214751189340771	0	0	0.463596581430436	0.042	0.163043644389172	1.02224390506602	14.1580812854442
GTEX.13CF3.0926.SM.5LZZC	0.587769202881557	0	0.198091116638597	1.8645983713296	0	3.41775755070604	0	0	0	0	0.0819586846766875	0.249526247197573	0.988687805902587	0.56774067822707	0.310071282891536	1.69661268811315	0	0.291821377542333	0.704880714120114	0	0	0	0.125	0.0952475640325304	1.0509576683766	10.9595157202268
GTEX.13D11.0226.SM.5LZXL	2.38838231386799	0	3.49604954181674	2.96233799650725	0	1.62695932482944	0	0.189037904068888	0.0971302319424404	0	0.560479347586053	0.0284704559287891	1.66925642313764	0.32258250107302	1.07582165778679	3.07475702000053	0.0431264285986293	0	1.84335089348303	0	0	0.449895501905857	0.002	0.413535320185691	0.910039238667395	19.8276375425331
GTEX.13FH7.0126.SM.5KLZ1	3.24309143416548	7.9349563841723	9.97528596305311	9.72977336851751	0	12.3516068982151	0	1.82376395074577	1.22951033873673	0	0	1.23303122122119	1.29502535031585	0	3.95381622423514	9.03481776285747	0	0	1.09083565952992	0	0	0	0.002	0.412845173584597	0.913208677606522	62.8955145557656
GTEX.13FHP.0926.SM.5L3EC	0.0118304710735222	0.106016147866669	0.121812420734688	4.39144492509725	0	2.94265637566852	0	1.09511812736681	0	0	0	0.388947354549473	0.981730945064294	0.329521865506134	0.774142165529077	0.172263751635057	0.0603583777253525	0	0.618808893459881	0	0.200614379101346	0	0.27	0.0547906711317316	1.11433843663854	12.1952662003781
GTEX.13FLV.0226.SM.5J2OF	0.0358522454802416	0.0993094831961693	0	3.74691362347471	0	1.24033880046615	0	1.1408702000084	0.0371285974392348	0	0.56822601594476	0	0.453719182342204	0.707883339810373	2.61115918428643	0	0.118666153323143	0	0.323409198711409	0	0.467412576650989	0	0.051	0.153169943638152	1.07084033633475	11.5508886011342
GTEX.13FLW.0326.SM.5J2M4	0	0	0.132259112577665	5.08666630854597	0	0	0	2.60464516326944	0	0	0.676798123348863	0	0.92521846850294	1.0324412486573	0.306806564629334	0	0	0	0.612239884536207	0	0.363101723285778	0	0.411	0.0333218404731502	1.12346211735286	11.7401765973535
GTEX.13FTW.0626.SM.5IFEX	0.11232225392015	0	0.10726065020619	1.03343529345138	0	1.85035269654777	0	0	0	0	0.689354677857686	0	1.21678693042771	0	0.468425334081959	2.09696356930103	0	0.0255085972777519	0	0.338173350425543	0	0	0.39	0.0362926292864106	1.07381143238614	7.93858335349716
GTEX.13FTY.0726.SM.5J2OH	0.0644589218972209	0	0.0303834493228023	2.25129303831794	0	2.41043008813307	0	1.30169317460229	0.379345608594885	0	0	0.895070146776285	0.624578418050171	0.962978138912687	2.75235705238544	0	0.266041391359006	0	0.787066294874953	0	0.134122121763798	0	0.0649999999999999	0.134632862018451	1.06846052988854	12.8598178449905
GTEX.13FXS.0726.SM.5LZXJ	4.42764988492521	4.43785346045357	0.332534562993745	9.62134987554488	0	7.05246141141872	0	6.70176376350139	1.50220738238094	0	0	5.43387586452694	0.841546630249958	1.0741636349152	2.50887104872014	1.53291225424067	0	0	0.629742059777015	0	0	0	0.019	0.230402480450284	1.02086674474814	46.0969318336484
GTEX.13G51.1226.SM.5K7Z3	0	0	0	4.09892054964468	0	1.09205269489173	0	1.33231349268181	0.131739553516794	0	0.563201888018941	0.901983073157427	0.459223671095353	0	0.209920143002828	1.60969076814901	0	0	0	0	0.0501712924954869	0	0.33	0.0452670974521209	1.1340098519074	10.4492171266541
GTEX.13IVO.0926.SM.5KLZP	0	0	0	4.2767585516879	0	1.44654886444792	0	0	0	0	1.10177243868468	0	0.549811700616463	0	0	2.83553448510821	0	0.144120432870105	0	0.196977106924983	0	0	0.686	-0.00342449180275345	1.13144852252447	10.5515235803403
GTEX.13JVG.0926.SM.5IJE1	0.465957581499241	0	0.0169112488384463	2.69835972455302	0	1.64143567768608	0	0	0	0	1.96300639723617	0	0.556461070661723	0.262746901990181	0.215809965666983	0.969704866589462	0	0	0	0.383494451051943	0.0609049214101074	0	0.525	0.0169782560266164	1.12773661796743	9.23479280718336
GTEX.13N11.1026.SM.5K7XQ	0.34136939948988	0	0	2.19839084761313	0	2.821121495306	0	0.528805228745094	0	0	0.824286554914038	0.100122031891767	0.799577152422519	0	0.605315696717333	2.08004635446926	0	0	0.584492743156877	0	0	0	0.277	0.0539454795569435	1.07979054227159	10.8835275047259
GTEX.13N1W.0826.SM.5MR5J	0	0.233671317212837	0.353045443197153	0.75313194787582	0	1.6044476956394	0	1.00823099710369	0.00619743856833893	0	1.64246589692915	0	0.56391175990931	1.39578734217951	0.155509144526955	0.995504918526773	0	0	0	0.0719371265355031	0	0.0510870436292073	0.623	0.00483876996116495	1.09857669715057	8.83492807183365
GTEX.13N2G.0726.SM.5MR38	0.373823629119652	0	0.044475433478721	5.54581420866321	0	0	0	1.26189687552665	0.198991388020079	0	0.436727524835622	0.687625156646481	0.382680232281085	0	0.873580415437005	3.083745903167	0	0	0.20575078291901	0	0	0	0.171	0.0800817575316902	1.08723789626685	13.0951115500945
GTEX.13NYB.0726.SM.5MR4J	9.27085565511845	0	33.3121893197629	19.4885083996723	0	1.60489628047348	0	12.4076219828609	0	0	0	7.90222361201656	0.203724049288191	0	7.51999589222417	3.63610042065715	0	0	0.264170401350531	0	0.439843279581032	0	0.001	0.44333142416493	0.91630529049456	96.0501292930057
GTEX.13NYC.2426.SM.5MR3K	0	0.311786687600324	1.27995839320754	3.43777815744205	0	2.41432649568029	0	0.0954706612681402	0.218572029004862	0	1.09235939933574	0.00629988349849115	0.636684064522096	0	1.08763953895432	2.70196171955733	0	0	0	0.70530620453572	0	0.0864585045235261	0.037	0.17768388068113	1.02112643232547	14.0746017391304
GTEX.13NZ8.0226.SM.5J2OK	0.52165424321478	0	0.539411353911359	5.06448332925501	0	2.31893421269903	0	1.74828589141289	0	0	0.479932811209943	0.535190137285357	0.588298943567755	0	1.36719207511138	4.10418957322096	0	0	0	0	0	0	0.119	0.0981648253525915	1.06725694040789	17.2675725708885
GTEX.13NZ9.1126.SM.5MR37	8.28532533457849	21.1477227083247	8.59063690736927	22.3760363477677	0	7.83117090334063	0	8.1634156209525	14.8491904950752	0	0	6.12196438097692	0.764084392965153	1.54008835251433	2.65861302620981	1.37578180084353	0	0	2.52302553248437	0	0	0	0.002	0.37970763117887	0.940377025119611	106.227055803403
GTEX.13NZA.1026.SM.5MR48	0	0	0	1.1666114066656	0	1.95279782731126	0	0.305582524388919	0	0	0.617953345382159	0.399228669418157	0.539024618475371	0.883123014741519	0.512083142853914	0.944050119938735	0.0374245315009159	0	1.66488743024751	0	0.0610901932725302	0	0.548	0.0137526074557304	1.08367332911097	9.0838568241966
GTEX.13O1R.0826.SM.5J2MB	0.652670460400162	0	1.57164299899931	2.01142130095767	0	1.4984913528124	0	0.989575839940149	0.0932770898660607	0	0.564763237400772	0.347646531001462	0.692451052508312	0.131733092038774	2.41933582072507	3.56520037972372	0	0	0	0.56934268985484	0	0.0860006868525846	0.02	0.22749940497678	0.998498769070647	15.1935525330813
GTEX.13O21.2226.SM.5MR3L	0.556297748432889	0	0	2.12667722991035	0	1.63531032371916	0	0.590081659142114	0	0	0	0.344585421638555	0.268224568833086	0	1.08750850706357	1.95416118829855	0	0	0.18720026033413	0	0	0	0.322	0.0468594398279906	1.08824854519558	8.7500469073724
GTEX.13O3O.0926.SM.5KM1F	0.210159710814392	0	0	2.25550510688816	0	3.80759994155174	0	0.256737470891022	0	0	0.0634197738755207	0.0827761221739978	0.749982883239336	1.41763076708161	0.65171663936631	0.374474072886132	0.0320957805320965	0	0.884611439847281	0	0.121002601328213	0.139305468352165	0.334	0.0442712447257934	1.08814805059256	11.047017778828
GTEX.13O3P.0726.SM.5J2OM	0.419032439659395	0.0615283717407911	1.08946680171282	3.49962948892683	0	1.30590033415403	0	0.471876630835851	0.0126806057138841	0	1.27111713948632	0.193204545994689	1.78222339309617	0	0.540172591033316	2.30952552628421	0	0	0.619531586560993	0	0.225864386443356	1.16931544002086	0.0639999999999999	0.137029895587334	1.03221702771297	14.9710692816635
GTEX.13O3Q.0626.SM.5IJG1	0	0.311170062344239	0.0920757961675132	3.41252864884198	0	3.56250880335016	0	0.0447449906630148	0	0	0	0	1.29601111738418	0.156024811108783	0.263252881971319	0.885255021541305	0	0	0.748664693631476	0	0.248872416852354	0	0.266	0.0553737623245285	1.09425517937275	11.0211092438563
GTEX.13O61.0226.SM.5KM52	0.14318223124685	0	0.292046910303052	2.36580427549125	0	1.6998388633872	0	0.0985215912460576	0.0798771216934764	0	0	0.649108851443587	0.489411175702487	0	0.496528401686511	1.36084206173147	0	0	0	0	0	0	0.365	0.0406815244771824	1.10315197396105	7.67516148393195
GTEX.13OVI.0826.SM.5KLZ8	0	0.266279262225749	0	2.01822141902678	0	1.17005815140923	0	0.266180777069578	0	0	1.03619906614333	0	0.553965435192658	0	0.445414527036197	1.8014141929819	0	0	0.128835006343687	0	0	0	0.588	0.00889256255300021	1.10494017337827	7.68656783742911
GTEX.13OVJ.0626.SM.5J2O2	1.07282044641494	0	0.518895845358638	0.843128432358218	0	1.43581929606503	0	0	0	0	1.5494252850355	0	0.976219792016545	0.428871008289075	1.08883558227182	1.75934859459346	0	0	0.206676755922007	0	0.0778445583533558	0.968371170807232	0.037	0.178318833185716	1.01419339914383	10.9262567674858
GTEX.13OW5.0626.SM.5J2N2	0.0491448921214579	0.0591198171873745	0	1.99526600590445	0.0567920325475422	1.37234322166211	0	0	0	0	1.47924859019458	0.0362318108989465	1.49759480810085	0	0.715389446593167	1.48776142134636	0	0	1.20674310116554	0	0	0.376315929782351	0.488	0.0219554131870069	1.08381408375109	10.3319510775047
GTEX.13OW6.0726.SM.5L3FX	1.37486404340105	0	1.10734386038532	3.98727883302884	0	0	0	0	0	0	0.997153152322921	0	0.815112265431987	0.467343926366241	0.3962879637669	0.0917578107815423	0	0	0.745650200925287	0	0.240260892550215	0	0.04	0.170494485452031	1.03663770430302	10.2230529489603
GTEX.13OW7.0826.SM.5L3EL	0.300517671664124	0	0	2.18222956366215	0	2.959372409074	0	0.780438431536359	0	0	1.17288296978347	0.417354330326463	0.53154508574649	0.0184847285326785	0.303739513587099	0.702458310821349	0	0	0	0.0364626369096581	0.192927204688871	0	0.286	0.0521000641249191	1.12306539876356	9.5984128563327
GTEX.13OW8.0126.SM.5IJE5	0.169495702398109	0.0652399945415078	0	2.62678024128646	0	0.824191510488456	0	0.322676908392664	0	0	0.956938289348287	0.0172355276733378	0.798475943015924	1.38723686304757	0.140241257638658	0	0	0	0.585567333656925	0	0.302936371801325	0	0.495	0.0208524497707999	1.10109620682233	8.19701594328922
GTEX.13PL6.1026.SM.5L3E5	0.295105301587569	0	0	5.95225493440946	0	0.980480164124223	0	0.0290594555872676	0	0	0	0	0.622926058530534	1.10551560749421	0.448937162427614	0	0	0	2.26885554148017	0	0.00347550970867482	0	0.39	0.0362989142845232	1.11060393266696	11.7066097353497
GTEX.13PVQ.0726.SM.5L3GI	0	0.192371633930477	0.0621396231617611	4.041920987565	0	1.04110967077036	0	0.544437286272263	0	0	1.80566683007352	0	0.667619350226011	1.14751977744959	0.406674096396183	0	0	0.240617201556141	0.0209083630798873	0.347022681276409	0	0.083282135293444	0.388	0.0372741808813789	1.12486598993768	10.601289637051
GTEX.13QBU.0626.SM.5J2OG	0.10253638504557	0	0.582123519914937	0.600514175396788	0.527150092494175	1.29543516913726	0	0	0.0455047959596155	0	0.248631234039077	0.533009502306196	0.455294643393721	0	0.377849269083837	2.43367437211568	0	0	0.520652697119233	0	0	0.0279689341640382	0.426	0.0305032209904469	1.0689721981638	7.75034479017013
GTEX.13QJC.0826.SM.5RQKC	3.53426007187449	3.68033095736001	1.43271380676503	7.70517060491753	0	10.2989724465294	0	2.99694014460954	0.550260225511836	0	0	2.55941946837787	0.400934827691171	0	0.697846170933038	3.78290990504394	0	0	0	0	0	0.0980677598001355	0.015	0.26170565539678	1.0012191326185	37.737826389414
GTEX.13RTK.0326.SM.5RQHS	0	0.0408156979670818	0.0786860443986383	1.01719456161401	0	2.76979734815116	0	0.360312198066134	0	0	0.190553174366234	0.350833180794144	0.573678083601249	0	0.463818210330699	2.54629334856562	0	0.00202057307169322	0.0875192993001799	0	0	0	0.639	0.00213941854380118	1.1005774930778	8.48152172022684
GTEX.13U4I.0526.SM.5LU59	0.425094687055205	0	0.693190939168943	3.12136582950687	0	3.53144271276487	0	0.572141778633873	0.584783523337452	0	0	0.980238288964029	1.24911467625197	0	1.66338445410148	4.52536949854617	0.044026484289094	0	1.15289422753163	0	0	0.0691199319845252	0.0570000000000001	0.144457980261193	1.02889715235724	18.6121670321361
GTEX.13VXT.0626.SM.5SIA1	0	0.164324811118992	0.497126045003438	1.50092272315465	0	0.310081121593611	0	0.869738222169826	0	0	0.842647356367211	0.0403579158255353	0.962285285744309	0	0.582823245846788	3.82327715042295	0	0	0	0	0.20012660101356	0	0.863	-0.0200166276160787	1.09570563239093	9.79371047826087
GTEX.13VXU.0826.SM.5KLZ2	0	0.263927658511973	0	2.09103775508615	0	2.53071271771073	0	1.33610467291584	0	0	1.323403931046	0.122122969328523	0.683356616259286	0	0.145808557748796	1.67301949982598	0	0	0	0	0.218479721755759	0	0.438	0.0293013344964213	1.11341328470293	10.387974100189
GTEX.13W46.0926.SM.5LU3T	0.286082481064155	0	0	3.8870469564204	0	0	0	0.415057987483335	0	0	0.687011743048997	0.0904034722584959	0.344161028622762	0	0.136335566218872	4.82854763124234	0	0	0.0934443521617206	0	0	0.829113828737905	0.509	0.0189203881414438	1.09747855431055	11.597205047259
GTEX.13X6H.0526.SM.5LU4Q	0.347875040733652	0	0.0484321498044001	1.49518019462559	0	1.80883777158042	0	0.306986941607659	0	0	0.427046672777907	0	1.07453322603214	0	0.464326859233682	1.97664653490199	0	0	0.658511848778163	0	0	0	0.422	0.0311295315347965	1.07216279209755	8.60837724007561
GTEX.13X6J.0826.SM.5LU32	0.735537775217492	0	1.05296824193781	2.83451245256298	0	0.587991042729995	0	2.82394087818261	0	0	1.61536861981329	0.27395722595274	0.59257614958003	0	0.375801403642871	1.04945926087204	0	0.0300196220931134	0.248418223282527	0.0935707136392185	0.0575674718868653	0.0273934705912968	0.104	0.105748408932949	1.07311918628125	12.3990825519849
GTEX.145MG.0826.SM.5Q5C2	1.20126326632058	0	0.269742913045189	3.76407275067157	0	1.61343080156524	0	1.39496981957915	1.51710125116589	0	0	0.894813937162174	0.44375560588031	0.978478990826952	1.38535650302879	0	0.00774415842841907	0	0.697621871769969	0	0.10839387724765	0	0.048	0.15604555901714	1.05071647748123	14.2767457466919
GTEX.145MH.0426.SM.5LU8T	0.00151283348338898	0	0.0476455630062531	1.63424104351408	0	2.03775717287666	0	0.622493440309698	0.548711710045699	0	2.53172794034551	0	0.69271954277111	0.516599451653661	0.203840427319441	0.995706904777006	0	0	1.05076290583933	0	0.36312845536251	0	0.351	0.0419756992882506	1.09628345745233	11.2468473913043
GTEX.145MI.1126.SM.5O9AK	0	0.0335150301222182	0.0434346462667783	3.76301813961617	0	2.12270412713807	0	0	0	0	0.995058120344859	0	0.472623832508008	0.191177316964385	0.612745927273396	0.366201184175564	0	0.578735896826884	0	0.0870519602381414	0	0	0.416	0.0320915588324493	1.13940409630406	9.26626618147448
GTEX.146FQ.0726.SM.5LUA7	0	0	0	1.94763097275582	0	1.07908784579207	0	0.861810933917703	0	0	0	0.850439229417748	1.00692639104158	0	0.840064719707375	2.38205652821464	0	0	0.715974551175752	0	0	0	0.523	0.0171018197590477	1.08781203949658	9.68399117202268
GTEX.146FR.0326.SM.5SI8U	0	0.182687835479604	0.594409696481216	3.33131965891147	0	2.87506292465419	0	0.0843385998230202	0	0	1.05309046169958	0	0.842764505796904	0.40046368124299	0.78898818270298	0.514098187163518	0.084830553685896	0	0.295069038059013	0	0.351598318912093	0	0.09	0.11587102747428	1.0651687125307	11.3987216446125
GTEX.14753.0926.SM.5Q5BI	0.0329312828508213	0	0	2.16431097102212	0	3.79283450500177	0	0.341196500860832	0	0	0.655252905899485	0.563526073479428	0.69877415187866	0	1.04582218426508	1.67220088692686	0	0	0	0	0.651505404425358	0.270027723181649	0.365	0.0407666805386428	1.09851293690628	11.8883825897921
GTEX.147F4.0826.SM.5QGRB	0.559380441859045	0	0	2.12354981172555	0	2.68881068531584	0	0.593283716619369	0	0	0.881082481809985	0	0.511249641864879	0.0726880933737293	0.281599013417702	0.32421822320302	0	0	0.519008140339101	0	0	0.141437198486902	0.373	0.0393521921438301	1.11466276643851	8.69630744801512
GTEX.147GR.0726.SM.5S2PL	0.00684923962277232	0	0	3.53681592168023	0	0.542671030071985	0	0.504846105763121	0.486384678067609	0	0.20094804392597	0.721717712057907	1.25653907466648	0.422552748127007	0.236703152446485	0.732832783068911	0	0	1.41766002089849	0	0	0	0.413	0.0329600789056841	1.09662298407715	10.066520510397
GTEX.1497J.0126.SM.5Q5BK	0.30919462585293	0	0.217628268673763	1.42158140060533	0	2.39071218444564	0	0.771021647791006	0	0	0.078424536410846	0.540574232553369	2.08887143006392	0	1.48771901882078	4.02641817404647	0	0	0.121228916224276	0	0	0.845475243150616	0.234	0.0623886930368074	1.06503589247053	14.2988496786389
GTEX.14A5H.0726.SM.5Q5DW	0.451172209003265	0	0	0	0	4.86890364799174	0	0.0909818416133081	0.271759933901855	0	1.5417755440413	0.0706578591513109	0.933928618581937	0.319330771781486	2.91520823952009	0	0.0827407627385914	0	0	0.417729040484189	0	0	0.177	0.077887735192155	1.10701591932975	11.9641884688091
GTEX.14A6H.2426.SM.5Q5BO	0.295766621415805	0	0	1.09507651667122	0	0.989304378926043	0	0.741473872790174	0.327749719208145	0	0	0.880473406270934	1.34250295541469	0	0.482203890066131	3.05262654650552	0	0	1.10470495709508	0	0	0.169034848301666	0.463	0.0261234662037431	1.07071632680097	10.4809177126654
GTEX.14ABY.0926.SM.5Q5DY	4.47824142369933	2.1609397853639	7.1231964102865	4.06197293332005	0	5.32958990172039	0	5.58378569747798	0	0	0	2.64824274385278	0.199391502944182	0	1.92399274364253	0.563555222625798	0	0	0	0.803721759519004	0.0284857318802656	0	0.002	0.410122752807641	0.924826156851222	34.9051158563327
GTEX.14AS3.0226.SM.5Q5B6	5.95035585265368	2.1314502208262	5.67176466745261	7.1954444115301	0	7.17018714427982	0	3.89078641955832	1.00935707754785	0	0	2.10522941600566	0.0227224346210029	0.927346603153275	1.16724981266641	2.61711677091934	0	0	0.0440131196363831	0	0	0	0.002	0.383120128286277	0.935778335428103	39.9030239508507
GTEX.14ASI.0726.SM.5Q5DC	0	0.44871024297779	0.0354958758451239	2.65714561324995	0	3.27905088997076	0	1.97941241479916	0	0	0.622334493683462	0.708788385541371	0.584902891633953	0.0201722040836576	0.741525020010331	0.865467694710616	0	0	0.0129558154018527	0	0.433679649018237	0	0.398	0.0354297820940192	1.12263732967245	12.3896411909263
GTEX.14C38.0826.SM.5S2U8	0.652226637231881	0	0	2.49911589762906	0	1.402730984456	0	0.0592053481304139	0	0	0.761145133479617	0	0.611555108692907	2.43255020780143	1.21058638404174	0	0	1.66152336523433	0	0	0	0.869069426686363	0.144	0.0890125494733047	1.06982051671138	12.1597084933837
GTEX.14ICL.0426.SM.5RQJ3	0.319325632620056	0	0	2.74857666964115	0	1.79386906500336	0	0.172018714610792	0	0	1.08768716586325	0.232984152718574	0.682485370479662	0	0.227369039413019	1.06754417987352	0	0	0	0.0334998850129171	0	0	0.52	0.0175191109404649	1.13262895575411	8.3653598752363
GTEX.N7MS.2326.SM.2HMLD	1.14297601813032	0	0.154953681511214	1.17769993301056	0	1.5421017790045	0	2.06949925587493	0	0	1.12879440345215	0.437459335085807	0.257996490703314	0.323241672444754	0.823701677327755	1.61575297946453	0	0	0.277927408335786	0.0591627611175472	0.189443211389866	0.0951709432414785	0.131	0.0937669798681409	1.05930047086049	11.2958815500945
GTEX.NFK9.0726.SM.2HMJW	0.495475323931359	0	0.24122132618662	1.26697097564418	0	1.28237124487776	0	1.33975807910242	0	0	0	0.737441225744634	0.113765230054695	0	0.102633229703667	1.83176223138596	0	0	0.163419198719325	0	0	0.00888281555676581	0.715	-0.00620980465157441	1.11236062625137	7.58370088090737
GTEX.OHPK.2626.SM.2HMK9	0.340487403009512	0	0.0594991835419418	0.961886708081573	0	3.30495073311572	0	0.27985882165393	0	0	0.561692729000164	0.106500080952871	0.822849081930559	0	0.257517787490787	2.72882594357323	0	0	0.349079826326455	0	0	0	0.303	0.0493672001091178	1.07340227644272	9.77314829867675
GTEX.OHPM.2626.SM.33HC5	0	0.0404003363456134	0	2.2183020854272	0	1.64941290919464	0	0	0	0	0.436484276766846	0.330666039736031	1.09987021775418	0	0.216583897460213	1.90774597833866	0	0.169170839695535	0.171421887976243	0	0	0.0575384632519148	0.411	0.0331276618127495	1.09088321284219	8.29759693194707
GTEX.OIZG.0226.SM.2TC5L	0	0	0.045137281349991	0.727803663788308	0	0.790703747105223	0	0.916385564638794	0.321621984940912	0	0.0911896638658781	0.529456701074052	0.93726724821932	0	0.357214401575152	2.26788405796265	0	0	1.07369037357046	0	0	0	0.666	-0.000824892348713337	1.08147759736269	8.05835468809074
GTEX.OIZI.0726.SM.2XCEI	0	0.172076272650015	1.06694637392264	2.46591407798869	0	2.67097779404278	0	0.538618966964422	0	0	0	0.316594612484841	0.139912685418078	0	1.07948253095293	3.09324382604735	0	0	0.235702647808032	0	0	0	0.054	0.14759790166877	1.0357302954011	11.7794697882798
GTEX.OOBJ.2626.SM.2I3F6	0.242330461396217	0	0.244478037036702	2.83639276490273	0	1.69663441022547	0	0.834578539587676	0.129353130053237	0	0	0.721138869062818	0.36617798160193	0	0.185191201824693	1.51905624892101	0	0	0	0	0	0	0.189	0.0722175760400095	1.09964317405302	8.77533164461248
GTEX.OXRK.0626.SM.2HMJ5	0.805244242927977	0	1.98454559515118	3.72179728473492	0	2.93647396217809	0	1.0505565351328	0.116317443473755	0	0	1.29871223110064	0.128339702634902	0	0.47907720005361	4.29987589764631	0	0	0.039649772640672	0	0	0	0.019	0.235760703144375	0.999808078946968	16.8605898676749
GTEX.OXRL.2626.SM.2I3F1	1.94646907229202	0	1.5097066510992	2.83167392043539	0	2.76205161038311	0	0.402534291443616	0	0	0.162899607778423	0	0.575027910308855	0.309770873836513	0.449278802664881	0.00133925162444645	0	0	0.600505869568933	0	0.0476325241978877	0	0.005	0.327977329455465	0.963336873781529	11.5988903856333
GTEX.OXRO.1226.SM.48TDL	0	0.275979582874574	0.13706068224283	3.42385801831138	0	2.0583912918414	0	0.00627317281898696	0	0	1.12174375528481	0	0.908184375267173	0.773224582912101	0.468762735216869	1.10758441193413	0	0	2.43998570887609	0	0	0	0.894	-0.0242612521630991	1.10603242604103	12.7210483175803
GTEX.OXRP.0326.SM.33HBJ	1.35098301070966	0	0	1.81874006403167	0	0.246171193555399	0	0.764147542613507	0	0	0.686707504651593	0.779246765490546	0.736413657154002	0	0.0831486382191134	0.617932822444789	0	0	0	0.162492316162432	0.954195774417184	1.27679200922685	0.66	-0.000314917606516604	1.10960342327209	9.47697129867675
GTEX.P4PQ.2626.SM.33HC9	0.668041394363067	0	0.0633982264852637	1.23152702986462	0	1.52603962731205	0	0	0	0	0.541460636436497	0.112939157237611	0.788585478018284	0	0.525353665551296	2.73275257339842	0	0	0.0309097165143797	0	0	0.117741519393177	0.44	0.0288645972353139	1.07690688856094	8.33874902457467
GTEX.P4QS.2626.SM.2I3EV	0.352996428404448	0	0.478777171051314	1.53517098394646	0	1.98780546710056	0	0	0	0	0.0903285745870788	0.298848778173137	1.0136253787247	0	0.193382727840911	2.59297537058786	0	0.0449018962156748	0	0	0	0.0326086581504608	0.098	0.109262972973475	1.04560787147731	8.62142143478261
GTEX.P4QT.2626.SM.2I3FM	0.539575471793241	0	1.85560738623501	3.66465289356497	0	2.77337796752743	0	0.76036475507616	0.304047127131982	0	1.0477474707241	0.624408717977456	1.53030138272748	0	0.742760068993976	2.52071595672998	0	0	0.628985431007813	0	0	0	0.028	0.21058708955048	1.0064187476913	16.9925446294896
GTEX.P78B.0526.SM.2I5F7	0.511107899298809	1.11073838684282	1.96748926843874	4.22138395214865	0	0.0639705363596388	0	1.7541733328232	0.558700734308319	0	0.0504811517114688	0.634526315634484	0.562579296454493	0	0.603032021542977	3.60900264073795	0	0	0.206671217673272	0	0	0.00489596058095636	0.00600000000000001	0.324040701498545	0.954857722395964	15.8587527145558
GTEX.PLZ4.1226.SM.2I5FE	0	0.172893696243807	0.1608990580033	2.76967989004877	0	1.81877460499864	0	0.309428723573381	0	0	0.504857366529469	0.491698543705733	0.237754684397947	0	0.118301764460393	2.45248468125175	0	0.341398186140469	0.25842017639154	0	0	1.0098956563909	0.238	0.0609616376646398	1.07773695077688	10.6464870321361
GTEX.POYW.0826.SM.2XCEM	0.137645967030422	0.132472654949154	0	1.48561668096649	0	1.749943257519	0	0	0	0	3.0846531930617	0	0.633292934246934	1.1148905466856	0.119292315517513	0.394713345289913	0	0	1.71195964871762	0	0	0.503737868113958	0.941	-0.0293500735154072	1.1308181003981	11.0682184120983
GTEX.PWCY.2326.SM.2I3EQ	0.563852115349071	0	0.858875297770433	0.790731765882398	0	1.03936854103734	0	0.275740068615983	0	0	0.655761170326878	0	0.0212685996683529	1.40919420468289	0.271028975432333	5.12860655293946	0	0	0.219449037463721	0	0	0.361777848524897	0.05	0.153496684400446	1.03245868462709	11.5956541776938
GTEX.PWN1.2626.SM.2I3FH	0.567015877070165	0	0.70114267564125	1.45355824082667	0	4.3519486923698	0	0	0	0	0.612277270349597	0.0115831653297673	1.21364084242857	0	0.316857699675478	2.08379854110022	0	0	0.435010827576319	0.307819929446908	0	0	0.056	0.146066219649671	1.03096394751662	12.0546537618147
GTEX.PX3G.2626.SM.2I3EG	0.322628686049633	0	0.0336106361535594	0.826009444951173	0	2.78713048101358	0	1.05727231946316	0	0	0.248886802029389	0.365440452110061	1.24920225456502	0	0.371339335114621	2.60960362893358	0.0473366807853357	0	0.302997823254324	0	0	0	0.194	0.0710444955720825	1.06221701145732	10.2214585444234
GTEX.Q2AG.0826.SM.2HMKF	0	0.0746207287362205	0.163489193473571	1.80418870919701	0	2.20719729115478	0	1.08594706593991	0.00442847117159243	0	0.586900787388913	0.425112050490699	1.01520844574434	1.1825033761946	0.104309693639483	0.111542064746755	0	0	1.76087500052064	0	0.16082661797775	0.282947095306161	0.509	0.0189850597440564	1.08877114757117	10.9700965916824
GTEX.Q2AH.0726.SM.2I3EA	1.75337800203369	0	5.93419927544093	5.37208438678061	0	2.50512934440537	0.258017305217065	0.390967134111883	0	0	1.27350704939509	0	2.49208314462168	0	1.1161771528931	6.05796339596055	0	0.216774591554949	0	0.170623523285679	0	0.130585775584845	0.002	0.384152995132334	0.92614334121291	27.6714900812854
GTEX.Q2AI.0326.SM.2I3EK	0.184235485192563	0.166870347184981	0.359330589692257	0.574368302477546	0	3.10222299977342	0	0.311584066668829	0	0	0.366085340259878	0.0933124451638719	1.73230955566142	0	0.314498589616575	2.87512264698256	0	0.268959510343106	0	0	0	0	0.094	0.1121698548376	1.04027808800386	10.348899879017
GTEX.Q734.0526.SM.2I3EH	0	0.0806233162326003	0	1.65558501214152	0	1.69567058090662	0	0.562662113675085	0.408054157639989	0	0	0.566872945949195	0.498496797300821	0	0.0498927196354804	3.26180872860626	0	0	0.289496652487095	0	0	0	0.249	0.0585219275591974	1.07808624137794	9.06916302457467
GTEX.QDVJ.0226.SM.2I5FV	0	0.0986607256258675	0.0338693978107518	0.0793403435561023	0	1.07453787706973	0	0.0207222841574362	0.0474341296912795	0	0.599422348381367	0.273761379857955	0.553705311820446	0.0711914462270647	0	2.30119133641578	0	0	1.31350166717208	0	0	0.0623688467320996	0.556	0.0124171144976706	1.08022084018586	6.52970709451796
GTEX.QDVN.0626.SM.2I3FP	2.29718165413917	0	1.73604281268676	1.68945571770642	0	3.60798090356455	0	0.128866122721855	0	0	0.365706948297848	0.936132039855444	2.8712786986801	0.264415282430416	0.183588446104523	1.43537597152787	0	0	0.724991842485124	0	0	0.0922109889114542	0.00800000000000001	0.307302806495634	0.960198076519104	16.3332274291115
GTEX.QEG5.0826.SM.2I5GF	0	0.181852748664272	0	0.387681039773358	0	2.24126304725787	0	0.252598350703098	0.0734468869959471	0	0.741575571386727	0	0.825423430756203	0	0.463124961442345	2.64350337699435	0	0.736978226017466	0.604851989770351	0	0	0.80463656305465	0.402	0.0345464877829488	1.06624604570648	9.95693619281663
GTEX.QEL4.0726.SM.3GIJ5	0	0	0	1.33387350996185	0	1.48446229261848	0	0.793471582212066	0	0	0.413133743763118	0.273994508536007	0.796841280651188	0	0.394587881990239	2.72962218946362	0	0.395117565321536	0.127404273459208	0	0	0	0.58	0.0101378210378421	1.08965657831062	8.74250882797732
GTEX.QLQ7.0726.SM.2I5G2	3.11120683497604	0	12.50264653451	4.85810740305525	0	7.16556483459646	0	2.57378523658236	0	0	0	0.133968407746839	2.22574069748524	0	2.94827971081947	6.80543104400318	0	0	0	0.416528180913244	0	0	0.001	0.430445818488713	0.907902207611674	42.7412588846881
GTEX.QV31.0726.SM.3GAEG	0	0	0.0379259499773072	1.22602101995781	0	1.48660152883977	0	0.12818581236378	0	0	0.507449357416536	0	1.3018970816612	0	0.567491497226894	1.89472748790642	0	0	0	0	0	0	0.627	0.0043101490104845	1.09458528839822	7.15029973534972
GTEX.QV44.0826.SM.2S1RG	0.138829468822275	0	0	4.61522887929439	0	0	0	0.188838221052544	0	0	1.105838000217	0	0.891615664779447	0.398931932960716	0.264879488538785	0.703880204885686	0	0.0228134026822974	1.03717363468746	0	0	0	0.331	0.0449609921583657	1.10855142352483	9.3680288979206
GTEX.QXCU.0326.SM.2TC63	0.488053432502712	0	0	1.07218668015853	0	1.01222303667831	0	1.03475480154318	0	0	1.52125495258888	0	0.504667562497193	0.764107522902718	1.19955061639149	0.893669873943769	0	0	0.174893403590945	0	0	0	0.686	-0.00341383183293587	1.10885418591066	8.66536188279773
GTEX.R3RS.0726.SM.3GIJR	0.265071728313425	0	0	1.7297941027613	0	0	0	2.16887940119424	0	0	0.226319635351457	0.58111587556868	0.862739153816938	0.673970576560388	0.141495474408735	0.892108873451823	0	0.0203138290126435	0.893009129701659	0	0	0.856181274679123	0.64	0.0019567556000835	1.09354710380312	9.31099905482042
GTEX.R53T.0526.SM.3GADL	0.0797420707500273	0.0557843082016571	0	1.03566438881142	0	2.90775366646313	0	0.00117771111029782	0.429046685204935	0	1.71736696521284	0.216418352996417	0.7948718406758	0.915208459000259	0.19935412707115	0.329497500494693	0	0	1.20411982192798	0	0	0	0.419	0.0315429072975013	1.09674597002224	9.8860058979206
GTEX.R55C.0626.SM.2TF4Q	0.50066313566785	0.053602350555035	0.802449228460419	1.44745436703069	0	4.17700052562853	0	0.0535339680503906	0	0	0.101193280327139	0.240299629776062	0.158762706318293	0	0.725771481179892	2.4188875618657	0	0	0.167356112966094	0	0	0	0.043	0.160161626862976	1.03280092464667	10.8469743478261
GTEX.R55E.0826.SM.2TC5M	0.037273168374137	0.0410343282853019	0.0445966687182271	1.51337475832154	0	1.86316203572092	0	0.350551309158664	1.04610410166667	0	0.699117176780865	0.306877030747009	0.623207045810114	1.47609524882034	0.0689609271525468	0.493878564107188	0	0.139714432579165	1.95562806198037	0	0	0	0.488	0.0221823254276154	1.08590064131803	10.6595748582231
GTEX.REY6.0526.SM.2TF5M	0.690331225112502	0	0	5.93671332253745	0	0.355421633380857	0	1.22455838497961	0	0	0	1.62343365350087	0.206745440079394	0	0.332258134419533	1.84619348852139	0	0.066132586906861	0.758049926960006	0.0400640561535018	0	0	0.078	0.122185726535732	1.08406420613091	13.079901852552
GTEX.RM2N.0526.SM.2TF4N	0.310097690915324	0	0.272225638254109	1.78895598752857	0	3.12950439592885	0	0.31734276319948	0	0	0.299240476431543	0.106584850916708	0.994208133843523	0	0.632953061314742	2.65483909452121	0	0	0.020627915707726	0	0	0.00461156421704203	0.19	0.0715374628849168	1.06807147261123	10.5311915727788
GTEX.RN64.0626.SM.2TC5V	0	0.207185443839373	0.208209547145932	3.52623911954605	0	0.433928625980082	0	1.00697477924002	1.03374107460758	0	0.523608860086667	0	0.435231893202976	0.652572033345164	0.370338040107732	0.0925988266219226	0.0164709832223216	0	1.68094922976588	0	0.104491936483008	0	0.237	0.0612072276002867	1.08914638175049	10.2925403931947
GTEX.RNOR.0926.SM.2TF56	0.512265646716692	0	0.0133484636546998	1.72329361519262	0	2.8328351338686	0	1.39517941887249	0.102262129290909	0	0	1.21473287896663	0.389293884763677	0	1.01511377921092	1.613071132155	0.053957577369822	0	0	0.293694570561771	0	0	0.146	0.0879426136747383	1.08140883540865	11.1590482306238
GTEX.RTLS.0626.SM.5SI7Z	0.890698453151159	0	0	0.740072911718558	0	1.11548536548272	0	0.0521479889776621	0.0656609808855752	0	0.950620664128677	0.528407366412407	0.674187843891942	0.460789671388096	0.104126977629306	0.763313311236193	0	0	1.85697201344486	0	0	0.148187551841879	0.595	0.00789053427806518	1.08548487560626	8.35067110018904
GTEX.RU1J.0226.SM.2TF5Y	0.238608233050824	0	0	1.24458990554664	0	0.646744316039391	0	0.494595672993361	0	0	1.1145055048235	0.562915092221499	1.81328615617201	0	0.639645653789019	1.57503943732515	0	0	0.288529763388318	0	0	0	0.734	-0.00802492808409109	1.10389603804888	8.61845973534972
GTEX.RU72.0126.SM.2TF6Z	2.269311947155	0	0.855877614622534	8.6325715985436	0	0.906068734798461	0	3.35065058141577	1.3157119772147	0	1.20367267202119	0	1.09854538393151	0	3.03229553871601	2.0636077628478	0.348328755364213	0	0	1.64403397223986	0.346407960184182	0	0.037	0.179732660324761	1.03169370315938	27.0670844990548
GTEX.RUSQ.1026.SM.2TF6V	0.110295617060011	0.156359359528054	0	0.867358219986825	0	2.82451055789362	0	0	0	0	0.644482272522377	0	0.653418440237382	0	0.116151020916913	1.86559425003738	0	0.112376935482574	0	0.102996384725681	0	0.0304435956734562	0.631	0.00390898503863132	1.10050947660053	7.48398665406427
GTEX.RVPV.1226.SM.2TF73	0.00461908244216208	0	0.0098845935895035	1.91183198045031	0	2.05414795032292	0	0	0.000815972172704501	0	0.866616681841566	0	0.51954297407337	1.53217655074912	0.413211651432147	0	0.0754303975842892	0	1.57157740655411	0	0.181006044232019	0	0.374	0.0392130965237684	1.08283937644364	9.14086128544423
GTEX.RWS6.0626.SM.2XCAS	0.44349344237356	0	0.07421612805734	2.16624940374362	0	1.58356739009295	0.042703533181762	1.43395935619231	0	0	0.328099449469433	0.105113048207273	0.146411668434584	0.152712134741338	1.1224742808677	1.69235341512264	0	0	0.128058579383149	0	0	0	0.168	0.0819801800179286	1.07830924022566	9.41941182986768
GTEX.RWSA.0826.SM.2XCBF	0.0371909345957234	0	0.0448552816329819	1.8093996562282	0	1.38297330572681	0	0.0228336959658844	0.0903688119134505	0	0.881026759378857	0	0.649188489535514	0.900703985576805	0.265211925840602	0.0778154383636366	0.0234756922150188	0	1.23985850300887	0	0.000547291284181715	0	0.762	-0.0115097084900825	1.1080811678852	7.42544977126654
GTEX.S32W.0726.SM.2XCBL	0.0479248513770143	0	0	1.4815813875783	0	1.64113986672761	0	0	0	0	0.573585812350589	0	0.758898220103297	0.961515554918736	1.69128436667121	0	0.11506405234532	0	0.545269073879773	0	0.231010840513187	0	0.093	0.112684699568019	1.0671268561076	8.04727402646503
GTEX.S7SE.0726.SM.2XCD7	0	0.0280232958646215	0	2.17296652932549	0	1.45968391184962	0	1.24423365912216	0	0	1.11032701797993	0.163975595935009	0.266695438650654	0	0.319353037246395	2.80195037220004	0	0	1.49738789040832	0	0	0	0.37	0.0397788332322132	1.08056246135091	11.0645967485822
GTEX.S7SF.0226.SM.5SI7H	0.442228807567762	0	0.0444069718172085	1.95459734825841	0	1.86054203220556	0	0.444829925161102	0	0	0	0.428456889962442	1.21445887066884	0	0.314859117517695	2.16741687289013	0	0.0843821348506675	0.211104508524311	0	0	0.0381674468518552	0.295	0.050339457497455	1.0733386269788	9.20545092627599
GTEX.SIU8.0626.SM.2XCDN	0.432459078725956	0	1.14226831599452	5.10004345440111	0	3.68257541878313	0	1.42117973518601	0	0	0.615516989502925	0.702495011976684	0.360808065781816	0	1.58510156555258	2.10441153392589	0	0	0.747232684611716	0	0	0	0.047	0.157980402496479	1.0465811690968	17.8940918544423
GTEX.SJXC.0726.SM.2XCFJ	0.627579421262362	0	0.518944609717913	1.51918380138118	0	3.16217480019864	0	0.33862516792841	0.188100104112783	0	0.0643401445584566	0.507767604025581	0.208687159669173	0.857857894001415	3.14267983875939	0	0.317413765199019	0	1.03712186082926	0	0.344083204537889	0	0.0649999999999999	0.133850726301187	1.06462486554948	12.8345593761815
GTEX.SN8G.1526.SM.4DM79	1.00631562516752	0	0.214998232037938	1.2014704254659	0	1.2600506104415	0	0.146142792036136	0.507399976850383	0	1.99008378801097	0	0.529391043694666	0.543599124649172	1.21717846333328	3.21871592038148	0	0	0.644936114644626	0	0	0.762002784987759	0.239	0.0602432169387474	1.06049194059816	13.2422849017013
GTEX.SNOS.0226.SM.32PLR	0.498275265894933	0	0.0296228644161473	1.92587683052156	0	1.09050055570063	0	0.091939670081965	0	0	0.234946975384576	0.412496906781493	1.40734170782405	0	0.372545389393001	2.73764042962168	0	0	0.228997139956406	0	0	0.0143836935350928	0.557	0.0122944445149455	1.08433154247885	9.04456742911153
GTEX.T2IS.0626.SM.32QP6	0.564365029938107	0	1.06367232789876	2.52195655651176	0	2.43794783589681	0	3.67233898082737	0.210659216066733	0	0.626471922363894	0.700774543315808	0.22856042141331	0.497887495117505	1.80689414902711	2.34142233605136	0.261641401256197	0	0.431431875052515	0	0	0	0.054	0.148364953673211	1.04062819014501	17.3660240907372
GTEX.T5JW.1226.SM.3GACY	0.794513322473622	0	0.423872822432761	2.04465674373232	0	2.81554304857568	0	1.59527176720537	0	0	0.229039159566381	0.140713766510088	0.151163665063769	0.127947854308026	1.15897296832983	2.25108300478951	0	0	0	0.142391353971291	0	0.0256175929846468	0.089	0.117629997664741	1.05576311403344	11.9007870699433
GTEX.T6MN.0626.SM.32PM9	1.35673278630358	0	0.267680927725268	4.12041588358588	0	1.00607080111584	0	3.35415933108469	0.0296560899096408	0	0	1.17184048380416	0.327136865531559	0.102892253601965	1.415287757628	0.883321525461382	0.0317777881811396	0	0.202128957862742	0	0	0	0.076	0.123914451456353	1.07737164591685	14.2691014517958
GTEX.T6MO.0226.SM.32QOL	0.0664060827212465	0	0.221498630681955	1.93596113141909	0.0748060170467771	0.766182551825593	0	0	0.242501764860306	0	0.0493160569501327	0.609686741809934	1.441799688412	0	0.535204408810997	1.98765687492951	0	0.00159213999220377	0.128891509784115	0	0	0	0.844	-0.0183822949934437	1.1021125552887	8.06150359924386
GTEX.T8EM.0226.SM.3DB7C	1.2446510964736	0	0.483700573371544	1.75363216455225	0	1.71697078912797	0	0.186043884709838	0	0	0.867108520466634	0.130870546435085	0.364062400002654	0	1.49493724717062	0.512936625684881	0	0	0	0	0.0160153315890384	0	0.099	0.108754459870936	1.07686898189091	8.77092917958412
GTEX.TKQ1.0126.SM.33HB3	0	0.0549198834392903	0.0728087629122848	1.47948502550883	0	3.51864555050414	0	0	0	0	0.503404106881656	0.228442526474196	1.10000687915946	0	0.308682457367578	1.00386686068262	0	0	0	0	0	0	0.414	0.0329319175076386	1.1110818414693	8.27026205293006
GTEX.TSE9.0626.SM.3DB8B	0.807494107256944	3.4947670381738	1.11317383942734	1.66660190069378	0	7.29431725556593	0.106342840693131	0.47265581166648	0	0	0.611537279779279	0	0.285980156755617	0.106243000419753	0.465080559226833	1.82947844287892	0	0	0	0.276929771242905	0	0	0.003	0.358364260961443	0.943947196804829	18.5306020037807
GTEX.U3ZM.0126.SM.3DB8M	0.155450360068184	0	0.277636298166897	0.391957175788682	0	2.50247958817758	0	0.419464131876703	0	0	0.710692776179101	0	0.906609287082458	0	0.42967523662521	2.37329089621085	0	0	0.159863739427364	0	0	0	0.516	0.0182900628530919	1.07872599772398	8.32711948960302
GTEX.U3ZN.0326.SM.3DB86	0.480500066503068	0	0.0233288265529697	1.65925647349692	0	1.19960697761331	0	0.977102819967467	0	0	0	0.303326193884618	0.725829382378983	0	0.974937096804351	3.29766178488244	0	0	0.648361393038737	0	0	0	0.333	0.0446064945362166	1.06847259754679	10.2899110151229
GTEX.U4B1.0626.SM.3DB8L	0	0.179957634145746	0.109716457221872	2.02602709810357	0	1.95848801986588	0	0	0	0	0.523345707491197	0	0.998514277210363	0	0.680104902728688	2.52370082048032	0	0	0.218402417345946	0	0	0	0.498	0.0204280640416165	1.08618528174755	9.21825733459357
GTEX.U8T8.2326.SM.3DB96	0.116380022395116	0	0.0450901647948345	1.50779320668963	0	3.28976875351871	0	0.598004002243321	0	0	1.37129929642042	0.318312602791833	0.642651500061782	1.13160227324476	0.785241445795403	1.79399403941109	0	0	0	0.335343335355217	0	0	0.585	0.00938563381813417	1.10217539275523	11.9354806427221
GTEX.UJMC.0326.SM.3GAE2	0	0.0554762782411487	0.661944495683497	1.61251359059267	0	1.43875252809535	0	0.363442529524434	0	0	0.707425695989679	0.260792170801052	1.70165795184296	0	0.421803415611788	1.75989704918141	0	0	0.150728789824693	0	0	1.06060682786274	0.433	0.0298517025569471	1.07858995669395	10.1950413232514
GTEX.V955.0426.SM.3GAEL	1.43892393042285	0	5.90009641759654	3.03882029521632	0	5.04599976517457	0	0.716435799503767	0	0	0	1.20480861475885	1.78605139122294	0	0.485960695604501	6.14544244126541	0	0.00670461898850515	0	0	0	0	0.002	0.374026098586204	0.932828546138897	25.7692439697543
GTEX.VJYA.0426.SM.3GIJK	0	0.0439922027379918	0.0105709120699286	2.12237051630523	0	1.8229888053939	0	0.322729376026186	0.417745911546006	0	0.402135152018378	0	0.844436909164822	0.00457283467534312	0.795386652837042	1.1052073120136	0	0	0.798412222622351	0	0	0.00969229466861809	0.428	0.0301446401667843	1.09209283704165	8.7002411020794
GTEX.VUSG.0426.SM.3GIKD	0.404867204352938	0	0.127828136611416	2.40011788608241	0	2.02376544390465	0	0.0941731730417787	0	0	0.875989422427375	0	0.717315079366714	0.510579502133512	1.62815202042914	0.663083959058188	0.0972309264247852	0	1.31138425549631	0	0	0.414394571011051	0.231	0.0632471769937992	1.07244324894531	11.2688815803403
GTEX.W5WG.1426.SM.4KKZP	2.72045709627869	4.12536882580225	7.09797059897666	9.49022346438149	0	11.614703438259	0.426481753469282	1.46578376386339	0.611864432253034	0	3.27811071272987	0	2.89585589016133	0	2.29003658840481	3.54277602202515	0.393269730387554	0	0	0.575742560134117	0	0	0.003	0.348153582151992	0.94780282807599	50.5286448771267
GTEX.W5X1.0426.SM.3GILB	0.300822769972079	0	2.29042354734685	1.50328980508698	0	5.08379420678083	0	0.274406383605782	0	0	1.14158971702087	0.49340942949054	2.10321474386836	0	0.658707401949857	3.9215378431749	0	0	0.563481287647056	0	0	0.553221843261954	0.029	0.207109718378179	1.00001877276267	18.887898979206
GTEX.WEY5.0526.SM.3GIKZ	0.216345385737702	0	0.328002771453792	0.366515844135952	0	1.18184426857957	0	0	0	0	0.194081796757847	0	2.26640112282426	0	0.44849680343155	4.12172442126941	0	0	1.34919516615018	0	0	0	0.0600000000000001	0.141395984536787	1.03101040232095	10.4726075803403
GTEX.WFG8.0426.SM.3GILD	0.735999215585308	0	0.574427821551589	0.965115208161125	0	3.16607247754805	0	0.074091466903241	0	0	0.122425687367831	0.0620097342254742	1.72391675393348	0	0.492083891619817	2.85041671710359	0	0	0.67420689934642	0	0	0	0.053	0.149671370631524	1.02021197855087	11.4407658733459
GTEX.WFJO.0226.SM.3GIKW	0.215252254508666	0.176334511643727	2.26877798051685	3.00343763340082	0	4.88551795560898	0	0.778943732811068	0	0	0	0.517967031501615	1.29357721109927	0	1.17428655598055	5.72641129839383	0	0	0.061536754177588	0	0	0.131997666368375	0.033	0.197738653838126	1.00823505888778	20.2340405860113
GTEX.WH7G.0526.SM.3NMBI	0.417987038533495	0	0	2.77293695949619	0	1.32456160599061	0	0.208769045066044	0	0	0.325748286987432	0.393642394746106	0.743397677510863	0	0.387950923247673	1.59573561155199	0	0.000822725300595467	0	0	0	0	0.462	0.0263133554613325	1.10664474572641	8.171552268431
GTEX.WHPG.0226.SM.3NMB9	0	0.293702098383233	0.132961292115058	2.73592800995504	0	0	0	1.11477176010728	0.533979481532757	0	0.620713343352366	0.0322354494099226	0.764617191455519	0	0.569988400088236	2.39539536157099	0	0.0245223960805885	0.218780130882853	0	0	0	0.349	0.0421847712247502	1.08078954875565	9.43759491493384
GTEX.WHSB.1626.SM.3LK6J	6.05096032333195	0	10.343593714673	7.40965655082378	0	4.85829827568487	0	0	0	0	0.235541228683442	0	1.11580578875044	0.312862037764693	0.410550076656032	0.929107949444325	0	0.137486483796662	1.21139811323035	0	0.0406940328194962	0.202714208840063	0	0.481491940285165	0.887489608312077	33.2586687844991
GTEX.WHSE.0626.SM.4RGNF	0.130161070300703	0.26496884091267	0	1.40859537570677	0	3.10967291420408	0	1.20396649698518	0	0	1.70204319588682	0	0.909494854747191	0.18197917541357	0.916006927038179	0.180526293313644	0	0	0.12109829005234	0	0.0767645049473644	0	0.756	-0.0108236236411926	1.13924350591882	10.2052779395085
GTEX.WK11.0926.SM.3NMAU	0	0.168439112095819	0.152263062675343	2.78974132442766	0	1.09289870246525	0	1.2890303993095	0.254329022274816	0	0.631469292302267	0.383350257829578	0.692494338199468	0.912458703141554	0.977818502948962	0	0	0	1.89916236540858	0	0.241179465125359	0	0.494	0.0208809639834182	1.0940764237826	11.4846345482042
GTEX.WL46.0126.SM.3TW8I	1.52953428093453	0	5.50082015788963	6.48766847498791	0	3.89875403961404	0	1.67733829071239	0	0	1.92644028288993	0.536950417346285	0.935469411401345	0	0.561064121366386	1.49437610342667	0	0	0.143099265007894	0.52613733211675	0	0	0.003	0.342667542782302	0.959454356669196	25.2176521776938
GTEX.WOFL.0726.SM.3MJG4	0.401301150257235	0	0	0.238637370515843	0.0729111497943565	1.3844858215531	0	0	0.0549878081422904	0	1.27049302184033	0.245254384581426	0	0	0.15493257972914	4.56522174709922	0	0	0.31216291568964	0	0.112973855531275	2.10241686067257	0.411	0.0332110043721189	1.09306276714308	10.9157786654064
GTEX.WRHU.0926.SM.4E3IG	1.10399011699232	0	2.01446092612982	4.4098261676366	0	4.69636485048655	0	1.25251134321173	0	0	1.21458712291612	0.807572764569917	0.563425087293678	0.0165982086394966	1.36237082448822	1.48850909068357	0	0	0.267921648180705	0	0	0	0.026	0.213342887893771	1.02201763719135	19.1981381512287
GTEX.WVLH.0626.SM.3MJG7	1.0167819732599	0	0.125617932186159	2.89569146626692	0	1.53674670879199	0	2.26181133734536	0	0	0.741931195788017	0	0.260776153391694	0	0.263629230568566	1.26054230130306	0	0	0.188213666490761	0.48647686258489	0	0	0.178	0.07773962454428	1.08860369569946	11.0382188279773
GTEX.WWYW.0826.SM.3NB2X	1.46074069173492	0	0.107990432568944	2.0769102489142	0	1.3239645398019	0	0.507202087549868	0	0	0.829716969335045	0.144371937236912	0.694509741303744	0.487539461664063	1.85197104987641	0.813775565140947	0	0	0	0	0.262095259441321	0.418394510705822	0.301	0.0495666269149762	1.08747735395108	10.9791824952741
GTEX.WXYG.0226.SM.3NB2Y	0	0.320880466799849	9.9950715232511	3.77134857445253	0	3.30201530752041	0	0.219477327756407	0.389794405996072	0	0	0.833377788525925	1.83633145918939	0	0.292905767793346	5.86927892101998	0	0	0.733044563555111	0	0	0	0.001	0.439894145708798	0.906076218818615	27.5635261058601
GTEX.WY7C.0226.SM.3NB37	0.670101806817633	0	0.706631723992775	1.62543863846925	0	1.96971244322705	0	0	0	0	0	0.319384630875951	1.32712877640073	0	0.125921010112235	2.60404132261221	0	0	0	0	0.0484155094959524	0	0.099	0.108484944204466	1.04452076826825	9.39677586200378
GTEX.WYBS.1926.SM.3NM8N	0.873944855885032	0	0.993371760527541	3.32917471143377	0	1.36762332655323	0	0.278993719044104	0	0	1.38236283619767	1.10063844580428	0.359258962226327	0.41436733774295	0.665961226682841	0.265277931806587	0	0	0.0116740882182073	0	0.557520382970682	0.725461392222471	0.054	0.148708338924209	1.05839886971745	12.3256309773157
GTEX.WYJK.1626.SM.3NM9J	0.171090384533077	0	0.13105589717195	2.01373083319727	0	2.512396672161	0	0.157581833401208	0	0	0	0.655636498897574	0.255649716840111	0	0.783745982959579	4.91019400214715	0	0	0.36619527131868	0	0	0	0.31	0.0486870303433001	1.07751508306606	11.9572770926276
GTEX.WYVS.0326.SM.3NM9V	2.33391183195471	0	2.14379893026001	5.09116147312524	0	6.90753731649517	0	3.52238239085448	0	0	1.00118996171634	0.55136599855502	0.995378924707918	0	3.40902764193624	4.42976661013046	0.0404946475593724	0	0.437405161173855	0	0	0	0.035	0.190555541416667	1.02113573000067	30.8634208884688
GTEX.X15G.0526.SM.3NMB7	0.106671150528655	0	0.105112147175202	2.53803651980154	0	2.40553988724445	0	0.168383637257839	0.312901879290227	0	0.792721877310722	0	0.513253399280383	0.253074313796857	0.34872909240882	2.52735118403175	0	0	0.163783552705316	0	0	0	0.237	0.0618755904962988	1.08211929792485	10.2355586408318
GTEX.X4LF.0426.SM.3NMB5	1.59303896748027	0	3.85393640183725	2.89419110320706	0	3.41116391097581	0	0.26838993822062	0	0	0	0.780827020343981	0.810044284709901	0	0.296551871171353	3.51195867386569	0	0	0.521293956979724	0	0	0.214242037559942	0.002	0.381918696869644	0.92874550392465	18.1556381663516
GTEX.X4XX.0926.SM.46MV7	0	0.209839289492182	0	0.944679105781838	0	2.25651724369473	0	0	0	0	1.72037043926047	0.154963040185426	0.71494783569274	1.02266379907435	0.272234400935098	0.528543573234544	0	0	2.76570236905693	0	0	0	0.674	-0.00187197977076318	1.09835079968069	10.5904610964083
GTEX.X4XY.0826.SM.4E3JM	0.395883818974524	0	0	2.05357578293513	0	1.48118961451271	0	1.99905813422171	0.280073799563588	0	1.41984998946436	0	0.925973582832252	0.797823196467093	0.770452542710466	0.991112384568141	0	0	0.72613204853763	0	0	0.010513592925059	0.514	0.0184720597556021	1.09547081903679	11.8516384877127
GTEX.X5EB.0726.SM.46MVR	0	0.160511096282558	0.0363050686524619	1.21832431191365	0	1.59446230621015	0	0.600304274333026	0	0	0.81021972198496	0	0.548438130381598	0	0.565098452029194	3.41839287918273	0.0888123762853249	0	0.498107942290659	0	0	0	0.548	0.0137891935780212	1.0821008889631	9.53897655954631
GTEX.X8HC.0726.SM.46MWG	0.911072505391987	0	0.015434117179578	3.30219470557819	0	0.148185180313994	0	0.839725065695549	0.129729602712265	0	1.66206307776579	0	0.566541757651939	1.5542862843762	1.20776343631701	3.72071869879628	0	0	0.172804037030296	0	0	0	0.11	0.101489854545188	1.05349324810712	14.2305184688091
GTEX.XBED.0126.SM.47JY7	0.16444711507951	0	0	2.31489288532581	0	2.42572809220645	0	0.268424268664224	0	0	0.5169189549557	0.264955138865784	0.392751818506848	0	0.745965675542281	1.99079683047797	0	0.101384680070099	0.143081326694725	0	0	0	0.538	0.0153345417370024	1.10908034389446	9.32934678638941
GTEX.XBEW.0126.SM.4AT66	0	0.122418342937365	0	2.05741472283007	0.151750120848681	0.243809755904101	0	0.361177839751531	0	0	0	0.911628586511017	0.335112563050103	0.136340689140636	0.524611467629425	3.39285033483752	0	0	0	0	0	0	0.895	-0.0244410158163223	1.12053168427886	8.23711442344045
GTEX.XGQ4.0426.SM.4AT4I	0.620379699061042	0	0.77782115879523	1.40540247918577	0.105463356942082	1.64594054527851	0	0.329264082800031	0.0603742162660307	0	0.397707374051947	0.255892961149618	0.566921127482071	0	0.23080170137596	2.57409014800888	0	0	0.252764361496733	0	0	0.0641352569151598	0.09	0.114765961505386	1.03996961868247	9.28695846880907
GTEX.XLM4.0726.SM.4AT64	0.148580272423281	0	0.0266146940611767	1.20297947539754	0	1.69611609666254	0	0	0	0	1.64134220995168	0	0.816630791961133	0.391928436755899	2.07552797577724	0.697805748864456	0.17945426660882	0	1.59248271346965	0	0.0980991218911515	0.250604663094155	0.418	0.031809122146003	1.09430962689941	10.8181664669187
GTEX.XMK1.0626.SM.4B65A	0	0.49400626390819	3.07606278691222	2.58745877978936	0	0.209734723258012	0	1.19838340541371	0	0	1.12955550018025	0.601268223405438	0.496551428921086	0	1.2142786943793	1.98166591108398	0	0	0.296436551179444	0	0	0	0.005	0.327360637510902	0.959937361472418	13.285402268431
GTEX.XUW1.1026.SM.4BONY	0.482214502032901	0	0.318054740437217	1.88708697178519	0	1.82254096817755	0	0.606105254718107	0	0	0.216866482465556	0.185521898625808	0.281689807761384	0	0.381058476722611	2.18823308919458	0	0	0.0317403776741956	0.137259778985776	0	0.0117515455590124	0.249	0.0585156915229301	1.07549476700262	8.55012389413989
GTEX.XUZC.0126.SM.4BOO6	0.0574494972412839	0	0.343846663985656	0.910007372165702	0	1.33773112355498	0	0.68717423297204	0	0	0.39231195730211	0	0.447992313188891	0	0.385476238321234	3.10080536254785	0	0	0	0.00354784741589862	0	0	0.594	0.00801789812267166	1.08886374957514	7.66634260869565
GTEX.XV7Q.0326.SM.4BRVM	0.15847127565879	0	0.0094220765670984	3.79837682927107	0	1.81654494627836	0	0.492350277104393	0.207228037193406	0	0.68331344571419	0.335755248655656	0.886638659547101	0	0.301936631036605	2.11434270824598	0	0	0.774231963026033	0	0	0	0.168	0.0824847086703624	1.07762020835091	11.5786120982987
GTEX.Y111.1926.SM.4SOIS	0	1.2336341469342	0.226049681649706	4.68619807181633	0	0	0	0.564040959540817	1.94902771969604	0	0.128395837452277	0	0.343774959026652	0.803309104790126	1.90762463390666	0	0.197713025301101	0	1.66357820581086	0	0.228711593583736	0	0.051	0.152956788530482	1.04251731176379	13.9320579395085
GTEX.Y114.0626.SM.4TT98	0.436800495989495	0	0	1.59934685166603	0	2.75613926078053	0	0	0	0	0.397080047678374	0	0.531412934503209	0	0.540921037947612	2.68971443789905	0	0	0.207233299602821	0.152790715218319	0	0	0.294	0.0504878923488097	1.07469819740977	9.31143908128544
GTEX.Y3I4.0226.SM.4TT27	0	0.0516203385057775	0.317020721259895	0.696683100562805	0	0.553653358910691	0	0.2617575527557	0	0	1.05361593367358	0.107844915027201	1.03810027522194	0	0.282140690315883	2.01396177535377	0	0	0.334425599547253	0	0.0628182020034921	0	0.723	-0.00703326281689286	1.08777151667484	6.773642463138
GTEX.Y3IK.0526.SM.4WWE3	0.567465240984171	0	0.378683168354525	2.41206956542307	0	1.1515606306546	0	1.57500761312718	0	0	0.33296547661981	0.371243499342349	1.18223655945224	0	0.495477900837727	2.08046732957546	0	0.0200653161502083	0.178406102909745	0	0	0.00718050394131819	0.217	0.0656637593482128	1.06900894352156	10.7528289073724
GTEX.Y5LM.0626.SM.4V6G4	0.747932480651813	0	0.0604435502115068	1.53702045758829	0	0.214993314816449	0	0	0.00570186106334486	0	0.648257594166881	0.155520120912771	1.26876188623352	0	0.34354146337547	1.91680393324899	0	0.0561362878535852	0.292057545470053	0	0	0.720063417450803	0.569	0.0110568386057456	1.08341948460362	7.96723391304348
GTEX.Y5V5.0326.SM.5RQJG	0.464366935190701	0	0.0134308676169258	3.67540742111881	0	0.353446134074599	0	1.36931808559555	0.12362325453431	0	0.572743985992177	0.489952063036992	0.442260732597223	0.374450311076169	2.0148574523481	1.35524742080419	0.0366668329895333	0	0.225976272400898	0	0	0	0.167	0.0828114221095251	1.09041963472478	11.5117477693762
GTEX.Y5V6.0526.SM.4VBRV	0.635377309548997	0	0.58911995280125	1.67215951658418	0	0.838863834347797	0	0.474836596414416	0	0	0.647693676430407	0	0.220046601584077	0	1.08584631021142	1.86725615911961	0	0	0.257254027834976	0	0	0	0.217	0.0656620724734323	1.06816796679466	8.28845398487713
GTEX.Y8E4.0126.SM.4VBQ2	0.129114837252794	0.000319911203922975	0.0638601176773352	3.26469536820185	0	1.66901656779486	0	0.2538713535351	0.634039591183962	0	0	0	0.522684029390652	0.265737718008521	0.595344315901002	1.2749791469667	0.114765801772366	0	0.731460031281068	0	0	0	0.115	0.0995731715130163	1.06787162658505	9.51988879017013
GTEX.Y9LG.0426.SM.4VBRT	0.598090653659503	0	0.0332842889360325	1.7009222381045	0	2.15334757118208	0	0.420949194157649	0.0523304744938495	0	1.02699521053026	0	0.342007128019349	0	1.20115065827747	2.89541192181953	0.0450671749974734	0	0	0	0	0	0.239	0.0600791461451118	1.07621675409715	10.4695565141777
GTEX.YB5E.0626.SM.4VDSE	0.116986764849394	0	0.0276764180977616	2.36061673159201	0	1.32535019265715	0	0.0899826987796133	0	0	0	0.541920096038333	0.312349625187981	0	0.537058968561917	1.70688947588045	0	0	0	0	0	0	0.83	-0.0170282118616732	1.13083612710508	7.01883097164461
GTEX.YB5K.0526.SM.5LUAS	1.9405878649835	0	1.03875737497236	6.47951763566241	0	6.34320020795521	0	1.4639625098976	0.582964356024134	0	0.380421504367113	0.204773440827818	0.883680506058642	0	2.58589088812922	2.71331630658529	0.460290671710291	0	0.454079184622244	0	0	0	0.046	0.158273098351073	1.04360066742869	25.5314424517958
GTEX.YEC3.0826.SM.4WWFP	0.0460939463927508	0	0.253711285451369	1.33034759187579	0	0.4000573105986	0	0.670972331697746	0	0	0.528537437601207	0.0655937948758761	0.433488569294357	0	0.314586388331949	1.58903118832706	0	0.0242299319664963	0	0.119828982627036	0	0.0690562390694055	0.803	-0.0149114487855051	1.10049789442925	5.84553499810964
GTEX.YEC4.0626.SM.5CVLU	0	0	0.0561561085615907	1.05453488731127	0	2.70611162165778	0	0	0	0	0.6144417151774	0	0.832630104702118	0	0.298033879693058	2.61303808261861	0	0	0.131007870946508	0.099583441997076	0	0	0.537	0.0154570661644664	1.09032965900519	8.40553771266541
GTEX.YF7O.0726.SM.4W213	0.735985522530287	0	1.44582098050789	1.44479537796215	0	2.53755595008303	0	0.737459629689659	0	0	0	0.858697879071097	0.0695489697044397	0.135746904142029	0.692236654291577	2.44714565805751	0.00376403350664795	0	0	0	0	0	0.016	0.255087792979196	0.988482916372074	11.1087575595463
GTEX.YFCO.0326.SM.4W1ZP	0.353381435316864	0	0.438189637335569	1.60554770222458	0	0.500567168216449	0	0.643903256395983	0	0	0.0133521266276941	0.104080664200315	0.349384842311951	0	0.112516428251411	1.65527440211398	0	0.302728078121765	0.106728338726625	0	0	0.341923063824108	0.441	0.0287673132579097	1.07466799962937	6.5275771436673
GTEX.Z9EW.0226.SM.5CVM7	0.255442817569816	0	0.67729592249505	1.0253127669562	0	1.43551375400438	0	0	0.0323170722344621	0	0.139149468243631	0.263574468819172	0.434801740071152	0	0.446865940732943	2.77832243123338	0	0	0.175171349208815	0	0	0	0.426	0.0305066914993518	1.07344881389622	7.663767731569
GTEX.ZA64.0426.SM.5HL96	0.599138574394086	0	0.142274969363331	1.51170284298274	0	2.24382520657918	0	0.275894611693839	0	0	0	0.222953457635232	0.53373516500066	0	0.63981446046791	2.69280417119186	0	0	0.196236246974671	0.101370133035968	0	0	0.287	0.0517040112981254	1.06982582072533	9.15974983931947
GTEX.ZAB5.0726.SM.5P9JG	0.393484304099	0	0.00872247553228684	1.66972087689271	0	3.57054969592733	0	0.428624269180432	0.445134641028703	0	0	0.408766817701237	0.318364510507222	0	0.521062502009211	3.7199455870055	0	0	1.05510413675152	0	0	0	0.089	0.116968070587665	1.04496528326275	12.5394798166352
GTEX.ZAJG.0726.SM.5HL9A	0.750978543911377	0	0.0194721770942236	3.49343122321015	0	1.547949928024	0	1.00956602310909	0	0	0.571448339307587	1.27957423845579	1.09603815156781	0	1.55301916406742	1.51322749994755	0	0	0	0	0	0.935285278412745	0.109	0.102862128460161	1.07267515816136	13.7699905671078
GTEX.ZDYS.0626.SM.5J2N5	3.36711776657916	0	2.11150822320041	2.7123441100033	0	5.57037357968997	0	0	0	0	0	0	0.390618890177673	0.113576487116112	1.23946200759121	2.93985865210744	0	0	0.355046011323009	0	0	0	0.003	0.356834498549773	0.941558411274993	18.7999057277883
GTEX.ZE7O.1126.SM.57WC8	2.3484663454788	0	0.655939826866672	5.50619211657819	0	4.15699759571993	0	2.08205074620524	0.375938340028271	0	0	1.97020315147228	0.223194557085274	0	0.777250050717	0.85183114586436	0.221077388455256	0	1.38316735556652	0	0	0	0.021	0.2224111644151	1.0236642698723	20.5523086200378
GTEX.ZGAY.1026.SM.4WWBR	0.831742516617081	0	0.194402185704294	1.66621580014022	0	2.9897795265622	0	0.621129058772037	0	0	0.625733866953742	0.0698411756785878	0.567045919073609	0	0.339080554435811	2.25713688070529	0	0	0.113682590971488	0	0	0	0.105	0.104950893420633	1.05694154868917	10.2757900756144
GTEX.ZLWG.0526.SM.4WWFB	0.419803413371647	0	0.419377855978147	1.13101081203967	0	1.01813463381222	0	0	0	0	0.74310364301542	0	1.10962489067213	0	0.145245075937453	3.12799630142532	0	0.0151726124786104	0.0677740419248613	0.124636487077788	0	0.653405425083375	0.183	0.0749277434719939	1.05638584745971	8.97528519281664
GTEX.ZPCL.0126.SM.4WWC8	0.550215034313213	0	0.14061376545178	1.82567054102918	0	1.88396095126637	0	0.123470511969459	0.0503145784317512	0	0.358231721633133	0.130960650905951	1.58376671921234	0	0.170686125593615	2.20531707686155	0	0	0.229936558776388	0	0	0.0272100216441081	0.237	0.0616824986131791	1.06481448865087	9.28035425708885
GTEX.ZPU1.0426.SM.4WWCA	0.588734456945955	0	0.0260680654947021	3.12837457892293	0	1.78184436761405	0	0.137896221085165	1.03497126064668	0	0.684684960097327	0	1.30150727925977	0.456947099281972	0.611579410907835	1.21628697868735	0	0	0.949446250835025	0	0.0320492180280367	0.39120189378111	0.172	0.079267971822827	1.06276199624448	12.3415920415879
GTEX.ZQG8.0926.SM.57WFF	0.71074957365885	0	0.0448382986111915	2.22728772021878	0	2.00169884989503	0	0	0	0	0	0.365472341822349	0.269422540046381	0	0.397457890553926	1.63117314436174	0	0	0	0	0	0	0.368	0.0399822513584703	1.09882313167146	7.64810035916824
GTEX.ZT9X.0226.SM.51MT2	0.198641642343	0	0	2.55979840751734	0	1.62245447184501	0	0	0.578138669424149	0	0	0.417333068779043	1.40511940199755	0	0.25459556112897	2.30292255388611	0	0	0.628291251434222	0	0	0	0.175	0.0784357139774955	1.06280791306644	9.96729502835539
GTEX.ZTPG.0826.SM.5DUVC	0.140061700617132	0	0	1.44983900670325	0	0.529699917724951	0	1.01387362926799	0.0555700746755295	0	0.472207578708434	0.0342994488443239	1.40981445541399	0.428285296513125	0.267287923996342	2.9885233902923	0	0.506157046954139	0.2944448758696	0	0.0378544256854365	0	0.309	0.0488114397242118	1.06451092203527	9.62791877126654
GTEX.ZTX8.0626.SM.59HKC	0	0.0338268450684037	0	1.60518979307677	0	2.02659830995853	0	0	0	0	0.269802654560239	0.277057688918599	1.04552061809674	0	0.798449854871561	2.02488666256637	0	0	0.115522726001888	0	0	0	0.562	0.0118331831679053	1.09666860297921	8.19685515311909
GTEX.ZUA1.0926.SM.4YCDX	0.653837668049491	0.090157000608332	0	2.98290505541157	0	2.30164300260031	0	0.110730632738273	0.579659541922178	0	0.31107269288826	0.166596853137087	0.519523020606075	0.906551362105641	1.38379092945115	0	0.129784374870749	0	2.10324009434435	0	0	0	0.238	0.0609427169919874	1.07788610791602	12.2394922287335
GTEX.ZV6S.0226.SM.59HJT	0	0.320806953853541	0.190554447736416	2.38271553788965	0	0.929753008307381	0	0.11224726101949	0	0	0	0.99933163810458	1.3767818707438	0	0.24898913199516	1.70206419307545	0	0	0	0.136793395980725	0.0434622210291657	0	0.613	0.00578694837921398	1.10375524158884	8.44349965973535
GTEX.ZV7C.0126.SM.57WDE	0.529099712041409	0	0.309889074117949	1.36025024390856	0	3.22177016984361	0	0.107889974499418	0	0	0.70210959442374	0	0.744803791315532	0	0.408674460315343	2.93275126432416	0	0.0155650381507041	0.415775384053903	0	0	0	0.126	0.094963092072066	1.0500988139138	10.7485787069943
GTEX.ZVP2.0426.SM.57WC2	0.260535460000403	0	0.0821321521976387	1.24966127558566	0	2.15981394102332	0	0	0	0	0.439128819130554	0.0667497495357739	0.788967292101163	0	0.496725691239868	3.00299756895202	0	0	0.425755505810162	0	0	0	0.191	0.0713954363120391	1.05844848865175	8.97246745557656
GTEX.ZVZP.1026.SM.5GICI	0	0.115531654391005	0.0664281164861794	0.651630268748367	0.213077141564279	1.22198020744139	0	0.0622933250483041	0	0	0.460024374356544	0.239130724200561	1.61471227428094	0	0.413232549462712	1.78735912111206	0	0	0.231156077699508	0	0	0.260345280520059	0.614	0.00564124407341565	1.08482192865373	7.33690111531191
GTEX.ZXG5.0926.SM.5NQ8H	1.28810544638661	0	0.180398279345226	1.13346071267895	0	1.02436703469604	0	2.75458925928329	0	0	1.17419858493785	0.402657969181466	0.289082905200514	0.696984750614125	0.291644571962741	1.46629358893603	0	0	0.00590048845958652	0	0	0	0.149	0.08737810918904	1.07103079927859	10.7076835916824
GTEX.ZY6K.0226.SM.5SIAY	0.28184137132629	0	1.93562331660552	1.66454526548654	0	1.72635879580809	0	1.53364105716028	0	0	0.790297275519596	0.16103344541233	1.06632365484843	0	0.403529983537691	2.23718429329035	0	0	0.425179851023784	0	0	0	0.015	0.26395909141343	0.979691497422247	12.2255583100189
GTEX.ZYFC.0926.SM.5GZWW	0.016622287509098	0.310814699948998	0.0206602855358959	2.75252012306932	0	2.49481657415283	0	0.0143598078273288	0	0	1.24044919485502	0	0.708639141534109	0.840453976830947	0.313362295557421	0.0672571909980687	0.00710138750745097	0	1.25964705900446	0	0.109547431245612	0	0.33	0.0454312065919047	1.09646426514477	10.1562514555766
GTEX.ZYFD.0826.SM.5NQ9A	0.332823928024582	0	0	2.33449316803681	0	1.55986929141108	0	1.37847746502696	0	0	1.12333978214122	0.0717471698231142	0.513344811452704	0	3.16328839768186	1.6986958961672	0	0.00481074209274988	0	1.10916737991211	0.2008926618047	0.167603109827563	0.02	0.225404878693827	1.02054549672216	13.6585538034026
GTEX.ZYFG.0626.SM.5GZYA	0	0.0687288425922693	0.000116124266677006	1.61973214706422	0	1.06143895289738	0	0.386485645729718	0	0	0	0.485381944788919	0.487899359934278	0	0.306573571094818	2.72958897978365	0	0	0.424720197443532	0	0	0	0.675	-0.00212966935359557	1.0957715958522	7.57066576559546
GTEX.ZYT6.0426.SM.5GID3	0	0	0.0606052204686181	2.42574853868012	0	1.57790584466024	0	0.692612048671046	0.694293517930314	0	0.598799536457423	0	0.463760587359814	0	0.298174266260816	2.33083385943349	0.00434348451068691	0	0	0.0628934925428647	0	0	0.21	0.0665810090677422	1.08747935922114	9.20997039697543
GTEX.ZYVF.1126.SM.5E458	0.637665498941908	0	0.482209417361671	4.50926172039738	0	0.946571518233027	0	0.0460570162000073	0	0	2.16624115370664	0	0.982100267687519	0.576525593438026	2.14154514075969	0.184680850609866	0.0602199855756898	0	0.811709875834822	0	0.0189722637112215	0	0.088	0.118841082121316	1.07359044621183	13.5637603024575
GTEX.ZYW4.1126.SM.5SI99	0	0.33860442538694	0	0.661288531550744	0	2.42802244849315	0	0	0	0	1.23933418407668	0	1.55625857977263	0	0.853710249112983	2.40147130125679	0	0	0.0365918898188529	0	0.158398272350377	0.0453956285778265	0.537	0.015565536811645	1.08395365277337	9.71907551039698
GTEX.ZZ64.0126.SM.5GZXA	0.2167263676643	0	0	1.55176591365266	0	1.50548808283376	0	0.124812109470274	0	0	0	0.548995226756368	1.36566382218836	0	0.591123030530571	2.41761219745722	0	0.193444003224871	0.124128849246191	0	0	0	0.647	0.000967265824611333	1.09169639941142	8.63975960302457
GTEX.ZZPU.1326.SM.5GZWS	0.669888517610253	0	3.34586919752163	3.36040964353795	0	2.83506726085614	0	0.0880093719017065	0	0	0.760830167006655	0	0.408800381384877	0	0.378171026164125	3.02440391268456	0	0	0.340124597108986	0	0	0.0530953627864475	0.003	0.3519778267278	0.945177131271316	15.2646694385633
