Mixture	B cells naive	B cells memory	Plasma cells	T cells CD8	T cells CD4 naive	T cells CD4 memory resting	T cells CD4 memory activated	T cells follicular helper	T cells regulatory (Tregs)	T cells gamma delta	NK cells resting	NK cells activated	Monocytes	Macrophages M0	Macrophages M1	Macrophages M2	Dendritic cells resting	Dendritic cells activated	Mast cells resting	Mast cells activated	Eosinophils	Neutrophils	P-value	Correlation	RMSE
GTEX.11DXX.1426.SM.5GIDU	0.0712251560316525	0	0.125640462232512	0.000499986339802973	0	0.148163569975208	0	0	0.000450870503824817	0	0.0300764676488631	0.00120376231746864	0.218973668897885	0	0.00926459318753478	0.362453975049327	0	0	0.0320474878159209	0	0	0	0.029	0.196481249831428	1.00986310766042
GTEX.11EM3.1726.SM.5N9D1	0	0.0203854670378573	0.0193872622091149	0.0532443906489844	0	0.31014258091331	0	0.0234119885908491	0	0	0.032581780840266	0.0641354874873712	0.0555828690713849	0.106496376246086	0	0.0464897606465847	0.00141796481652997	0	0.24943204336506	0	0.0172920281266008	0	0.43	0.025999864640202	1.08198859963984
GTEX.11EMC.1726.SM.5H11P	0	0.0294905400479478	0.197801140695486	0.0785025528805953	0	0.211844741755137	0	0.0020961342097461	0	0	0.0554440994970443	0	0.0255031777157048	0.190931362059139	0	0	0	0	0.204380649638829	0	0.00400560150037161	0	0.00800000000000001	0.274321514608259	0.977874182267951
GTEX.11GSP.0226.SM.5A5KV	0	0.0125495888534305	0.116849949016591	0.0306684287551243	0	0.0868748622116405	0	0.138784126551395	0	0	0	0.109439151250634	0.250569119522929	0.0138720421452949	0	0.170666116999384	0	0	0.0697266146935771	0	0	0	0.758	-0.0114951431915214	1.08778612225029
GTEX.11I78.1926.SM.59878	0.00658409872168558	0	0.261858010628468	0.216545769298795	0	0.154422332105348	0	0.0244263005308598	0.0261834306858041	0	0.0224346254930777	0.00118536569338803	0.0404681037770896	0	0.0503482147867326	0.184881273058682	0	0	0.00764471258111436	0	0.00301776263895636	0	0.004	0.335708416632293	0.956302860109611
GTEX.11P81.1526.SM.5P9GS	0.18268473378048	0	0.0586754103452859	0.067832281748224	0	0.27960001114949	0	0	0	0	0	0.0348232303931646	0.00327306366795353	0.0034071335025948	0.00564180486774989	0.254665145842931	0	0	0.109397184702127	0	0	0	0.029	0.199066460917369	1.00646072466981
GTEX.11VI4.1026.SM.5EQM1	0.0648289333864964	0	0.0178779576912597	0.00171039567832994	0	0.17584861032912	0	0.0113398541455678	0	0	0.0528929428348568	0.0229947023022461	0.0629847838850253	0	0	0.44027336215881	0	0	0	0.149248457588288	0	0	0.361	0.0351680648289958	1.08216327385903
GTEX.11XUK.1626.SM.5GU5O	0.142450885440917	0	0.0298757150711395	0.0666832329964708	0	0.184791259329586	0	0.0103872509049276	0	0	0.0272378475184028	0.0435805094785372	0.0408332597779907	0.0277848292430473	0	0.256677285026834	0	0	0.169697925212148	0	0	0	0.361	0.0350546904088635	1.06423304566004
GTEX.11ZTS.1926.SM.5CVLA	0.00247242919645499	0	0.00347543599780372	0.306135922898105	0	0.108362632681592	0	0.0339090247612534	0	0.00596029087118406	0	0.107769859863714	0.0387432407203995	0.141224265817205	0.0308672616674715	0	0.00215254181781917	0	0.171453375228133	0	0.0474737184788653	0	0.437	0.0245732204743776	1.1013593099647
GTEX.11ZTT.1826.SM.5CVLN	0	0.0225158621338663	0.0196710807951259	0.180200122139908	0	0.0638009567844692	0	0.0535558211113121	0	0	0.137176421305377	0	0.0587656089290329	0.0655845816617246	0.0139099692394617	0.145729384287017	0.00110045635122649	0	0.229938972633438	0	0.00805076262804136	0	0.446	0.0228920094511148	1.07758258750416
GTEX.11ZVC.1426.SM.5EGGA	0	0.00969762333308328	0.0778330614133753	0	0	0.227471906078077	0	0.117413700014903	0	0	0.0358721948332233	0.117973987196802	0.0840261092097631	0.0835034100906016	0.0547822920034977	0.00190624595835289	0	0	0.183213825332763	0	0.00630564453555824	0	0.866	-0.0209353991322103	1.09790454537685
GTEX.12WSD.2726.SM.59HLR	0	0.134760000385658	0.0598209592883082	0.0722482084703638	0	0.0638772785845577	0	0.0550063196039988	0	0	0.02425186088041	0.0427161102459978	0.0413604393475762	0.183113415595447	0	0	0	0	0.292650680583652	0	0.0301947270140306	0	0.417	0.0277203542170931	1.07750457690976
GTEX.12WSG.1426.SM.5FQUK	0.105613446960685	0	0.449445359732938	0.235675680903135	0	0	0	0.0178335782147896	0.0306814655115616	0	0.0143718025356639	0.00600236657204643	0.027850804080092	0.00152796576189829	0.000320975039202111	0.107319866617867	0	0	0	0	0.00335668807012106	0	0	0.495546666968288	0.895923416044934
GTEX.12WSJ.1226.SM.5LU91	0	0.0175890453611653	0.0472572482285282	0.0210590149022912	0	0.165142580108194	0	0.0896841025586379	0.00267794943026982	0	0.0675774868913207	0.00948774005731131	0.194669707439509	0	0	0.384855125022772	0	0	0	0	0	0	0.395	0.0299189419268761	1.07806987951516
GTEX.12WSK.1926.SM.5LZVK	0.0824647732365047	0	0.0499913689737804	0.00629682403477008	0	0.247548409715957	0	0.0934634816675982	0	0	0.120855187403989	0.0407669309595668	0.0857263757759274	0	0	0.163739198623852	0	0	0.106199000303315	0	0	0.00294844930473858	0.178	0.0708226242432885	1.0568975688265
GTEX.12ZZX.2026.SM.5LZV9	0	0.0139423466014086	0	0.11043359903204	0	0.181705590866336	0	0.0509834097919943	0	0	0.0710368565257904	0.106945920262057	0.0742636197667903	0.0611492441673429	0.00139200649995622	0.102714490848914	0	0	0.218511329826495	0	0.00692158581087454	0	0.951	-0.035516315811054	1.11565432393949
GTEX.1313W.2726.SM.5P9IX	0	0.00730552825788202	8.07974354731192e-05	0.130255752923521	0	0.16973472816925	0	0.0825614920772231	0.0203402145293069	0	0.104079682707846	0.0880047349027409	0.0671125400757904	0.11146662171071	0	0	0	0	0.214151600009651	0	0.0049063072006053	0	0.603	0.00606200576512202	1.11097141194702
GTEX.131YS.2226.SM.5P9G8	0	0	0.0020222789736076	0.108049461665229	0	0.11386143377473	0	0.141462549016074	0.0750808735917664	0	0.0131677591329627	0.0865143310490276	0.0596071913233992	0.126193517008546	0	0.0357128263780077	0	0	0.222146296945503	0	0.0161814811411462	0	0.755	-0.0110852840891717	1.10475319261587
GTEX.132AR.1426.SM.5IFF1	0.121457042668421	0	0	0.0261701426955941	0	0.0920026382417462	0	0.0299505219009809	0	0	0	0.0675632192590502	0.0404605858194336	0.0188133515178019	0	0.466325594329731	0	0	0.133714983415889	0	0	0.00354192015135198	0.589	0.00763295586697901	1.08765033581458
GTEX.133LE.1226.SM.5IFGC	0	0.00289009289537159	0.0270736698892505	0	0	0.199249693719009	0	0	0	0	0.0224552241760072	0.057718809101396	0.27476373285269	0	0	0.334731468873112	0	0	0.0811173084931635	0	0	0	0.366	0.0338171673659679	1.07656162185113
GTEX.139D8.2426.SM.5KM3A	0	0.0102586883857322	0	0.101634705611814	0	0.165142978396516	0	0.00747704274567651	0	0	0.0240029544942001	0.0616161456357965	0.0399506197477482	0	0	0.490302792750118	0	0	0.0996140722323989	0	0	0	0.897	-0.0254246454048961	1.10792664157231
GTEX.13D11.1126.SM.5KLYS	0.0479245352676157	0	0.0976232875292036	0.14613785293062	0	0.0948187910346257	0	0.023526099581108	0.00276053902203182	0	0.000543101879961649	0.00781292640361426	0.153036746019908	0	0	0.387906603061017	0	0	0.0379095172702942	0	0	0	0.02	0.223611003390149	0.995060176884733
GTEX.13FTX.0926.SM.5IFF7	0.0266910853510998	0	0.09859709511659	0	0	0.291092809623246	0	0.0786490925797841	0	0	0.0159557928401281	0.0898212256839534	0.134061628820835	0.0403192869485319	0	0.164167390748363	0	0	0.0366695344101649	0	0.0239750578773036	0	0.365	0.0343979200747531	1.07044896029141
GTEX.13N11.0526.SM.5IJFI	0.0800255225765909	0	0	0.0778186866610114	0	0.212925549757513	0	0.00498611682346044	0	0	0.061300323740912	0	0.0193011231205577	0	0.00555830607846715	0.502183701092321	0	0	0.0359006701491669	0	0	0	0.11	0.0968120783203797	1.05589786826263
GTEX.13O3O.2726.SM.5KM35	0.00662879924451357	0	0	0.083489229917774	0	0.124780955851669	0	0.0432011104574857	0.20747538981471	0	0.0319667250573064	0.0260520915165072	0.0528645886042151	0.00776565275519483	0.0343578684648702	0.249369015773498	0	0	0.131924790941735	0	0.000123781600521351	0	0.682	-0.00232066385423457	1.09202030720975
GTEX.13OVI.0726.SM.5L3DD	0.032341328954711	0	0.143355921459318	0.0688878504908624	0	0.0121895085075554	0	0.0621970586695831	0	0	0	0.0800613966980986	0.112006109967016	0	0	0.404329667826065	0	0	0	0.0846311574267908	0	0	0.02	0.226834746086861	0.999137981775707
GTEX.13OVJ.2426.SM.5KM3I	0.0662233875027329	0	0.176217049812421	0.150738248817702	0	0.0731690009449979	0	0.0201947948198845	0	0	0.0607052401855351	0.0269502203509727	0.0731729475212806	0	0.0132398680622117	0.223722348695408	0	0	0	0	0.0139149323415399	0.101751960945314	0.01	0.262406652294093	0.982784475778754
GTEX.13PL7.2326.SM.5L3FY	0.0903586388014051	0	0.03926481444981	0.10240906085188	0	0.0555727420323031	0	0.0429611864686623	0	0	0	0.06953290414916	0.12690601996272	0	0.0439610531463814	0.422665723975901	0	0	0	0.00636785616177724	0	0	0.292	0.0464497510951223	1.07239240953682
GTEX.13PVR.1226.SM.5RQJ2	0.0780977710680674	0	0.122853641702696	0.273692452712441	0	0.0952170170508344	0.00189962928440559	0.0238685262257799	0	0	0.0723242238677057	0	0.0279201758733058	0.151527883942862	0.0103977232131592	0.122584353202945	0	0	0.0127299921424362	0	0.00688660971336249	0	0.005	0.295175624871725	0.969338470124036
GTEX.13QBU.1526.SM.5LU3W	0.00119265987717826	0	0	0.0997179498113744	0	0.171828663849434	0	0.0378047821693884	0	0	0	0.0971514125589262	0.0338981299017405	0	0	0.43075320983225	0	0	0.127653191999708	0	0	0	0.514	0.0153704418998421	1.08862807263554
GTEX.13QIC.1526.SM.5IJFL	0	0.0154346814816659	0.00647231384658399	0.146722872375112	0	0.130542739118044	0	0.114141915661196	0	0	0	0.0863852616204064	0.0563323754900648	0.134323799541295	0.00609633943996439	0.0287315912981017	0	0	0.25159589725843	0	0.0232202128691358	0	0.701	-0.0050621263453985	1.09789271363846
GTEX.13U4I.2126.SM.5LU55	0.083093549817441	0	0.169900049026012	0.0563613895469815	0	0.065548672675588	0	0	0.000287956601368346	0	0	0.0986651733763939	0.0220941955900476	0.108873006879012	0	0.0832793387352212	0	0	0.311542699731706	0	0.000353968020228129	0	0.005	0.301331316982642	0.968429210819581
GTEX.13VXT.1526.SM.5LU3J	0.0589889747446131	0.109054581151766	0.0809377749511639	0.057102566578968	0	0.143578803705327	0	0.0932467509336482	0	0	0.116877004272313	0	0.144097244015329	0	0	0.177275371489527	0	0	0	0.00640411596063985	0	0.0124368121967054	0.00800000000000001	0.275100821217341	0.973465065293449
GTEX.13W3W.1526.SM.5LU5I	0.042160268495052	0	0.175515705649452	0.040970275398646	0	0.104305701868692	0	0.070090770232255	0	0	0	0.110598430265104	0.0715151343509954	0	0	0.37338462462112	0	0	0.00843613813083466	0	0	0.00302295098784838	0.109	0.098420318878153	1.05707628493355
GTEX.13X6H.1026.SM.5SIBE	0.0813170541129164	0	0.0563163557566558	0.025628559065203	0	0.210197500636361	0	0.0866257555079631	0	0	0.0111147813698409	0.0616827267962509	0.164274940884323	0.0478874930433204	0.0010130887838538	0.196461315634281	0	0	0.0539324959865038	0	0	0.00354793242252715	0.122	0.0905177150607715	1.04326604686166
GTEX.146FH.2526.SM.5Q5BP	0	0.0302079742564843	0	0.0223728363009551	0	0.16780625857164	0	0.0153911701005538	0	0	0.0569300488603622	0.106271634861203	0.0874926020959551	0.00649781329631826	0.00385318212867093	0.344128475767645	0	0	0.14945480439066	0	0	0.00959319936955307	0.88	-0.022782756333344	1.09718672661056
GTEX.14AS3.1326.SM.5RQJE	0.0824863793697931	0	0	0.111069177578596	0	0.29955291957411	0	0	0.0527697856260646	0	0.0102275145641857	0.0547273701622466	0.0452825766872588	0	0	0.269670776415844	0	0	0.0458274414414629	0	0.0283860585804378	0	0.307	0.0437748915418758	1.07643966059073
GTEX.OHPK.2426.SM.3MJGH	0.0701253759703381	0	0.13064886662311	0.0558765649894013	0	0.327014318745628	0	0	0	0	0.00548389242876475	0.0290038755324197	0.10822546259824	0	0	0.265392405391267	0	0	0.0082292377208314	0	0	0	0.016	0.238450782440367	0.990997320902936
GTEX.OHPL.2426.SM.48TDN	0.076676098035009	0	0.107647832131462	0.090914132606769	0	0.133016431619894	0	0.043644893191828	0.00554213386958353	0	0	0.0627909520143039	0.157301662213166	0	0.0428766918885626	0.275237411369527	0	0	0	0.00435176105989511	0	0	0.056	0.143509841244734	1.02714288843939
GTEX.P4PP.2426.SM.3P61L	0	0.0670809661990579	0.0253625318634477	0.037552209385478	0	0.311398423962722	0	0.0134489919854726	0	0	0.0337586998099705	0.0779309746369427	0.0668886668935593	0.0360078052267441	5.95065070011139e-05	0.153047790047624	0	0	0.158496350605613	0	0.0189670828763666	0	0.459	0.021059657162559	1.07421168436611
GTEX.P4QT.2426.SM.3NMCL	0	0.0328075199155811	0.032618568830216	0.203233130357937	0	0.0764943575312507	0	0.0358223767895641	6.66924211885156e-05	0	0.105149722293032	0	0.0844347649578917	0.053924445674771	0.00398898655557099	0.157997543899926	0	0.00269312386830888	0.167422725762008	0	0.0433460411427543	0	0.433	0.0255054709081306	1.06904216782146
GTEX.P78B.1926.SM.3P616	0.0827303787175658	0	0.0206385855294016	0.0972930861845932	0	0.114545349683272	0	0.0556900051653141	0	0	0	0.0947468299971023	0.056945698926354	0.106458971213462	0.00352803826789605	0.114285124512093	0	0	0.224610777745872	0	0.0285271540570746	0	0.373	0.0321930126840951	1.06799347851999
GTEX.PLZ4.2826.SM.3P617	0.14484109397962	0	0.038801950972751	0.132347013301862	0	0.127073124911452	0	0.0278760541872438	0	0	0.079006287814415	0	0.0555988322632627	0	0.0181990454243062	0.237207555897384	0	0	0.0740575065457519	0	0	0.0649915347019506	0.281	0.0480580469397696	1.06068896818673
GTEX.POMQ.1426.SM.3P61D	0.0878366335142505	0	0.191928329123393	0.181786819221606	0	0.112283012663524	0	0.0430880027390564	0.0278091388105324	0	0	0.0465353801740866	0.0166083412059347	0	0	0.243016765439418	0	0.00719339353534629	0.0419141835728512	0	0	0	0.001	0.36876932682096	0.934471155738333
GTEX.PWCY.1326.SM.48TCU	0.00225025572095367	0	0.0164247424499559	0	0	0.324420855476748	0	0.0250021915780408	0	0	0.0643211578336707	0.0557952305183035	0.219561995308497	0	0	0.236897241916917	0	0	0.0553263291969127	0	0	0	0.37	0.0327999719966162	1.07576558909494
GTEX.PWN1.2426.SM.48TDD	0.140632266535741	0	0.0625767346352123	0.075121519746675	0.00870603294700211	0.0521291708118218	0	0.0787833984471115	0	0	0.0226736985249717	0.0227693663345125	0.152273376353547	0	0	0.372713658713033	0	0	0.0116207769503731	0	0	0	0.266	0.0505460934725555	1.06851956287493
GTEX.PX3G.2426.SM.48TZZ	0.0541566152486366	0	0.0335989707582332	0.0721647391462534	0	0.157263179100155	0	0.0206054264638661	0.0118020493694173	0	0.0374767477559669	0.0646111598440182	0.0709258197917663	0	0.0030709172291262	0.398384545666768	0	0	0.0759398296257927	0	0	0	0.338	0.0391248366944065	1.06872744365562
GTEX.Q734.0726.SM.48TZP	0.10973776322703	0	0	0.0354066910104432	0	0.105249635966488	0	0	0.00377892030993004	0	0	0.0445694185090865	0.0192918723473319	0	0	0.601420454344237	0	0	0.0805452442854541	0	0	0	0.094	0.107734325567237	1.06161508034564
GTEX.QCQG.1426.SM.48U22	0.0669404500642741	0	0.00648340872268302	0.083643008600304	0	0.196469417958168	0	0.0394269674578046	0.00214592096585631	0	0	0.0165999478176164	0.0738793323392963	0	0.0198523086565027	0.460025397799287	0	0	0	0.0345338396182083	0	0	0.452	0.021626806224238	1.08494451492567
GTEX.RTLS.2326.SM.46MUH	0	0.0169172000552401	0.00810088347480578	0	0	0.189544779629286	0	0.0566349546456414	0	0	0	0.134910351408413	0.0555518947686807	0.178007287674267	0	0	0	0	0.33669608943154	0	0.0236365589121264	0	0.829	-0.0179288766652901	1.1130051219037
GTEX.RU1J.0826.SM.46MUU	0.00475401088384411	0.00143822461884441	0	0.0693987069199813	0	0.230711023199375	0	0.0263176010629753	0	0	0.0902016586331695	0.0143078000383508	0.0603230819507337	0	0	0.398013037334909	0	0	0	0.102272049170684	0	0.00226280618713253	0.563	0.010875343602697	1.09253258424605
GTEX.RU72.2226.SM.46MUE	0	0	0	0.25154964597742	0	0.132368531868911	0	0.0114644764310085	0.000436656701910828	0	0.00822805940577337	0.0365135201872157	0.0180558715182645	0	0	0.467345728062771	0	0	0.0740375098467257	0	0	0	0.611	0.00529871542719096	1.10128139674067
GTEX.RWS6.1026.SM.47JXD	0.00346724515823556	0.00766960173398723	0.00430597191999576	0.0598279751717163	0	0.282956951162914	0	0.0611262843218997	0	0	0.0502179973403465	0.117886340745032	0.0823465790254958	0.121447265219335	0.00260595633486543	0	0.00220340368708739	0	0.166172805571516	0	0.0377656226075731	0	0.436	0.0247482358266421	1.09291825955141
GTEX.S32W.1226.SM.4AD67	0.0221393933664935	0	0.0204096622371437	0.142963166346687	0	0.114668378445681	0	0.0566752810578054	0	0	0	0.116582611790412	0.227484535880229	0	0.0263792833609605	0.272697687514587	0	0	0	0	0	0	0.589	0.00770204312216413	1.09321030852007
GTEX.S341.0726.SM.4AD5R	0.0976986050446222	0	0.0698088968564245	0.0692092549796584	0	0.172454657183104	0	0.0143119471242811	0	0	0	0.0123686249420386	0.144115904054866	0	0	0.320872738153761	0	0	0	0.0897826524956029	0.00937671916564239	0	0.301	0.045052462110879	1.06529050083764
GTEX.S4P3.0926.SM.4AD54	0.0299312381614202	0	0	0.0821591212512046	0	0.168942492539589	0	0.0239720257589204	0	0	0.0756651638992912	0	0.0393114788440598	0.00926442762769457	0	0.50946995967842	0	0	0	0.0577497503603435	0.00353434187905662	0	0.371	0.0325907301197758	1.08777040275921
GTEX.S7SF.1326.SM.4AD4P	0.0741464052922296	0	0.0269319921057116	0.0880400253025444	0	0.190792242913263	0	0.010015179347702	0	0	0.116988364807633	0.0288666224800437	0.125123832752767	0	0	0.225792700974142	0	0	0.11011406490959	0	0.00318856911437421	0	0.38	0.0311929447309296	1.06860187636553
GTEX.T2IS.2026.SM.4DM6W	0.0143224669889271	0	0.13079388672279	0	0	0.248503461133004	0	0.0168764898544689	0.00451100503223668	0	0	0.0764679092184437	0.0255584758116668	0	0	0.253682114587658	0	0	0.229284190650805	0	0	0	0.626	0.0037460110238952	1.08106266362818
GTEX.T5JW.0426.SM.4DM7M	0.0433748322317584	0	0.0685595641739006	0.0575984205511115	0	0.164024364695217	0	0.0499755057638477	0	0	0.0213075583022908	0.0409010258689516	0.0573456851106046	0	0	0.391389041709349	0	0	0.102034213032428	0	0.00348978856054072	0	0.304	0.0447694801322445	1.06236395160293
GTEX.T6MO.1126.SM.4DM5D	0.0463452656815463	0	0.0522788503761419	0.10666754729004	0	0.118390234137774	0	0.0671351683288057	0	0	0	0.0417358446043172	0.117841517453103	0	0.011699616517026	0.414155364640399	0	0	0.0237505909708468	0	0	0	0.178	0.0707410193651662	1.05871711804258
GTEX.TML8.0926.SM.4DXSJ	0.071331075427687	0	0.0357224139251186	0.0911999834979527	0	0.154185993832313	0	0.0445994292249232	0	0	0	0.069933368031479	0.0645542677776168	0	0.000245366471380902	0.40768821162466	0	0	0.0605398901868684	0	0	0	0.11	0.0970362460029898	1.04688302221794
GTEX.TMMY.1726.SM.4DXTD	0	0.0203530553133535	0.147512668839323	0.141964816882985	0	0.248694475330447	0	0	0	0	0	0.0680850910533221	0.0251589341593415	0	0	0.310750713791207	0	0	0.0374802446300207	0	0	0	0.44	0.0238892863985681	1.08519935780765
GTEX.TSE9.2226.SM.4DXUR	0.13036300167023	0	0.00316065417841002	0.109288916439708	0.0177765642589161	0.140097563895882	0	0.158365010625314	0	0	0.00856595329337724	0.0941336579239629	0.0399546287035249	0.298294049010675	0	0	0	0	0	0	0	0	0.54	0.0127846010325475	1.10979613821938
GTEX.U3ZN.1026.SM.4DXTC	0	0.00899790804870777	0	0.136872145438401	0	0.342207923769767	0	0.00276580412027047	0	0	0.0324261595720443	0.0329593429191232	0.0586544619705648	0.0266319145314985	0.0220823562008309	0.245373510559434	0	0	0.0910284728693577	0	0	0	0.096	0.105795361371373	1.05163776143193
GTEX.UJHI.1226.SM.4IHLR	0	0.0647886445001861	0.0212009758406457	0	0	0.201990763977053	0	0.0224563797380089	0	0	0	0.0632028949959976	0.0299309217227238	0.13250562151748	0.00254089563815824	0.0898132332967312	0.000147203660941427	0	0.357272109361553	0	0.0141503557505213	0	0.644	0.00164829760718772	1.09468113557966
GTEX.W5WG.0926.SM.4RTX9	0.136852030638779	0	0.0288631239421112	0.0441589823740941	0	0.182965091771368	0	0.0496920061699069	0	0	0	0.101425658691828	0.0852259918199141	0	0.00947878653917869	0.36133832805282	0	0	0	0	0	0	0.38	0.03114375204859	1.07871208999872
GTEX.WI4N.2526.SM.4OOSE	0.0142084733856427	0.0301533678847694	0.00357246538512255	0.0675156688155071	0	0.231353417307985	0	0	0	0	0.101376781101695	0.0032962070578707	0.0739605081463134	0.0395491606434006	0.0696418667486169	0.33868874058298	0	0	0	0.0266833429400958	0	0	0.39	0.0302486545147445	1.07658658842234
GTEX.WWYW.2726.SM.4MVOP	0.0135303128528433	0.030009517274151	0	0.0460696222382091	0	0.146773566614071	0	0.0832223339114821	0	0	0.093444488632358	0.0061417013179269	0.210270653847779	0	0	0.289243861727808	0	0	0	0.0664761904383928	0.0148177511449787	0	0.954	-0.0363044489149501	1.09933641511949
GTEX.X15G.1726.SM.4PQZN	0.0437517717427521	0	0.156251396597665	0.0765544221163421	0	0.136925968145524	0	0.0478598439133372	0	0	0.0146181400644341	0.0129873987267729	0.0426946207218971	0.012947116004526	0.00252560803631651	0.448526309342786	0	0	0	0.00435740458764735	0	0	0.013	0.247141007555657	0.990904340518929
GTEX.X4EO.2426.SM.4QASD	0.0993609059775994	0	0	0.238747610313024	0	0	0	0.156709320569671	0	0	0	0.118269912060554	0.0564168063186718	0	0.0330367969231399	0.180833546949939	0	0	0.116625100887402	0	0	0	0.447	0.0225783929969392	1.08815996631267
GTEX.X8HC.2726.SM.46MUA	0.0340046644272596	0	0	0	0	0.222653134712555	0	0.0435329744383987	0.00521584972399053	0	0.0198207508781545	0.142789873566999	0.0556129091816573	0	0.00851559993877059	0.239840084303841	0	0	0.215516740134857	0	0	0.0124974186935163	0.69	-0.0034413230085351	1.09218243371996
GTEX.XMD3.2326.SM.4AT5H	0.0435205989148248	0	0.011209412270611	0.141445398663185	0	0.149792723073478	0	0.0131347934529748	0.0407188622047572	0	0	0.105709267190305	0.0297784638043494	0.0655142112654566	0.0967970801077013	0.0949846625229466	0	0	0.207394526529411	0	0	0	0.732	-0.00849396023480473	1.09632170626373
GTEX.XUW1.0126.SM.4BOOQ	0.242773513600133	0	0.0460154212568241	0.055581573006903	0	0.0844007658783918	0	0.0689458382907296	0	0	0.0184984610907125	0.0940503924762497	0.110551202663256	0	0	0.277342811855988	0	0	0.00155316164171279	0	0	0.000286858239098971	0.358	0.0357248265139594	1.08486088832036
GTEX.XUZC.1026.SM.4BOPY	0.184928774083252	0	0.100932364923534	0.0903915789459072	0	0.100308981991979	0	0.0124275071694943	0	0	0.0187372425336468	0.0490824808658083	0.0253851107577537	0	0	0.259895756460204	0	0	0.157910202268421	0	0	0	0.005	0.295181180110266	0.964598498739286
GTEX.XV7Q.1426.SM.4BRWA	0.00270133760886408	0	0.00296338658390367	0.0173473568801009	0	0.229109054769379	0	0.00513846914371637	0	0	0.0438571687081354	0.0401086466406407	0.0422489895948843	0.0184352476529678	0	0.407503875205649	0	0	0.190586467211759	0	0	0	0.515	0.0152166207649358	1.08277413530773
GTEX.XYKS.1726.SM.4E3IO	0	0.0125524398264459	0.0763006364295439	0.0902361760043373	0.0105725172042406	0.0421390672276107	0	0.120947021505665	0	0	0.0677765995854333	0.0459071929852015	0.0876060678095805	0.0164274448851193	0	0.321212688784529	0	0	0.108322147752294	0	0	0	0.373	0.0322931656846176	1.06614342938227
GTEX.Y114.1726.SM.4TT7U	0.0851610190295516	0	0.0952360733221678	0.0984795281687264	0	0.245045527243524	0	0.0227531138116267	0	0	0.0626579712960392	0.0131763485242434	0.0519617327918112	0	0.00388829665246202	0.237211705900428	0	0	0.0844286832594188	0	0	0	0.02	0.224330874137246	0.992794864433412
GTEX.Y3IK.2026.SM.4YCDG	0	0.0355131069170403	0.0273286921295004	0.0953004326082851	0	0.203934021808328	0	0.0343064758597553	0	0	0	0.0661533082568377	0.0612639362575042	0	0	0.410705348347546	0	0.00221221235600482	0.0456813435038643	0	0.0176011219553343	0	0.404	0.0288764236941079	1.07691771286496
GTEX.YFC4.2726.SM.5IFJW	0.133059795993229	0	0	0.0841618085058587	0	0.14231972059753	0	0.105934774786469	0	0	0	0.105418390953475	0.0711236922440272	0	0	0.154393213627185	0	0	0.203588603292225	0	0	0	0.618	0.00482574883847137	1.0858572330188
GTEX.ZAJG.2726.SM.5S2MU	0.0810115748959704	0	0.00508868746749571	0.220663826400874	0	0.0581428363297575	0	0.134256157886185	0	0	0.0278760383102283	0.0553961175830891	0.0886467233096879	0.0678743123756891	0.0217883431713155	0.111127704125398	0	0	0.128127678144309	0	0	0	0.488	0.0179562803922165	1.08065678584149
GTEX.ZC5H.2026.SM.5CVN2	0	0	0.127919359288186	0.117239017744167	0	0.114518319456668	0	0	0.0342638139961026	0	0	0.056780216907692	0.00507031821755059	0	0	0.515871356936785	0	0	0.0256404176919908	0.00131092478636423	0	0.00138625497449365	0.038	0.181869191655104	1.02186884313112
GTEX.ZLWG.0926.SM.4WWC3	0.00690156828555492	0.00514873648806346	0.135845548782517	0.0805972319117721	0	0.157475438104531	0	0.0533002029850495	0	0	0.0317202938681273	0.00933848122624119	0.237181251288843	0.00565669644504193	0	0.248910637507863	0	0	0	0.0136410540997172	0	0.0142828590066784	0.048	0.156569294587799	1.02363814141591
GTEX.ZP4G.0626.SM.4WWF1	0.0327822013933949	0	0.0133489462615226	0	0	0.194335656404054	0	0.016735088698513	0.0172283595148278	0	0.0436889824971057	0.0331341564944651	0.180079360384037	0	0	0.366887724764744	0.00551129114079211	0	0.096268232446543	0	0	0	0.433	0.0254862566796066	1.07268265647832
GTEX.ZPIC.1426.SM.4WWCP	0.0360720499331565	0	0.0184241184217224	0.00929457565462018	0	0.162814288195748	0	0.0540178566536575	0	0	0.00399369466390356	0.0507461828254727	0.136568739184859	0	0	0.384635031627571	0	0	0.134550798645627	0	0	0.00888266419366272	0.369	0.0330914220568644	1.06885989491613
GTEX.ZVT2.0326.SM.5E44G	0.0205877649290416	0	0.00488000911246193	0.0253129878339166	0	0.199565893583723	0	0.0235460371106286	0	0	0.0211606006659825	0.0330431696681707	0.197480638182847	0	0.00200809017422923	0.388738593644629	0	0	0.0766272257608608	0	0.00704898933350919	0	0.426	0.026909512175346	1.07739735596385
GTEX.ZVT3.2626.SM.5GU5L	0	0.0919115520473252	0.0237013844010599	0.0839034849504493	0	0.135439897764524	0	0.108005551097391	0.025524140562173	0	0	0.177274664952734	0.0503088910980419	0.111663502197673	0	0	0	0	0.171388781252673	0	0.0208781496759559	0	0.664	-0.000509399311657166	1.10472117680625
GTEX.ZYFG.1726.SM.5GZZB	0.0225681530125933	0	0.000938568268981544	0.0458867572158726	0	0.198711981002809	0	0.0732000157043594	0	0	0.085084032240248	0.019471491098348	0.0888512548533793	0	0	0.379136492529513	0	0	0.0856457188451771	0	0.00050553522871852	0	0.612	0.00519582450820666	1.08396257035937
GTEX.ZYY3.2726.SM.5EGH4	0.158091457360761	0	0.00921553567711077	0.0817389744052323	0	0.124639142157263	0	0.022428930503562	0.00679208292135839	0	0	0.203223757129865	0.00253910260251798	0	0.00629083424526572	0.334037218517736	0	0	0.0510029644793279	0	0	0	0.083	0.113855749431925	1.06011653377117
GTEX.ZZPU.2126.SM.5EGIU	0.115285011893625	0	0.034794038438498	0.0273448629991844	0	0.330565030570474	0	0.0326041161843748	0	0	0	0.0952956845836239	0.0413998485119968	0.121975360567996	0	0.0768553914537037	0	0	0.123880654796524	0	0	0	0.157	0.0782432117287801	1.05746098556543
