Mixture	B cells naive	B cells memory	Plasma cells	T cells CD8	T cells CD4 naive	T cells CD4 memory resting	T cells CD4 memory activated	T cells follicular helper	T cells regulatory (Tregs)	T cells gamma delta	NK cells resting	NK cells activated	Monocytes	Macrophages M0	Macrophages M1	Macrophages M2	Dendritic cells resting	Dendritic cells activated	Mast cells resting	Mast cells activated	Eosinophils	Neutrophils	P-value	Correlation	RMSE
GTEX.1117F.2526.SM.5GZY6	0	0	0.0367470057280695	0.277053862807541	0	0.148238255565725	0	0.143321312211734	0	0	0	0.0776650449295993	0.01230650332885	0	0	0.19563108051751	0	0.0106706074488118	0.073503764519297	0.0191721327861311	0	0.00569043015673157	0.228	0.0589600265422096	1.08918042626111
GTEX.11DXX.1726.SM.5H11T	0.0603105505728978	0	0.0421884411402143	0.050290932197535	0	0.277447523062259	0.000627074642372877	0.0124561268281122	0	0	0.0244426110024186	0	0.356242272734488	0	0.0288819883265482	0.0970548311626396	0	0.0041267190084234	0.0376821397884008	0	0	0.0082487895336907	0.03	0.153411184515091	1.02738484815619
GTEX.11EM3.1826.SM.5A5KO	0.104227713222567	0	0.00693515393231389	0.0374097610032286	0	0.0974445236921708	0	0.0290260128640947	0	0	0	0.0613962195805561	0.0257055032784404	0	0.00807632331556968	0.337427015437852	0	0	0.292351773673207	0	0	0	0.103	0.0984185783861252	1.04888707154281
GTEX.11EMC.1926.SM.5A5JU	0.0754641730303677	0	0.0207404578878178	0.218952485981272	0	0.107776724529406	0	0.0489591996368838	0	0	0.0156937216976278	0.0648447494905103	0.0325464766136333	0	0.00283228611528534	0.300061004822727	0	0.0141140150722538	0.080828450536601	0.0059164978221558	0	0.0112697567634579	0.41	0.027316539582236	1.07659718468166
GTEX.11GSP.2226.SM.5HL5Q	0.0842905470101418	0	0.0219639148552472	0.0545034745097445	0	0.187745602709339	0	0.0299626097837417	0	0.00925939186107424	0	0.0326232851470017	0	0	0.060791798859684	0.150720711953365	0	0	0.368138663310661	0	0	0	0.027	0.165156489661986	1.02750162249073
GTEX.11I78.2026.SM.5987C	0	0	0.0049781551349869	0.308149649751941	0	0.228260429131673	0.00302682764719503	0	0	0	0.0430158724631197	0.022043479419006	0.046443134054167	0	0	0.112796377787768	0.160465095978429	0.0196480345375444	0.0228892737393952	0.0117316887975796	0.0165519815571948	0	0.662	-0.00186298209582234	1.10954583958537
GTEX.11P81.2126.SM.5HL6N	0	0.00698460991269986	0	0.124668494172358	0	0.274874468179115	0	0.00536824343416391	0.00194659737730961	0	0.0248786304731072	0	0.0684162544687091	0.0388736699129038	0.0874310021491747	0.0375439666281562	0.0293510506395006	0	0.299663012652802	0	0	0	0.283	0.0492965969473312	1.07678440163565
GTEX.11TTK.2726.SM.5GU58	0	0.0111190294234091	0	0.239000875758384	0	0.00887442717315105	0	0.0536647796470085	0.0465378737699897	0	0.0755358959634083	0	0.0234286772446346	0.103757576838292	0.0761736005619287	0	0.0158518805325184	0.0103200906405929	0.335735292446683	0	0	0	0.957	-0.0306054500075506	1.11927295567882
GTEX.11VI4.0726.SM.5GU5B	0.0343741202863495	0	0.0907250535806381	0.23042803116717	0	0.105222314359285	0	0.0166621910221151	0.0190076784510111	0	0	0.0420995834080858	0.0551712414150342	0	0	0.246581819813529	0	0.0503754273975517	0.10935253909923	0	0	0	0.016	0.192569654838539	1.00394622204786
GTEX.11XUK.1326.SM.5EQM4	0.0110110930506168	0	0.00301937741163527	0.161579330293206	0	0.195638468177645	0	0.0599580127607616	0	0	0	0.0584894943039107	0.034163779846993	0	0	0.134474972489008	0.150117000883942	0.0403671315725027	0.139490673561737	0.00161830423653653	0	0.0100723614115048	0.29	0.0481384079464571	1.06318808339938
GTEX.12WSD.2926.SM.5LZUH	0.0689090180486993	0	0.0408653958790384	0.18221536955188	0	0.0851236337946031	0	0.0121877333666173	0.00357430236371019	0	0.00917162317485811	0.0183358598534512	0.00983482354965261	0	0.00606707361727899	0.223184832711951	0	0	0.337212545945892	0.00331778814236813	0	0	0.025	0.17446298487544	1.02072780734744
GTEX.12WSJ.1326.SM.5GCOB	0	0.0202901421320266	0.0271456937107553	0.00741720729283678	0	0.175592702779394	0	0.0428879520195249	0	0	0.097361102193262	0.0173115437625071	0.0550260179910616	0	0.00170485215039122	0.22736134189288	0	0	0.327901444075361	0	0	0	0.121	0.086863736392279	1.05487551423142
GTEX.131XG.2126.SM.5DUXG	0.103517242827694	0	0.036753515208452	0.144616906496378	0	0.0853363115812735	0	0.0166888234988094	0.0425336324121866	0	0	0.0591165211281752	0.0643549628124294	0	0.0058073731001845	0.136662525250462	0	0.0205498580213241	0.273167564670393	0	0.0108947629922379	0	0.105	0.0960634293783669	1.04577279567079
GTEX.131YS.2426.SM.5J2OD	0	0.0216739071565113	0	0.110902679481496	0	0.0984764700028788	0	0.0171961630686982	0	0	0	0.0739223449756971	0.0648849756435226	0	0.0182467683254459	0.245448427697903	0.00918610735251817	0	0.340062156295329	0	0	0	0.025	0.174975576436012	1.02120685281933
GTEX.13D11.1326.SM.5IJFY	0.0354250223794449	0	0.286299555855295	0.0629699798714723	0	0.071883882408385	0	0.00421668889106563	0	0	0	0.0435832470032808	0.138815324882426	0	0	0.164245958798335	0.00332372959848502	0	0.18923661031181	0	0	0	0	0.41509832153037	0.913021413725083
GTEX.13N11.1526.SM.5L3FL	0.000514494879097676	0.020741818377165	0.000263826862080087	0.035459331696385	0	0.153385399617971	0	0.012218490718124	0	0	0	0.0379821493486646	0.0424630084278664	0	0.000366094640892911	0.298856601441059	0	0.000308061557467735	0.397440722433226	0	0	0	0.002	0.291002664605822	0.974764306529676
GTEX.13OVI.0926.SM.5J1MI	0.0517759333979447	0	0.0849011625954215	0.105028336633246	0	0.0641241604480421	0	0.0703898221009942	0	0	0	0.0791775170468947	0.0710863112201832	0	0.00119761924456961	0.26882741074419	0	0	0.203491726568513	0	0	0	0.00800000000000001	0.218429144909032	0.992643626673428
GTEX.13PL7.2726.SM.5L3GB	0	0.0131780486003412	0	0.215486411449676	0	0.208685969666408	0	0.0251880695807873	0	0	0	0.11255728798713	0.0943534443688038	0	0	0.238519261994698	0	0	0.082633937844773	0	0.00939756850738244	0	0.879	-0.0210928333556847	1.11256414290115
GTEX.13PVR.1426.SM.5S2PW	0.156626083960737	0	0.133929835095206	0.0867931204643667	0	0.296888201919637	0	0.00957897883783202	0	0	0	0.0280657468897705	0.0643550155343347	0	0	0.131530216095917	0.000114573056921268	0.000836681794165645	0.0912815463511122	0	0	0	0	0.375565390710691	0.929989295428392
GTEX.13QBU.1726.SM.5IJFQ	0.0387422670836275	0	0	0.166006446971232	0	0.104742157102552	0	0.127742121307448	0	0	0	0.129879824967411	0.0443875111727025	0	0	0.284717238681192	0	0.0117762793198212	0.092006153394013	0	0	0	0.947	-0.0295368249909283	1.11048634103921
GTEX.13U4I.2026.SM.5LU3L	0.0496853885364778	0	0.000680463896962111	0.230882845828752	0	0.246098049956711	0	0.0355772366183259	0.00743737024095374	0	0.0101670462922804	0.020252960255549	0.0295513210993443	0	0.0594533776221146	0.112992336017201	0.00989465418500219	0	0.180942434278006	0	0	0.00638451517231911	0.05	0.133692836449999	1.04306028699084
GTEX.13W3W.2326.SM.5LU4Y	0	0.0153090662561003	0	0.0516595253349413	0	0.194608596178934	0	0.0033849753759301	0	0	0.100226385875067	0.00323873148758702	0.131743654251091	0	0.00350097117368248	0.290126621066451	0.00467810682630217	0	0.151008509415248	0	0	0.0505148567586661	0.195	0.0666714178704677	1.05490447250796
GTEX.146FH.2626.SM.5Q5E1	0.0886043960297511	0	0.0455709312027767	0.212500591519933	0	0.121456468401013	0	0.10635652596599	0	0.00758851686285106	0	0.0507770514741606	0.0183027572496866	0	0.0499067334290708	0.167596197199515	0	0.00632451173980804	0.125015318925444	0	0	0	0.016	0.192703322744247	1.01026954966713
GTEX.146FR.2426.SM.5NQAU	0.0379164257888607	0	0.00576736520314678	0.216447596756514	0	0.0834450974287846	0	0.0151319799873953	0	0	0.0114241577884209	0.0400324700792919	0.0237616315077576	0	0.0101786181026052	0.167835120595805	0	0	0.386338323029112	0	0	0.00172121373230608	0.053	0.132640578328995	1.04947524363005
GTEX.147F3.1526.SM.5SIAK	0.000951088168837966	0.00411602129727075	0	0.0491484015073492	0	0.155405828507602	0	0.0292106204461008	0	0	0	0.0776304119010277	0.007489694753871	0	0.0171117786044217	0.221506556290452	0	0	0.434552844578625	0	0	0.00287675394444231	0.087	0.106248885419608	1.0692401041343
GTEX.14A5I.2726.SM.5SIB3	0.00844637176691175	0	0	0.089456712429731	0	0.125964011239523	0	0.0290695607316915	0.0551802094173022	0	0.129757222009355	0	0.0895178529713376	0.124846602006274	0.00102676171146531	0.144875387690036	0.000120003186146571	0	0.153344122077245	0	0	0.0483951827629816	0.498	0.0166766275551758	1.07702020054589
GTEX.14BMU.1926.SM.5S2QC	0.046079123617715	0	0.0365755459185903	0.165430885371108	0	0.253482480766201	0	0	0	0	0	0.0638769666948728	0.166392540778131	0	0.00488294271239485	0.193394828988492	0.00691899775210941	0.00315483056713115	0.059810856833255	0	0	0	0.115	0.0907563019045588	1.05118381747176
GTEX.14DAQ.2326.SM.5S2QX	0.0107640386143981	0.0105107601465968	0.0339168739372717	0.304928020400079	0	0	0	0.0474329830601242	0	0	0	0.0953744022541778	0.0312317782724973	0	0.030644484547818	0.18409599913517	0.00598831261944339	0	0.245112347012424	0	0	0	0.041	0.14222507981286	1.03640929729579
GTEX.N7MT.1926.SM.3LK5N	0	0.0612803892140755	0.0904610749023104	0.210999274560465	0	0.198317638260557	0	0.0250030134807393	0.0390204218625253	0	0.00420352192748176	0	0.0186264118795408	0.0446094339709402	0	0.00214379704172307	0	0.0477784265953701	0.212047721407905	0	0	0.045508874896366	0.526	0.0134553223251908	1.09047907210644
GTEX.OHPK.2526.SM.3MJH9	0.0435925390340247	0	0.0665544893970072	0.231158143871831	0	0.389181212873668	0	0	0	0	0	0.0479982489396838	0.0304814729696488	0	0.0117762339016377	0.0706572919540453	0.0598427798556004	0.0144582167418627	0.0246057892756725	0.00969358118531751	0	0	0.045	0.139229435743616	1.05754563012237
GTEX.OHPL.2526.SM.3MJGT	0.0593046027965749	0.0300952239832389	0.0527663877186919	0.244998605025533	0	0.180135779523653	0.00703816236530927	0	0.00277679049114253	0	0.0670357289017158	0.00339014749814067	0.071396362689698	0.027990887987221	0.0109505508156889	0.0827656541916598	0	0	0.159355116011732	0	0	0	0.011	0.202716595413726	1.00714933190951
GTEX.P4PP.2526.SM.3P61P	0.04225996149421	0	0.00485407123738342	0.182932915162696	0	0.0938639086323268	0	0.0279599541549193	0	0	0	0.114653059644579	0.0250318651233572	0	0	0.321145729622598	0	0.0231147662553319	0.145716802684095	0	0	0.0184669659885034	0.304	0.0449890853373796	1.07079348860696
GTEX.P78B.2226.SM.3P5ZZ	0.0398495455691054	0	0	0.186915588089432	0	0.162370597953289	0	0.0940989411332539	0	0	0	0.0985411525339701	0.0162809114166811	0	0.00738521373906202	0.115369295408817	0	0.0123841683824362	0.266804585773954	0	0	0	0.112	0.0914197322869099	1.06763684478782
GTEX.PLZ4.2726.SM.3P61A	0.0700747583430877	0	0	0.178580921968144	0	0.130444755827736	0	0.0535199558410623	0.00545008201188872	0	0	0.069361085998756	0.00517861974839549	0	0.0192600756706383	0.213340381608072	0	0	0.218306088189764	0	0	0.0364832747924555	0.072	0.116517925292428	1.03999953263354
GTEX.PWCY.1726.SM.48TD3	0.0641398686105144	0	0.115168230089439	0.102583660135729	0	0.349948478892054	0	0	9.54369623290812e-05	0	0	0.0571104851890588	0.103514445229113	0	0	0.145242471785408	0	0.00729233302263153	0.0282069680513394	0.0171259979105789	0	0.00957162412180485	0.013	0.199409388017511	1.01059294650371
GTEX.PWN1.2526.SM.48TDS	0	0	0.00122703320055191	0.109388591164541	0	0.105684633659293	0	0.0108187436091092	0	0	0	0.0734823039028393	0.111732087477326	0	0	0.304012553143054	0.0118037059732012	0	0.271850347870085	0	0	0	0.08	0.111177495710938	1.0445964121819
GTEX.PX3G.2526.SM.48TZV	0.034582261940884	0	0.043989426707763	0.153917395433548	0	0.178089933383227	0	0.0392490543018887	0	0	0	0.0557074328831315	0.0259373632963469	0	0.0653207381121476	0.0671396179119094	0.0464364809981077	0	0.289630295031045	0	0	0	0.053	0.132267682497952	1.03724610968471
GTEX.QCQG.1226.SM.48U23	0.0145129338301484	0.0238287463036805	0.0627820031229057	0.272329670047342	0	0.217360061912525	0	0	0	0	0	0.0531189229347567	0.1169916409121	0	0.00450242702496082	0.180135109849191	0	0.00469217251454685	0.0497463115478429	0	0	0	0.029	0.159244297959958	1.03036836555132
GTEX.QDT8.2526.SM.48TYX	0	0	0	0.162471329923131	0	0.0540859059985019	0	0.0319590241672655	0	0	0.0240383644078953	0.0276828925381373	0.0338383526794505	0	0.012967045687682	0.267937355405535	0	0.00120729391317043	0.316644436961566	0	0	0.0671679983176649	0.047	0.136227715334382	1.03692938479402
GTEX.RU1J.1426.SM.46MUV	0.0666476291598269	0	0.00477902698263149	0.0802220068051156	0	0.141443634813743	0	0.0151378177225687	0	0	0.00327164178294169	0.037716014942886	0.0670957561843391	0	0.0436089849796753	0.311260932889546	0	0	0.228816553736726	0	0	0	0.0649999999999999	0.122273546956096	1.03132668779383
GTEX.RWS6.1726.SM.47JXP	0.159759848081543	0	0.0993822744622392	0.160901613430644	0	0.202437247636091	0	0.0107890990191443	0	0	0	0.0625439557321788	0.0226027648072471	0	0.00611308412443196	0.0845708783242173	0	0	0.190899234382263	0	0	0	0.001	0.341174908335204	0.947348048923267
GTEX.S341.1226.SM.4AD5S	0.0143854484695011	0	0.0781099756041374	0.404218781916236	0	0.139316738771759	0	0.00187658507989275	0	0	0.0118065996937286	0.0324908382252063	0.0460570947573618	0.0179551612460484	0	0.0708702298296104	0	0.0515180841992143	0.131394462207304	0	0	0	0.119	0.088458674812032	1.07356519665811
GTEX.S4P3.1126.SM.4AD52	0.0188244261748417	0	0.016669111392365	0.281846900480637	0	0.139141270337902	0	0.009582917554743	0.00904671244289844	0	0	0.099185561099215	0.0341313391352805	0	0.00164217765819451	0.203218673923828	0	0	0.184514836330242	0	0.00219607346985373	0	0.204	0.0636532603700446	1.07594890157261
GTEX.S4UY.1326.SM.4AD4X	0.15520923996321	0	0.0261593586983417	0.146009927184431	0	0.11254062345477	0	0.0330175603417483	0	0	0	0.0488421321193578	0.117459015710342	0	0.00804528949071626	0.250796953692099	0	0	0.101919899344984	0	0	0	0.026	0.17044847037925	1.01252470210388
GTEX.S7SF.1426.SM.4AT5A	0	0	0.00819581728582816	0.298630299790826	0	0.274707523113111	0	0.00217692014025811	0.0303639008027708	0	0	0.0213851329364666	0.0870887843958242	0	0	0.199361087145675	0.0343824262559479	0.0125021752308998	0.0229349389662628	0.00781303640569197	0	0.000457957530436362	0.244	0.0553503547040871	1.09051762507617
GTEX.SE5C.1126.SM.4BRWZ	0.040937022959109	0	0.00739352055297326	0.265529204040308	0	0.223402139786129	0	0.00773752446885331	0	0	0.0295780557876917	0.0432244313466705	0.0371200871933756	0	0	0.218965945883748	0.0549585928557761	0	0.0527360603397181	0	0	0.0184174147856474	0.692	-0.0041417844143109	1.10347131660929
GTEX.T2IS.1926.SM.4DM74	0	0	0	0.125217875530121	0	0.131975168973171	0	0.0427397710139189	0	0	0.00692188193622422	0.0708283185959095	0.030354890903327	0	0.0186769039910597	0.15294574590504	0.0461541064956061	0	0.374185336655623	0	0	0	0.018	0.189323095059417	1.02061690095513
GTEX.T6MO.1226.SM.4DM5S	0	0	0	0.22016601475015	0	0.224628796137739	0	0	0	0	0	0.0759757703631171	0.0973156221526812	0	0	0.217142924707604	0	0.0153008814871294	0.137845509502405	0	0	0.0116244808991739	0.776	-0.0119641924092272	1.10046086935857
GTEX.TML8.1126.SM.4DXSS	0	0.0054352812522599	0.128757402316293	0.171562917249254	0	0.133974440753322	0	0.0764725263010998	0.00560945240939415	0	0	0.0567396313288571	0.0532118154806726	0	0.00298846950052792	0.176244243161435	0.050781975316033	0	0.138221844930852	0	0	0	0.019	0.185544961040273	1.00816162120701
GTEX.TMMY.1926.SM.4DXUU	0	0.0166010776616604	0.0108939313551957	0.0970416124498542	0	0.202869778351957	0	0	0	0	0	0.0626101934234854	0.0126573002021971	0	0.0141105204073756	0.216880074426752	0	0	0.366335511721523	0	0	0	0.12	0.0876212021360767	1.0649504297716
GTEX.TSE9.2526.SM.4DXUS	0.0484852424377488	0	0.0393755612267292	0.216494807382526	0.00353948293531459	0.139249010802765	0	0.0265430065895457	0	0	0.0239772111694515	0.0198398895773823	0.0134308207863604	0	0	0.204760474062492	0	0	0.190596268445701	0.00252756651308098	0.0122599978164593	0.0589206602544436	0.047	0.137330808412706	1.02906546632956
GTEX.U3ZN.0926.SM.4DXTU	0.0109862442015727	0	0	0.32729578108459	0	0.13767304349503	0	0.0520384024375996	0.0586558065049962	0	0.000980611381434312	0.0233785106008327	0.0377890774600296	0	0	0.157711515047985	0	0.0497450462392358	0.143745961546694	0	0	0	0.305	0.0445306655987597	1.08911221314543
GTEX.UJHI.1326.SM.4IHJO	0.0438045041995307	0	0.000564933965214152	0.114325433045173	0	0.186453842175033	0	0.0359555466148019	0	0	0	0.0520222055322147	0.00871946196800554	0	0.00655194352129357	0.417737454956138	0	0	0.133864674022596	0	0	0	0.104	0.096604101967443	1.04935615209319
GTEX.W5WG.1026.SM.4LMIF	0.0287376572342114	0	0.0234229118130462	0.0633312985127562	0	0.22693740811879	0	0.040211784283577	0	0	0	0.0612065953755274	0.0564870789174659	0	0	0.252389347056117	0	0	0.245458526941593	0	0	0.00181739174691531	0.046	0.138703382253605	1.02837147054293
GTEX.WEY5.0826.SM.4LMIH	0.0343793955508021	0	0.0151463553467911	0.0726069516701306	0	0.127895246493164	0	0.0526635875985781	0	0	0	0.0241540801228987	0.0600146081605535	0	0	0.406232852199141	0	0	0.20690692285794	0	0	0	0.213	0.0613756667652001	1.06051245822532
GTEX.WRHU.2926.SM.4MVNQ	0.00178141749357394	0	0	0.0991265687642061	0	0.120173474328454	0	0.059678993510331	0.0357274252177391	0	0.0630066935375228	0	0.0306381326901386	0	0.0591048177992492	0.163694511985522	0	0	0.367067964673263	0	0	0	0.177	0.070316280169562	1.07149190628599
GTEX.X15G.1926.SM.4PQZQ	0.10613447493118	0	0.112024761077519	0.178148162138897	0	0.175940839726731	0	0.0207655922957298	0	0	0.00565976478055756	0.000166808359215748	0.0481204007171225	0	0.00151013940527422	0.141500017904981	0.000408309875060757	0	0.209620728787732	0	0	0	0.002	0.308187830141127	0.959142696671408
GTEX.X8HC.2826.SM.46MWJ	0.0184936123366364	0	0	0.374655261955574	0	0.158759046465352	0.00742508398160856	0.0504214788221517	0.0183011549673904	0	0.0296644959463607	0.0204653180496805	0.0331521104585845	0.00660918983260001	0.0136437710529659	0.103916923530949	0	0	0.151312838051455	0	0	0.0131797145486912	0.12	0.0872979455676652	1.08288458692442
GTEX.XUW1.0326.SM.4BOOR	0	0.0313147346189416	0	0.150476106005808	0	0.107821870880084	0	0.0246357845269858	0	0	0	0.0568962264934342	0.0801837987619559	0	0	0.209207764103279	0	0.00448802548246394	0.331473425745715	0	0	0.00350226338133383	0.112	0.0913133614224533	1.05636229391595
GTEX.XV7Q.1626.SM.4BRWC	0	0.0200231703904638	0.0281716002801085	0.198434378851256	0	0.29205375272631	0.00412088766288114	0.00830948771500082	0.00744735732831176	0	0.0630921427791335	0	0.030830600527675	0.0337504601564119	0.0505721271917296	0.158667266883088	0	0	0.102124436704434	0	0	0.00240233080319574	0.103	0.0985537725652273	1.05561563118105
GTEX.Y114.1926.SM.4TT8J	0.0691015699588713	0	0	0.0172435302223857	0	0.0783211309739203	0	0.0993443160374149	0	0	0	0.0390405918499444	0.0390813342153165	0	0.0200885290348061	0.236864821062067	0	0	0.400914176645273	0	0	0	0.072	0.116206543797458	1.05309236516107
GTEX.Y3IK.2226.SM.4YCD4	0.0137406053811676	0	0.147844114631232	0.186304959315245	0	0.264811894755587	0	0.0334784233261858	0	0	0	0.0471334582297011	0.0237063589357611	0.0126076609027376	0.0309429191377573	0.109687472073021	0.0112148993797563	0	0.0961040404216978	0	0	0.0224231935101513	0.01	0.211127313141233	1.00697657292506
GTEX.Y8LW.1426.SM.5RQJJ	0	0.00484825224649176	0	0.0704783378438243	0.00265945498077303	0.0623049701774773	0	0.0199817197082261	0	0	0	0.0416094219504931	0	0.0880902132151157	0.00222141139007992	0.166052487000597	0.109153385151549	0	0.414506335317354	0	0	0.0180940110180185	0.019	0.184601221358827	1.02688300641066
GTEX.YFC4.2926.SM.5IFJ8	0	0.0174144185913001	0.00980812155605315	0.0353767375924647	0	0.0278289398701669	0	0.042551704564406	0	0	0	0.0454890866381	0.0691712090936379	0	0.00264616155413895	0.124739700269772	0	0	0.518814549319511	0	0	0.106159370950449	0.242	0.0556393664829126	1.11589323878223
GTEX.ZC5H.2226.SM.4WAWS	0	0.00522637695027186	0	0.311070255014916	0	0.159821500778216	0	0.091500367381428	0.024606483346827	0	0.00876693847628717	0.0467033744243751	0.0278437194919855	0	0	0.154883006114725	0.0646606731053985	0	0.0832002217806146	0	0	0.0217170831349556	0.242	0.0558316423089429	1.08903621215367
GTEX.ZE7O.2426.SM.57WD7	0.0437522799138262	0.0474556339032157	0.0577168621206065	0.27317489512424	0	0.224321736183376	0	0.0432088657789272	0	0	0	0.0814339530012637	0.0216748618712309	0	0.0263841605703834	0.0231220876983384	0.00121450766501139	0	0.15654015616958	0	0	0	0.01	0.209762831927852	1.0222267974302
GTEX.ZGAY.2226.SM.4YCCX	0.0255990142113656	0	0.0212604613945638	0.18748610150214	0	0.147056140081496	0	0.0229374233064128	0.00330517668017605	0	0	0.0431988853230096	0.0872206829080889	0	0	0.201970739953999	0.0280803265154959	0.0080634851604477	0.220501176253279	0	0	0.00332038670952615	0.087	0.106340003860588	1.03956400698008
GTEX.ZLWG.1126.SM.4WWFQ	0.0208510186771947	0	0.0956176287218868	0.174101336691132	0	0.170895224582515	0	0.0334881122702422	0	0	0	0.0768443857195739	0.0820226176949959	0	0	0.184749205623794	0	0.0146971045614004	0.122226759573119	0	0	0.0245066058841452	0.047	0.138000718924927	1.02800884436047
GTEX.ZP4G.0826.SM.4WWF3	0	0	0.000401256491276204	0.13604267629088	0	0.290272108990624	0	0.0194365856791922	0	0	0.0509702157686618	0.00607032278377823	0.119327297375407	0	0.0151938666975092	0.201359451933621	0.00153657996760772	0.0633966988833395	0.0846970493112744	0	0	0.0112958898268296	0.296	0.0471005033981843	1.06842522807488
GTEX.ZQG8.1126.SM.51MRL	0.117368790465685	0	0.0233294204749373	0.0369647343729947	0	0.118877615399927	0	0.0274608968481988	0	0	0.0104252172373221	0	0.076758931356804	0	0.0266632350629001	0.390620198965678	0	0	0.147614438828723	0	0.0239165209868298	0	0.029	0.156380000247972	1.0182833499497
GTEX.ZTPG.2226.SM.57WF9	0.00669415482635531	0	0.0404667698922503	0.187821889498173	0	0.284215737175245	0	0.030957272974281	0	0	0	0.0495591172788266	0.0435980641859042	0.0312861470226848	0.0178140993321661	0.172433926692555	0.00566234602436799	0	0.101538424840789	0.00469657264927241	0.006791197964299	0.0164642796428305	0.112	0.0917130781413236	1.05591149642192
GTEX.ZV6S.1326.SM.59HJA	0	0.0211756759758889	0	0.0790376136300156	0	0.0862238073309067	0	0.0489405797917023	0	0	0	0.071867253727226	0.121385198170976	0	0.0011368695519495	0.377088187045533	0	0	0.193144814775802	0	0	0	0.312	0.0431706456697735	1.06887092922264
GTEX.ZVT2.0626.SM.5GICR	0.199996749150531	0	0.1835989085157	0.12325994403347	0	0.147827579899923	0	0	0	0	0	0.0522104476478832	0.084870057809084	0	0	0.108887365432469	0	0.015303903577951	0.084045043932988	0	0	0	0	0.449655928908993	0.893580594062356
GTEX.ZVT3.2726.SM.5GU5X	0	0.0306714085315597	0	0.107822675433253	0	0.0520991592278992	0	0.0638320241285161	0	0	0.0808907979685535	0.0361047633602387	0.0481543461075513	0	0.0114010983849097	0.383101426523212	0	0	0.185922300334307	0	0	0	0.35	0.0367671237125162	1.07093771711868
GTEX.ZXES.0626.SM.5E45P	0	0	0	0.345798852439323	0	0.348019238189373	0	0	0	0	0.0571221946021413	0.00605819525277022	0.02998259309746	0	0.00292145456301838	0.0642828605150766	0.0796803510694442	0	0.0661342602713933	0	0	0	0.314	0.0424322531803639	1.12517964710222
GTEX.ZYVF.0326.SM.5GIES	0.000320104629532133	0.00836779323075593	0.00435135210719368	0.0202188027264883	0	0.221251973704232	0	0.00836540053322328	0	0	0.0508646277476314	0	0	0.0602449399725763	0.0157581847045874	0.0387566600312661	0	0	0.568567482013134	0	0	0.00293267859937933	0.03	0.154538081047395	1.07772913040747
GTEX.ZYY3.2626.SM.5N9DH	0	0.0139353128957827	0.0237369646641974	0.133020233631719	0	0.165584790667548	0	0	0.0196917970459844	0	0.0694887755109524	0	0.0182901517645907	0	0	0.345437831988736	0	0.00280947479100067	0.207759214820351	0.000245452219137779	0	0	0.212	0.0614651064393888	1.06021010304641
GTEX.ZZPU.2226.SM.5EGIV	0.0654894343673769	0	0.107464607033699	0.17658835207626	0	0.240258376794102	0	0.0289257919864355	0	0	0	0.0392183822567058	0.0312846815481957	0	0	0.155687913062042	0.045111441369356	0.0407921419864456	0.0691788775193815	0	0	0	0.053	0.132565320354521	1.0347469794019
