Mixture	B cells naive	B cells memory	Plasma cells	T cells CD8	T cells CD4 naive	T cells CD4 memory resting	T cells CD4 memory activated	T cells follicular helper	T cells regulatory (Tregs)	T cells gamma delta	NK cells resting	NK cells activated	Monocytes	Macrophages M0	Macrophages M1	Macrophages M2	Dendritic cells resting	Dendritic cells activated	Mast cells resting	Mast cells activated	Eosinophils	Neutrophils	P-value	Correlation	RMSE
GTEX.111CU.1726.SM.5EGHM	0.333888268035458	0	0.00194884324007312	0.102990224192149	0.0378294514964276	0.134429467953839	0	0.0736018717923799	0	0	0.0547258671984993	0.0417536006809119	0.0186369563738454	0	0	0.108391791445052	0	0	0	0.0918036575913648	0	0	0.825	-0.0111430655115751	1.12852759308216
GTEX.111FC.1926.SM.5GZYC	0.156701008452198	0	0	0.061786556020689	0	0.324650624623409	0	0.207258213916979	0	0	0.0816429044691726	0	0.0705223913521249	0.00050443962899394	0.00877232791819542	0.0468011701852067	0	0.00760308508376528	0	0.0219307029017033	0.0118265754475637	0	0.628	0.0135188267804485	1.1208115083515
GTEX.111YS.2026.SM.5EGGL	0.27974305351508	0	0	0.152656755141461	0.151248499635728	0.0101377120603373	0	0.062500657644756	0	0	0.15192562435552	0	0.0472623120787561	0	0	0.0253545681784834	0	0	0	0.119170817389879	0	0	0.914	-0.0255556011921705	1.13893512346721
GTEX.117XS.2026.SM.5GID1	0.0992323933504697	0	0.00945914466272779	0	0	0.399569391632855	0	0.0704384263998759	0	0	0.121456719978222	0	0.0743951726782479	0	0	0.00930362617605389	0	0	0.216145125121549	0	0	0	0.733	0.00192751595148521	1.10661465689382
GTEX.117YW.1526.SM.5EGGP	0.247470108804852	0	0	0.128896796173229	0.00802925610709233	0.136191345815638	0	0.0858444405141738	0	0	0.0210290973312024	0.0595772098968331	0.0186012365528256	0	0	0.139022678670504	0	0	0	0.155337830133649	0	0	0.935	-0.0309482708959142	1.12517113841537
GTEX.11DXZ.2126.SM.59881	0.206730862951264	0	0	0.0281825949872174	0	0.354608264808728	0	0.11885474027644	0	0	0.134840058161696	0	0.0524334326442795	0	0	0.0554256000461382	0	0	0	0.0489244461242367	0	0	0.928	-0.0292495889951054	1.13561416008263
GTEX.11EI6.2226.SM.5EGJM	0.179441213410091	0	0	0.0707717784353445	0	0.139812857658645	0	0.262063730521456	0	0	0.0216493096334129	0.0759201441965649	0.0248548003008544	0.00896313472103031	0.00202261857937287	0.139871701735314	0	0	0.0746287108079147	0	0	0	0.868	-0.0181847601723041	1.11655660091361
GTEX.11EQ8.1426.SM.5EGJR	0.23085058626613	0	0	0.0678487151594805	0	0.165510899130624	0	0.181835936979821	0	0	0.0798234715658943	0.0526637627372636	0.0499937394983144	0.00187363500795794	0.0111890148212555	0.0469140952901244	0	0	0.107783302068637	0.00371284147449653	0	0	0.868	-0.018221258295328	1.11910113196199
GTEX.11EQ9.1926.SM.5PNVV	0.219852242424626	0	0	0.0579341338816572	0.0561019273626479	0.281604772724509	0	0	0	0	0.111429259958276	0.0374365773979455	0.0552462856189694	0	0	0.116321276293512	0	0	0	0.0640735243378567	0	0	0.971	-0.0425959585473143	1.12861853090423
GTEX.11GS4.2026.SM.5N9CP	0.285246603328023	0	0	0.155796485523186	0.018588168181822	0.0982504551602134	0	0.091839501185392	0	0	0.0428220390887636	0.0247359745804393	0.0116685971792568	0	0	0.153023956169	0	0	0	0.118028219603903	0	0	0.959	-0.0373237794794635	1.12824574014038
GTEX.11LCK.2326.SM.5HL53	0.309294679318328	0	0	0.11762502041132	0	0.107915380655978	0	0.10967550804294	0	0	0.0424524181144058	0.00233604183274734	0.00780187146019387	0	0	0.109653614783193	0	0	0	0.193245465380894	0	0	0.907	-0.0242366494374149	1.1310430248134
GTEX.11NUK.2626.SM.5A5MB	0.343858135231222	0	0.0750042709566904	0.0579283293492467	0	0.116064983624333	0	0.142531945296986	0	0	0.0830923618452775	0	0.0339303455324322	0	0	0.0445858908723061	0	0.00148412283184955	0	0.0922267784580275	0.00929283600162907	0	0.051	0.143016294551512	1.0643432527792
GTEX.11P7K.1026.SM.5HL6Y	0.178531848260686	0	0	0	0.0511120374841599	0.280976372323504	0	0.0904238332061684	0	0	0.00968415020235732	0.0591475559901486	0.0177270329127307	0	0.0169476737065413	0.217775414678675	0	0	0.0110333716953209	0.0666407095397078	0	0	0.448	0.0345176714404303	1.08227348924503
GTEX.11P82.1526.SM.5BC5M	0.269380274950816	0	0	0	0	0.216349396671828	0	0.131216133730847	0	0	0.0842085128424935	0	0.0145932960730576	0	0.000915351234794791	0.0947597600083565	0	0	0	0.171377330196609	0.0171999442911976	0	0.903	-0.0235224934522154	1.12039194868705
GTEX.11TT1.2226.SM.5GU6B	0.165679992167287	0	0	0	0.123096073345178	0.195169327596106	0	0.0529387818432945	0	0	0.108243015124985	0	0.0600811477315193	0	0	0.0245661912846591	0	0.0294357176893705	0	0.2407897532176	0	0	0.615	0.0152654103317033	1.10571257729743
GTEX.11TUW.2226.SM.5EQL9	0.318331569454019	0	0	0.0793873061402335	0	0.147329818777661	0	0.124464581066442	0	0	0.107619778309829	0	0.0421654888329401	0	0	0.042204468174361	0	0	0	0.138496989244516	0	0	0.842	-0.013541207862745	1.12942647795192
GTEX.11WQC.2326.SM.5EQKE	0.242239543427349	0	0	0.0138519403642415	0	0.107199704264929	0	0.204654339832396	0	0	0.0645087613442986	0.0504264090726899	0.052010626099658	0	0	0.0966755449806557	0	0	0	0.15530966554794	0.0131234650658429	0	0.941	-0.0318308062540866	1.12227036403302
GTEX.11ZUS.2726.SM.5FQUA	0.211655567161972	0	0	0.0280311078200815	0	0.266837532334935	0	0.00910187311435848	0	0	0.131370534670399	0	0.0524926377933872	0	0	0.0399783105653931	0	0	0	0.242686927313967	0.0178455092255062	0	0.946	-0.0332507902883967	1.13229031196758
GTEX.1212Z.0326.SM.5FQSJ	0.275141493135451	0	0	0.0370674431784701	0	0.207209450008136	0	0.150653469190642	0	0	0.183573947991219	0	0.0545036786829405	0	0	0.0248082778794622	0	0	0.0287227787286873	0.0383194612049912	0	0	0.921	-0.0276118207005426	1.13878745559364
GTEX.12C56.1426.SM.5FQSW	0.230401271846354	0	0	0.0853689702984544	0.0531104032735834	0.160285280044241	0	0.0406971757431593	0	0	0.130320014645053	0	0.00728512770588058	0	0	0.150907994696547	0	0	0	0.141623761746728	0	0	0.929	-0.0294304676453681	1.11822472779708
GTEX.12WSI.2126.SM.5GCMV	0.238770435008978	0	0	0.0152274211309261	0	0.272053179558132	0	0.163390022233404	0	0	0.112878840147413	0.00227185373884473	0.0472131772657963	0	0	0.0946622030177266	0	0	0	0.0535328678987785	0	0	0.785	-0.0052125335074244	1.11598823979581
GTEX.12WSL.2326.SM.5DUXQ	0.249312418425169	0	0	0.0892669210537087	0	0.0356626520318916	0	0.324437926763162	0	0	0.0593393344030965	0.0351264940552144	0.0156593288381392	0	0	0.0880435727683685	0	0.00139420059399714	0	0.101757151067253	0	0	0.861	-0.0171113241645774	1.1327959100909
GTEX.12WSM.1326.SM.5GCP9	0.156525933321319	0	0.0069961601924336	0.0830255267534065	0	0.125758993418747	0	0.0896104877380691	0	0	0.0038363657719323	0.0366622284910311	0.0155126511169401	0.0245842175459426	0.00245152030519093	0.0993689813407884	0	0	0.355666934004199	0	0	0	0.00800000000000001	0.239851580198081	0.995880902434276
GTEX.12ZZY.0126.SM.5LZV2	0.281785677276609	0	0	0.164122765614642	0.0923148986757587	0.0336250376231042	0	0.13442037303193	0	0	0.052169968946267	0.0141385621525726	0.0134000253750331	0.0155740469588885	0.0146599673979342	0.0556666269407781	0	0	0	0.128122050006483	0	0	0.921	-0.0277207392414023	1.13399159405961
GTEX.13111.1526.SM.5EGJX	0.0717461064596702	0.0104376274302862	0.00686463988371991	0	0	0.427705637995228	0	0.0706120142380765	0.0352044360233537	0	0.162312729257308	0	0.0765730628996662	0	0.0069024936493684	0.0119304423011644	0	0.00644756837100702	0	0.0667991323259033	0.0464641091652485	0	0.863	-0.0175185239944603	1.12884744662508
GTEX.13112.0226.SM.5P9IV	0.333934700615271	0	0	0.0336419161341845	0.0578038024134151	0.165982748052976	0	0.0468056059063539	0	0	0.143194793487831	0	0.0524818345954112	0	0	0.0546665845700565	0	0	0	0.0767001446391858	0.0347878695853155	0	0.973	-0.043652957325069	1.1385226679003
GTEX.131XE.0426.SM.5IJF4	0.250897534262384	0	0	0.130109891327007	0	0.0882097646066454	0	0.171610414879242	0	0	0.0270319498970625	0.0339436701303218	0.016358772629995	0	0.00166936564901673	0.188176295596401	0	0	0	0.0919923410219245	0	0	0.903	-0.0234045560110108	1.11562659960757
GTEX.132QS.1226.SM.5P9GD	0.253472813042376	0	0	0.134976872371858	0.0930272402908317	0.0110545676463256	0	0.0730650670582136	0	0	0.0763330803562349	0.0012099770962061	0.031506138993532	0	0	0.249952727169808	0	0.00855914798659417	0	0.0668423679880198	0	0	0.931	-0.0301540543893451	1.10853415466174
GTEX.139T6.1226.SM.5IFFC	0.0597774990062012	0	0.0232001165563708	0.013071082349135	0	0.488917939912245	0	0	0	0	0.197766577084828	0	0.102779141644534	0.0119217416481374	5.65335038648617e-06	0.00933305108402126	0	0	0	0.0556336111463135	0.0375935862178281	0	0.819	-0.0097474666341348	1.12871244643217
GTEX.139TT.2226.SM.5LZWO	0.308506931133496	0	0	0.0835207196796721	0.0565355394939108	0.112504699673425	0	0.0624920094389408	0	0	0.0507598043040801	0.0116663379681444	0.0454825293681806	0.000379788896729867	0	0.100782211484108	0	0	0.109736436966138	0.0576329915931742	0	0	0.934	-0.0307070407429927	1.1190148460641
GTEX.13FHP.2826.SM.5IJFW	0.375659853978284	0	0.0181729848152373	0.111081135769826	0	0.112060604641157	0	0.184536999276598	0	0	0	0.0570657937812498	0	0.0693578916039901	0.00852402717992995	0	0	0	0	0.0635407089537281	0	0	0.874	-0.0192066737053068	1.15480644511689
GTEX.13FTW.1326.SM.5LZZD	0.183095197253908	0	0	0.193327402769905	0.10968223181484	0.0336639273008322	0	0.0603442195328469	0	0	0.156382351577038	0	0.0272388593633438	0	0.0439656220444445	0.102342219502632	0	0	0	0.0899579688402089	0	0	0.973	-0.0432770165389437	1.13037237263834
GTEX.13N1W.2626.SM.5IJEP	0.29909928386784	0	0	0.0590662830789875	0	0.188729280945216	0	0.194400158251445	0	0	0.0227712830338892	0.0174935497679392	0.00480769652587533	0.0421105718849944	0	0.0223552604690459	0	0	0	0.149166632174768	0	0	0.834	-0.0122640743755727	1.13369815151772
GTEX.13NYB.2226.SM.5MR58	0.103483361649315	0	0.0138059286074082	0.00442703645048535	0	0.42306951215198	0	0.184955143181189	0	0	0.0873861453128812	0	0.0567221710494833	0.00690877807353486	0.0141523208423793	0.0731034449105192	0	0	0.0128730577781861	0.0191130999926381	0	0	0.446	0.0347080076042598	1.10894077157131
GTEX.13NZA.2526.SM.5IJFX	0.339260235443303	0	0	0.0171493229922659	0	0.269043198436498	0	0.0354056203189247	0.0236800565507508	0	0.167695108360677	0	0.0578403319722302	0.0217417431683778	0.0121253487575091	0	0	0	0	0.056059033999464	0	0	0.905	-0.0239436302212486	1.14210549698587
GTEX.13NZB.2026.SM.5MR4M	0.304096599824572	0	0	0	0	0.41112231760191	0	0.0326920319367637	0.0474389380284298	0	0.0438760462263414	0	0.0626983608532996	0	0.000802031492577738	0.0244597499953424	0	0.00050242810866988	0	0.0524135211776577	0.0198979747544359	0	0.796	-0.00676045069843767	1.13213087363451
GTEX.13O1R.0726.SM.5IJEI	0.258498562611424	0	0	0.0673738602519278	0	0.134752365171017	0	0.135339239414152	0	0	0.0683379899251706	0.0387037506379659	0.00723023516944783	0	0.0696045725470135	0.130782964440833	0	0.0133501588979105	0.0171737793717412	0.0588525215613967	0	0	0.844	-0.0137414270433998	1.10964031396981
GTEX.13O21.1226.SM.5J2MK	0.249843389791382	0	0	0.202091941759478	0.0813744271227392	0.0894130099030438	0	0.0269994510454046	0	0	0	0.0624156491208	0.0135351267825433	0	0.0105109776630816	0.187614644510323	0	0	0	0.0762013823012054	0	0	0.954	-0.0354280189389384	1.12518380061656
GTEX.13O61.2026.SM.5J2M6	0.242617494494127	0	0	0.191717968004413	0.0229323195915013	0	0	0.24199410176977	0	0	0.0264888351786678	0.0247345304015631	0.00899691066973853	0	0.0231608825544691	0.132299357883347	0	0	0	0.0850575994524027	0	0	0.924	-0.0283863590315093	1.12777729426111
GTEX.13OVL.0426.SM.5IFG6	0.30153698628032	0	0.00318708492785235	0.0256723288087517	0.0153376596027272	0.193336224857982	0	0.0819313465373899	0	0	0.110654118873041	0.0286007253471653	0.0574295168601223	0	0	0.118818590143224	0	0	0	0.0634954177614247	0	0	0.896	-0.0217555480673923	1.12101244185873
GTEX.13OW6.0126.SM.5IJGM	0.280614316831153	0	0.020191292244007	0.0928301497845818	0	0.124974007994075	0	0.123480797844719	0.00983085251792496	0	0	0.0011227785372455	0.0387990634152507	0.162818650443397	0.0103947911839744	0	0	0	0.131997498359481	0	0.00294580084418981	0	0	0.379000581797607	0.928655128724405
GTEX.13VXU.0726.SM.5J2O7	0.29579042249584	0	0	0.0273744738538008	0	0.134821036344913	0	0.178775584371762	0	0	0.0571447515254297	0	0	0	0	0.148881390610703	0	0	0.0496023350104326	0.10761000578712	0	0	0.917	-0.026345375894211	1.11938721348843
GTEX.145MH.2326.SM.5O9AW	0.21443777749869	0	0	0.161045415878771	0	0.143121892647606	0	0.156557996302415	0	0	0.0536450758063538	0.0431279866417202	0.0928858919794239	0.0478234467894018	0	0.065051521631271	0	0	0	0.0223029948243476	0	0	0.915	-0.0257842817238441	1.12421254212727
GTEX.14753.0626.SM.5Q5CY	0.260191748429017	0	0	0.0387615723969711	0	0.191703431247806	0	0.136985383795589	0	0	0.078804186423449	0.00447345791961533	0.0961255742733022	0	0.00557358936212385	0.0915041276237184	0	0	0.0303103699244745	0.0655665586039333	0	0	0.778	-0.00437933493022495	1.10220469801386
GTEX.147F4.0626.SM.5LUAK	0.30922766578639	0	0	0.0521228303411798	0.0153295785022982	0.0719744017271582	0	0.0861547591404405	0	0	0.116336980169151	0.0138203615870488	0.12803554678381	0	0	0.125619058864596	0	0	0.0701216696015255	0.0101893457927618	0	0.00106780170364066	0.21	0.0796092685581187	1.06649450144395
GTEX.14A6H.2326.SM.5Q5B5	0.256126525817119	0	0	0.00951669346968199	0.0298945408319062	0.094393721508186	0	0.086776324383871	0	0	0.0384421811508452	0.0143092480786729	0.0619155373718781	0	0.0133839151932121	0.233002138728128	0	0.00485094881017905	0.153046583039508	0.00434164161681235	0	0	0.628	0.0135745569233182	1.07842271119876
GTEX.14ABY.0626.SM.5Q5C9	0.27248057213664	0	0	0.0142643455487958	0	0.244383011320855	0	0.138337842206229	0	0	0.102286840007637	0.033698030041739	0.0503727725913902	0	0	0.0474904742814149	0	0	0	0.0966861118652989	0	0	0.898	-0.0225772048543618	1.12980994912055
GTEX.N7MS.0126.SM.3TW8O	0.301364748847622	0	0	0.0528401952101615	0	0.25280667352435	0	0.0809423937544229	0	0	0.0940245664567005	0.015213092048907	0.0410687682250249	0	0.011248449406393	0.0908788026723787	0	0	0	0.0596123098540393	0	0	0.942	-0.031992207797499	1.13095370917861
GTEX.NFK9.0126.SM.3LK5H	0.0287214477565883	0.0423477448178	0.038443784827947	0	0.0504696708034436	0.154421221932265	0	0.130452069455573	0	0	0.180806679760644	0	0.0124802046446969	0.105561396422069	0.00437198755920524	0.0569079851478289	0	0.000180959287064065	0.151586673345252	0	0.0432481742396223	0	0.871	-0.0188965128566068	1.09343501502704
GTEX.O5YT.2126.SM.3MJGD	0.17422240001116	0	0	0.0487201154319272	0.062401650683761	0.219590005300019	0	0	0	0	0.150834693714805	0	0.0576231725893003	0	0.0426403042222466	0.0804886751975822	0	0	0	0.163478982849199	0	0	0.628	0.0135893228267969	1.09666204036121
GTEX.OHPM.2126.SM.3LK75	0.24214336848391	0	0	0.0187430231571568	0.0563684975098297	0.148680842475815	0	0.146326727388362	0	0	0.161044470575077	0	0.0474656639715812	0	0	0.11066440146956	0	0	0	0.0685105606561048	5.24443126041283e-05	0	0.945	-0.0329101179142861	1.12227657535356
GTEX.OIZH.2126.SM.3NB1P	0.233562730973456	0	0.00233016090369979	0.104522852066465	0	0.104299126963928	0	0.171919633886638	0	0	0.00832616976282152	0.0110408423853187	0.00478111394131592	0.107935672070039	0.0209466949791317	0.0895727044352335	0	0	0.0847501679688872	0.0560121296630652	0	0	0.1	0.114299747722627	1.04772985137887
GTEX.OIZI.0126.SM.3NB13	0.104080105649821	0	0	0.0318085315123372	0.0512692477771848	0.0425222083908893	0	0.189071405069237	0	0	0.044589282202697	0.0371683424895921	0.0740123098922344	0	0.00484366781407108	0.187968721204025	0	0	0.232666177997912	0	0	0	0.701	0.0068198429233424	1.07904189332575
GTEX.OOBJ.2126.SM.3NB1N	0.186498240589291	0	0	0.0344289881344221	0	0.187338177983824	0	0.131536758409949	0	0	0.00720337093734486	0.0699410309631869	0.109570775759054	0	0	0.1933080071688	0	0	0	0.0801746500541288	0	0	0.475	0.0310570388280354	1.07911383300595
GTEX.OOBK.2126.SM.3LK5T	0.261611171287917	0	0	0.0317290946641104	0.0681406132485686	0.189970229121443	0	0.0129997077646525	0	0	0.193446532105251	0	0.0565165289376574	0	0.00549169075115603	0.0295313150318875	0	0	0	0.150563117087356	0	0	0.979	-0.0459519168491758	1.14047521557166
GTEX.OXRL.2126.SM.3NM98	0.36572235289846	0	0.0234423511151281	0.047504478536611	0	0.266120699122204	0	0.0350422602855651	0	0	0.111457408846051	0	0.0455562840558656	0.00714074696884003	0	0.0462748978944735	0	0.0386969231520031	0	0.012273471469018	0.000768125655781037	0	0.312	0.0558505668284464	1.106466736788
GTEX.P4QS.2126.SM.3NMCF	0.287481101836924	0	0	0.0559518905662978	0.0263695557859527	0.0575236703497883	0	0.170950682189892	0	0	0.0892403314196152	0	0.119727538923245	0	0.0072740312024268	0.11512229727265	0	0	0	0.0703589004532089	0	0	0.892	-0.0209617682893069	1.11038989618803
GTEX.PLZ5.1526.SM.3P5ZX	0.2159517025276	0	0.0118724937945367	0.0597532727735805	0	0.165967516985781	0	0.056224710174076	0	0	0.0454017627993824	0.0280941908912512	0.12708310740361	0	0.0488779725542395	0.104337489256753	0	0	0.13643578083919	0	0	0	0.536	0.0240561212054939	1.07300998385083
GTEX.PW2O.1426.SM.48TCD	0.19043604801335	0	0	0.0259530375242258	0	0.367235567322644	0	0.020593125944754	0.0922395365377164	0	0.0810079839689014	0	0.0574647717676119	0.0066493863973546	0.0185316252994968	0.108300668544812	0	0	0.0200276222320756	0.0115606264470583	0	0	0.706	0.00620100102514522	1.1063332856431
GTEX.Q2AH.1526.SM.48TZG	0.290041183455963	0	0	0.126779442634493	0	0.122684835149656	0	0.104292327978178	0	0	0.0879249326961415	0	0.0378484145885929	0	0.026501883601604	0.134978899124134	0	0	0	0.0689480807712379	0	0	0.792	-0.00613539623158523	1.1101546140311
GTEX.Q2AI.1226.SM.48U14	0.3037386297404	0	0.0451390938178585	0.070317453393749	0.0165294826387323	0.226125542464477	0	0.0257118831549343	0	0	0.160105069994497	0	0.0595659551075498	0.0135533425051603	0	0	0	0	0	0.0659526081879674	0.0132609389946741	0	0.14	0.0977738916634461	1.08317362912542
GTEX.QEG4.0126.SM.48TZE	0.348845362845142	0	0	0.0857880970606738	0	0.185253908912365	0	0.117843245673906	0	0	0.0397441390097059	0.0193665953912506	0.035881561734623	0	0.00371302940409385	0.0461994816271203	0	0	0	0.117364578341119	0	0	0.862	-0.0173997852583403	1.13782991111627
GTEX.QLQ7.1426.SM.4R1JX	0.255211036072139	0	0	0.121465406647438	0	0.183656162421018	0	0.101366281067151	0	0	0	0.0905147719280496	0.019195536644238	0	0.00873052724216941	0.219860277977797	0	0	0	0	0	0	0.722	0.00424351885740898	1.11106368342121
GTEX.QLQW.1026.SM.447A9	0.233648600832957	0	0.0145310830243225	0.13254825722649	0	0.0622674737212995	0	0.147407963134122	0	0	0.0594637076788396	0	0.0120366196367508	0	0.013772900183056	0.203917999868058	0	0	0.043320196289155	0.0770851984049501	0	0	0.93	-0.0297254318250114	1.10676114723081
GTEX.QMRM.1526.SM.4R1K6	0.219460146325736	0	0	0.0713091295827746	0.0223025970715922	0.042091765218691	0	0.0610235143692477	0	0	0.0621811174058709	0	0.0585536658978986	0	7.16469436600312e-05	0.198666928743957	0	0	0.19104988976985	0.0732895986707224	0	0	0.722	0.004030130366929	1.08800429501163
GTEX.QV44.1726.SM.4R1KG	0.256788398005153	0	0	0.153396714655776	0.00302528128322815	0.011380638095224	0	0.0960043684666252	0	0	0.0181785058109134	0.043365402630986	0.0130910614925982	0	0.012902090486268	0.219383276381572	0	0	0.163975980561951	0.00850828212970493	0	0	0.857	-0.0156705435527348	1.09798333805364
GTEX.R55C.1426.SM.48FED	0.188961499729726	0	0	0	0	0.35756494728216	0	0.0438220375419391	0.0290342065399287	0	0.203539592755077	0	0.0820183245533765	0.00416478754135793	0	0.0465577589678143	0	0	0	0.0402063577538853	0.00413048733473451	0	0.889	-0.0205573851883148	1.12865918116023
GTEX.R55D.0126.SM.48FEL	0.176749459836721	0	0.00974544658394517	0.0735841685851252	0.116725753074129	0.0237702243135824	0	0.182966848353401	0	0	0.044938756384739	0.0142440487447161	0.0135645556055904	0	0.0118343248518024	0.146986169424771	0	0	0.148691945906627	0.0361982983348502	0	0	0.822	-0.0104670240430614	1.09693633969872
GTEX.R55E.0726.SM.48FCZ	0.332732698179171	0	0	0.0438234962166572	0.0117862707908408	0.198796776753125	0	0.0549147271108162	0	0	0.176631747929561	0	0.0581386289160809	0.00230969456121706	0	0.0695817377710649	0	0.000439066406639223	0	0.050845155364827	0	0	0.954	-0.0353939001490505	1.1409404230252
GTEX.REY6.0126.SM.48FDT	0.283410451095558	0	0	0.0355509182719086	0	0.315568797143425	0	0.0719178370409406	0	0	0.127257396557632	0.00737884154202613	0.0531420846437738	0	0	0.043416781771198	0	0	0	0.0623568919335381	0	0	0.892	-0.0210806916276195	1.13347333574923
GTEX.RM2N.1326.SM.48FCW	0.334957315018208	0	0	0.09129997334753	0	0.0612587852087972	0	0.262282901427676	0	0	0.0329118471318144	0.0322177353659129	0.0100733177472042	0.0131033730574666	0.0250836932208312	0.118474564267146	0	0	0	0.0183364942074133	0	0	0.866	-0.0180314577573852	1.13731358495502
GTEX.RN64.2326.SM.48FDW	0.285136327837072	0	0.0547558796230411	0.0987139116686253	0.010160669026284	0.0371894676513557	0	0.105824990229647	0	0	0	0.0576990991807881	0.00650472194271487	0	0	0.128813474621445	0	0	0.215201458219027	0	0	0	0.822	-0.0104049236476924	1.11226802693525
GTEX.RUSQ.2126.SM.47JXK	0.243642609389333	0	0	0.0568892129354488	0	0.0783265401235559	0	0.265632375920051	0	0	0.0412690335948068	0.06677459641992	0.0111221444192681	0.00744826172769555	0.0866557831038839	0.0562098657686215	0	0	0	0.0860295765974156	0	0	0.906	-0.0241190907757027	1.13081830888477
GTEX.RWSA.2426.SM.47JXR	0.321669098168991	0	0	0.0956058523707749	0.0748525337626119	0.0988992848101719	0	0.0169483467792651	0	0	0.081830964058335	0	0.0189395723796078	0	0	0.128531896791853	0	0	0	0.16272245087839	0	0	0.903	-0.0235315362902344	1.12635264580843
GTEX.S33H.0126.SM.4AD62	0.185776066008567	0	0	0.095777139248421	0	0.0871299260453588	0	0.0298640022393257	0	0	0.00178677176418499	0.0170266675833263	0.0120374170064961	0	0.0102847398716663	0.188120104507788	0	0	0.372197165724865	0	0	0	0.604	0.0165037745983321	1.09580642590931
GTEX.S3XE.1526.SM.4AD5A	0.268476836353077	0	0.0229637129186906	0.020276655716663	0.15349021690166	0.267299023705919	0	0.0375107027712828	0	0	0.0574255328541571	0	0.0443334314671118	0.00900583767750806	0.01657884589028	0.0107308206780419	0	0	0	0.0919083830656093	0	0	0.697	0.00731100479874332	1.12102373519067
GTEX.S4Q7.1226.SM.4AD5I	0.248887693602664	0	0	0.0911724970800601	0.0979572370286563	0.110003274613956	0	0.0474708003095773	0	0	0.0783457329091784	0.00217446231225954	0.0604937799063601	0	0	0.117956683788351	0	0	0	0.145537838448938	0	0	0.941	-0.0319082006192552	1.11613653543072
GTEX.S7PM.0626.SM.4AD4Q	0.230091932049192	0	0	0.0853139895300822	0	0.074595254871539	0	0.177134345696303	0	0	0.0810392475093097	0	0.0244120692638323	0	0	0.0257976758945496	0	0.0407541847373652	0.147606600379585	0.113254700068242	0	0	0.891	-0.0206826475626678	1.11636717820508
GTEX.S7SE.0326.SM.4AT5Q	0.282979281602767	0	0	0.00222515632975458	0	0.409256799541588	0	0.0664391676253316	0.0429280917073247	0	0.0364965223544469	0	0.0588533399203962	0.0214151929369801	0.00539129264115366	0.0462954939265425	0	0	0	0.0277196614137151	0	0	0.701	0.00680925567118852	1.12433134917276
GTEX.S95S.1126.SM.4B64E	0.22102919842241	0	0	0.127345802783668	0	0.147871216142907	0	0.201820546631721	0	0	0.101977717325477	0	0.0678600079252502	0	0	0.0435581058876077	0	0.00454045759454636	0	0.0839969472864118	0	0	0.906	-0.0241032602251136	1.12944257974318
GTEX.SNMC.1026.SM.4DM7K	0.321023033002544	0	0	0.0205641721799597	0	0.206621476175102	0	0.144147031215362	0	0	0.0524158715066341	0	0.0301379356957285	0.00191328513521773	0	0.115853779517388	0	0	0	0.107323415572065	0	0	0.905	-0.0239191167403228	1.12544977642385
GTEX.SNOS.1126.SM.4DM67	0.231089397700785	0	0	0	0.00553283423916644	0.214584556126411	0	0.142289481380479	0	0	0.170081031372969	0	0.0579469838659163	0	0	0.0402595273130439	0	0	0	0.125249657565135	0.0129665304360951	0	0.937	-0.0313494784733507	1.12602936200024
GTEX.T5JC.0726.SM.4DM55	0.295550626526473	0	0	0.0263042570340468	0	0.177133818581038	0	0.203408037148368	0.0177275359821859	0	0.134994742355868	0	0.0644701573000304	0.0156796930517187	0	0.0245832276080719	0	0.00910864677448444	0	0.0310392576377136	0	0	0.82	-0.0102531045401901	1.13126679264781
GTEX.T6MN.2026.SM.4DM7L	0.251625942708854	0	0	0.0367160632688062	0	0.217457167697377	0	0.0879925240791718	0	0	0.111477708028431	0.0556610049212313	0.0542432288624373	0	0	0.0588483136286418	0	0	0	0.0962137560843803	0.0297642907206698	0	0.953	-0.0352821030605098	1.13001713053363
GTEX.T8EM.0126.SM.4DM5R	0.263577511253796	0	0	0.0571700760520475	0.0095277051065025	0.123070950755823	0	0.141135408087567	0	0	0.0134733353000971	0.0499904326627915	0.0469704510351547	0	0.046961443817118	0.151133749210317	0	0	0	0.0969889367187848	0	0	0.51	0.0278707142196404	1.08848952398532
GTEX.TKQ1.0926.SM.4DXU2	0.214967025815028	0	0	0	0.0937067214581638	0.190896042921239	0	0.0827782567541978	0	0	0.154000787523931	0	0.0049660162768161	0	0	0.129332554944787	0	0	0	0.129352594305838	0	0	0.942	-0.032024126697313	1.1198362791958
GTEX.TKQ2.1526.SM.4DXUN	0.211288814518643	0	0	0.136874842849477	0.0621180174808806	0.0259916846958788	0	0.140543500485741	0	0	0.0133359843771469	0.0575839804511576	0.029666290830945	0	0.02663954976874	0.206271238136386	0	0	0	0.0896860964050042	0	0	0.958	-0.0369570117221687	1.11276694704635
GTEX.U3ZH.1526.SM.4DXV1	0.135193948773762	0	0.0224774950896971	0.0219377136042243	0	0.187216941557921	0	0.0997364570388139	0	0	0.0867469106431709	0	0.121160557932724	0.105318083113103	0.0074667801573182	0.0249218917392718	0	0	0.15141628530662	0	0.0364069350433738	0	0.926	-0.0289497140117003	1.08601038537686
GTEX.U3ZM.1626.SM.4DXSK	0.237043858597361	0	0.0224506076111057	0.0757984763328491	0.0552061477358679	0.0613741397451113	0	0.110226745407244	0	0	0.0590306245991289	0.0310059661683542	0.0761566872472687	0	0.00849371397283035	0.120058273748007	0	0	0	0.143154758834872	0	0	0.933	-0.0305318579973815	1.11258027448611
GTEX.U4B1.1526.SM.4DXSL	0.217552129320488	0	0	0.0449715540728433	0.13012401931152	0.103177046011935	0	0.0704579359009609	0	0	0.0835553447785953	0	0.0261173105387	0	0.00793445409913985	0.247149674035037	0	0	0	0.0689605319307816	0	0	0.944	-0.0325608460760229	1.10537763084324
GTEX.U8XE.0126.SM.4E3I3	0.247147020715581	0	0	0.00522599448754682	0.053558312470375	0.133909849542167	0	0.140190009565557	0	0	0.0368605642225258	0.0305182982542639	0.00961552877800944	0	0.0511473025133291	0.119058162820327	0	0	0	0.16946160661655	0.00330735001376851	0	0.832	-0.0120129963630137	1.11053161172292
GTEX.UPJH.0126.SM.4IHLL	0.298995002364683	0	0.0575276847186084	0.160478594305288	0	0.0255800415900958	0	0.131062512834114	0	0	0.0169052153270426	0.0703927764141025	0.0562650031328666	0	0.0129668025091668	0.125281842930606	0	0	0	0.044544523873425	0	0	0.919	-0.0267802659440634	1.13166332825052
GTEX.V1D1.2126.SM.4JBH4	0.192787500442057	0	0	0.0366003839382584	0	0.115148168959915	0	0.151813776795483	0	0	0.0618339871637197	0	0.0289036242366666	0	0.00782643131218691	0.132251371052253	0	0	0.207010265409104	0.0658244906903564	0	0	0.857	-0.0158042328700745	1.09914361375848
GTEX.V955.1926.SM.4KL1L	0.205091264406392	0	0	0.105276164553736	0	0.0169768603145702	0	0.219319428317591	0	0	0.0481561690015555	0.0125454502344146	0.0824097180287859	0	0	0.251194105483681	0	0	0	0.0590308396592742	0	0	0.856	-0.0155476750648937	1.09825868704425
GTEX.VJYA.1426.SM.4KL1Y	0.183793574945555	0	0.00917124412703155	0.0313004280285002	0	0.0599257709431845	0	0.147584667967926	0	0	0	0.0592649179771479	0.0302814535626639	0	0.0288517619915329	0.167986226859573	0	0.013006444491472	0.262796324713325	0.00603718439208763	0	0	0.234	0.0711607962560139	1.05766303015003
GTEX.WFG8.1926.SM.4LVM1	0.274287867216346	0	0	0.0151465671233005	0.0639822284063391	0.196039173828031	0	0	0	0	0.0806175100253065	0	0.140075464211588	0	0	0.127340080190338	0	0	0.00464180977519002	0.0978692992235608	0	0	0.741	0.00101591196487418	1.09554732196982
GTEX.WFON.2026.SM.4LVMW	0.248659816599756	0	0	0.129310077595259	0.0409852144249414	0.12808301980888	0	0.0313786064706468	0	0	0.0548137858277826	0.0378706407495803	0.0965278992941073	0	0.00371960567584126	0.189290872859759	0	0	0.0313430413490324	0.00801741934441441	0	0	0.719	0.00447041009463684	1.09531477376861
GTEX.WH7G.1926.SM.4LVMM	0.268221255976344	0	0.0228577674706044	0.0989684129720993	0	0.150436832452691	0	0.121485473850751	0	0	0.119900722119255	0	0.0561709357266746	0.0233888203742096	0.0131278453635153	0.029015576668623	0	0	0	0.0758300690408005	0.0205962879844325	0	0.624	0.013875966293961	1.10702513655637
GTEX.WHSB.2126.SM.4M1XF	0.312741497361188	0	0	0.0228696110747107	0.171251897402554	0.194790929211214	0	0	0	0	0.052012953575658	0.0188006179312225	0.0123413857217505	0	0.00956193637374653	0.132480838129712	0	0	0.0203003734461097	0.0528479597721348	0	0	0.866	-0.018069402241159	1.12384441315923
GTEX.WK11.0326.SM.4OOS6	0.232171346000074	0	0	0.1508188974447	0	0	0	0.269201726380433	0	0	0.0265991662843115	0.0471572981532528	0.0274888358080797	0	0	0.0525079253870766	0	0	0	0.18789412673805	0.00616067780402224	0	0.96	-0.0378296874107341	1.14373477779474
GTEX.WOFM.1126.SM.4OOSB	0.293413979712591	0	0	0.112439313587593	0.0300010977022014	0	0	0.233982921696303	0	0	0.140678945957745	0	0.0518139752341187	0	0	0.0859447978762485	0	0	0	0.0453362449057942	0.00638872332740497	0	0.952	-0.0347495952957917	1.13768650452993
GTEX.WVLH.2626.SM.4MVNV	0.401372576852391	0	0.0597737145139709	0.0441476353589288	0	0.12370760976603	0	0.17492744340463	0	0	0.09572575634714	0	0.038391076780855	0.0309361728755431	0	0	0	0	0.00486328111137349	0.0261547329891374	0	0	0.024	0.183468493925141	1.05840657887668
GTEX.WZTO.0326.SM.4PQYZ	0.268029170385177	0	0	0.00473164024157939	0	0.342664943421844	0	0.0567011054092461	0.0807033718488302	0	0.136217500035175	0	0.0635749429757143	0.00858247617238492	0.00969081795170727	0	0	0	0	0.0291040315583429	0	0	0.806	-0.00763103896292625	1.13557329762768
GTEX.X261.2326.SM.4PQYU	0.316579377943304	0	0	0.170433943097045	0.014090078446893	0.04724216444375	0	0.0942015519710059	0	0	0.0825813958854061	0.0463221751467848	0.0863311337490276	0.0325894508017358	0.000948293171984109	0.0913267802487201	0	0	0	0.0173536550943436	0	0	0.935	-0.0311057007257812	1.1340257084822
GTEX.X3Y1.2626.SM.4PQZI	0.216513048041245	0	0	0.0644276173750066	0	0.283275565925802	0	0.131882035405811	0	0	0.0042857730995647	0.0270599236044813	0.0133035287064469	0	0	0.221258815423397	0	0	0	0.0379936924182458	0	0	0.03	0.169345806951223	1.0318270776591
GTEX.X5EB.2026.SM.4E3KA	0.351918251482622	0	0	0.0962877302754914	0	0.145314356912264	0	0.149462221102045	0	0	0.115521253566101	0	0.0436462003537194	0	0	0.00839655711260952	0	0	0.0197453115324451	0.0697081176627023	0	0	0.923	-0.0281548620934941	1.1501011556167
GTEX.XAJ8.1326.SM.47JYT	0.276154593431859	0	0	0.00733915418329734	0	0.369133707539766	0	0	0	0	0.169003362642831	0	0.0578082316502233	0	0	0	0	0	0	0.120560950552023	0	0	0.877	-0.01956688400545	1.13591152334883
GTEX.XBEC.0126.SM.4GIDT	0.269687556768053	0	0	0.1902936303204	0	0.0175702837337362	0	0.194383937876959	0	0	0	0.0433111666459389	0.0270404043817483	0	0	0.161768935969796	0	0	0	0.0959440843033699	0	0	0.953	-0.0351389506044272	1.12751960770699
GTEX.XBED.2026.SM.4AT5D	0.507947678692613	0	0.0109655800445154	0.144974199100619	0.0171617170861533	0.0119690030832193	0	0.0995846060299282	0	0	0.0680842175775356	0.00523555165099771	0.015991485346751	0.00503614983828628	0	0.0628202412330827	0	0.0272897354477302	0	0.0229398348685684	0	0	0	0.399817285625535	0.940282896161682
GTEX.XGQ4.2026.SM.4AT6G	0.274831257661515	0	0	0.115892394024335	0.102950066946458	0.129438365001155	0	0.00208920395960656	0	0	0.0605750538422158	0.00714056765294268	0.0225874549186857	0	0	0.104377780524833	0	0	0.0902582219712899	0.0898596334969638	0	0	0.876	-0.0193395290271933	1.11533577256643
GTEX.XLM4.1526.SM.4AT6D	0.179840963788793	0	0	0.0251993215697075	0	0.20746849310916	0	0.115110397484931	0	0	0.0600699031791788	0.0226850821454021	0.0438949781006807	0	0.151860777738181	0.104090104408608	0	0	0.0897799784753579	0	0	0	0.855	-0.0153220990370955	1.10390514442226
GTEX.XMK1.2026.SM.4B65K	0.278700475516079	0	0	0.0864981168749158	0.0577606434684063	0.0467234617030719	0	0.0907367550875898	0	0	0.0609457754923686	0.00903190377010719	0.0195187488764112	0	0	0.272173609473561	0	0	0	0.0779105097374884	0	0	0.85	-0.0148570431771401	1.10507505446838
GTEX.XPT6.1626.SM.4B655	0.311880531766071	0	0	0.132296808436306	0.00102788701871489	0.0500118699983684	0	0.074079368778187	0	0	0.0613139690071093	0	0.0544254137118043	0	0.0245421022949414	0.212202050034524	0	0	0	0.0782199989539743	0	0	0.812	-0.00817725468063374	1.10518341624299
GTEX.XPVG.2226.SM.4B65U	0.29647341003622	0	0.0366633481552517	0.0783122969070202	0.0443094750671233	0.00272352504606733	0	0.12864024076115	0	0	0.0259977768011127	0.0472806572580373	0.0352613529891727	0	0.00785874508105685	0.129780189807986	0	0	0.166698982089802	0	0	0	0.726	0.00295995199150982	1.10157470387004
GTEX.XQ3S.2726.SM.4BOP2	0.332873354960797	0	0	0.026697382712359	0	0.208487694468719	0	0.0760137592270449	0	0	0.124203620052158	0.0284765107741056	0.0528877451776257	0	0	0.108375413852694	0	0	0	0.0419845187744966	0	0	0.947	-0.0336881434373548	1.13550893011169
GTEX.Y111.2426.SM.4TT23	0.200922911792688	0	0	0.0455256672008456	0	0.336791562956808	0	0.0764305710812496	0.0355258482607882	0	0.127188152554143	0	0.0691681443941646	0	0.00830233245349904	0.0554488263690346	0	0.00132448027293041	0.0433715026638486	0	0	0	0.913	-0.0251440858008201	1.12767925000238
GTEX.Y5V6.1726.SM.4VDSZ	0.370612035982632	0	0	0.0293240005825265	0	0.167767190974236	0	0.0902669208764121	0	0	0.176924417695012	0	0.0475265962684733	0	0.00200779336353275	0.0746650938536468	0	0	0	0.0409059504035289	0	0	0.934	-0.0308196899978188	1.14618834277272
GTEX.Y9LG.1726.SM.4VBQE	0.156548759391879	0	0	0.0904812437247344	0	0.000714814723406733	0	0.0970183137183199	0	0	0.0326587957141767	0.0156114093200958	0.098144596458302	0	0.0318790804924254	0.264260131075145	0	0	0.212682855381515	0	0	0	0.649	0.0105937420059691	1.07224229633148
GTEX.YB5E.1926.SM.5IFIG	0.327912559687362	0	0	0.0207060358615828	0.0784699982941784	0.203998907263518	0	0.0397908847660643	0	0	0.12995848915395	0	0.040210295162822	0.0215449414960551	0	0.0272372216844089	0	0	0.0595189851456243	0.0348684025935748	0.0157832788908601	0	0.291	0.0592306415466069	1.09165972090973
GTEX.YEC3.1726.SM.5IFIK	0.374918959339279	0	0.0355445941679115	0.142718931075636	0	0.0696618333536696	0	0.176176982428052	0	0	0.00442791040047388	0.0198586011490336	0.0081879505829654	0	0	0.0544185081275061	0	0	0	0.114085729375472	0	0	0.883	-0.0201904812527226	1.15417280686966
GTEX.YEC4.1526.SM.4W1YU	0.241659866399412	0	0	0.11582411346699	0	0.204549316912186	0	0.083746681500948	0	0	0.0521377747377611	0.00730165982138927	0.0609289929157827	0	0.0133557374972284	0.108324708345476	0	0	0.0670636908369034	0.0451074575659231	0	0	0.757	-0.00169463555489679	1.10010890943254
GTEX.YF7O.2026.SM.4W1YE	0.283528691563866	0	0	0.0266242673674569	0	0.15800163676035	0	0.211011071695973	0	0	0.13021638549345	0	0.0384139848234186	0.020653773299617	0	0.0460368753040054	0	0	0.0855133136918632	0	0	0	0.841	-0.0134576853482088	1.12177697366836
GTEX.YFCO.1726.SM.4W21S	0.275383680867035	0	0	0.0251995418478816	0	0.268868211674546	0	0.0896066209878482	0	0	0.0824581454671338	0	0.0606838065150916	0	0.0136037193355903	0.110612993380269	0	0	0	0.0735832799246048	0	0	0.67	0.00905017447762251	1.10141138472917
GTEX.YJ89.0626.SM.4TT3Z	0.318631741158172	0	0	0.07766631442106	0	0.0420213451352883	0	0.23965862439943	0	0	0.00200495296950612	0.0446220614141666	0.00999170306496194	0	0.0717235124523552	0.061951542962861	0	0	0.131728202022199	0	0	0	0.759	-0.00193563766846746	1.11727893827476
GTEX.Z93S.1726.SM.5HL8G	0.114019028326911	0	0	0.00730262762080543	0	0.225299649992581	0	0.26093604436913	0	0	0.131005838897773	0.0351547874277172	0.0524855843547797	0	0	0.079110335404642	0	0	0	0.0759487101524103	0.0187373934532504	0	0.905	-0.0238764913474789	1.12944761872977
GTEX.ZA64.1626.SM.5CVME	0.25936559336756	0	0	0.0142896688208525	0.0482459269169815	0.132142395866899	0	0.126103972055436	0	0	0.0769263636822164	0	0.00193031574486916	0	0	0.252130729479227	0	0	0	0.0888650340659586	0	0	0.892	-0.0209005605992576	1.10629694383209
GTEX.ZAB4.0126.SM.5CVMG	0.246567410165345	0	0.0618240307918155	0.262862881049642	0	0.0346275064330217	0	0.0640998582876476	0	0	0.0312689255255369	0	0.0743627379331523	0	0.0426854271741421	0.125224654592542	0	0	0.0451366940374283	0.0100578606093285	0.00128201340039846	0	0.021	0.190482879180545	1.02036936427098
GTEX.ZAB5.2426.SM.5CVMW	0.236279517124965	0	0	0.210732686158487	0	0.0821694563440977	0	0.121439720732406	0	0	0	0.0738503051923348	0.00387932345614591	0	0	0.134740894026829	0	0	0.0829419727240875	0.0539661242406467	0	0	0.563	0.0207588926700307	1.10179493955622
GTEX.ZDTT.2026.SM.5K7TY	0.209799102581803	0	0	0	0	0.323100922757646	0	0.0850286472656029	0	0	0.125464725364692	0.00768302769931397	0.0596818164183037	0.0675576705482782	0	0.00361067257279554	0	0	0.0947783048525586	0	0.0232951099390066	0	0.617	0.0149199042093904	1.0955555755809
GTEX.ZDYS.1326.SM.5IJFF	0.269728589730808	0	0	0.0961486986401402	0.128887249160934	0.0623365240111859	0	0.103464109158957	0	0	0.0488879778235104	0.0422366167641822	0.00703758659110305	0	0.00035494709909819	0.14782445737657	0	0	0	0.0930932436435107	0	0	0.914	-0.0254604732897657	1.12366202794222
GTEX.ZPU1.2126.SM.57WED	0.419252654970814	0	0	0.0212856962744733	0	0.266889740089602	0	0.0208274547093218	0.00106789460951642	0	0.105751243368602	0	0.0382396788490931	0	0	0.0467669290952043	0	0	0.00443156689140554	0.0652097408586242	0.010277400283343	0	0.522	0.0260853546101163	1.12837236947085
GTEX.ZQUD.2026.SM.51MSM	0.291911056585833	0	0	0.00694802486252609	0	0.217538985727	0	0.142231585058723	0	0	0	0.074576071710338	0.0313425859992756	0	0	0.116112208263514	0	0.0173858799801635	0	0.101953601812626	0	0	0.093	0.117958723187508	1.05967594361075
GTEX.ZT9W.2226.SM.57WFU	0.269746422468771	0	0	0.0608424425979996	0	0.232536641486586	0	0.107644629953367	0	0	0.0429172281965151	0.0188982493773505	0.0133409037514169	0	0	0.14456616213623	0	0	0	0.109507320031764	0	0	0.861	-0.0171111631791599	1.11675495737624
GTEX.ZT9X.1426.SM.5DUX1	0.264970102429344	0	0	0.0254581353351536	0	0.240426415541396	0	0.0474328380967907	0.0165965000164378	0	0.0439937543885562	0.043678994153155	0.0417209496360552	0	0.0217017308367339	0.0819288022440249	0	0	0.172091777322353	0	0	0	0.797	-0.00683470117016067	1.1012230645321
GTEX.ZTSS.1526.SM.51MTC	0.304291456155725	0	0	0.131984645428551	0.0674917741229529	0.103719542922589	0	0.063917364624026	0	0	0.0823977985321938	0	0.0194197024450296	0	0	0.0654161300289223	0	0	0	0.16136158574001	0	0	0.945	-0.0327793798169588	1.13753694901809
GTEX.ZUA1.2726.SM.59HLJ	0.362894004483937	0	0	0.116327270621958	0	0.186436016561115	0	0.00467525385387645	0	0	0.0483567330474339	0.0194876173480433	0.00898417831443092	0	0	0.146874878812135	0	0	0	0.105964046957069	0	0	0.934	-0.0305989937436296	1.13769384915556
GTEX.ZV7C.2026.SM.5NQ8F	0.211370041321078	0	0.00244081791204765	0.0845058451858896	0	0.256638018589349	0	0.0193015447055325	0	0	0.298077509012118	0	0.0832606515217548	0.0142810707778238	0	0	0	0	0	0.0301245009744073	0	0	0.859	-0.0166914983795114	1.15467147280261
GTEX.ZVTK.0126.SM.57WDG	0.195858266038519	0	0	0.0315303207636629	0	0.343169135666095	0	0.0697202968163863	0.00614575967568753	0	0.132458954817083	0.0056613784175366	0.0480060031336972	0	0	0.0775840184210157	0	0	0	0.0898658662503164	0	0	0.871	-0.0188164718675014	1.12076787543332
GTEX.ZVZP.2226.SM.57WBF	0.242458718719003	0	0	0.0975932193661385	0	0.101436934286385	0	0.175511488016401	0	0	0.0510525979484616	0.0320142733467286	0.0534735180453724	0	0	0.178884165564528	0	0	0	0.0675750847069827	0	0	0.897	-0.0218806122371347	1.11076455582679
GTEX.ZYFC.0126.SM.5GIEH	0.275331935155511	0	0.000571600483196196	0.0202827942046265	0	0.231955777468345	0	0.124594883628519	0	0	0.161252800963263	0	0.0383991498088591	0	0	0.0681601578953314	0	0	0.0444418486457294	0.0350090517466197	0	0	0.73	0.00231705953861446	1.11485538830977
GTEX.ZYT6.2726.SM.5GICP	0.237974268385092	0	0.0017969740698944	0.106378958011368	0.0544431404809463	0.133533501577538	0	0.0967293114913418	0	0	0.0489166031989506	0.0184323451166093	0.0192642944402363	0	0	0.136793720775713	0	0.000592648097183695	0	0.145144234355126	0	0	0.953	-0.0351526512697636	1.12178685856129
GTEX.ZZ64.1126.SM.5GZXY	0.188676552553234	0	0	0.00947425933028864	0	0.416437988438956	0	0.0255395970362628	0	0	0.174678219507235	0	0.0865403617874365	0	0	0.0279327461987419	0	0.00877989586188323	0	0.0488638358022314	0.0130765434837301	0	0.846	-0.01433248382784	1.12504210008938
