Mixture	B cells naive	B cells memory	Plasma cells	T cells CD8	T cells CD4 naive	T cells CD4 memory resting	T cells CD4 memory activated	T cells follicular helper	T cells regulatory (Tregs)	T cells gamma delta	NK cells resting	NK cells activated	Monocytes	Macrophages M0	Macrophages M1	Macrophages M2	Dendritic cells resting	Dendritic cells activated	Mast cells resting	Mast cells activated	Eosinophils	Neutrophils	P-value	Correlation	RMSE	Absolute score (sig.score)
GTEX.11DXX.1426.SM.5GIDU	0.597798367150554	0	1.05451033532673	0.00419642488952881	0	1.24354855976749	0	0	0.0037841917940207	0	0.252434171462631	0.0101032723255857	1.83786331977916	0	0.0777584632789178	3.04210487591526	0	0	0.268977099595556	0	0	0	0.028	0.196481249831428	1.00986310766042	8.39307908128544
GTEX.11EM3.1726.SM.5N9D1	0	0.181088137245178	0.172220886242765	0.472980457277404	0	2.75505791227173	0	0.207973327039745	0	0	0.289430405962117	0.569728225447626	0.493753623804034	0.946028381981702	0	0.412977742468691	0.012596062029276	0	2.21575419480725	0	0.153608507316618	0	0.426	0.025999864640202	1.08198859963984	8.88319786389414
GTEX.11EMC.1726.SM.5H11P	0	0.311160353685944	2.08703783647982	0.828295517133992	0	2.23521456927755	0	0.022116714750471	0	0	0.585001345558592	0	0.269088927677553	2.01455348228508	0	0	0	0	2.15645949937789	0	0.0422638709753745	0	0.003	0.274321514608259	0.977874182267951	10.5511921172023
GTEX.11GSP.0226.SM.5A5KV	0	0.113468275512922	1.05650968836808	0.277291452666484	0	0.785487151468149	0	1.25482959579582	0	0	0	0.98950427070069	2.26554401272564	0.125425360021967	0	1.54309357944528	0	0	0.630439675676819	0	0	0	0.767	-0.0114951431915214	1.08778612225029	9.04159306238185
GTEX.11I78.1926.SM.59878	0.0783221202676766	0	3.11497069962627	2.575952230275	0	1.83695369380394	0	0.290566671117994	0.311468872791889	0	0.26687440609628	0.0141006929457077	0.481394314546759	0	0.598924636533965	2.1992825314193	0	0	0.0909388093191552	0	0.0358982418609804	0	0.001	0.335708416632293	0.956302860109611	11.8956479206049
GTEX.11P81.1526.SM.5P9GS	1.80050611582933	0	0.578293724873749	0.668542114116082	0	2.75568472330881	0	0	0	0	0	0.343211159456643	0.0322586952379422	0.0335800621207924	0.0556045596065278	2.50993141621645	0	0	1.07819792072706	0	0	0	0.026	0.199066460917369	1.00646072466981	9.85581049149338
GTEX.11VI4.1026.SM.5EQM1	0.502437458725208	0	0.138557819176836	0.0132559154245422	0	1.36286260283477	0	0.0878861829369598	0	0	0.409931097030492	0.178213633718209	0.488144923885795	0	0	3.41220837166438	0	0	0	1.15670599271245	0	0	0.372	0.0351680648289958	1.08216327385903	7.75020399810964
GTEX.11XUK.1626.SM.5GU5O	1.30252753377594	0	0.27317444430729	0.609731183841072	0	1.68967502401202	0	0.0949778603483569	0	0	0.249054586383916	0.39848691256694	0.373366897580415	0.254056020770347	0	2.34697896055529	0	0	1.55166617132155	0	0	0	0.372	0.0350546904088635	1.06423304566004	9.14369559546314
GTEX.11ZTS.1926.SM.5CVLA	0.0242933828613358	0	0.0341486411120577	3.00800410917144	0	1.06474026733333	0	0.333180388809829	0	0.0585641151245948	0	1.05891585099205	0.380680013591118	1.38762928529059	0.303292893743569	0	0.0211502608771546	0	1.68465187729438	0	0.466463193571717	0	0.438	0.0245732204743776	1.1013593099647	9.82571427977316
GTEX.11ZTT.1826.SM.5CVLN	0	0.186934180663201	0.163315859252201	1.49608138419739	0	0.529696776038354	0	0.444638250121891	0	0	1.13888430167907	0	0.487891642390177	0.544505023355641	0.11548519383222	1.20989384675933	0.00913635485725969	0	1.90902987397129	0	0.0668401106135394	0	0.451	0.0228920094511148	1.07758258750416	8.30233279773157
GTEX.11ZVC.1426.SM.5EGGA	0	0.0725262371672908	0.58209510491763	0	0	1.70120872325828	0	0.878109363654003	0	0	0.268279682642452	0.882299619311552	0.628411448401181	0.624502304997548	0.409703838347599	0.0142563638250461	0	0	1.37021297817161	0	0.0471584279334064	0	0.861	-0.0209353991322103	1.09790454537685	7.4787640926276
GTEX.12WSD.2726.SM.59HLR	0	1.02132604036103	0.453374171161167	0.547558448122919	0	0.484116413023905	0	0.416884731635578	0	0	0.183801253884619	0.323739059159376	0.313464630643829	1.38778939709016	0	0	0	0	2.21795606970977	0	0.228841354205755	0	0.408	0.0277203542170931	1.07750457690976	7.57885156899811
GTEX.12WSG.1426.SM.5FQUK	1.75158112385047	0	7.45397514204279	3.90864123745727	0	0	0	0.295766873164973	0.508846907175806	0	0.23835391005225	0.0995482326217547	0.461900866931336	0.0253410532792017	0.0053233166426513	1.77988180474768	0	0	0	0	0.0556701029222803	0	0	0.495546666968288	0.895923416044934	16.5848305708885
GTEX.12WSJ.1226.SM.5LU91	0	0.119020591236113	0.31977776558412	0.142500991557779	0	1.11747778910909	0	0.606869485627508	0.018121001904677	0	0.457279646444826	0.0642011210914821	1.31728034122692	0	0	2.60421663483753	0	0	0	0	0	0	0.395	0.0299189419268761	1.07806987951516	6.76674536862004
GTEX.12WSK.1926.SM.5LZVK	0.618856802676607	0	0.375160175070307	0.0472545092435907	0	1.8577267763186	0	0.701396598350545	0	0	0.906957624793502	0.305935389844829	0.64333349545014	0	0	1.22878064119056	0	0	0.796970284350077	0	0	0.0221266346583108	0.194	0.0708226242432885	1.0568975688265	7.50449893194707
GTEX.12ZZX.2026.SM.5LZV9	0	0.10568858447147	0	0.837131014847035	0	1.37740132548958	0	0.38647471379749	0	0	0.538487890607685	0.81069300962247	0.562948051376561	0.463535819493533	0.0105519680984401	0.778617075939914	0	0	1.65640360267674	0	0.0524683991556514	0	0.959	-0.035516315811054	1.11565432393949	7.58040145557656
GTEX.1313W.2726.SM.5P9IX	0	0.0602246193576008	0.0006660702176039	1.07378999328257	0	1.39924301637326	0	0.680612579738055	0.167678726909009	0	0.858002194047651	0.72548506748514	0.553255977872023	0.918897939565482	0	0	0	0	1.76540260199357	0	0.0404461488858267	0	0.594	0.00606200576512202	1.11097141194702	8.24370493572779
GTEX.131YS.2226.SM.5P9G8	0	0	0.0156997199852124	0.838829021532517	0	0.883949569128506	0	1.09822751308381	0.582881346747655	0	0.102226316901989	0.671643620837674	0.462753272469091	0.97968821653176	0	0.277252239346095	0	0	1.72460610198333	0	0.125622985837999	0	0.762	-0.0110852840891717	1.10475319261587	7.76337992438563
GTEX.132AR.1426.SM.5IFF1	1.24324518085623	0	0	0.26787992753488	0	0.941747255713891	0	0.30657622810048	0	0	0	0.691583171313184	0.414158184897989	0.192575153291978	0	4.77335060300373	0	0	1.36871856162276	0	0	0.0362554123038173	0.585	0.00763295586697901	1.08765033581458	10.2360896786389
GTEX.133LE.1226.SM.5IFGC	0	0.0249162955643122	0.233409646468976	0	0	1.71778708835004	0	0	0	0	0.193592740021717	0.497609924405418	2.36881464574207	0	0	2.88581319530439	0	0	0.6993349027064	0	0	0	0.378	0.0338171673659679	1.07656162185113	8.62127843856333
GTEX.139D8.2426.SM.5KM3A	0	0.0903099291408963	0	0.894717016146465	0	1.45379702709835	0	0.0658223717453623	0	0	0.211304314746338	0.542423118538535	0.351695801928436	0	0	4.31626430260131	0	0	0.8769288496233	0	0	0	0.896	-0.0254246454048961	1.10792664157231	8.803262731569
GTEX.13D11.1126.SM.5KLYS	0.899917695834466	0	1.83315129677286	2.74414846485505	0	1.78048900157723	0	0.441768568203713	0.051836870239756	0	0.0101982625327348	0.146709627701197	2.8736945509684	0	0	7.2840355044931	0	0	0.711857616178763	0	0	0	0.016	0.223611003390149	0.995060176884733	18.7778074593573
GTEX.13FTX.0926.SM.5IFF7	0.241114871366656	0	0.890680374868417	0	0	2.62959727657442	0	0.710479382573982	0	0	0.14413722363081	0.811403245386924	1.21105050480864	0.364225716500883	0	1.48301197880138	0	0	0.331255546789436	0	0.216579540324162	0	0.376	0.0343979200747531	1.07044896029141	9.03353566162571
GTEX.13N11.0526.SM.5IJFI	0.81226013411876	0	0	0.789860719793772	0	2.16119720352741	0	0.0506091530471367	0	0	0.622199113234928	0	0.195906660147608	0	0.0564168817073057	5.09717134319375	0	0	0.364392286503429	0	0	0	0.13	0.0968120783203797	1.05589786826263	10.1500134952741
GTEX.13O3O.2726.SM.5KM35	0.0469802085255474	0	0	0.591712207066879	0	0.884358555703808	0	0.306178706423748	1.47043781503592	0	0.226557382970088	0.184638672378735	0.374666557943942	0.0550374166298675	0.243504104654986	1.76735000242252	0	0	0.934988971533829	0	0.000877275836786305	0	0.68	-0.00232066385423457	1.09202030720975	7.08728787712665
GTEX.13OVI.0726.SM.5L3DD	0.265504074304808	0	1.17687128059791	0.56553040850723	0	0.100068991508082	0	0.510602780413698	0	0	0	0.657258922403753	0.919507005569206	0	0	3.31931858212934	0	0	0	0.694774081220044	0	0	0.012	0.226834746086861	0.999137981775707	8.20943612665407
GTEX.13OVJ.2426.SM.5KM3I	0.650043178416895	0	1.72973167744684	1.479633918854	0	0.718220733330991	0	0.19823040027442	0	0	0.595877510420888	0.264541086715913	0.718259472590449	0	0.129961426642895	2.19603967892543	0	0	0	0	0.13658780059201	0.998788654541628	0.003	0.262406652294093	0.982784475778754	9.81591553875236
GTEX.13PL7.2326.SM.5L3FY	0.886086053098632	0	0.385043477004451	1.00425639136973	0	0.54496429229638	0	0.421291297206431	0	0	0	0.681862159670522	1.24448149988592	0	0.431096313415586	4.14479686841031	0	0	0	0.0624452582280518	0	0	0.304	0.0464497510951223	1.07239240953682	9.80632361058601
GTEX.13PVR.1226.SM.5RQJ2	0.842463045031059	0	1.32525745186506	2.9523989476368	0	1.02713325907222	0.020491845663248	0.25747663485874	0	0	0.780182136260846	0	0.30118294110503	1.63457472303986	0.112163221046521	1.32235255962051	0	0	0.137322074585088	0	0.0742878331828862	0	0.002	0.295175624871725	0.969338470124036	10.7872866729679
GTEX.13QBU.1526.SM.5LU3W	0.0108222399508769	0	0	0.904844374258172	0	1.5591796673975	0	0.343041995254949	0	0	0	0.881555520058957	0.307592887714624	0	0	3.90867059890057	0	0	1.1583297977498	0	0	0	0.518	0.0153704418998421	1.08862807263554	9.07403708128544
GTEX.13QIC.1526.SM.5IJFL	0	0.128970713492721	0.0540820318018418	1.22600220538384	0	1.09080256857565	0	0.953758865690669	0	0	0	0.721826934988792	0.470707909866719	1.12239674569716	0.0509404258325621	0.240078412625427	0	0	2.10231111149297	0	0.194025864721769	0	0.706	-0.0050621263453985	1.09789271363846	8.35590379017013
GTEX.13U4I.2126.SM.5LU55	0.910130622212324	0	1.86092949060039	0.617331028098387	0	0.71796011096523	0	0	0.00315401281265889	0	0	1.0806879214215	0.241999577871326	1.19249517815309	0	0.912165583815372	0	0	3.41235332676821	0	0.00387704142140131	0	0.002	0.301331316982642	0.968429210819581	10.9530838941399
GTEX.13VXT.1526.SM.5LU3J	0.502679711772941	0.929318159168292	0.689718333979177	0.486604519466278	0	1.22351934367004	0	0.794610350256512	0	0	0.995977622510835	0	1.2279372781524	0	0	1.5106675956075	0	0	0	0.0545732347305955	0	0.105981383766718	0.003	0.275100821217341	0.973465065293449	8.52158753308129
GTEX.13W3W.1526.SM.5LU5I	0.556380371459858	0	2.31624458268671	0.540676277898625	0	1.37650084362948	0	0.924973444661683	0	0	0	1.45954468295186	0.943770484286131	0	0	4.92747991319079	0	0	0.1113299756967	0	0	0.0398932609672877	0.125	0.098420318878153	1.05707628493355	13.1967938374291
GTEX.13X6H.1026.SM.5SIBE	0.722121950804649	0	0.500107598889829	0.227589959699941	0	1.86662233242018	0	0.769264949889531	0	0	0.0987028821089797	0.547762723219259	1.45881503054675	0.425256550090565	0.00899655867905592	1.74464053144961	0	0	0.478938146965556	0	0	0.031506796578252	0.14	0.0905177150607715	1.04326604686166	8.88032601134216
GTEX.146FH.2526.SM.5Q5BP	0	0.284574132401094	0	0.210763238396541	0	1.58081836402014	0	0.144992472544318	0	0	0.536309357404588	1.00113162281913	0.824223800032735	0.0612126309961727	0.0362988908802634	3.24186129114788	0	0	1.40793854402593	0	0	0.0903727063709105	0.878	-0.022782756333344	1.09718672661056	9.4204970510397
GTEX.14AS3.1326.SM.5RQJE	0.696524934102011	0	0	0.937881528862773	0	2.52946097477555	0	0	0.445594433124457	0	0.0863623662751713	0.46212451300529	0.382371537992519	0	0	2.27713255457869	0	0	0.386972441680086	0	0.239695301614799	0	0.32	0.0437748915418758	1.07643966059073	8.44412058601134
GTEX.OHPK.2426.SM.3MJGH	0.561571854340167	0	1.04625073708003	0.447465782265889	0	2.6187672412829	0	0	0	0	0.0439156239465445	0.232266279366285	0.866681609576304	0	0	2.1252920666894	0	0	0.0659006561141016	0	0	0	0.00900000000000001	0.238450782440367	0.990997320902936	8.00811185066163
GTEX.OHPL.2426.SM.48TDN	0.67135010397341	0	0.942528182132744	0.796013541929835	0	1.16464709977045	0	0.382139993207059	0.048525058589714	0	0	0.549776439381999	1.37728040404171	0	0.375413881184714	2.40988612456436	0	0	0	0.0381025549669219	0	0	0.051	0.143509841244734	1.02714288843939	8.75566338374291
GTEX.P4PP.2426.SM.3P61L	0	0.489014325376059	0.184890619676359	0.273752293378237	0	2.27006703757701	0	0.0980419650374126	0	0	0.246097943254989	0.568109929646758	0.487612480404572	0.26249372331605	0.000433797186079353	1.11570488681313	0	0	1.15542441258188	0	0.138268360798722	0	0.466	0.021059657162559	1.07421168436611	7.28991177504726
GTEX.P4QT.2426.SM.3NMCL	0	0.267536582606768	0.2659957368559	1.6573120220104	0	0.623791102017793	0	0.29212193703738	0.000543858923090151	0	0.85746796578086	0	0.68854300868112	0.439739485091065	0.0325291224051034	1.28842786848919	0	0.0219617075023671	1.36528771502185	0	0.353475414987321	0	0.431	0.0255054709081306	1.06904216782146	8.15473352741021
GTEX.P78B.1926.SM.3P616	0.812975840656299	0	0.202811490540894	0.956080822511345	0	1.1256155646276	0	0.54725518566751	0	0	0	0.93105924281305	0.559594651614757	1.04615224732789	0.0346693671801286	1.1230583809113	0	0	2.20720778375506	0	0.280330966817607	0	0.386	0.0321930126840951	1.06799347851999	9.82681154442344
GTEX.PLZ4.2826.SM.3P617	1.23431364412356	0	0.330664290004732	1.12784100001672	0	1.08289772998878	0	0.237555469116271	0	0	0.673279497837861	0	0.473804742661901	0	0.155089480892807	2.0214465017403	0	0	0.631106740964363	0	0	0.553847915885215	0.294	0.0480580469397696	1.06068896818673	8.52184701323251
GTEX.POMQ.1426.SM.3P61D	1.42088270516341	0	3.10471420148515	2.94066082822654	0	1.81633772145151	0	0.697009840228292	0.449852445391858	0	0	0.752776082394327	0.268663584165447	0	0	3.93114245460694	0	0.116363390272119	0.678021642644652	0	0	0	0.001	0.36876932682096	0.934471155738333	16.1764248960302
GTEX.PWCY.1326.SM.48TCU	0.021212018878707	0	0.154827712993752	0	0	3.05815079012557	0	0.235682973638963	0	0	0.606322917685943	0.525953327026528	2.06969952177551	0	0	2.233110095472	0	0	0.521533232195094	0	0	0	0.384	0.0327999719966162	1.07576558909494	9.42649258979206
GTEX.PWN1.2426.SM.48TDD	1.00871271869621	0	0.44884399345846	0.538823943344479	0.0624457415026972	0.373906777642727	0	0.565089491859366	0	0	0.162631582676014	0.163317778942566	1.09221087898488	0	0	2.67336236012443	0	0	0.0833523187795175	0	0	0	0.28	0.0505460934725555	1.06851956287493	7.17269758601134
GTEX.PX3G.2426.SM.48TZZ	0.406323985373537	0	0.252084951030575	0.541434583360258	0	1.17990759561171	0	0.154597530932847	0.0885479218621881	0	0.281178973928334	0.484761904836529	0.532139271100427	0	0.0230403492087188	2.98898288904091	0	0	0.569758174148748	0	0	0	0.345	0.0391248366944065	1.06872744365562	7.50275813043478
GTEX.Q734.0726.SM.48TZP	1.06468018057836	0	0	0.343517136399911	0	1.02113618987092	0	0	0.0366632364252211	0	0	0.432414286122778	0.187170519340353	0	0	5.8350053719431	0	0	0.781453190850555	0	0	0	0.098	0.107734325567237	1.06161508034564	9.70204011153119
GTEX.QCQG.1426.SM.48U22	0.610063127938934	0	0.0590866748172268	0.762282228576735	0	1.79052796252216	0	0.359318454975429	0.0195568935596195	0	0	0.151283955807206	0.673300770067654	0	0.18092441123665	4.19245064595949	0	0	0	0.314724836731707	0	0	0.461	0.021626806224238	1.08494451492567	9.11351996219282
GTEX.RTLS.2326.SM.46MUH	0	0.128206991024762	0.0613925408197418	0	0	1.43646500492823	0	0.429207971663872	0	0	0	1.02241802163995	0.421000003000537	1.34902812869012	0	0	0	0	2.55165112281396	0	0.179129648311074	0	0.834	-0.0179288766652901	1.1130051219037	7.57849943289225
GTEX.RU1J.0826.SM.46MUU	0.0458337739092694	0.0138660309413421	0	0.669078115360574	0	2.22430220166974	0	0.253729956962024	0	0	0.869640926166917	0.137942568521539	0.581579337362519	0	0	3.83727341225583	0	0	0	0.986012462625343	0	0.0218158834120434	0.558	0.010875343602697	1.09253258424605	9.64107466918715
GTEX.RU72.2226.SM.46MUE	0	0	0	1.96116514036206	0	1.03198932907866	0	0.0893808911621941	0.00340432163506147	0	0.0641487020056445	0.284671610905394	0.14076961095646	0	0	3.64358354317106	0	0	0.577221179645965	0	0	0	0.6	0.00529871542719096	1.10128139674067	7.7963343289225
GTEX.RWS6.1026.SM.47JXD	0.0400983066688778	0.0886980955549387	0.0497980888791354	0.691903914009446	0	3.27236583628113	0	0.706918715697584	0	0	0.580765583554762	1.36334248878774	0.952329076314186	1.40452418638306	0.0301375967121733	0	0.0254821198755751	0	1.92177011250779	0	0.436755247393639	0	0.436	0.0247482358266421	1.09291825955141	11.56488936862
GTEX.S32W.1226.SM.4AD67	0.175309715395119	0	0.16161292312188	1.13204691697442	0	0.907996007720602	0	0.448780471429687	0	0	0	0.923153771861178	1.80132529296443	0	0.208883079214633	2.15934344702694	0	0	0	0	0	0	0.584	0.00770204312216413	1.09321030852007	7.91845162570888
GTEX.S341.0726.SM.4AD5R	0.828140500144546	0	0.591733881264875	0.586651027487118	0	1.46180885578297	0	0.121314967026715	0	0	0	0.104842430871166	1.22159591539991	0	0	2.71987209782615	0	0	0	0.761041068171374	0.0794815943994635	0	0.313	0.045052462110879	1.06529050083764	8.47648233837429
GTEX.S4P3.0926.SM.4AD54	0.235215484934993	0	0	0.645649787112518	0	1.32763937443945	0	0.188384845068871	0	0	0.594616838878311	0	0.308930372674517	0.0728047675589353	0	4.00368414361263	0	0	0	0.453828052906665	0.0277747260078236	0	0.384	0.0325907301197758	1.08777040275921	7.85852839319471
GTEX.S7SF.1326.SM.4AD4P	0.565689058026977	0	0.205473659647079	0.671688381733144	0	1.45562126372927	0	0.0764093329790394	0	0	0.892545466328648	0.220233636611208	0.954613818534716	0	0	1.72265209378687	0	0	0.8400990096381	0	0.0243267175482786	0	0.389	0.0311929447309296	1.06860187636553	7.62935243856333
GTEX.T2IS.2026.SM.4DM6W	0.156963413229357	0	1.43340214401714	0	0	2.72341011425623	0	0.184953573496522	0.0494372057203613	0	0	0.838030490328163	0.280101577712883	0	0	2.78016424207534	0	0	2.51278143576135	0	0	0	0.614	0.0037460110238952	1.08106266362818	10.9592441965974
GTEX.T5JW.0426.SM.4DM7M	0.293640569283512	0	0.464137114036222	0.389931952015158	0	1.11041830820512	0	0.338326057016608	0	0	0.14424870894014	0.276893302002098	0.38822097413213	0	0	2.64964024309731	0	0	0.690755049867377	0	0.0236253017445901	0	0.315	0.0447694801322445	1.06236395160293	6.76983758034026
GTEX.T6MO.1126.SM.4DM5D	0.364167336948879	0	0.410791683686671	0.83816191501411	0	0.930275307578494	0	0.527528219039874	0	0	0	0.327947874747394	0.925963654794598	0	0.0919321127556931	3.25430988486576	0	0	0.186625091853973	0	0	0	0.194	0.0707410193651662	1.05871711804258	7.85770308128544
GTEX.TML8.0926.SM.4DXSJ	0.64888701625679	0	0.324960901631984	0.82963119257396	0	1.40260452946435	0	0.405713644200621	0	0	0	0.636172302837883	0.587239515929136	0	0.00223205827963742	3.70867235097805	0	0	0.550721385768185	0	0	0	0.128	0.0970362460029898	1.04688302221794	9.0968348979206
GTEX.TMMY.1726.SM.4DXTD	0	0.200098078070207	1.45024916757286	1.39570627478404	0	2.4450032574545	0	0	0	0	0	0.669368586448364	0.247346371052024	0	0	3.0551000639088	0	0	0.368481527741333	0	0	0	0.443	0.0238892863985681	1.08519935780765	9.83135332703214
GTEX.TSE9.2226.SM.4DXUR	0.982408719895046	0	0.0238185235508565	0.823595522676341	0.133963252717292	1.05576786852092	0	1.19343038570205	0	0	0.0645525732133338	0.70938629208656	0.301095979193576	2.24792825484478	0	0	0	0	0	0	0	0	0.541	0.0127846010325475	1.10979613821938	7.53594737240076
GTEX.U3ZN.1026.SM.4DXTC	0	0.0960955740514986	0	1.46176281379674	0	3.65470137076473	0	0.0295381474463458	0	0	0.346303874355395	0.351998149017338	0.626416069516591	0.284422679265136	0.235834449967875	2.62053226445524	0	0	0.972163008119254	0	0	0	0.103	0.105795361371373	1.05163776143193	10.6797684007561
GTEX.UJHI.1226.SM.4IHLR	0	0.436106821591853	0.142708498685801	0	0	1.35964489994368	0	0.151158902421158	0	0	0	0.425432787871166	0.20147171221917	0.891924902717718	0.0171033354579691	0.604552912197638	0.000990860685465736	0	2.4048782816661	0	0.0952492017445451	0	0.637	0.00164829760718772	1.09468113557966	6.73122311720227
GTEX.W5WG.0926.SM.4RTX9	1.04222756944075	0	0.219813643774529	0.336302710700788	0	1.39341200857081	0	0.378440703943935	0	0	0	0.772430027116865	0.649057802745354	0	0.072187841202383	2.75185370384675	0	0	0	0	0	0	0.389	0.03114375204859	1.07871208999872	7.61572601134216
GTEX.WI4N.2526.SM.4OOSE	0.168548913840386	0.357696232921336	0.0423785964932181	0.800908889871294	0	2.74444453968751	0	0	0	0	1.20258847516942	0.0391014646202956	0.877361203895463	0.46915441855139	0.826131047277554	4.01771659810498	0	0	0	0.316532842629542	0	0	0.394	0.0302486545147445	1.07658658842234	11.8625632230624
GTEX.WWYW.2726.SM.4MVOP	0.105486751188523	0.233964027026975	0	0.359173866210343	0	1.14429480462583	0	0.648828576702415	0	0	0.728523843425314	0.0478827153403356	1.63933889673716	0	0	2.25503989499231	0	0	0	0.518270156573802	0.115524041846183	0	0.962	-0.0363044489149501	1.09933641511949	7.79632757466919
GTEX.X15G.1726.SM.4PQZN	0.41260783062142	0	1.47355289200168	0.72195828364672	0	1.29130145870313	0	0.451349638754531	0	0	0.137858624221439	0.122479666551032	0.402638204890173	0.122099774126663	0.0238181360743913	4.22989652996663	0	0	0	0.0410931759431397	0	0	0.00600000000000001	0.247141007555657	0.990904340518929	9.43065421550095
GTEX.X4EO.2426.SM.4QASD	0.919846066366631	0	0	2.21023598808951	0	0	0	1.45075621715342	0	0	0	1.09489856506496	0.522285670190022	0	0.305842296787777	1.67408927276214	0	0	1.07967151904868	0	0	0	0.452	0.0225783929969392	1.08815996631267	9.25762559546314
GTEX.X8HC.2726.SM.46MUA	0.267382908011692	0	0	0	0	1.75074930572281	0	0.342305195354512	0.0410128754523034	0	0.155853030695629	1.12277454496389	0.437291225496149	0	0.0669592220197705	1.88589242914339	0	0	1.6946349470887	0	0	0.0982687583951956	0.69	-0.0034413230085351	1.09218243371996	7.86312444234404
GTEX.XMD3.2326.SM.4AT5H	0.323200598333683	0	0.0832453790427112	1.05042758186665	0	1.11241800275153	0	0.0975439954606121	0.302393830879965	0	0	0.785037413482923	0.221146251637296	0.486533568202852	0.718852106539041	0.705392400964455	0	0	1.54019100694415	0	0	0	0.74	-0.00849396023480473	1.09632170626373	7.42638213610586
GTEX.XUW1.0126.SM.4BOOQ	1.78226423663697	0	0.337811314025391	0.408038950860971	0	0.619608228011184	0	0.506149538425001	0	0	0.135802069780562	0.690448675666399	0.8115854645843	0	0	2.03604655025676	0	0	0.0114021682459991	0	0	0.00210590180514022	0.37	0.0357248265139594	1.08486088832036	7.34126309829868
GTEX.XUZC.1026.SM.4BOPY	1.37649845771502	0	0.751279758055544	0.672820493329249	0	0.746639670821391	0	0.0925028813761034	0	0	0.139468752644118	0.365340437406441	0.188951481348394	0	0	1.93450754057937	0	0	1.17538847568467	0	0	0	0.002	0.295181180110266	0.964598498739286	7.4433979489603
GTEX.XV7Q.1426.SM.4BRWA	0.0267287081356516	0	0.0293215830684612	0.1716454979384	0	2.266946951048	0	0.0508431976646562	0	0	0.433950002476259	0.396859802438566	0.418037681851509	0.182409763336407	0	4.03209584347323	0	0	1.88578059994882	0	0	0	0.519	0.0152166207649358	1.08277413530773	9.89461963137996
GTEX.XYKS.1726.SM.4E3IO	0	0.0816189110122197	0.496124653137009	0.586736803459053	0.0687449892450433	0.273998109191662	0	0.786425931687488	0	0	0.440699364168201	0.298499347607775	0.569635222438278	0.106815103738786	0	2.08860032188048	0	0	0.704336038275216	0	0	0	0.385	0.0322931656846176	1.06614342938227	6.50223479584121
GTEX.Y114.1726.SM.4TT7U	0.749058705195046	0	0.837676798416524	0.866205556237972	0	2.15536976239302	0	0.200131681902238	0	0	0.551126552782005	0.115896435684307	0.457044651746343	0	0.0342006529407163	2.08646509052721	0	0	0.742617231267247	0	0	0	0.015	0.224330874137246	0.992794864433412	8.79579311909263
GTEX.Y3IK.2026.SM.4YCDG	0	0.249693499059505	0.192148684103464	0.670059607441142	0	1.43386495587536	0	0.241209647408024	0	0	0	0.465125483151856	0.430748192379492	0	0	2.88767906877066	0	0.0155541176705232	0.321186612251771	0	0.123753906935462	0	0.399	0.0288764236941079	1.07691771286496	7.03102377504726
GTEX.YFC4.2726.SM.5IFJW	1.11368319382503	0	0	0.704417070500129	0	1.1911868629906	0	0.88665233131226	0	0	0	0.882330304571761	0.595290712297405	0	0	1.29223952264276	0	0	1.70399484117952	0	0	0	0.605	0.00482574883847137	1.0858572330188	8.36979483931947
GTEX.ZAJG.2726.SM.5S2MU	0.731096689736428	0	0.0459233457362945	1.99140176244466	0	0.524715575856396	0	1.21160751082008	0	0	0.25156996833779	0.499927550368619	0.800000815326917	0.612538210246187	0.19663098252127	1.0028825723783	0	0	1.15630046046146	0	0	0	0.494	0.0179562803922165	1.08065678584149	9.02459544423441
GTEX.ZC5H.2026.SM.5CVN2	0	0	1.55543156332121	1.42556427476489	0	1.39248202658762	0	0	0.416629805417007	0	0	0.690417322615573	0.0616523803398154	0	0	6.2727220934957	0	0	0.311773880019311	0.0159401501164286	0	0.0168561252506024	0.036	0.181869191655104	1.02186884313112	12.1594696219282
GTEX.ZLWG.0926.SM.4WWC3	0.0779204468612535	0.0581305337165823	1.5337305127301	0.909963078897567	0	1.77793741930499	0	0.601772736652223	0	0	0.358130119200295	0.105433808671739	2.67783615590959	0.0638655297635284	0	2.81026388505445	0	0	0	0.154010941735257	0	0.161257081029834	0.044	0.156569294587799	1.02363814141591	11.2902522495274
GTEX.ZP4G.0626.SM.4WWF1	0.221708923144295	0	0.0902801024628429	0	0	1.31430920678084	0	0.113180882807314	0.11651691690067	0	0.295472446967972	0.224089226575325	1.21789261776979	0	0	2.48129408383297	0.0372733487082385	0	0.65107055784936	0	0	0	0.431	0.0254862566796066	1.07268265647832	6.76308831379962
GTEX.ZPIC.1426.SM.4WWCP	0.255782726764216	0	0.130643289107983	0.0659067590963221	0	1.15449725391415	0	0.383034363016087	0	0	0.0283188261518234	0.359835302956929	0.968393106690227	0	0	2.72740244541271	0	0	0.954084124125346	0	0	0.0629859426507814	0.382	0.0330914220568644	1.06885989491613	7.09088413988658
GTEX.ZVT2.0326.SM.5E44G	0.147984823564518	0	0.0350774982126501	0.181949718748188	0	1.43447934505134	0	0.169248879587929	0	0	0.152102365986185	0.237514254228678	1.41949053234393	0	0.0144341491735105	2.7942524305817	0	0	0.550796384335214	0	0.050668124802418	0	0.42	0.026909512175346	1.07739735596385	7.18799850661626
GTEX.ZVT3.2626.SM.5GU5L	0	0.835184817023666	0.215370494277088	0.762416858001782	0	1.23071957455276	0	0.981428279922508	0.23193357298687	0	0	1.61086506879185	0.457148433145238	1.01466746642648	0	0	0	0	1.55738103341699	0	0.189716235103152	0	0.659	-0.000509399311657166	1.10472117680625	9.08683183364839
GTEX.ZYFG.1726.SM.5GZZB	0.154963705171943	0	0.00644465749753813	0.315080366236844	0	1.36445126107879	0	0.502626229353472	0	0	0.584227556395979	0.133700547144412	0.610095104086417	0	0	2.60333203233263	0	0	0.588084364589219	0	0.00347124605604426	0	0.603	0.00519582450820666	1.08396257035937	6.86647706994329
GTEX.ZYY3.2726.SM.5EGH4	1.92120306754125	0	0.111991600985111	0.993331145064044	0	1.5146745197105	0	0.272567100110801	0.0825406430009109	0	0	2.46967237897108	0.0308563902831748	0	0.0764492291434708	4.0593801815917	0	0	0.619812439250137	0	0	0	0.089	0.113855749431925	1.06011653377117	12.1524786956522
GTEX.ZZPU.2126.SM.5EGIU	0.866210968534301	0	0.261430148117092	0.20545966794727	0	2.48374919333165	0	0.244975843731807	0	0	0	0.716018204660346	0.311063878015986	0.916479891700185	0	0.577464337945537	0	0	0.930795601365543	0	0	0	0.171	0.0782432117287801	1.05746098556543	7.51364773534972
