Mixture	B cells naive	B cells memory	Plasma cells	T cells CD8	T cells CD4 naive	T cells CD4 memory resting	T cells CD4 memory activated	T cells follicular helper	T cells regulatory (Tregs)	T cells gamma delta	NK cells resting	NK cells activated	Monocytes	Macrophages M0	Macrophages M1	Macrophages M2	Dendritic cells resting	Dendritic cells activated	Mast cells resting	Mast cells activated	Eosinophils	Neutrophils	P-value	Correlation	RMSE	Absolute score (sig.score)
GTEX.111CU.0326.SM.5GZXO	0.715527316948398	0	0.080685377546814	1.36399398921036	0	1.805069491893	0	0	0	0	1.18535175732511	0.0149862462461617	7.0517802969414	2.63756787664348	0.2058106641161	3.63865841130356	0	0.617705774637078	1.94595279734193	0	0	3.59594264634945	0.002	0.388549720549055	0.924887846414885	24.8590326465028
GTEX.111FC.1126.SM.5GZWU	0.095802737728975	0.985354540321232	0.163196210890806	5.94680363758442	0	6.51675396067263	0	1.34475544758141	0	0	3.65827697061253	4.11084413120108	1.87929847529669	0	0.697468263680318	5.77351373223504	0.303236477459742	0.0489157271462016	0.774103467989016	0.921526748888408	0.554260807643596	2.2663873398165	0.183	0.0720136892958476	1.08439666064561	36.0404986767486
GTEX.111VG.0726.SM.5GIDC	0	0.368759884037052	0.194727235079027	2.60331253538289	0	6.03849882122168	0	0	0	0	3.06371654561292	0	0.301247714769526	0.670100296206252	0.796572228006788	2.36728907490537	0	0	4.68953144472387	2.30001390284205	0	3.80164627184396	0.087	0.12156407158281	1.04765453452646	27.1954159546314
GTEX.111YS.0626.SM.5GZXV	0.419969314671961	0	0.100413895742622	1.13809916490568	0	3.96390902226136	0.122120833737617	0	0	0	1.30194546567316	0	5.48807342277112	1.61948484818135	0.123958823983023	1.41076890449546	0	0.454890425870592	2.20315809487801	0	0.163086982285465	3.89906616916262	0.003	0.312299884011699	0.961388700416119	22.40894536862
GTEX.1122O.0126.SM.5GICA	1.49558010792132	0	0.279285425349177	0.930200681187222	0	5.35480828855787	0	0	0	0	3.0956067919836	0	5.15720566637364	0.489345423756097	0.0678296408088352	3.37718444683302	0	0	0.824100383974297	0	0	3.32553996745152	0.011	0.242896610446455	0.991188370813364	24.3966868241966
GTEX.1128S.0726.SM.5N9D6	0.513164453101207	0	0.127194225148078	4.89274907960465	0	6.43366989872857	0.312778311894702	0	0	0	3.94291836008292	0	3.30403149826495	2.65104866307675	2.87680980792371	1.81736335125579	0	0	0	2.00086458774025	0.222960266084758	4.90523095456058	0.004	0.275559005852833	0.979725933748538	34.0007834574669
GTEX.117YW.0526.SM.5H11C	4.04568056254832	0	4.40908378541356	6.24994481126441	0	3.16028727812911	0	0.500392137656659	1.43626914423135	0	2.91099508760236	0.0277891906653241	1.65432598949721	1.99024114618895	5.70133151709681	4.36900639767259	0	0	10.5037023877638	0	0	0.536811275044626	0.003	0.312849569023163	0.95520680432897	47.495860710775
GTEX.117YX.1326.SM.5H125	1.18786521381477	0	0.797860950429825	1.93598091999471	0	4.6475879918185	0	0	0	0	2.12406354210898	0	3.54426663840297	0.529800465110458	0.0795256472634239	4.57386736846817	0	0.0991010855847826	3.26736842984131	0.163720668257123	0	2.60573795981235	0.021	0.203519693599201	0.998674611858439	25.5567468809074
GTEX.11DXX.0626.SM.5Q5AG	0.111674040560578	0	0	0.377937222982009	0	4.77762962538127	0	0	0	0	1.0071349615231	0.198489250887351	3.4443262472252	1.1523673160384	0.357225712490339	3.03364444820997	0	0	2.31655070605336	0	0	0.670404014962237	0.004	0.277176921572002	0.969304155570688	17.4473835463138
GTEX.11DXZ.0726.SM.5N9C4	0.408214102001335	0	0.116343163405299	1.76243575100745	0	4.10360691159529	0	0.271228371697713	0	0	1.24244322589216	0.586680634299321	1.23776677196633	3.05552210291163	0.413288220545061	7.32500304299466	0	0.0575131334790793	1.53481702703319	0	0	0.538525473118538	0.004	0.277092373331177	0.972568987710378	22.6533879319471
GTEX.11DZ1.0426.SM.5H11A	4.78782501871708	0	2.39484114938482	2.83525573915295	0	5.41584481476152	0	0	0	0	2.87685231523042	0	2.06773536674424	2.4141199410222	0.125195314024415	4.35630117695235	0	0	1.85029948922142	0	0	0.448848164391624	0.002	0.357216971215937	0.935436432212528	29.573118489603
GTEX.11EMC.0126.SM.5EGKV	3.96075100306316	0	2.42166290728238	3.05111678856917	0	7.44957339117521	0.15904603653982	0	0	0	3.05114581107803	0	1.62950993385516	2.72197675304387	0	2.96161854357481	0	1.58939265555766	2.14577474298768	1.31962620782773	0	1.34865049954738	0.00600000000000001	0.270838295742197	0.971470385543319	33.8098452741021
GTEX.11EQ9.0226.SM.5A5JX	0.151450336051807	0	0.0633442176729076	2.03951820783831	0	2.76045141991073	0	0	0	0	1.71466134828574	0	5.08414736098364	2.70046026408893	0	1.83793390964672	0	0.297129843173116	0.562108670520215	0.173927761002039	0	1.73647353039107	0.01	0.247386320018175	0.990590711132275	19.1216068695652
GTEX.11GSP.0726.SM.5986L	0.709181066454009	0	0.185970296796389	2.47992939145281	0	5.79320062638546	0	0	0	0	3.77010318160918	0.130275710769048	3.01107039376777	2.05477469471945	1.93403492346364	1.78775660468167	0	0	0	6.31710532530485	0.33102600802161	0.720086275628937	0.086	0.123349437308422	1.05044367450558	29.2245144990548
GTEX.11I78.0126.SM.5HL6F	1.02298963890844	0	0.117241437900234	2.2400568101788	0	2.00664715652824	0	0	0	0	0.933597181805999	0	2.48274356845736	5.72934001665642	0.145281539306097	2.98840680174385	0.249633803322368	0	1.77817839950726	0	0	0.257110972717066	0.003	0.28427778112804	0.971485625069568	19.9512273270321
GTEX.11LCK.0426.SM.5A5M8	3.38600769047553	0	1.75691279032557	2.35542240219668	0	3.98674085047482	0	0	0.102887171420305	0	2.4538015943795	0	5.14352909026184	2.2232206140119	0.179515335406215	5.48678123310375	0	0	2.61527864693362	0	0.267019289194282	1.17261741279897	0.004	0.277982716474329	0.966872713091802	31.129734120983
GTEX.11NUK.0826.SM.5HL4U	1.64643414303735	0	1.13311789190733	2.91953904341659	0	3.07819099328262	0	1.02219283658682	0.223654878746171	0	1.39142481872129	0	1.21145552282547	1.28314790435816	0.390204128256754	9.63141563629418	0.251024462714533	0.0410066362943768	5.82216222175561	0	0	0.0224979744303422	0.02	0.208307502208505	0.995569931181572	30.0674690926276
GTEX.11NV4.1126.SM.5HL6J	1.2681523498956	0	0.1975179294762	9.5992289233471	0	1.98634129987253	0	1.95675276753631	0.778973972077186	0	6.44290601909279	0	2.25444407448258	0.335978570212934	2.26160449797232	3.10204548785925	0	0	0	1.18013835194951	0.312586609077849	0.322387012932342	0.00700000000000001	0.265796281249354	0.997735206060595	31.9990578657845
GTEX.11P7K.0326.SM.59871	2.3033954991365	0	1.67914090180182	1.92016643961576	0	6.16469251757636	0	0	0	0	2.94526225232052	0	1.59166271994057	2.98975092490099	0.0354703988580321	2.70558939458014	0	0.0917739037481894	2.01833539013962	0	0	0.76652614509416	0.00800000000000001	0.252271408938652	0.980041691275725	25.2117664877127
GTEX.11P81.0226.SM.5HL5M	2.66105035228169	0	3.69318816616338	3.71709740545059	0	8.77965563176707	0	0.0682564951238974	0	0	1.38297718820172	0.27651518874962	2.85956001108826	3.9966635178519	0.344776206036973	9.62962329839896	0.37143530185012	0.83770862219594	2.1845527365141	0	0	1.88400836603845	0.011	0.245759737727817	0.980725633120867	42.6870684877127
GTEX.11TT1.1626.SM.5EQL7	1.01776273720855	0	0.410244217321191	1.62643252131154	0	5.47380942366318	0	0	0	0	3.72692197384128	0	7.24987460829762	5.60906630398246	0	2.29196867653115	0	0.586674354719899	0	0.337344722983884	0	2.86724674747385	0.034	0.179793534571417	1.02068170042243	31.1973462873346
GTEX.11TUW.0526.SM.5LU9A	2.95250438314821	0	1.83122469214312	3.46577334946477	0	6.72503508113548	0	0.388823570218238	0	0	2.86986352165253	0	2.37727834561062	2.67155369958581	0.717423479530142	4.69008385091596	0	0.265048739513427	3.86934109869203	0.59708502964607	0	4.16117395647518	0.018	0.219080950399247	0.99167073065825	37.5822127977316
GTEX.11UD2.0726.SM.5EQ69	7.99973449385149	0	3.84725706663568	5.36651101999617	0	4.70996661880565	0	0.578001701251712	0	0	3.67027471710471	1.19349179274143	2.07101143921471	2.8447369411671	4.04929498284868	2.01095957076453	0	0	0	3.59207885162788	0	2.48318199491653	0.002	0.35826561179935	0.938226016950895	44.4165011909263
GTEX.11WQC.0626.SM.5EQMF	0.505535468397424	0	0	2.37111745377434	0	7.92691274678187	0.00155654985012899	0	0	0	3.13455056828153	0	0.51669647431768	2.61274006502474	1.58775733386423	3.00665924906711	0	0	0.903727277307758	0	0.967427739806975	1.21459374271337	0.00800000000000001	0.254260472685457	0.986238698048757	24.7492746691871
GTEX.11WQK.1226.SM.5GU5Z	2.37045054863066	0	1.41523552747502	3.10565837763799	0	6.48654959166998	0	0	0	0	2.85396090722336	0	0.431900101502536	1.19784428798203	3.05884183367021	1.28530200295369	0	0	0	6.82333982286619	2.10921434023273	0.378365117512882	0.037	0.167566526551579	1.03010228398984	31.5166624593573
GTEX.11ZTS.1226.SM.5EQMQ	3.00945202282759	0	1.49933688425123	3.33728445971032	0	7.20527008946601	0	0	0	0	4.09813897107645	0	3.1172047327649	3.2080089526924	0.966050902723377	4.21163047022665	0	0.240885434287748	4.4437389999318	0.283016738851564	0.0408346052240263	1.89994272840449	0.02	0.207935491826386	0.994995942532352	37.5607959924386
GTEX.11ZTT.0626.SM.5EQLM	1.63053861861394	0	0.422479068324325	1.30377449879953	0	4.87586550635104	0	0	0	0	0.975072728044736	0.146118431898705	2.59819286598726	0.899244250977086	0.233105855675818	7.24979843562044	0	0.147187277221989	2.58114525270983	0	0	1.95205643472804	0.036	0.169958259191191	1.01161413208706	25.0145792249527
GTEX.11ZUS.0126.SM.5EQM5	3.24813717936707	0	5.19765648717736	7.05857259904392	0	6.41028700367975	0	0.400361602727686	0	0	3.66815022594744	0	1.22295288397993	0.0666854568005472	0.330897364167674	3.16577593245785	0	0.0932917699192567	6.86594563436592	0	0.506226258941136	0.652500924675882	0.003	0.321373736472486	0.954661923989937	38.8874413232514
GTEX.1211K.0826.SM.5FQUP	1.52572416158481	0	0.631467115047356	0.55829743055801	0	4.11882870292931	0	0	0	0	2.06914699718753	0	2.72528279694694	3.66891726337907	0	3.16684261314431	0	0.417694612265094	2.36402591456434	0	0	4.35403103133462	0.023	0.196202146719076	1.00882714045482	25.6002586389414
GTEX.1212Z.1026.SM.5EGJ8	0.592148617365575	0	0.0356615220484131	2.31784619470925	0	1.49731059210439	0	0.540257258421849	0.179445873445875	0	1.98905752735532	0	1.57847317638323	4.70518942750675	1.03203349632502	1.34369923456368	0	0	5.41250558605047	0	0.0753741490886139	0.647007703799823	0.003	0.281304767090772	0.969730235090219	21.9460103591682
GTEX.12584.1426.SM.5EGJ9	5.79716010722452	0	3.85649198728355	2.58246566006235	0	5.14131324645292	0	0	0.615813404130548	0	6.52202945330375	0	2.71937958571434	4.63910788763358	0	0.661259594643476	0	0.939913087379125	0	16.815493959046	1.42693045460989	0.865931122610471	0.00800000000000001	0.250508376569266	1.00360079464309	52.5832895500945
GTEX.12BJ1.1026.SM.5EGJA	0.365979280448652	0	0.239813206995392	0	0	2.53328036547405	0	0.0323609262308549	0	0	1.37673616056814	0	6.62453928394013	2.55230895127729	0	1.17196218941862	0	1.09920233941069	0	7.10875606298644	0	8.46425504232348	0.002	0.407978132681436	0.928112562357864	31.5691938090737
GTEX.12KS4.0726.SM.5FQSX	0.838703674053208	0	0	1.26496355541347	0	4.88157430404835	0	0	0	0	2.6354256361277	0	2.14687406864486	3.62965174224733	0.19052393361372	5.08976856174532	0	1.27981259282357	1.35237027622268	0	0	1.18731210118456	0.003	0.279703240093988	0.968911708265692	24.4969804461248
GTEX.12WSA.1026.SM.5EGHN	1.19598350979469	0	0.0557165956110814	1.09417678887393	0	2.63386298704287	0	0.0581863479369876	0	0	0.442313112723175	0.516820151432699	3.15066618127289	1.45417252193419	0	1.19418941487485	0	0.320710884612657	1.39851140015018	0	0	1.04418640619727	0.021	0.203312701167339	1.00021112858502	14.5594963024575
GTEX.12WSD.0826.SM.5GCNE	1.67870905713328	0	0	12.7128354630657	0	11.4735902885028	0	2.65581621183745	0	0	3.75922516498014	0.269835804144045	2.17933005085604	0	5.62509942838287	4.45655399655567	0.294479834972479	0	1.20587762377136	2.30171155292404	0	0.271081004915668	0.069	0.137303007210089	1.05768980398577	48.8841454820416
GTEX.12WSE.0826.SM.5S2VL	1.1234539297033	0	0	2.76401863649506	0	5.32484196465657	0	0.0404817567334424	0	0	3.82816814000886	1.30553128613192	2.2672980315249	1.25834754720641	1.86200163564043	1.83960998636794	0	0	0.752873922544663	0	1.05137564382065	0.309069517275487	0.162	0.0803563997383485	1.07194527817688	23.7270719981096
GTEX.12WSI.0826.SM.5EGKD	3.69499343282097	0	2.65409276857001	2.83743418347768	0	4.84414354077491	0.040496737322515	0	0.500778536849115	0	0.921589347458223	0.375071688803374	1.03129828365971	2.31811137356317	0	6.09012028772109	0	1.47721219090041	3.51474402152512	0	0	0.241645224701162	0.003	0.343477169475479	0.939911722088713	30.5417316181474
GTEX.12WSJ.0226.SM.5GCP7	0.531907400062974	0	0.423538023929446	1.34727063829527	0	2.05185065661771	0	0	0	0	2.27116230670421	0	4.71593505883978	5.30382877991114	0	4.18601423035584	0	0.105509751566402	1.00050040063371	0	0	3.36861143739353	0.028	0.189080285964241	1.02259627859824	25.30612868431
GTEX.12WSK.0826.SM.5CVNP	0.596401508192677	0	0.293431506114121	1.34211412995382	0	3.6969637484863	0	0	0	0	1.68578659171639	0	0.181706156033931	2.7304413113084	0.329363809596853	6.86417132938886	0	0	4.63763055192254	0	0	0.985207277891021	0.0610000000000001	0.146733506638914	1.02462322408699	23.3432179206049
GTEX.12WSL.1026.SM.5CVNJ	0.662839487014131	0	0.154387357190553	1.18589515418574	0	5.44431348542078	0	0	0	0	0.759880294987003	0.0612319707612411	1.88978656778343	2.41743272133513	1.21667467871257	3.0820510156593	0	0	0.933048560814184	0	0	0.423420615398712	0.017	0.223498926228703	0.993015660305802	18.2309619092628
GTEX.12ZZW.0926.SM.5LZUD	0.391947222270614	0	0.0217167119265597	1.82534492213681	0	2.19020094485144	0	0	0	0	0.858419188005126	0.251842418160497	2.95472650089834	0.690098247594177	0.263426988367648	3.32681942822732	0	0	2.17108541701812	0	0.385736653156669	0.991327153227894	0.003	0.299465376379289	0.959518208917293	16.3226917958412
GTEX.12ZZY.0926.SM.5EQ6I	1.25443012507969	0	0.0673272486025	3.92789653910933	0	4.64286583928703	0	0.250882627347019	0	0	4.16127868314325	0.149876081750016	1.46550826698712	0.178155780049755	2.30324486738678	3.6882186738935	0	0	1.74400273260123	0	0	1.0357865801314	0.003	0.322417068406847	0.95553318802346	24.8694740453686
GTEX.13111.0426.SM.5DUXR	6.9424043581019	0	7.30516958137979	3.67625712574845	0	3.87004276110261	0	1.58702611204381	0.0944915293319146	0	1.7598258602004	0.745796967052405	4.03422674338987	9.72323815987908	0.20749766494979	9.20311106884278	0	0.244303950674559	5.09684492478678	0	0	1.22712445716614	0.002	0.358252423276328	0.93549487089814	55.7173612646503
GTEX.1313W.0926.SM.5EQ56	0.341661621867315	0.67320733725496	0	2.21368763856282	0	0.778077926285424	0	0	1.12450477396909	0	1.29232004895924	0	0.0763124178545808	9.50118892353808	0.329663324463975	4.3288430583184	0.344620017002871	0.222247379175547	4.18643894974402	0	0	0.895148794723901	0.017	0.223395507065359	1.00841793625785	26.3079222117202
GTEX.131XE.0726.SM.5HL9K	0.0485948500598684	0	0	1.3244477580226	0	6.05877241390554	0	0.148568657978195	0	0	2.45576735511125	0	1.97791730320231	1.0444311264465	0.0994680055982099	4.67416982622655	0	0.834351823017235	2.04451032967309	0.827643811598216	0	0.649578421580087	0.003	0.323823561705067	0.949909122769159	22.1882216824197
GTEX.131XF.1026.SM.5BC6A	0.98359680524994	0	0.67437197468334	2.9758538972802	0	3.24046475740292	0	0	0	0	1.20988393714665	0.246418238778507	4.64943991785349	1.74379386823569	0.0853925935902286	2.08672475540655	0	0.666151573740645	1.95157529113207	0	0.293490990929369	0.243589905186651	0.04	0.161592004829662	1.01380083750519	21.0507485066163
GTEX.131XH.0426.SM.5DUWU	3.64366463327584	0	1.63593207446593	2.85826447923822	0	4.01656790114757	0	0.613976338402677	0	0	1.68476716940202	0	2.0164847298633	0.824404105232262	1.01671852241166	3.02495192496856	0	1.70494009362589	0	19.2802204422915	0.211762008203744	0.238023787300692	0.053	0.152553115801505	1.08450783192144	42.7706782098299
GTEX.131XW.1126.SM.5EGK4	0.814718480983607	0	0.0025622020533658	3.44063231291472	0	3.57958538790313	0	0.464664733686992	0	0	3.27726843839455	0.233999255711349	0.631240136435	0.916427342619153	0.218783144258835	1.78778327089305	0	0.284917590077985	2.41301056374234	0.0152835988128219	0	1.15889905947151	0.00800000000000001	0.25311975712466	0.990007754371859	19.2397755179584
GTEX.131YS.0926.SM.5IJB9	1.17180472505047	0	0.11919262064665	2.45341991823889	0	8.18396891988755	0	0.48929924095468	0	0	1.05354761348544	1.68965491709419	1.09961423587117	0.25453290045567	1.64650108884143	3.80580772355975	0.406789596505983	0	2.10042950560072	0	0.465899495113889	0.025922243495001	0.028	0.188985284342392	1.01427881459219	24.9663847448015
GTEX.132NY.1226.SM.5PNVF	1.65413641077477	0	0.28588980625628	2.34952094318395	0	1.33060563694624	0	0	0.698228308525615	0	0.632224328481497	0.42667623882677	0.913467816897798	0	0.555420662005374	2.45447982189934	0	0.333694976301559	0	24.8385502612664	0	3.18714185857769	0	0.475285642485075	0.930977027081174	39.6600370699433
GTEX.132QS.0726.SM.5IJE9	0.218178344371092	0.152575645663451	0.0952107637684759	1.4629898999494	0	3.7131370358802	0	0	0	0	1.77047250159134	0.0669049443616699	1.34277936956851	4.15613212456854	0	6.34827429820921	0	0.607227243749156	4.14435052441842	0	0	2.09285838707635	0.028	0.189177590266646	1.00901421466206	26.1710910831758
GTEX.139T6.0426.SM.5IJEM	0.963396284974793	0	0.0541527020217976	0.873950378252628	0	2.96766599883962	0	0	0	0	0.792278781170734	0	6.31863052401622	2.07327777061368	0.22960287261977	6.11914319828908	0	0	1.91723113964091	0	0	1.63185185239631	0.002	0.345686330521935	0.943292063999089	23.9411815028355
GTEX.139TT.0726.SM.5K7XW	2.09626518251873	0	0.196200185565865	3.82885141392091	0	6.27639588345982	0	0	0	0	3.27624083080775	0	0.558827214110029	1.99805304757167	0.0996590770561356	1.5658515830985	0	0.328959089319885	1.82336835755982	1.62714714533788	0	3.54131794619474	0.003	0.310188680320204	0.960678199561941	27.2171369565217
GTEX.139UW.0226.SM.5K7WU	2.37493462204355	0	0.653696605129255	2.92301996594382	0	5.47652090821782	0.145061096597648	0	0	0	3.74032252895549	0	1.47616010021445	1.77083623264312	0.195028446592182	1.468272711331	0.0113559047258252	0.0161354044620808	2.80791069143507	0	0.887512025441874	1.94364544057685	0.014	0.226463109474631	0.993434035380706	25.89041268431
GTEX.139YR.0926.SM.5LZYB	2.53967484063685	0	1.31853922696695	4.78294201849587	0	4.90702330897197	0	0	0	0	2.09799662615837	0.443889507757114	5.2935664181461	2.98331491407796	1.66665767500617	4.77135448442516	0	0	0.465265933163027	0	0	4.22097269458764	0.012	0.234256844489352	0.991059621792688	35.4911976483932
GTEX.13CF3.0426.SM.5IJEU	5.05695220595126	0	0.642006721469582	2.48421866243422	0	3.00205550235319	0	0	0	0	0.153824297476219	1.74968259478642	4.23306866061105	2.96441733860027	0.239971284477053	3.0137893474484	0	0.63186914122109	0	9.80671736406869	0	13.1169739755109	0.022	0.197630173039521	1.0397610054424	47.0955470964083
GTEX.13D11.0326.SM.5LZXX	3.17216098935404	0	2.41160925550451	0.583429592907322	0	5.56216489209194	0	0.230924656505053	0	0	0.911735803274944	0.826380406548474	9.6869688474478	3.934191921288	0.338705810267072	5.33892326236248	0	0	0.538303110267191	0	0	1.73122742571616	0.004	0.279248837620866	0.971762189135193	35.266725973535
GTEX.13FH7.1726.SM.5IJE7	1.23519831946378	0	0.627416282074293	2.09515303899364	0	3.38285300140973	0.0759407718359402	0	0	0	2.99068555017157	0	1.50579196389206	4.49049394425319	0.172812510657564	4.83065264543762	0	0.853165772718614	0	2.28862580490498	0	2.8711395435254	0.081	0.128348704243916	1.03742031106894	27.4199291493384
GTEX.13FHO.1026.SM.5KM1Q	2.11457815930339	0	0.0552779706500627	3.93311983821829	0	2.30934455483277	0	0	0	0	2.16222626180877	0.111588118004931	4.91246175993911	0.34492089397415	0.637073298665763	1.2403765569449	0	0	1.66037308684651	0	0.539343466362871	1.27906125183978	0.002	0.376342084141858	0.927335495984228	21.2997452173913
GTEX.13FHP.0726.SM.5K7YI	0.362397837805063	0	0	3.79647827376605	0	4.80046904380689	0	0	0	0	2.63236665890948	0.417921432134331	2.16047392108919	1.12209413981311	0.495823928215411	0.856984573315046	0	0	1.45674373197334	0	0.206864863651944	0.772638287391598	0.018	0.218232315521879	1.01054969434069	19.0812566918715
GTEX.13FLV.0426.SM.5KLZA	0.50315948759011	0	0	5.29451216686372	0	3.8586783868961	0.408900154708939	0	0	0	3.66968062822585	0	2.15008415783353	2.66283056271332	1.5908285349086	3.80673006749318	0	1.02024628053901	4.45976062667699	0	0	2.76590342570189	0.039	0.164636598705277	1.01761357984396	32.1913144801512
GTEX.13FTX.0326.SM.5J2NG	3.0352923911954	0	2.41835925442891	3.56041581606069	0	4.62057683547875	0	0.154340464350043	0	0	1.81561689378352	0.223895329961126	4.88384125164817	0.34117438553076	0.0647466431648748	2.67846059999214	0	0.0452256878144799	2.09843186212815	0	0	1.03631927633445	0.002	0.347128581301412	0.939821663607649	26.9766966918715
GTEX.13FTY.0126.SM.5J2NZ	4.11689614540524	0	1.33910711770745	4.69457820551585	0	2.56885151978004	0	1.44793962969259	0.149298689827977	0	2.99339818490808	0.882195427003451	2.2097387601452	2.93154264273906	6.14838906223801	3.25821225089427	0	0	3.63971303719926	0	0	0.721072778739365	0.00800000000000001	0.25381717551447	0.984655952088997	37.1009334517958
GTEX.13FTZ.0526.SM.5IJCW	4.44232991287966	0	1.25013489905137	9.63258682135954	0	12.455363055624	0	1.386893002052	0	0	5.13231038535498	2.8149029335221	3.73980542868938	0	1.9927087948355	2.92635305348377	0.256781464828666	0	8.47148673384672	1.18959730193636	0.825318752771545	0.782227936134953	0.052	0.153180287787896	1.03400189500973	57.2988004763705
GTEX.13G51.0426.SM.5K7Z5	1.4770650497745	0	0.0765019746464479	4.05300735804749	0	8.69215307936941	0.186785764702324	0	0	0	4.32621915345177	0	1.04097883529341	2.44562277899947	2.3616365360496	1.23073514346448	0	0	4.98641369794784	0	0	0.535438908026431	0.0620000000000001	0.14451381314938	1.03593668079959	31.4125582797732
GTEX.13JUV.0526.SM.5K7XE	0.735283531972771	0	0.0452930622378467	0.439365185167369	0	9.68849481215336	0	0	0	0	2.10978472953784	0.0638367608573826	1.21540880076533	2.6642778753509	0.963750575660472	3.85795864141739	0	1.58699875989322	0.488618168517157	0.955512508143199	0	2.2725094616717	0.031	0.185242165652255	1.01132814865205	27.0870928733459
GTEX.13N1W.0726.SM.5MR57	2.67920360324754	0	1.16995258585115	3.18272889649262	0	0.760503969750546	0	0.850775427827174	0	0	1.51104181290107	0	1.61860681268842	3.01201078267362	0.794696055575843	1.53150099162123	0	3.11050286009228	5.16916687722279	0.651310396085702	0	0.80332123609856	0.011	0.237463317455697	0.983318065507297	26.8453223081285
GTEX.13N2G.0826.SM.5IJE6	2.08484114586666	0	2.42059633025014	4.80003863628361	0	3.53609311514455	0	0	0	0	1.72397092536139	0.119740615011175	1.84999952530802	3.85141446222688	0.28967505207202	5.21698428126966	0	0.727220155762444	0.879465635971639	0.223749153611484	0.150845940445315	0.908759240915949	0.00700000000000001	0.258176680614865	0.977354335020311	28.7833942155009
GTEX.13NYB.0626.SM.5MR47	2.94820101515313	0	2.14739826722637	5.25575000463918	0	5.9093725687135	0	0	0	0	2.65341043551782	2.27658539864815	2.78953849061242	4.98311636460117	1.75398956517743	0.740994530702004	0	1.38885810490809	1.46409099701189	0	0	0	0.018	0.21999448067198	0.999905018774714	34.3113057429112
GTEX.13NYS.1626.SM.5J2MU	1.17739874646258	0	0.144862816220336	2.68033908329208	0	3.78214379063413	0.0190522735258094	0	0	0	1.62001858566018	0	0.177128889583032	2.97322799106884	0	5.63714721528947	0	1.50470172625235	0.231787435323333	0.246998773007128	0	1.48016611413442	0.036	0.171216766116993	1.01834075051005	21.6749734404537
GTEX.13NZ9.0926.SM.5KM12	1.5648082152597	0	0.173564126687633	6.20572738549052	0	7.53760130776971	0	0	0	0	1.74348438947056	2.26357754541912	3.39312776883624	0	0.905679385984523	4.24267663689793	0	0.212143001011641	3.20320950390141	0	0	7.85457638544493	0.0580000000000001	0.150594237814463	1.03909177019067	39.3001756521739
GTEX.13NZA.1426.SM.5KM4Y	0.413695752603648	0	0.0414360275290716	1.81617834062993	0.244409087203188	1.22482040372495	0	0	0	0	3.89775520030245	0	0.227431365208821	1.89730095255967	1.46709074496973	3.3409061077665	0	0	0	4.93104650407399	0	3.52554420151879	0.001	0.413516579042608	0.914546225131701	23.0276146880907
GTEX.13O21.3026.SM.5J2NI	0.755717651293572	0	0.0809097127593179	1.35886680910347	0	2.82614739407148	0	0	0	0	0.77485476382858	0	1.39284101300044	0.571267261854899	0	5.13183606969069	0	0.318936455512118	1.48802175812977	0	0	0.330184604139411	0.00700000000000001	0.263119831861204	0.974785493621756	15.0295834933837
GTEX.13O3O.0726.SM.5J1N7	0.867121750512848	0.128028970689562	0.208513211911075	2.39897170676414	0	8.96712172368131	0	0	0	0	3.7154827726381	0	2.81703232729909	2.15356534131128	0.496718945265221	0.51979756243754	0	0.29628158572648	0	12.4915505282445	0	8.49920625782885	0.034	0.178765745632582	1.04521717262755	43.55939268431
GTEX.13O3Q.0526.SM.5KM18	3.56204308878938	0	1.51331185443205	2.44929259390453	0	4.28947736987127	0	0.699411537791304	0	0	2.85710154404658	0	0.973909215478677	1.74082020173122	0.91940828017838	2.48626149621241	0	0	2.32288517477336	0	0.591715699248576	3.808525289478	0.004	0.276441328612022	0.970436567996638	28.2141633459357
GTEX.13O61.0726.SM.5J2MD	1.37925357907908	0	0.727548962682101	2.36610168027713	0	2.68362833164333	0	0	0	0	1.6493542863556	0	4.8943413794204	1.39518528917681	0	1.91795294243662	0	0.364248272037806	1.85063715257584	0	0.516986032439554	1.07223972514606	0.018	0.218839809349341	0.992320708506265	20.8174776332703
GTEX.13OVG.0326.SM.5KM57	0.782129249776009	0	0.415393809449582	1.34134659655913	0	2.61809974365099	0	0.0178271400122955	0	0	1.5447468421157	0	3.18456917574575	0.811065651977825	0.0287945082749291	3.70209088781177	0	0.385065993826571	1.46445055128944	0	0	0.375524547052547	0.034	0.177522427138511	1.00744512342091	16.6711046975425
GTEX.13OVH.1026.SM.5J2NP	0.962954721039799	0	0.368473317999254	1.60017698808815	0	2.569821969174	0	0.141974254374253	0	0	0.621601562738405	0	0.47788637701965	7.53868937028821	1.4599012337425	2.37269570800244	0	0.263106823782516	0	10.0643956041692	0.00942475397253183	1.06413860672443	0.0669999999999999	0.141904355856359	1.07766417860374	29.5152412911153
GTEX.13OVJ.0726.SM.5KM1W	3.26315896432998	0	1.49440833350349	1.66463095204545	0	6.50913409550199	0	0	0	0	4.0197132456177	0	2.37929269377292	2.14633108619334	0.194445491259779	2.38699659810744	0	0.029952990779968	0.747432026023671	0.43926962719701	0	3.76392572364457	0.00800000000000001	0.254786191874491	0.983189281993846	29.0386918279773
GTEX.13OVL.0626.SM.5KM13	2.12196862442954	0	0.137744000933225	3.12523506337696	0	6.31226161007562	1.00200626256016	0.870278121432001	0	0	4.31279880397872	0	1.74887662897807	1.72670508954567	2.01206991376282	1.23044280041035	0	0	2.33245491463369	0.891069961386904	0.842513200159006	1.08375501756978	0.003	0.338717990700222	0.944751626036325	29.7501800132325
GTEX.13OW5.0726.SM.5KLZK	0.755216116352494	0	7.0551516073859e-05	1.57426137034116	0	2.47972528108266	0	0	0	0	2.54184785616818	0	1.65274171492861	4.08500534803322	0.131295080130015	4.98191304869788	0	0.2480352612256	1.40458543144987	0	0.3198606253283	3.51461882892363	0.003	0.310875230461716	0.960591409855005	23.6891765141777
GTEX.13OW6.0826.SM.5L3GA	1.94457943303974	0	0.96878622198709	0.574362639773894	0	3.50512801905444	0	0	0	0	3.43662532164083	0	1.46280278925422	5.26479606319845	0.174460290140134	4.51143456280487	0	2.17344573929681	1.67650334939984	0.183959292148296	0	2.55023383969806	0.023	0.193744853459536	1.00474601984473	28.4271175614367
GTEX.13OW8.1726.SM.5L3GO	9.61375043221068	0	9.96512888661473	3.30244002499618	0	14.8186792612457	0.24614383164975	0.0696854695394913	0	0	2.70714803412021	0	0.601745049905078	10.1973768752634	2.14979901522493	14.362715941139	0	0	7.69524453065002	0	0	0.447485057648732	0	0.458746497102316	0.888817586555118	76.177342410208
GTEX.13PL7.1726.SM.5J2NX	2.66445571780889	0	1.36074806523569	1.93143160344669	0	3.50193071504053	0	0.0651593409118851	0	0	0.948018910416506	0.222883976847724	1.27143144767863	1.33064826884734	0.381455749446884	6.21570267830533	0	0	1.5021174605542	1.13562745110413	0	0.563343243845192	0.003	0.297892681516324	0.959356210318292	23.0949546294896
GTEX.13PVQ.0926.SM.5IJFD	1.36515991293513	0	0.931996335906192	2.25284331853628	0	3.25217855190294	0	0.174415023035279	0	0	1.78780064557196	0	1.17715043389634	3.78273062392429	0.774203839890863	5.40639446842011	0	0	4.02587413872331	1.29262838071856	0	1.50994485583932	0.02	0.209072895902516	0.99662350440553	27.7333205293006
GTEX.13QBU.0726.SM.5J2OA	0.223790494108222	0	0	0.278851996715718	0	2.8473326542257	0	0	0	0	0.868464982886069	0	2.0863381847812	2.04813062276071	0.0120839521622861	3.78658154545417	0	0.568130506441127	2.445525888093	0	0	0.817735822655354	0.016	0.224056137169022	0.992306952396229	15.9829666502836
GTEX.13QJ3.1026.SM.5QGQU	4.684570565723	0	6.29771109365414	3.81606593438911	0	5.57675155806837	0	0	0	0	1.75038543600619	0.680892686469877	1.28031490135038	0.361331632348384	0.685224755529014	2.5816941798758	0	0.00112629714372057	1.51781467415835	0	0.29825048312199	5.0788321159613	0.001	0.416604396748987	0.910706804205791	34.6109663137996
GTEX.13QJC.0526.SM.5RQKB	2.15626794260573	0.221125969716816	1.54758033465392	4.49946442510687	0	14.5504103775781	0	0	0	0	1.99998319260587	0.620844021827054	1.19430740401604	2.54371003669349	1.5249142654856	7.08978629048622	0	0	3.58122925997197	0.795458409011315	0.497529392145724	0.510213018359903	0.044	0.1583797827169	1.02166271361736	43.3328243402647
GTEX.13S86.0626.SM.5Q5E7	1.03171609155882	0	0.3117661006416	3.20995526122459	0	6.62433766296429	0	0	0	0	1.11197319278782	0.426861450942909	5.65077065420439	1.65231933314903	0	3.87868603356826	0	2.06888860034885	2.40359977426381	0.384767763907315	0	2.91479255113773	0.074	0.134874087765093	1.02788259728461	31.6704344706994
GTEX.13U4I.1426.SM.5J2M3	2.17535384821804	0	1.66773885506879	4.43816829110882	0	8.7068478150149	0	0.584120085288381	0.527942484621396	0	1.21495097195903	0.542144327322598	3.42016791443014	4.19509169345124	0.21101829308247	4.54298185239829	0	0.779962172328833	0	0.476642590253834	0.372591096908112	1.22589018113491	0.022	0.197800095918628	1.00553900238061	35.0816124725898
GTEX.13VXT.1426.SM.5LU4B	1.56295601563312	0	2.18636084391444	0.460670049372155	0	3.31633406097804	0	0.450301597297853	0	0	0.87420742063344	0.041414606614246	1.25563445433646	3.72978266411798	0.111430996729785	5.55472215019016	0	0.159089160394438	0.350514013648237	0	0	4.30186106254797	0.005	0.27314740217261	0.979364565341626	24.3552790964083
GTEX.13VXU.2726.SM.5LU4N	0.731795483528872	0	0	3.34242385251929	0	4.07053449679996	0	0.367549313317341	0.868344990381343	0	4.31914082020907	0	1.01082155053786	1.41689450773671	2.00208590139634	0.801998269576865	0	0	2.04254447943543	0.450806799792695	0.659936028799137	1.74619206929612	0.028	0.189234454653786	1.01957849315186	23.831068563327
GTEX.145MF.0726.SM.5Q5BT	10.3412032391073	0	9.86861410887406	8.51597149967774	0	7.7284761011296	0	1.56487132816417	0.302524080416571	0	1.91282967565389	1.01136074666767	1.6395508770166	5.70029568205694	1.24480556063605	5.57353789849084	0	0.710008003102907	3.94995542327223	0	0	0.803764736035852	0.001	0.429585612119045	0.902903431807039	60.8677689603025
GTEX.145MH.0626.SM.5NQAK	0.607245945319617	0	0.702236336069907	1.2670795596844	0	6.0310971510823	0	0	0	0	3.10688006569497	0.430337791166401	0.866386424622837	0	0.58260593824765	1.44996472360396	0.0252882345883997	0.0855011531646209	3.83121477331138	0	0	0.090762829719556	0.03	0.186291901314394	1.01958582092315	19.076600926276
GTEX.145MN.0926.SM.5NQBT	2.19799172353452	0	2.3595869486089	2.3064904897316	0	5.40244354980299	0	0.0489886043693596	0	0	2.49048881094957	0	2.0324213541814	1.04533361802014	0	4.68406018865084	0	0.860599136878762	1.9770579657339	0	0	1.50339498193876	0.003	0.281948588386539	0.965506808235911	26.9088573724008
GTEX.145MO.1326.SM.5Q5EF	2.27901566408404	0	1.03898081245839	0.917409631250301	0	2.77320536797245	0	0	0	0	0.72998910552782	0	1.92576783205769	3.88223963967939	0.110591996545991	3.39578591945124	0	0.25356762403159	3.21017632859216	0	0	5.52880663789524	0.003	0.287041081535327	0.972613987324657	26.0455365595463
GTEX.146FH.1226.SM.5NQB6	2.61411766593267	0	0.693690154426115	0.804820267653065	0	7.98046975772286	0	0	0	0	3.20398116432356	0.797188949222731	6.91573976614794	1.21690180725556	0.903146738134847	5.29176787759035	0	0	1.8395496775039	0	0	4.23679770527733	0.023	0.195305288043217	1.0064092178207	36.4981715311909
GTEX.146FQ.0926.SM.5LUAV	0.719562133851415	0	0.331181710526214	0.234246010828073	0	2.45571847561238	0	0.0481473708016721	0	0	1.55643412981014	0.541152503164235	3.63327063175976	1.36040251576081	1.44856214085331	3.30334418350964	0	0	1.58832185330886	0.149263859067886	0	2.20576143388663	0.003	0.338543101441203	0.94438283003048	19.575368952741
GTEX.1477Z.0626.SM.5NQB7	1.35555001743907	0	0.0889289037456038	3.84233198027366	0	5.89718088196987	0	0	0	0	2.22653036856448	0	1.61328200521457	0	0	4.76007352392727	0	0.166380227267167	3.00210512618674	0.129943157352889	0	2.37339348669762	0.036	0.172376505343547	1.01682184925176	25.4556996786389
GTEX.147F3.0726.SM.5NQ9U	1.59244235879679	0	0.163839502665648	1.95875295799126	0	3.41472144959765	0	0.0150090584247067	0	0	1.25165434094697	0	3.01821484187584	0.744413219523651	0.201109397784061	6.20524238952066	0	0.494649397654498	2.3243185194975	0	0	1.07577466401943	0.022	0.200496409883545	0.998215401058335	22.4601420982987
GTEX.147F4.0926.SM.5Q5EO	0.848111340032374	0	0	1.63731935211256	0	3.24894793292269	0	0	0	0	4.65038029872426	0	2.3229696741673	3.75380203231388	0.616907580719742	0.422400676049412	0	0	0.595401249880533	4.63387211555459	0.125594387056287	2.33706973097678	0.04	0.161536649949143	1.03763645343937	25.1927763705104
GTEX.147JS.1226.SM.5RQK4	2.76337605583593	0	0.723858598653054	2.85289519910476	0	3.8210369887133	0	0.038948736358802	0.330119837086445	0	2.01938557204405	0	1.85016421262896	7.59188975053888	0.466559851126227	5.52222770414516	0.623218417572824	0	3.48416168916304	0	0.13794604020852	1.25758720693347	0.017	0.220781176828432	0.993616936280723	33.4833758601134
GTEX.148VI.0226.SM.5RQKA	2.60943686541116	0	0.441164021829289	1.18687290955461	0	5.45492972625442	0	0.252389152600203	0	0	1.3800962789354	1.74546820106358	1.72678229098818	0.177233577290061	0.498613174572306	3.74289098301413	0.0877151630137914	0.0451048304595177	2.42800718570048	0	0	0.547955771638	0.003	0.287918785411613	0.965333348571508	22.3246601323251
GTEX.148VJ.0826.SM.5LU8V	3.06408143319748	0	0.437607140692012	3.75514346078923	0	9.05670793656788	0	0	0	0	2.3084073351622	0.771009000202502	5.1507685081446	4.76035606961856	1.50710144517882	2.77186833448839	0	0	2.34775823075112	0	0.0606769301918637	1.96578094250117	0.041	0.160264670322378	1.01827218591743	37.9572667674858
GTEX.1497J.0326.SM.5Q5CN	0.498969645023203	0	0	0.156609024522362	0.641548716148847	2.38612188502649	0	0	0	0	1.45497265315301	0	2.82300293190776	3.32859969719879	0.0419376709363844	4.53912591273254	0	0.361034683254009	1.89361843589286	0	0	5.58221091622642	0.02	0.213791715427514	1.01766432515084	23.7077521720227
GTEX.14A6H.0526.SM.5NQAZ	0.6524925597883	0	0.00436588322411662	1.29601463158301	0	3.28662841150646	0	0.171004638959666	0	0	1.22920231831016	0.265614711749546	1.03201918184698	8.50106491987522	0.664321970678634	5.69315459484522	0	0	2.35353608904976	0	0	1.17558463489673	0.003	0.308637222052274	0.965828152317619	26.3250045463138
GTEX.14ABY.1126.SM.5Q5F8	0.239788858656602	0	0	3.51083266256068	0	3.37646897586627	0	0	0	0	3.08346454170473	0.690532637532988	1.18700328971654	3.28674685568897	0.305351667284104	2.70033317548031	0.203992200941786	0.26936853199297	0.81613809567418	0.172154070524885	0.0796345745431612	1.31750058016831	0	0.460689961537854	0.88674335920987	21.2393107183365
GTEX.14DAR.0226.SM.5S2PR	1.10224239048615	0	0.22966115197688	1.50606641079186	0	2.18674197346958	0	0	0	0	0.990216917891873	0	4.42494587346548	2.36947653889691	0	5.19229747653423	0	0.394578764735111	1.16870851467995	0	0	2.11777534813059	0.002	0.353802394687627	0.938674427362828	21.6827113610586
GTEX.14E7W.1326.SM.5RQIV	2.91152801861141	0	0.42984879616366	4.81595223069669	0	2.34358941431234	0	0.0423209130271805	0.0854055733689925	0	3.13501288612956	0	1.84547300394714	4.6641370540778	0.756950745958984	1.71140576701377	0	0.137445602846466	4.33876258363807	0	0	0	0.021	0.204542763248325	1.00041791196956	27.2178325897921
GTEX.N7MS.0926.SM.2HMIZ	0.222441327390979	0	0	1.54225304281722	0	6.87447861776143	0	0	0	0	4.11629053728064	0	1.37839327424954	2.23670289800737	0.491772416883715	0.510642173393043	0	0.461844077218421	0	6.60780733682314	0	1.75983736055635	0.034	0.180146354588952	1.03591337525058	26.2024630623819
GTEX.N7MT.0126.SM.2D7VT	2.98564932538303	0	1.54261033283374	3.42738589023841	0	12.3484403908783	0	0	0	0	4.39072686622772	0	2.40847018467643	0	1.04419956917271	10.0072914091069	0	0	3.26408199810858	0	0	5.61440658535915	0.035	0.174289306700734	1.01324452052754	47.0332625519849
GTEX.NFK9.1026.SM.2HMK1	8.18241184234013	0	10.3537645646306	3.965032731221	0	10.8079791824801	0	0	0	0	0.555222290140161	0.179562459064441	0.428272662048305	7.2915017828911	0.139941482026893	12.4595818026636	0	0.252826635197466	2.06912888144745	0	0	0.95559096740259	0.001	0.423879691384614	0.906276039331744	57.6408172835539
GTEX.NPJ8.0326.SM.2D7VV	0.972435847423894	0	0	1.59540133843923	0	3.11701647927525	0	0	0	0	1.38272676462375	0	1.82632044136544	0	0.0743224326140426	5.71474118479668	0	0.62516923075197	1.4239614679568	0.406387216733444	0	5.85979097976242	0.00700000000000001	0.265585778546721	0.987471698158009	22.9982733837429
GTEX.O5YT.0526.SM.32PK8	0.0835762672825088	0	0.601553928384164	1.70252321604071	0	4.32226967106639	0.0373886976095767	0.0823847423531831	0	0	1.97186358447062	0.0678836966695162	3.35370480112471	3.13568859376064	0.348656129547714	4.08048356724378	0	0.592541424506737	0.361908883260234	0	0	5.65461491388178	0.003	0.290802742088457	0.97496253143209	26.3970421172023
GTEX.O5YV.0526.SM.2I5GE	6.93679518657666	0	9.26168751264032	2.84889352131075	0	9.06794745789438	0	0	0.767296471267897	0	3.03043202550942	0	1.14997534389027	4.65201275973684	0.328381196529634	13.8142846192514	0	0	2.87548947512185	0	0	1.95537444917416	0.002	0.39648310726742	0.918386679927486	56.6885700189036
GTEX.O5YW.0526.SM.2YUMX	0.874426908515218	0	0.402661008098236	0.926486135316615	0	4.10060902629737	0	0	0	0	1.20909567424988	0	1.05813951796113	2.572730314821	0	4.30415131784875	0	0.743738981279359	3.5302042713943	0	0.229213874310796	0.691628525672944	0.036	0.168715876570601	1.01009811469309	20.6430855557656
GTEX.OHPL.0526.SM.3NM8U	5.81266251304733	0	2.77626303350155	1.78458794143625	0	13.3089933932707	0.459323297085571	0.116258171091821	0	0	1.72819058991991	0	1.44013595999677	2.73147579607278	2.25117405248217	8.00329406824538	0	0	5.02571458586191	0	0	1.10452400441506	0.003	0.281498693949723	0.965701937098925	46.5425974064272
GTEX.OHPM.0526.SM.2YUMJ	0.115547444994016	0	0.0209220785138039	1.09292500703429	0	3.90516089230114	0	0	0	0	2.30569280801017	0	2.55627192766762	2.44180656602619	0	2.32369472148501	0	1.25337232595424	2.49758669161292	0	0	4.68121701844219	0.0659999999999999	0.142655734224341	1.0378069714321	23.1941974820416
GTEX.OIZG.0526.SM.2HMLF	0.960766204603494	0	0.0770599289401427	1.38947751996072	0	3.65435782923724	0	0.510169135675437	0	0	1.41667808361761	0.531603379737141	1.45155262181552	0.854473157888809	0.960703911539276	2.78931618783969	0	1.24150167500866	1.05774213164167	0	0	0.343650671057923	0.033	0.182030774396798	1.00828782461077	17.2390524385633
GTEX.OIZH.0526.SM.2HMKV	1.0992005961547	0	0.332140035815497	0.357200994333511	0	4.27040753534837	0	0	0	0	1.94616681229874	0	4.36927066831408	2.83484497671772	0.185893943144802	3.40345100302136	0	0.667819730780272	3.51319273223414	0	0	7.5236870001922	0.0590000000000001	0.150176803672095	1.04348876772284	30.5032760283554
GTEX.OIZI.1026.SM.3NB1K	3.36501759495397	0	1.60535030133136	1.39451556235868	0	4.11848346902448	0	0	0	0	0.995650229203987	0.273779753037978	1.14234581765239	1.76424039641066	0.176960047105431	5.27514633109252	0	0.0659537246546921	2.70709704313898	0	0	0.45494984534679	0.002	0.355291964429419	0.935116130354851	23.3394901153119
GTEX.OOBJ.0526.SM.48TDK	4.28443028872502	0	2.53450841427803	3.24284505074919	0	9.45862598859578	0	0.530311246257769	0	0	2.18870876307458	1.29012109588648	3.06365065548155	0	0.155511630613761	2.30545339045693	0	0.391770686033022	1.78543978616858	0	0	1.02164039498365	0.003	0.312297532691462	0.95991006459398	32.2530173913043
GTEX.OOBK.0526.SM.2HMJJ	1.90375838076498	0	0.93590348093746	1.8718542826047	0	4.78899332134174	0	0.595409452714033	0.0370759735246223	0	1.42234311086169	0.0152062505052247	2.86623774330826	1.78211515700126	1.46803852636159	2.07415496996284	0	0	0	3.59357686835529	0	0.871231822020942	0.013	0.228813749495527	0.990581670167732	24.2258993402646
GTEX.OXRK.0926.SM.2HMKP	0	1.50519726397871	6.30858408555869	11.0543815085148	0	22.1910858219577	0	0	0	0	0.594475840556395	1.26116076487745	2.42626715328556	0	0.749622293822982	15.2878197590879	0	0	4.34896595016082	3.56212990521107	0	1.18255229192933	0.035	0.174257638087618	1.01816812473872	70.4722426389414
GTEX.OXRL.0526.SM.2I3EZ	5.46152849011918	0	5.40442888337581	2.08932567054492	0	9.47659041382869	0	0.546083359244229	0	0	3.52580447836023	0	1.78319073074575	0.475956305541962	1.58246000003075	7.63183059341646	0.124975289312144	0	2.60159209262812	0	0	0.88625605012963	0.002	0.408085148936217	0.91227774442488	41.5900223572779
GTEX.OXRO.0326.SM.33HBM	0.968336736503044	0	0.0868444870551314	2.32592160875992	0	8.02652961245327	0	0	0	0	1.83686373059681	0	1.16592029466961	2.70726286397628	1.31161232187872	1.52444074244632	0	0	0.499235329179829	0.443748097285317	1.90352392186265	2.90017577507224	0.077	0.132188938721472	1.03837464715363	25.7004155217391
GTEX.OXRP.0526.SM.2I3EW	1.70675407893153	2.93379308423889	7.45650268385892	7.19146018192888	0	18.3439093628194	0.834614748317968	0	0	0	4.17910478603181	0	3.13310240991173	0	0.516369690914141	10.467875490713	0	1.0460797319854	26.0640277816409	0	0	3.51562334110819	0.02	0.208592579649162	1.00048077712092	87.3892173724008
GTEX.P44H.1126.SM.48TBU	2.05762516936935	0	0.0636367280862337	1.00907983347441	0.697866397008116	1.86008413045381	0.0270213818877159	0	0	0	4.17101130002305	0	2.84331532506745	6.93422428654354	0.0402661412388387	3.73697718378649	0	0	0	1.22093151673233	0	10.4010737254213	0	0.531520291113719	0.846738690056866	35.0631131190926
GTEX.P4PP.0526.SM.2HMKE	0.313479528578279	0	0.620893629973957	0.700467512591357	0	2.85529889170798	0	0.00411996133615524	0	0	1.18310342623168	0.179313253507202	4.84399272112548	4.68631368101224	0.976379137056113	3.04471191460379	0	1.29625191517376	1.10563543939945	0	0	4.00368395934717	0.0600000000000001	0.14714818486373	1.03892886795409	25.8136449716446
GTEX.P4PQ.0526.SM.2HMKR	1.12017714321854	0	0.226948148094148	0.536363823085076	0	3.3965158829719	0	0	0	0	1.06883765396984	0.196644559757828	5.64314915512253	1.54705446880176	0.162260197494546	2.15680691133676	0	0	1.63398804937113	0	0	2.35704662492338	0.014	0.228000665772374	0.996999034295818	20.0457926181475
GTEX.P4QS.0526.SM.2I3ET	0.579708186794731	0	0.517846335282632	1.2680809993823	0	7.07743667838544	0	0	0	0	2.43154426672461	0.217632659680366	4.23653407490128	4.73386970826186	0.75035167377406	4.20811105596879	0	0.356050274366177	0.0109687151321118	0.156712799371667	0	3.10007359276792	0.086	0.124158182164297	1.04137267144672	29.644921020794
GTEX.P4QT.0526.SM.2I3EX	0.660397477084779	0	0.0437454054189662	2.01918337179694	0	6.18311512207334	0	0	0	0	2.99548582446179	0	3.87285229199528	1.11186301309518	1.2355598731607	1.97943520704803	0	0.246414996166405	0.997753102689008	0	0	2.2986562809831	0.036	0.168660532949379	1.02240548025698	23.6444619659735
GTEX.P78B.0926.SM.2I5FA	0.528153582610314	0	0.327333800085437	1.15236287731517	0	3.22243371616985	0	0	0	0	0.847433322992898	0	1.63293638672441	4.96593187867732	0	3.06528717249019	0	0.456477913408718	0.954528573601677	0	0	0.708100350593201	0.003	0.29494319613754	0.967256428953237	17.8609795746692
GTEX.PLZ5.0726.SM.2I5F9	1.08160261302348	0	0.793172854303496	3.6524477198539	0	3.25540096496992	0	0	0	0	1.46883226598771	1.15925878921967	3.18229205325191	1.21943828281902	0.135592079845428	3.37333576387647	0	0.680267136533284	2.40496404549141	0	0	0.597613294718437	0.02	0.20869730595441	0.996829418743433	23.0042178638941
GTEX.POMQ.0526.SM.3GADD	2.95739825469892	0	1.86455161484039	2.16963942006172	0	5.18391984413755	0	0	0	0	2.33657766178943	0.711865479078691	7.78293453261823	1.78621594164524	2.86801515184688	2.89907962637034	0	0	4.88009407411073	0	0	1.96397413793233	0.00800000000000001	0.25413071790717	0.976883934300412	37.4042657391304
GTEX.POYW.1226.SM.2XCEP	1.15320475465851	0	0	1.63066273019934	0	3.72638029055844	0	0	0	0	2.14168816872111	0	0	3.0301476451068	0.551133336449289	5.85523477127308	0	0	2.52647782344182	0.404561068742154	0	4.32707122181352	0.023	0.192752469098828	1.0112215435929	25.3465618109641
GTEX.PSDG.1126.SM.2S1ON	2.48492579458076	0	0.897016362814986	2.48554079876842	0	5.99565689328323	0	0	0	0	2.1235720773624	0	0.742038444310614	2.86447724830225	0.604829381930341	1.35339861654633	0	0.0336853143928628	0	1.94302127156984	0	0.78330376967294	0.004	0.277662787136041	0.973519551319771	22.311465973535
GTEX.PVOW.1026.SM.2XCF9	1.98997985711528	0	0.220183663623993	3.16323622692073	0	5.35141217290324	0	0	0	0	3.62049484233028	0.247674707178163	0.922828370864258	0.83693965057518	0	1.14495349020056	0	0.523222484159181	4.71478714840382	1.66961878753406	0.753877957232888	2.81058077328351	0	0.462359899385146	0.885977751416021	27.9697901323251
GTEX.PW2O.0526.SM.2I3DX	0.283979742563595	0	0.159027778769669	2.12087939141905	0	3.47955602003309	0	0.00357960206783989	0	0	1.3517589791641	0.230219724098687	1.87010866774436	2.86489268440531	0.0752900916603817	7.25637768519816	0	0.439512152236315	1.35499541402708	0	0	0.658986325591571	0.00600000000000001	0.268163391700296	0.976684557855633	22.1491642589792
GTEX.PX3G.0526.SM.2I3EM	0.691765261624064	0	0.88959302715109	1.49151344153476	0	3.38328644662749	0	0.438953509433202	0.102617470786482	0	0.0627476265106442	1.53471846878908	1.99674919015358	1.11478018415109	0.926662597990415	4.07450214326664	1.05678609440621	0	4.14996220349529	0	0	0.148774661112101	0.029	0.188200696811837	1.00048106018564	22.0634123270321
GTEX.Q2AG.1026.SM.33HBW	2.63171559437645	0	0.107545482133505	4.15304012640038	0	6.51523452174289	0	0.297338829680464	0	0	2.55833291608249	0	1.18501768799328	1.7764638143577	0.568013495645181	2.34799169468127	0	0.731037291244378	1.31192014724573	0	0	1.12365258556184	0.028	0.189125091654239	1.01389533878935	25.3073041871456
GTEX.Q2AH.0426.SM.2I3EP	2.52763076000146	0	1.23253568178175	1.79535712500654	0	5.89704362162861	0	0	0	0	2.07708111581752	0	4.23354608473882	2.0739063095803	0.346674027463472	3.41307645829138	0	0	2.30212187648565	0	0	1.86714705640679	0.015	0.225141006606063	0.988793089779397	27.7661201172023
GTEX.Q734.0626.SM.2I3EF	0	1.12927696673389	5.33225396180488	10.8544534781838	0	18.8218378893273	0	3.54023280959208	1.72178791288614	0	2.22718859590969	1.95936989642126	7.23407308082987	3.61136805320729	1.94379700423647	21.3135538022242	0.0273146799595233	0	3.90115907511069	0.417479038856899	0	2.27487361104864	0.08	0.12974620277038	1.03077731452211	86.3100198563327
GTEX.QCQG.0326.SM.2I3ES	0.776524034753488	0	0.452282325290542	2.19986210877054	0	5.04780294860956	0	0	0	0	1.328019537972	0.138911762635454	2.78727253613285	0.330751358256009	0.212571774423828	0.977846616152462	0	0.0669060413896975	1.40694475177238	0.198827443701592	0	0.431908279988377	0.038	0.165886193841139	1.02306908081931	16.3564315198488
GTEX.QDT8.0926.SM.32PL2	0.0720203556885782	0	0.0379538629495634	1.54204570284612	0	4.30353367471386	0	0	0	0	1.91408864975979	0.449287728781967	2.99577941158404	0.663621421940736	0.0264875988046742	5.71243142945173	0	0.961623023336799	2.00229653069303	0	0	6.06882713118824	0	0.508550071384128	0.860870820220644	26.7499965217391
GTEX.QDVJ.0926.SM.2I5FU	0	0.133751614813119	1.37325350408567	1.5111331837554	0	5.03188497694294	0	0.657263814373465	0	0	2.04428056322915	0	3.61096078626101	1.90739468073863	0.375165338420638	4.48266341993248	0	0.708933621582043	2.12531370778035	0	0	3.14817394687527	0.076	0.132995548237826	1.02737514727147	27.1101731587902
GTEX.QDVN.0726.SM.4B64L	4.19095871731048	0	0.913389917886482	0.756102713318919	0	3.80899783088989	0	0.0651826288702779	0	0	2.42647095298856	0	6.32943405612242	4.71297932642061	0.153726644702676	2.46552697275211	0	0	0.263830843062452	0	0	3.61228500059006	0.002	0.37697082843199	0.928643874981616	29.6988856049149
GTEX.QEG4.0526.SM.48TZD	0.341819636585549	0	0	8.08541835505465	0	3.84747912310595	0	0	0	0	4.03041360009293	1.5322711771534	1.37187765892786	0.332707708259679	0.0158477476327929	2.53510989715322	0	0.197341946343235	0.682314799489094	1.76265888501333	0.128877534449084	0.85045800257287	0.016	0.223820552849156	1.02824204130078	25.7145960718336
GTEX.QEG5.1126.SM.33HC2	3.03720123907077	0	2.19573091077453	2.13503058712084	0	3.51158578906219	0	0	0	0	2.29745712122908	0	1.34836474866971	3.65624143936402	0.498376560493475	7.36809769976393	0	0	0.898099496575326	0.0159715160468098	0	2.2273002302036	0.003	0.283801878876962	0.967577694973527	29.1894573383743
GTEX.QEL4.0826.SM.3GAF2	1.28407422315348	0	0.548650225190267	3.2875869091896	0	5.60212254956596	0	0	0	0	2.51225501490745	0	3.5677053552455	1.56757500249823	0.0477341702185928	2.42563581989633	0	0.0644611810184024	0	1.87105442813661	0.117763433748189	2.31818032617279	0.004	0.278532025358195	0.972861881710178	25.2147986389414
GTEX.QESD.0626.SM.2I5G4	1.39697524854453	0	0.76380487667024	1.47561720312459	0	5.16522983796345	0	0.369935486310037	0	0	1.62300295622875	0.125569144308098	1.65063833121669	1.89264537588232	1.60239917778531	0.929036614961355	0	1.34686058927448	1.78443198965278	4.15221532694288	0	2.19643955001918	0.02	0.2074643610224	1.00297465230113	26.4748017088847
GTEX.QMR6.1926.SM.32PL9	1.90931362404552	0	0.124632552663291	1.21353348075736	0	3.0987643137383	0	0.109123156205459	0	0	1.52699914374124	0.617034611636213	3.39869605555902	0.21552177945599	0	6.32367197933334	0	0.958501678362489	5.87792299917548	0	0	6.32718597693312	0.039	0.163977917202576	1.0254846992072	31.7009013516068
GTEX.QMRM.0826.SM.3NB33	2.5567422551453	0	0.514997800092157	0.864186472566803	0	4.28718319555125	0	0.171309296462171	0	0	0.812213235945574	0.380981949307115	4.90301344902753	0.610498760020228	0.218439740122201	2.68651328502813	0	0.345164713061098	1.93167796775555	0	0	1.4735072031663	0.002	0.360112037878795	0.93323520614378	21.7564293232514
GTEX.QV44.0926.SM.2S1RH	2.45274127090741	0	3.47699339122849	1.21490141490594	0	7.16082294296511	0	0	0	0	0.692386329548884	0.406646560916701	1.07054036610947	3.01221757122839	1.40717519906847	11.2717074146313	0	0	0.257696913448349	0.124778909655304	0	1.11673294411968	0.003	0.322942640412707	0.951423120503987	33.6653412287335
GTEX.QXCU.0626.SM.2TC69	3.38233026888591	0	1.64854171894351	1.83466406175282	0	4.32217634735585	0	0.0773646591469493	0	0	1.84752952164172	0.809889129657992	1.75201110895866	1.49106775100296	0.63467018636303	2.56609694375527	0	0	4.08698392344957	0	0	2.06072564562642	0.003	0.284095843716997	0.965128858522718	26.5140512665406
GTEX.R55C.0526.SM.3GIKA	0	0.0636403150526297	2.23826319295896	0.638040045904171	0	3.86458276746134	0	0.353311546194744	0	0	0.905994401559039	0.752288569519241	1.36070115101243	2.66479365842604	0.375328941890952	5.81232591204482	0	0.5886002047986	3.88915290745326	0	0.00329140320572047	1.87605256285832	0.033	0.183079314608485	1.00461163747229	25.3863675803403
GTEX.R55D.0926.SM.3GAEU	0.769728129596825	0	0.26169424554188	1.75305436250011	0	3.42109522882633	0	0	0	0	0.791135539842635	0.00301890097156424	1.34607675943044	1.6347881228792	0	4.17302891689928	0	0.591053185370259	0.516477037212276	0	0.184093815036749	1.00854581260324	0.017	0.222647692507553	0.993073706725633	16.4537900567108
GTEX.R55G.0826.SM.2TC5U	0.39867879310783	0	0.205426211497326	0.289974227706752	0	2.70753169856279	0	0	0	0	1.19478004760016	0	3.44933069246975	3.35792064129699	0	7.86999979960549	0	0.215854266397545	1.17696188771807	0	0	2.16491432950043	0.00800000000000001	0.251626787151755	0.992075212891807	23.0313725954631
GTEX.REY6.0426.SM.2TF5G	1.96143752700426	0	0.0459364239474255	2.64628494063912	0	5.74501278791901	0	0	0	0	5.86574432767413	0	5.93330492994957	1.82338845220301	0.130751564458023	3.5281807498198	0	0	2.949446976297	0.374842599046958	0	3.19691184013433	0.019	0.216803921647631	0.99971981622688	34.2012431190926
GTEX.RM2N.0426.SM.2TF4T	3.17545744179775	0	0.340363594750032	1.32467893386603	0	4.63136081020414	0	0	0	0	2.10269597292369	0.0402692992366985	6.34114920152146	1.36381640071751	0.00507430363978537	3.36289166503521	0	0.0828237279698444	4.1064741104797	0	0	1.29724856432318	0.02	0.211775217106435	0.994744483714356	28.174304026465
GTEX.RN64.1226.SM.2TC6E	1.32576456266838	0	0.317585023654995	3.61730840996103	0	4.26464304114506	0	0	0	0	1.74911530647316	0.643857452239948	0.88464907880513	0.826941032205414	0.279204594808239	4.53677180986556	0	0.203373687495888	1.141193184672	0.855403967108642	0.577269388285981	0.439353090100179	0.024	0.191456753813772	1.00843418562423	21.6624336294896
GTEX.RTLS.0926.SM.2TF5X	1.0961459005514	0	0.169275928738198	1.32363027422354	0	3.48713988090523	0	0.67673533985956	0	0	2.53631060261209	0.328212161735091	2.11610497425088	0	0.581474788330604	5.89290004190103	0	0	0.0586994304286558	0.610305419828315	0.921890903724553	0.551738984290829	0.0669999999999999	0.141911366447411	1.02696260081927	20.35056463138
GTEX.RU1J.0126.SM.2TF6Y	0.621779247214241	0	0.41864229328373	1.53772373904615	0	4.18599479481259	0	0	0	0	2.99120553498265	0	5.16261406943755	1.23692042172096	0.170638379804817	4.31953929283252	0	0	0.729496876977905	0	0	3.08343768069974	0.011	0.237485054704496	0.993408617028628	24.4579923308128
GTEX.RUSQ.0626.SM.2TF5V	3.09520201653227	0	0.940349552027552	0.604120118362334	0	6.06495317322075	0	0	0	0	1.32760735209517	0	3.44874071369739	2.02489233397416	0.129786578279278	3.64483211799288	0	0.359323346401248	0.762405088406214	0.355671366916769	0.821335026943952	3.35562170664342	0.004	0.274806211355464	0.971240008619558	26.9348404914934
GTEX.RWS6.0226.SM.2XCA9	1.2116257401543	0	0.666066660251881	1.30879774397063	0	3.10444069395755	0	0	0	0	1.85383554942559	0	0.387912542322822	2.40089959886657	0	5.07970865725314	0	0.593237140311879	3.64967658941	0	0	1.08115819560684	0.016	0.224658291252939	0.988653354625831	21.3373591115312
GTEX.RWSA.1126.SM.2XCAZ	1.84319080436951	0	0.089061689095887	0.735519855161265	0	5.08120439714484	0	0	0	0	1.61350980942375	0.155956882691829	3.41060441662779	2.84223271909772	0.73672916249122	1.47744226603503	0	0	4.5204577160541	0	0	3.37760324967096	0.023	0.19283054586121	1.00566846869858	25.8835129678639
GTEX.S32W.0326.SM.2XCBI	2.75856718352453	0	2.0736119239779	1.31881310401856	0	5.31281672811773	0	0	0	0	2.96981058820382	0	7.94257734112438	0.465659900648064	1.67864682934947	0.816369170971359	0	0.598018909382317	0	5.51883548627055	0.649720650959404	1.59020053883944	0.00700000000000001	0.265794703363264	0.977200022132485	33.6936483553875
GTEX.S33H.0626.SM.2XCBJ	2.32436322264223	0	1.31291086051347	1.06805666745201	0	4.05123447262911	0	0.19565640298214	0.297038069824937	0	0.967424664262736	2.42320457177243	3.54244976374961	0.274726291498269	0.676159886980309	5.19205085268542	0	0	4.00175761327942	0	0	1.23481572021941	0.00800000000000001	0.250327429200975	0.978323730605282	27.5618490604915
GTEX.S341.0326.SM.2XCAU	2.94213287171716	0	2.06177456700181	2.41795663833293	0	5.79438273303011	0	0	0	0	0.971230854923185	0.147711406413917	0.521964089061247	0.738427924242751	0	5.387489821212	0	0.092596495699905	1.2994139027483	0.201771485812283	0	0.275796831732567	0.003	0.323299834961142	0.951157336970055	22.8526496219282
GTEX.S7SE.0926.SM.2XCD6	9.58218290352325	0	11.9004969323146	16.1139181896736	0	17.7880843611159	0	2.9571373171247	1.93762806005299	0	2.67106120876952	1.12490670614203	1.31846567890692	3.01509017588828	3.35938660082914	9.74396486973532	0	0	5.90152743211064	0	0	0.00509444093977984	0.002	0.358046012400913	0.938863001795219	87.4189448771266
GTEX.SE5C.0526.SM.2XCE1	4.69711283579273	0	2.37843949644369	1.98458343690635	0	6.80871835737953	0	0	0	0	2.67012187339751	0	1.40342678343539	0.774345023850562	0	2.12335483125865	0	1.17405490123179	0	1.91995968259844	0	1.23858143555035	0.002	0.364837876915766	0.933482366208327	27.172698657845
GTEX.SNOS.0426.SM.32PMH	0.754257127832242	0	0.827057535674766	1.7809675449807	0	7.31681430106241	0	0	0	0	3.01103123271717	0	5.42953274489681	3.90408877303419	0.734673235534325	4.46910202912487	0	0	1.84289136888323	0	0	4.58744070361278	0.097	0.109523904903524	1.04452361914328	34.6578565973535
GTEX.T2IS.0526.SM.32QP9	0.899765356318246	0	0.0416780890699106	2.59940728802938	0	5.10649532104665	0	0.306715380240473	0	0	2.89314887400882	1.28386478274454	0.814108560314316	0.736735511882554	0.16586415290026	5.296287005464	0.467204563818065	0.215861203282983	2.83439682687602	0	0	0.574073530128545	0.00700000000000001	0.264417288011271	0.978725816028231	24.2356064461248
GTEX.T5JC.0826.SM.32PMC	2.24377616043409	0	0.882175049611043	2.37054774498655	0	6.22809591330564	0	0	0	0	4.87690236333545	0	2.88850716848513	1.22556221643295	0.108638395518851	1.06169680284762	0	0.428926080369741	0.832083184048308	0	0	1.75649565030326	0.019	0.21424665105586	1.00684693168464	24.9034067296786
GTEX.T6MN.0826.SM.32PM4	4.19837712883802	0	2.26740927059089	8.13015684900697	0	7.35101734110248	0	0.514089268130909	0	0	4.7600918040584	0	1.58150343334245	2.94307979671536	2.28822398361914	3.96506735320627	0	0	4.47128662616084	0.792472219877077	0.577690907210494	0.969567364076433	0.012	0.229022064884375	0.991841796369613	44.8100333459357
GTEX.T6MO.0426.SM.32QOI	3.35184618077089	0	1.19175644588843	0.834280920938518	0	4.80918725754101	0	0	0	0	1.44173506684026	0.366299994355445	2.20260066713025	0.454600551735623	0.131973443393343	5.97355386034802	0	0.00514808999345535	1.05511545773691	0	0	3.50977913138078	0.003	0.320663494360854	0.952024294149957	25.3278770680529
GTEX.T8EM.0326.SM.3DB7F	2.45756486867398	0	1.24814333563806	1.20562801329241	0	3.27359312136379	0	0	0.0899551211136791	0	1.26191444638838	0	1.56079666960692	1.4262257965963	0	5.09220286886622	0	0.687328056844425	2.21550961219073	0	0	1.33143131059714	0.003	0.318089723213347	0.949913559455318	21.850293221172
GTEX.TML8.0326.SM.4GICN	2.99185005953602	0	2.4287367420431	2.57541329818728	0	6.53101901895076	0	0.46289738680634	0.315739232789444	0	2.01914948143241	0.374423350344302	3.52467387680754	3.113289639687	0.490266265712698	6.1663579850408	0	0.501760323978197	1.78785243469221	0	0	0.896274427621387	0.00700000000000001	0.258858743820207	0.974741982333955	34.1797035236295
GTEX.TMMY.0926.SM.4TT1Z	2.80888227645732	0	1.0814593211131	1.50086858097432	0	5.50505185277591	0	0.452877659197277	0	0	1.90273028208277	0	1.59702156469304	1.70753103907602	0	3.99001141802209	0	1.22929670784502	0.247312554406406	2.06725656532396	0.553420567788343	2.2266336990913	0.012	0.230265458554985	0.987069763345669	26.8703540888469
GTEX.TSE9.0726.SM.3DB8C	0.89738347979266	0	0	1.78397166515101	0	2.59052224629031	0	0	0	0	2.20915321274945	0	1.68638728377113	1.40174226219905	0.00796989915426806	0.89576015094322	0	0.0683564137352982	0.779085488838258	0.590798548075049	0.959587863232318	1.17415125922488	0.015	0.226198127284656	0.994935535887974	15.0448697731569
GTEX.U3ZH.0526.SM.3DB75	1.92393016751948	0	0.850354429629662	1.72781697465794	0	4.64531626043016	0	0	0	0	0.841335917993166	0	1.90402792521521	0.760978041413897	0.311608314544826	4.96888615729174	0.0144153953377477	0	4.69661893414257	0	0	0.879899861785786	0.003	0.305315611240361	0.95534487549799	23.5251883799622
GTEX.U3ZM.0426.SM.3DB73	3.87440882868553	0	1.78784966271248	1.10099897263962	0	4.06934955004473	0	0	0	0	1.68452631648414	0	4.3440763924406	0.780873333392347	0.0627929555184828	4.23616153431448	0	0	1.86362995379777	0	0	3.6876529082874	0.003	0.329567746188559	0.948498531059767	27.4923204083176
GTEX.U3ZN.0626.SM.3DB7U	1.9514337294902	0	1.28886749802076	1.27122576988872	0	4.22952557116168	0	0.34389010653714	0	0	1.12597670834123	0	4.53947894889775	1.21667087141158	0.0265964911598351	3.59652310560964	0	0.861213491884457	3.33536959297989	0	0	1.54518350781184	0.00800000000000001	0.253891327039433	0.975421398653136	25.3319553931947
GTEX.U412.0826.SM.3DB9K	0.353471871226846	0	0.346104825818617	2.06997963707117	0	6.44504399574627	0	0	0	0	4.63628536010276	0	1.55771287677421	0	0.207092790545828	1.62175227039273	0	0.432993876448297	0	7.0265086917433	0.230289328794471	1.82390436191395	0.073	0.135150647449884	1.05965790380978	26.7511398865784
GTEX.U8T8.2226.SM.3DB95	1.30124701605339	0	0.483313154433636	1.48181555329009	0.0269363968808357	2.98601259562709	0	0	0	0	2.6704242893172	0	0.774561042616945	3.41115448116196	0.733378463916003	1.42112617293683	0	0	3.08043879152498	0	0.0392040518549648	4.15804649700232	0.011	0.245555855276864	0.987893988340705	22.5676585066163
GTEX.U8XE.1426.SM.3DB8Q	2.69594794778302	0	0.898679597754411	1.92184918200947	0	4.26526938577308	0	0.799066533597427	0	0	2.03475883297894	0.774082493872327	1.6648292704933	1.36704187576773	0.479098095807734	1.2014819835054	0	1.36640666294239	0	15.2598052047736	0.0914570439827696	0.476660386122889	0.022	0.19879802756699	1.05675100994118	35.2964344971645
GTEX.UJHI.0726.SM.3DB92	3.55342844861616	0	9.94192490608636	3.08381594873985	0	2.74762847450461	0	1.3800448254693	0	0	1.21938378779545	1.53662978326324	3.74877232697388	4.04503410637932	0.484162357501116	6.19952867416395	0	0	2.5003549175357	0	0.581251393134461	0.93801290427895	0.001	0.435136786975735	0.900318091313883	41.9599728544423
GTEX.UJMC.0726.SM.3GADX	1.53557314265881	0	0.787556242620673	1.05433245001201	0	1.59063813448774	0	0.177035076113601	0	0	0.728226385987211	0.181018245723325	3.32520174298878	4.02463369703946	0.0293211806759291	4.67922247305306	0	0.4030042630795	2.60258034662089	0	0	0.287450815536359	0.015	0.226031926435161	0.992043827583694	21.4057941965974
GTEX.UPK5.1126.SM.3GAEJ	0.246691341131819	0	0.0551865259091329	1.77250117567202	0	1.97203600485066	0	0.195565231369196	0	0	1.57093676862482	0.16342789063878	1.49873337002792	0.333501069011176	0.35575763662278	6.37948822432276	0	0	0.377696111699691	0	0	1.37213262365422	0.003	0.331859526991469	0.949586116963159	16.293653973535
GTEX.V1D1.0826.SM.3P5ZA	1.1901214403155	0	0.0874242819887219	2.97590270243952	0	3.90593562642922	0	0.852655567599468	0	0	0.495337382242601	0.781239327557599	3.73218693517705	1.8437474099973	0.586147715485005	4.4472382114201	0.178266972341671	0	2.17177298095203	0	0	0.803642056640238	0.002	0.357714951803522	0.93417940167307	24.051618610586
GTEX.VJYA.0326.SM.3GAEX	1.21216431503261	0	0.424378732554943	2.34728879753248	0	4.84422854654879	0	0.497784913348385	0.168195196929548	0	1.15975746921672	0.24483054798905	5.44307502583602	2.2800314471974	0.600763430954593	4.88519798851059	0.0286334838044452	1.55660513635614	4.79361772041783	0	0	3.17759112678747	0.052	0.153496903530887	1.01716524906919	33.664143879017
GTEX.VUSG.0926.SM.3GIK6	0.764014792920277	0	0.183894784553494	2.30424265400533	0	8.65800702578522	0	0	0	0	2.27056310255514	0.839341800309756	3.81904751907023	0.999226295206196	1.02340185352522	2.89514885662735	0	1.89210924890426	2.41619799679639	0	0	5.47891620584701	0.0610000000000001	0.146153331489044	1.0315996504324	33.5441121361059
GTEX.W5X1.0526.SM.3GILH	1.27844954266721	0	0.599932176510945	4.27522561153956	0	11.653614474473	0	0	0	0	4.41006009045329	1.23903080383979	3.10756471296756	3.46259255695744	2.82470764868566	7.02599352299434	0.192795986919808	0	1.75401292037566	0	0.126472586385843	0.907644992829125	0.118	0.0977278047935883	1.04992378699997	42.8580976275992
GTEX.WFG7.0526.SM.3GIKI	0.643049726556195	0	0.467478909319157	0.832568619102714	0	2.91025224258975	0	0	0	0	0.774626348908138	0	2.32218504311672	1.59481001802642	0.116440254496164	6.12070465612451	0	0.190838619754351	3.17694823215906	0	0	0.828881206973474	0.04	0.161557459102383	1.01647602942468	19.9787838771266
GTEX.WFG8.0926.SM.3GIKJ	1.69665708625333	0	0.296659377594937	0.704445309590879	0	2.49457373821659	0	0	0	0	0.544589381651307	0	3.429225613213	1.40290643581629	0.143600949168127	3.86469928633515	0	0.00176247098924847	1.44868219475278	0	0	2.18041038704217	0.002	0.347515700414027	0.940687087353785	18.2082122306238
GTEX.WFJO.0326.SM.3GIL3	2.29673015178076	0	0.668822517869648	1.28326360734828	0	3.49780547321414	0	0.226861924519117	0	0	1.72649238370142	0	2.8195015676379	1.53525476601935	0.0394828537381368	3.45091295966778	0	0.356516868864376	1.84732644003658	0	0	0.907195593352987	0.003	0.283334013109705	0.964136548356681	20.6561671077505
GTEX.WFON.0426.SM.3GIL4	0.877876057938835	0	0.338439327577388	0.690827280719252	0	2.99913314723603	0	0.591467864932881	0	0	0.96704833879337	0.0105407584850411	2.23925293323716	0.102995136553516	0.0192541450942252	3.7811904752633	0	0.72249429906422	1.71299595174064	0	0	1.31114774272142	0.003	0.280225674034312	0.965487887565196	16.3646634593573
GTEX.WH7G.0726.SM.3NMBM	1.49222109835628	0	0.33947244078289	1.68871438509572	0	3.58038688561733	0	0	0	0	0.707060802914219	0.437243813662333	2.8868870272063	3.84362135506679	0.182763400901034	3.4992728895217	0	0.188231547017421	0.927308770628649	0	0	0.732028951849364	0.003	0.290368231963583	0.964814609680507	20.50521336862
GTEX.WHPG.1426.SM.3NMBB	2.44768983957215	0	0.974189911721599	2.54868674625912	0	2.2622330912558	1.07086033071969	0.415681356197923	0.358572115854534	0	1.79244698212648	0	1.760197627261	4.02918362339992	3.00364593540228	3.10105242029592	0	0	1.80626732028816	0	0	4.46695479794411	0.002	0.358564747860588	0.935127443221526	30.0376620982987
GTEX.WHSB.0326.SM.5FQSD	0.483727450629327	0	0.023442267891876	1.24827157710684	0	1.8577957802023	0	0	0	0	0.432389698532766	0.116186484038745	0.848716676148236	2.96867079754437	0.0420206293016277	5.30620115676979	0	0.621240131205051	1.98879401922832	0	0.0379974238322593	0.600334017209336	0.00800000000000001	0.25149782890206	0.985272214107867	16.5757881096408
GTEX.WK11.0526.SM.3NB3O	1.74936290302986	0	0.170148362478081	2.97667348972977	0	8.08043724969873	0	0.930234668806682	0	0	3.92261184242414	0.453021737558924	1.14583830045536	0	2.88930936037871	1.92596297530367	0.48359713631246	0	2.50768970142569	0	0	0.0289011835510383	0.02	0.209590766892154	1.01335306652026	27.2637889111531
GTEX.WOFM.0126.SM.3MJFE	1.01171976385672	0	0.247411976383322	1.65693358518508	0	3.28785307617048	0	0.0318391577220577	0	0	0.33776734877882	0.145576533351825	1.36999436800222	3.76603122419864	0.118239383200368	5.87538036980231	0	0	1.88208863645232	0	0	0.494684832094312	0.00600000000000001	0.268193320618274	0.976638258636703	20.2255202551985
GTEX.WRHU.0226.SM.3MJFV	0.628517214092071	0	0.4075114905981	3.58250159647551	0	7.17325448453619	0	0	0	0	2.51304543873533	0	0.803555107263447	2.99888038111155	0.316498694106165	4.23758857579101	0	0.406713435457583	1.37615720038594	0	0	0.840315171617229	0.052	0.153448384610645	1.02871851550584	25.2845387901701
GTEX.WWYW.0926.SM.3NB2Z	13.5696336209611	0	20.4310649907148	10.8154191555564	0	12.7162474803998	0	0	1.55821095393942	0	6.19669194565708	0	4.16963560706443	4.0921702410538	3.56872759237878	4.64744696297221	0	0.121940371910419	2.68325795507185	1.11879268255351	0.614917002022861	2.40055977233719	0	0.489932450399668	0.87120574375926	88.7047163345936
GTEX.WY7C.0426.SM.3NB3C	5.36438151179393	0	8.18863635868239	3.78443656097764	0	8.66607160657992	0	0	0	0	2.039021961476	0.475410250509013	6.07748009219921	0	0.50080614330612	5.31765264303203	0	0.120884897083328	0.261872792085587	0.382121365952905	0	0.810444685887137	0.001	0.430449305418335	0.902928723807208	41.9892208695652
GTEX.WYBS.1126.SM.3NMAM	3.11422260765476	0	3.29375530972398	3.23594140452124	0	4.59675031034454	0.272958917171085	0.13074447616335	0	0	4.25498433760993	0	0.380343938660777	3.14438729103763	3.86346636248772	4.52688503098391	0	0	2.42880431500941	0	0	4.03999038861275	0.003	0.313202633616692	0.955129550467741	37.2832346899811
GTEX.WYJK.0826.SM.3NM8Y	1.24099008133513	0	0.235882966655449	1.62760367573537	0	5.55531821659689	0	0	0	0	1.02446413862028	0.621969273161536	2.13653283297078	1.25094380373208	0.045475365936842	1.98211938553094	0	0.67553596828269	2.77910181388668	0.158716912295247	0	0.669789559589009	0.023	0.193936011663637	1.00274039504776	20.0044439943289
GTEX.WYVS.0526.SM.3NM9W	1.74769152674504	0	0.984877061065355	1.68678593594815	0	8.0900094097857	0	0.355915992817297	0.866373980012618	0	0.421576726634673	0.978425644187407	1.94239381961789	5.03940112285318	1.38624287450931	8.0424652977023	0.11897554441493	0	2.31346270491041	0	0.0475715222867442	1.07877029208554	0.018	0.217464721638207	0.993701172756704	35.1009394555766
GTEX.WZTO.0426.SM.3NM99	0.614068186204135	0	0	4.54456309934571	0	5.55910164584885	0	0.340480818874049	0	0	2.76756959895429	0.440315824436611	0.521118079215725	2.97138721180606	1.00620869054104	2.64188780431218	0	0.795109790961317	2.89645968773738	0.0667863060795625	0.339102766322246	0.615363797489398	0.072	0.135549592178652	1.03650432008282	26.1195233081285
GTEX.X261.1026.SM.3NMDL	0.665611510254604	0	0	3.05047243587379	0	3.37895513918356	0	0	0	0	2.25152034165948	0	2.59935642241328	0	0.352579622556381	2.34845591637305	0	0.189235473227544	1.66146122085401	0.288362133928513	0	2.46340369671928	0.0590000000000001	0.149033007918466	1.03141129690466	19.2494139130435
GTEX.X3Y1.0626.SM.3P5YS	10.9514335954841	0	11.4413500401515	11.1960121076092	0	33.9845519035459	0	3.36393331287594	0	0	0	0.601526612391638	1.45385755264104	0	2.24797037349129	13.0421634232669	0	0	0.602761891163554	1.28738251441105	0	0	0.003	0.310530078139209	0.967989181901722	90.1729433270321
GTEX.X4EO.0926.SM.3P5Z2	6.19473002744386	0	0.31645805161226	6.52644377100247	0	18.7551207337543	0.0113091382374929	1.73941600719964	1.12571614463448	0	2.83171712643114	0.359300484761849	1.65935064567661	1.74890922047553	2.40590864463326	3.69935449290888	0.50202491723265	0	3.48307391913732	0	0	0	0.00900000000000001	0.248262524250719	0.994920887754517	51.3588333251418
GTEX.X4EP.0526.SM.3P5YW	2.22288932919058	0	0	3.5300178692679	0	3.89836201054273	0	0	0	0	4.71234261404159	1.91964478962707	6.37349463742887	0.847485050405997	0.873339439163597	3.32320439116043	0	0.253080202371026	1.65581290015593	0	0	6.50476631484844	0.052	0.153453875227911	1.04124790774431	36.1144395482042
GTEX.X4LF.0526.SM.3NMB6	7.22523821181562	0	10.2458274425634	2.16835890548661	0	6.21646771737618	0	0.577151285281664	0	0	2.7454710919901	0.69107349585387	3.38249877501875	1.70550421553969	0.176414091849438	8.02589298061879	0	0.0536939194494133	4.75342186799752	0	0	1.43522563999072	0	0.46460264469698	0.884839566291834	49.4022396408318
GTEX.X4XY.1026.SM.46MVX	1.68760633905537	0	0.0524248273962908	1.34630236406056	0	7.22467860666676	0	0.702680659010895	0.875979281800125	0	1.3048033207714	0	0.807898139885156	0.651703687931114	1.38465115178164	5.70483495681597	0	0	2.46466287731432	0	0	0.536221025695666	0.00800000000000001	0.250526385310998	0.98068506182844	24.7444472381853
GTEX.X585.1026.SM.46MW6	0.633006216384643	0	0.1212584456345	4.13133852296716	0	7.13491747379185	0	0.0166775101433247	0	0	4.24111370292864	0	3.6929369185139	0.478670943032446	0.14276891178698	4.26544304534524	0	0.491335565687651	2.74950211839765	0.718098121292765	0.338595878382276	1.37961781663725	0.039	0.162977769710122	1.0228188469483	30.5352811909263
GTEX.X5EB.0426.SM.46MVY	4.12536488791841	0	1.68359225929187	2.93855496730122	0	5.9495699492937	0	0.0339820306305983	0.024742724909604	0	2.85557223132197	0	5.92154076156578	0	0.0576680740842154	8.42732606959681	0	0.0825865819965861	1.30807377980195	0	0	1.40177679759921	0.00700000000000001	0.25807490656999	0.977366851597357	34.8103511153119
GTEX.XBEC.1026.SM.4QASM	0.974512477155668	0	0.0401170849485589	1.55079563222915	0	3.12046342015474	0	0	0	0	2.35021506500331	0	1.62202936502496	2.48528081150145	0.597802171064479	2.52572071627692	0	0.472596561073099	2.26143068178004	0	0	1.67542673401446	0.003	0.283454695968371	0.966037200718698	19.6763907202268
GTEX.XBED.0826.SM.47JYC	0.123526939998965	0	0.262679717246512	0.550613537208239	0	1.70104023715587	0	0	0	0	0.925565187202705	0	3.15416412461546	8.53027072924362	0	7.57575217898106	0	1.16409490305097	2.41569127716243	0	0	3.26432799044042	0.00700000000000001	0.257377379348987	0.999056618306159	29.6677268223062
GTEX.XBEW.0226.SM.4AT6A	3.02799895854168	0	3.1004706135293	1.09002143966891	0	2.29847632220315	0	0.37245078533684	0.130502857279672	0	2.48480502546648	0	1.49750741557826	2.0614955070916	0.0833989111594718	2.93809470917339	0	0.114857545776528	2.86831367471738	0	0	1.72159848400476	0.002	0.381563652741284	0.924184568697512	23.7899922495274
GTEX.XGQ4.0826.SM.4AT4T	6.24156413158555	0	4.90794961503585	3.62485174977091	0	11.0084791556124	0	0.85388105612484	0	0	1.022567965901	0	1.78703396063295	1.61643650450288	0.160143612330883	6.3897685279184	0	0.0452529159758624	2.12591198096485	0.910058250960751	0	2.3455728222103	0.002	0.347313026054453	0.941057014167787	43.0394722495274
GTEX.XMD2.1026.SM.4WWE8	0.611461119396656	0	0.410803001621898	3.27070004042927	0	7.21289881340737	0	0	0	0	2.06988790818729	0.432877004850545	2.08239599079927	2.76611571359683	1.24878992985193	1.13619508436097	0	0	1.52342271930458	0	0.188580756351137	2.07448539988383	0.084	0.126101220019103	1.04148953240958	25.0286134820416
GTEX.XOT4.1426.SM.4B65T	1.07301357527695	0	0.0441931194627167	4.72243829850386	0	7.21922775213732	0	0.750017008960887	0.388782730837145	0	2.12895067855635	0.201631830971906	0.927002589285106	3.88923645588218	1.22449589282781	1.81344613672451	0	0.507839408438336	2.89305246394095	0	0.0279529473432214	1.68987510328931	0.021	0.204357687028081	1.00635745282152	29.5011559924386
GTEX.XPVG.1026.SM.4B64Y	3.12723159288966	0	1.74725358255997	1.82740270653776	0	5.90881386492581	0	0	0	0	1.5439857766092	0	3.65758633425084	0.239074788796537	0	5.80657367619644	0	1.06284860463634	2.79978342516928	0	0	2.19423629393099	0.003	0.283909932119815	0.963935052583007	29.9147906465028
GTEX.XQ3S.0926.SM.4BOPI	2.7745300177637	0	2.27072302438341	1.32217547117066	0	3.30814106605605	0	0.304005376705072	0.368816489848664	0	0.168847124630859	1.54034747676514	1.32657814545292	0	0.0988644134249471	3.65387485618102	0.304839370092736	0.614334769208079	5.07426779281328	0	0.0563289795867217	0.144056854650196	0.003	0.333687374636971	0.944859156216796	23.3307312287335
GTEX.XQ8I.1126.SM.4BOO2	1.57451249022108	0	0.486029602585275	2.75828161774776	0	2.46164778530159	0	0.241931610489173	0	0	2.3795286452529	0	1.03470819094639	1.45956927140704	0.0194104865600524	2.23988885140092	0	0	0	2.64839566025039	0.579352728091126	1.85033031872551	0.017	0.223332517634202	0.99736880814543	19.7335872589792
GTEX.XV7Q.0426.SM.4BRVN	0.687119326735424	0	0.148173683296402	1.31999330324428	0	2.74058174554405	0	0	0.16929462792638	0	0.708761168516996	0.287607772552766	3.96985169206876	1.0018593535176	0.274820350787993	1.13289702661252	0	0.666720550378383	0	19.7570526366011	0	8.74769199095076	0.00600000000000001	0.267577228042181	1.0475028764176	41.6124252287335
GTEX.XXEK.0626.SM.4BRWE	3.41555328660648	0	1.50015046866999	2.82496392489867	0	6.54124922203209	0.295680759390535	0	0	0	1.3796373447521	0.607827498948605	1.26119024406845	2.05474067591973	0.952463282234615	4.10929714061256	0	0.371054428696199	1.97386375866088	1.22294629055315	0	5.4710167779257	0.00700000000000001	0.265966881409142	0.975534986507777	33.9816351039698
GTEX.XYKS.0526.SM.4BRW2	1.36462401371737	0	2.1859444001414	2.30737103168999	0	3.96463626823677	0	0	0	0	2.36271976190668	0	5.56154193274548	2.48405271308726	0.00774975335578433	2.94516590641507	0	0.215628897966799	0	0.474779706512961	0	0.189633875094012	0.011	0.24143169704712	0.985773125162488	24.0638482608696
GTEX.Y111.1026.SM.4TT22	0.510095885818264	0	0.145764064101992	5.91906449330557	0	7.88001713965294	0	0.156589971325892	0	0	1.93893600675897	1.48409836500977	1.0195580878038	1.66970205767172	0.393038837816407	6.43748408617084	0.282676762485697	0.761750277157314	1.45762149733571	0	0.0611316678274793	1.5960521986234	0.093	0.115509845058769	1.04895395994701	31.7135813988658
GTEX.Y3IK.0626.SM.4WWE4	1.65609894284675	0	4.04448380238228	2.89179310023084	0	4.4704121617077	0	0.97253563752095	0	0	0.478300702464968	1.07253700204797	2.46753896266778	4.6196901527191	0.676529325242011	6.10496475450669	0	1.10909417236347	2.71673387105515	0	0	1.37429294343526	0.003	0.296791790939049	0.959388932481581	34.6550055311909
GTEX.Y5LM.0726.SM.4VBRP	0.165989464208324	0	0	0.611502315888382	0	2.97322310013414	0	0	0	0	0.547809161680698	0	1.19805844820394	3.24620041141304	0	4.92938265116398	0	0.165489893050061	1.34341531694655	0	0	0.713410339390278	0.00700000000000001	0.26445005044386	0.982777839066132	15.8944811020794
GTEX.Y5V5.0826.SM.4VBQD	0.927335226891572	0	0.0906270818311988	6.34078436256658	0	10.9886151008523	0	0	0	0	5.39542143070668	0	5.16080627603798	2.03370283247583	2.76545488450356	4.80581887346004	0	0.739013448953274	2.27063371081446	0	0	1.72470213952661	0.17	0.0770834100317727	1.0618888498113	43.24291536862
GTEX.Y5V6.0226.SM.4V6G7	2.05622786526883	0	1.41468462130848	0.864546178575973	0	5.08358297427443	0	0	0	0	1.15274360551999	0.333828646795262	3.46040324007751	1.38226739930868	0.0394052066395597	7.73926456391497	0	0.429110739757088	2.03826269884295	0	0	0.906763091474308	0.011	0.245081380219644	0.980457190473688	26.901090831758
GTEX.Y8E4.0526.SM.4V6GC	0.18019149751173	0.024260298118582	0.0720254444046978	1.587142073818	0	3.64742487710184	0	0	0	0	0.675600315417811	1.48038908894783	2.31089458624305	1.09483133585834	0.115931395900918	3.32588263502169	0.654364147717443	0.944190376069862	1.58949291189695	0	0	0.922535159638556	0.003	0.290005283112115	0.963726464216113	18.6251561436673
GTEX.Y8LW.0326.SM.4VBQ9	2.39917107049006	0	0.641589379854718	2.25840393954417	0	4.52440578156795	0	0.232617110158587	0	0	1.54161617609882	0	0.597189028263779	1.19032651371367	0.0114660051365182	5.11772067016558	0	0.68201510618073	1.99561272163565	0	0	0.689457952766333	0.00700000000000001	0.26533471625796	0.972543011278874	21.8815914555766
GTEX.Y9LG.0526.SM.4VBRY	0.317702753564269	0	0.00186661155830625	0.170664745861031	0	1.32193575614612	0	0	0	0	0.39344715862924	0.0743374525696973	0.299532835002759	1.48291174711487	0.00937716024319108	7.31000677479307	0	1.07734224407606	1.86785375881091	0	0	0.574477910893246	0.003	0.289625393197918	0.974624906187914	14.9014569092628
GTEX.YB5E.0726.SM.4VDSH	3.34091091894119	0	2.11593807409748	3.07706674998853	0	4.78282073525924	0	0	0.175246906295783	0	3.13366774384246	0	7.60150503763861	4.75878518783675	0.131067108510745	5.00831483207955	0	0.0402823678034147	2.00136216851453	0	0	2.7458707438609	0.011	0.238471067072232	0.986022526348013	38.9128385746692
GTEX.YEC4.0526.SM.4W21U	1.27750652962136	0	0.287485786100927	1.97291201029239	0	4.33671483962125	0	0	0	0	1.20593948111366	0	3.48252744680443	1.93396572469812	0	3.69627949962939	0	0.259909453656123	1.61099174540531	0.0598624730975599	0	0.851107382360231	0.003	0.287537840344676	0.964066684542067	20.9752023724008
GTEX.YECK.0926.SM.4W214	0.158401768150472	1.32147193598213	1.67299749635195	17.7191762921669	0	7.30888893378432	0	0.619606118247111	0.681918968927979	0	3.98828895129319	1.17179427494274	2.33100761701791	0	1.02559620757121	5.3827225915876	0.389641196571204	0.192059960927331	13.813327447273	0	0	0.44701568532976	0.126	0.0943233821805168	1.06424952838982	58.2239154461248
GTEX.YF7O.0626.SM.4W21R	1.22792369789827	0	2.19792353749874	1.33096490650739	0	5.03391291723266	0	0.155702394979501	0	0	1.60886834334603	0	5.03753789349883	1.53530078735136	0	9.42531836086947	0	0.672505601783259	0.904477486006762	0	0	2.09843675733775	0.022	0.200549438496312	1.00247189040864	31.22887268431
GTEX.YFC4.1126.SM.5RQJN	1.57891876338113	0	0.339829882800233	1.76876098902267	0	4.1302559028026	0	0	0	0	3.7051870453932	0	4.97445481017788	1.18805369455256	0.000450977126188141	1.1053003547276	0	0.581712215777202	0	11.2225770629213	0.760370975942939	9.96446670155594	0.03	0.186657714183377	1.04769939953129	41.3203393761815
GTEX.YFCO.0426.SM.4W1Z7	2.09963531950604	0	0.662277731732647	2.99652855575038	0	4.04931941297413	0	0.445373676268037	0	0	1.00967244999352	0	0.813652154216211	0.944294626840756	0.263791297469395	3.07568653598388	0	0	0.495271674036237	0.403711077071164	0	0.749934807628295	0.00600000000000001	0.269703931484157	0.975468452076043	18.0091493194707
GTEX.ZA64.0326.SM.5HL8T	1.78146668801383	0	0.0765444688340664	1.12684395500489	0	5.47613000620779	0	0	0	0	0.735961421839881	0	0.589917095695599	3.03716614261596	0.581333050916401	4.74609057260425	0	0	1.62228970763385	0	0.166737554918092	1.03563643590442	0.004	0.277132435706949	0.969523887458268	20.976117100189
GTEX.ZAB4.0626.SM.5CVN3	9.3209113988964	0	11.990459992369	9.20306421112979	0	10.4528815083232	0.234971218743127	0.714459818671723	0	0	1.17605384819492	1.30556930790342	2.04302383181241	1.43561398993349	0.766625533798308	14.9459955877313	0	0	3.64163536636751	0	0	0.628387722609382	0.001	0.420307031854133	0.907536549757475	67.8596533364839
GTEX.ZAB5.0626.SM.5PNVB	1.46710082082013	0	1.1043301523211	2.9884043931712	0	8.29515373257991	0	0	0	0	0.677670741159636	1.55771184086817	3.10535635407844	4.51463013535015	0.428071507799926	5.65687945590101	0	0.906346431637567	3.39177619026312	0	0	0.675120440647002	0.04	0.161007891180694	1.01455503123642	34.7685521965974
GTEX.ZC5H.0926.SM.5CVMZ	1.26050585714817	0	0.842259199823555	3.52300690763856	0	8.94758056598918	0	0	0	0	2.54284231704852	0.0971054737745875	5.27334057914741	2.60971837076739	0.286569767458808	6.39601173304572	0	0.172654800448936	2.66597808289651	0	0	3.04196647713779	0.053	0.152713514411105	1.02127172020983	37.6595401323251
GTEX.ZDTT.0926.SM.5J2MS	0.38409060450997	0	0.0564743245811095	1.07037863108564	0	3.82585657575422	0	0	0	0	1.31655075249196	0.192981453631977	6.92771477099424	0.521158772909993	0.119732406784592	3.40897369632975	0	0.347114146833938	0.998897439043597	0.114687413949727	0	0.987465090494376	0.003	0.332112125286326	0.949504648259755	20.2720760793951
GTEX.ZDXO.1326.SM.57WBS	2.62653583970326	0	0.690867426635341	2.05807224414857	0	6.461234595106	0.226657975325712	0	0	0	2.85420636725107	0	1.61925045257334	0.271931686993749	0.413850699783941	2.57011209683062	0	0.119149793480068	1.26102452489704	0.965372604495185	0	0.707663825101255	0.004	0.277071268420112	0.972270384050138	22.8459301323251
GTEX.ZDYS.0426.SM.5IJEQ	2.43725601591259	0	1.85884811905945	2.60493088088451	0	3.31220181413696	0.0197152682287118	0.643106134372037	0	0	1.70721707123039	0.305257028465235	2.96305361606307	2.49534246902937	0.251290929520606	3.22513056071908	0.327546501631401	0.165758577469925	3.44468308852725	0	0	1.23816260527872	0.00600000000000001	0.271432469255483	0.968481873750463	26.9995006805293
GTEX.ZG7Y.1026.SM.4WWDG	0.937233699616143	0	0.882562941425751	0.908005326097494	0	3.05532869568402	0	0	0	0	1.14924700938697	0.63055989839104	5.45583687579333	1.08295005912825	0.592494134786576	2.81558952932823	0	0	2.27871881281427	0	0	5.1989381857899	0.02	0.208449575570695	1.01268198223821	24.987465168242
GTEX.ZLV1.0426.SM.4WWC2	1.94996706638361	0	1.17750046995532	1.39713309081478	0	3.99365489013213	0	0	0	0	1.69109699556046	0	7.34988485618389	1.81150172059192	0	3.35473337765801	0	0.311774948228834	2.14723750154367	0	0	3.05573740808916	0.02	0.209602337008733	1.0014904095763	28.2402223251418
GTEX.ZLWG.0626.SM.4WWFR	4.08816758474591	0	1.67866644581493	1.85525205454507	0	7.4955576912224	0	0	0	0	3.15056259544917	0	2.47673546702722	1.97332153742023	0.0131646107108869	2.46215988428175	0	0.355102661364599	3.42125368395744	0	0	2.34082345831864	0.004	0.274785439152235	0.97000088590054	31.3107676748582
GTEX.ZPIC.0626.SM.57WDY	2.5641480224431	0	1.47397048859298	1.48209518955207	0	3.21143536716253	0	0.421149974817515	0	0	1.41456241953366	0.101076546129442	2.70405586994061	0.821679745936231	0.368812067875732	9.23696599791795	0	0.138695154623812	1.78736625192456	0	0	2.07770325515662	0.003	0.297905033274298	0.960144441880274	27.8037163516068
GTEX.ZPU1.0926.SM.57WDO	1.70302067910021	0	1.14934109999419	1.50910470593753	0	8.34204756147176	0	0.118459901082311	0	0	1.63327257094701	0.594663796007195	5.31390818876753	2.6316078515072	0.837293978819675	3.70394082912386	0	0.411386200285588	0.604451645540858	2.31313311943965	0	2.80395573775994	0.034	0.180013337353816	1.0097802272548	33.6695878657845
GTEX.ZQG8.0326.SM.51MSE	1.80748876377181	0	0.842050313402924	1.9871083355299	0	4.81098737268836	0	0	0	0	0.776466553812179	0.358961094822005	1.02378991603243	1.16047078114477	0.205149320255158	3.65128602753887	0	0.659536018279476	0	5.33571779377112	0	0.875508119158943	0.031	0.185312668386771	1.01600974337427	23.4945204102079
GTEX.ZT9X.0326.SM.51MTE	0	0.0238955706476058	0.115406597502983	1.36296508910362	0	2.13093810176146	0	0	0	0	0.216826348770577	0.539406118515049	9.88640827168713	5.19995001531128	0	5.14650246651136	0	1.90943274362828	1.59240738060707	0	0	3.95684456627494	0.001	0.423386426563266	0.908703085941966	32.0809832703214
GTEX.ZTPG.0926.SM.5O99H	1.83489023206101	0	0.859369641582317	1.49921365654385	0	6.04454467061151	0	0	0	0	1.18400624779933	0.134882164793752	5.69324576116981	3.19678202038791	0	3.68966404572218	0	1.53026358298144	0	4.05692070008335	0.951453475613351	3.7830762203099	0.018	0.218850358800674	0.996620008353627	34.4583124196597
GTEX.ZTTD.1126.SM.51MRP	11.9401859489153	0	21.2555113703994	5.45291756792088	0	23.3518285991934	0	0	0	0	2.92568647708308	2.50561993593594	4.46097379298251	7.57683097167436	1.69727996652656	16.3376542825202	0	0.323512713756073	1.06851960110455	1.40926003033992	0	0.999956683046742	0.001	0.412285525181306	0.912467595121366	101.305737941399
GTEX.ZUA1.1026.SM.4YCEA	1.18109010460626	0	0.135159688160393	2.59618547392694	0	6.4740929814291	0	0.04611793336509	0	0	1.5806142388861	0.687154432931835	0.898486281326061	1.19055408633076	0.519585265598471	2.7509871855056	0	0.0279652460060877	7.16093777614976	0	0.566050685739725	0	0.289	0.0460874795474712	1.07162350845462	25.8149813799622
GTEX.ZVT3.0926.SM.5GICK	0.799084806790568	0	0	3.45781399438371	0	5.63395992242029	0	0.28804223352006	0	0	4.23252682183286	0	2.04203528998937	3.20605322491495	0.662104876074199	1.60604562616998	0	0.468182054503602	2.47278987191123	0.117112534947644	0	1.86313080303303	0.00600000000000001	0.267861166375033	0.978359036901363	26.8488820604915
GTEX.ZXG5.0826.SM.5GID6	2.06427751155731	0	2.23563883089643	5.41933600489067	0	6.87146271672533	0	0.44549616053438	0	0	1.92058674196483	0.12314751481845	1.33705977781504	0	0.359578648599326	10.2398425221638	0	0.0695405085316572	6.82424248240364	0	0	0.498794870214456	0.022	0.199275686519232	0.999797262380149	38.4090042911153
GTEX.ZY6K.0326.SM.5SIBB	0.412523034652979	0.134751409739113	0.689913658952338	1.27544699349331	0	4.15605928077199	0	0.878879566818042	0.376885671729392	0	0.595976204196637	1.3910509511336	7.33474767105646	5.24526226001633	0.562860788779897	6.20320088929953	0	0	1.03299501944214	0	0	1.23511767364226	0.115	0.0991796066265509	1.05028242126347	31.525671073724
GTEX.ZYFG.0226.SM.5GIDT	4.76125046904003	0	2.17092450537702	3.09735281292874	0	8.60863545198418	0	0.611394112954442	0	0	1.51655808327681	0.177213687665314	1.1938266570116	2.81416607848321	0.313477800953332	9.08692280652943	0	0	1.34059062342851	0	0	1.83885507671899	0.00600000000000001	0.266655041251516	0.974514669870328	37.5311681663516
GTEX.ZYT6.0526.SM.5GIEA	3.42959685726658	0	1.60206596102177	5.61390969741578	0	8.13275599113761	0	0	0	0	1.80255132025807	1.0552766469144	1.88099873579885	2.15839844341191	0.331341378491127	3.86226809091894	0.821759409379879	0.12401608886262	2.46519234761489	0	0.0815842755242057	0.593124188875616	0.011	0.243559668214399	0.986321833853371	33.9548394328922
GTEX.ZYW4.1526.SM.5SIBA	0.766256318152652	0	0.0230906172625189	1.07237221858061	0	2.70153870977247	0	0	0	0	0.925561491791601	0	3.58435304070131	0.678122298234728	0.459901283027768	4.73126737624981	0	0	3.06792492070652	0	0	0.390457585633441	0.08	0.130092807783472	1.02766852747875	18.4008458601134
GTEX.ZYY3.0926.SM.5E454	2.43022976289335	0	0.861369645299296	1.80925602647425	0	4.58566698745067	0	0.111433488668197	0	0	2.65921283935617	0.0880612518441817	1.03537479999281	3.66670798321331	0.02770767599397	2.50322620286899	0	1.07531285230231	3.00672309449152	0.825581659926275	0	2.13638554018879	0.022	0.200498832179544	0.999086279196638	26.8222498109641
GTEX.ZZPT.1326.SM.5E43H	0.771446931689272	0	0.0187095981010354	0.0466293689215793	0	5.94938333928287	0	0	0	0	0.827896938005392	0.627963475078999	0	0	0.325470943082566	3.97581438740666	0	0.508451696543424	1.75646842926922	0	0.267087075837017	6.93209885458915	0.00700000000000001	0.264821278516914	0.993825307892478	22.0074210378072
GTEX.ZZPU.0526.SM.5E44U	5.13019308172531	0	5.97669135593447	3.35321417603307	0	5.09263871638423	0	0	0	0	1.79367802393639	0	6.48371871090629	3.61192839842058	0.0491677567874416	10.2619542586927	0	0.539871184686605	4.11149491940759	0	0	3.19035729988311	0.003	0.340168958670898	0.942437148899321	49.5949078827977
