/mmfs1/research/cmunugala/mito/cpm_ah_samples/Bams/CPM00019560-AH-D_20221219/CPM00019560-AH-D_20221219-dragen-somatic_tumor.bam
/mmfs1/research/cmunugala/mito/cpm_ah_samples/Bams/CPM00024588-AH-D_20230118/CPM00024588-AH-D_20230118-dragen-somatic_tumor.bam
/mmfs1/research/cmunugala/mito/cpm_ah_samples/Bams/CPM00024943-AH-D_20230203/CPM00024943-AH-D_20230203-dragen-somatic_tumor.bam
/mmfs1/research/cmunugala/mito/cpm_ah_samples/Bams/CPM00024952-AH-D_20230203/CPM00024952-AH-D_20230203-dragen-somatic_tumor.bam
