aDC	Adipocytes	Astrocytes	B-cells	Basophils	CD4+ memory T-cells	CD4+ naive T-cells	CD4+ T-cells	CD4+ Tcm	CD4+ Tem	CD8+ naive T-cells	CD8+ T-cells	CD8+ Tcm	CD8+ Tem	cDC	Chondrocytes	Class-switched memory B-cells	CLP	CMP	DC	Endothelial cells	Eosinophils	Epithelial cells	Erythrocytes	Fibroblasts	GMP	Hepatocytes	HSC	iDC	Keratinocytes	ly Endothelial cells	Macrophages	Macrophages M1	Macrophages M2	Mast cells	Megakaryocytes	Melanocytes	Memory B-cells	MEP	Mesangial cells	Monocytes	MPP	MSC	mv Endothelial cells	Myocytes	naive B-cells	Neurons	Neutrophils	NK cells	NKT	Osteoblast	pDC	Pericytes	Plasma cells	Platelets	Preadipocytes	pro B-cells	Sebocytes	Skeletal muscle	Smooth muscle	Tgd cells	Th1 cells	Th2 cells	Tregs	ImmuneScore	StromaScore	MicroenvironmentScore	SAMP
0.0534600388836691	2.52620716726724e-20	6.10611675150529e-18	0.0495520218745771	0.272736457777731	0.00442645977070599	0.040662011592545	1.42990441427131e-17	0	0.0488944364403859	0.0133566550422548	0.0097056819317452	0.0540254655652125	1.5702476280542e-17	0.0995475970639741	0.0222956843633365	0.150815621732463	0.0182151110834391	2.59318920590088e-18	0.0800875633018179	0.0307962229250629	6.7529370474158e-19	0.00957649040444595	0	0.0705910884851439	0.0839654849818311	0.00436556152027359	0.382887472905035	0.0991823050395848	2.25197577167346e-18	0.0772286041494939	0.0280087297792605	0.0217626563180578	0	4.01577352788631e-19	0.105503002144352	0.0395490692147088	0	0	6.46221860502449e-18	0	4.12077068857667e-17	0.0518297671429876	0	0.033614760765561	0.00872369192314077	0.00777384211721758	0	3.93690711936899e-17	0.334059555917084	0.0148725723407672	0.0259316013723935	0.0747418975298753	0.0321666513825106	0.00901167296725407	0.281176064957611	0.129586476608717	1.42696921237952e-20	0.019215236031035	0.0927723356360701	2.69175412333795e-17	0	0.1410617310907	0.0877858712101857	0.111569331258267	0.0506936557051034	0.162262986963371	GTEX.11DXX.1426.SM.5GIDU
0.329749378577336	0.00863580476392373	0	0.230678479084017	0.309965173422877	2.24400169589455e-19	0	3.53214963500138e-18	0	0.000926547620691157	0	0	0	0	0.223526753392946	0.0312087081139991	0	0.093398816911342	0.00192863929046559	0.0405757164332026	0.0517315410783132	6.78361979905455e-19	0.0510782975619351	0.000459092889287708	0.0148935298315946	0.0301053344568057	0.00465838956696126	0.193028796977978	0.35342572425834	0	0.0602602661876338	0	0.0123760055945106	0.036611389691561	0	0.0339689511045086	0.0357766356064479	0	0.035139385890825	0.00758541823766173	2.32657719688885e-17	0	0.0405063533569651	0.00571536169672473	0.0454234056605961	0.0289318803996908	0.00516631783109304	0	0	0.0166005582777378	0.0709223256532966	0.0476514049358083	0.208400311871099	0.116603681297214	5.04833273733499e-18	6.84932986837389e-18	0.123482206368003	0.00313880082061787	0.0283070491721512	0.0325933670552406	4.71577913578153e-17	0.101203522539372	0.144629030494712	0.0358924112415585	0.180836130344813	0.0376304378369157	0.218466568181729	GTEX.11EM3.1726.SM.5N9D1
0.456208297839702	2.09137509346675e-21	0	0.0353894541146546	0.699666801781533	0	0	0	0.025350457471364	0.0213186242657504	5.17709932826382e-18	9.35679178310289e-19	1.15130316990164e-17	0	0.20368222522744	0.00875896920318656	0.0890002776849754	0.136379951615173	0	0.0149102833941606	0.14000188090335	0	0.0209540680771291	0	0.0288954685190469	0	0.0101272564906348	0.0875426484768033	0	0	0.197225244294383	1.91412383347773e-17	3.71911151573245e-18	0.0318256978244748	0.0376885510124672	0.0257941665674664	0.00913892595675365	3.25152616091322e-17	0.040604797741902	4.46892938054089e-18	9.05161034283809e-17	2.18055119249263e-17	0.370390016787129	0.0430551614205251	0.0226524657785737	3.08543703762e-18	0.00704222486047123	7.44797087346025e-18	0	0	0.186257215655282	0.179860243507104	0.169775954963964	0.100054465907415	3.22449855632179e-17	0	0	0.00599818735197411	0	0.243735069899974	0	0.101946537398921	0.0226881126933496	0.0427608827580312	0.0586588590141883	0.0844486747111984	0.143107533725387	GTEX.11EMC.1726.SM.5H11P
0.263167908630122	4.85026379392212e-20	1.81274848584325e-17	0	0.147302289224251	0	0.116057238160695	7.07453752499944e-18	0	0	1.15350340328659e-18	0	3.1857925183212e-17	1.35135855168144e-17	0.0473429821930119	5.07812663035006e-18	0.010941521449186	0.0458540573585116	3.97759152323679e-18	0.0180560723015948	0.0200557193301018	0.0574538527976078	0.0237679020866454	0	0	0.0351563297681596	0.000188832012045756	0.156590982056808	0.112693623408451	0.00377612489594742	0.0151105975428419	0	3.81523802343371e-18	0.0233499994557135	0.0286862736724664	0.0101449896121697	0.00198767405157538	0	0.0162451896759367	2.06671610157986e-17	9.73732859695587e-18	0.0608147240218247	0.238523675637117	0.0175770281402431	5.22697121803052e-21	0.0202474901889213	0.00343295510624642	1.22087127037825e-18	4.66448374723995e-18	0.175830845099901	0.0190170412721299	2.77917494439385e-18	0.0346037721027236	0.0408487603386043	0	0.171372801808906	0.0457571671118981	0.0121788407587672	1.87116442702607e-18	0.357717459728691	2.84993187128457e-17	0	0.10399685029189	0.042764264728656	0.069464132514446	0.0100278596650509	0.0794919921794969	GTEX.11GSP.0226.SM.5A5KV
0.238309845375444	0	1.67645182850982e-17	0	0.29455454698885	0	5.77436541154909e-18	3.95352209448079e-17	2.84178855496998e-17	0	1.82077079411487e-18	0	0	7.19144364365848e-17	0.0447171960500393	0	3.10413562339453e-19	0.035614310238755	0	0	0.0254662541397663	5.33530978952915e-18	0	0.00270851490182562	0.225740838527719	0.179519046778617	5.67044970352741e-18	0.53182871330299	0.162610534993401	7.50805227876068e-18	0.0114936548721312	0	0	4.6894327441495e-18	1.34144978838724e-18	0.026610488536542	0.0100815683916744	1.74635960562911e-17	0.00772563558994244	0	7.83789553703616e-17	1.71569065845794e-17	0.171473408548985	6.81580811606047e-18	0.0186636122479825	1.47333638009259e-17	0.00623936004589606	4.50501451656192e-20	1.09190998899309e-16	0.241116297633402	0.0415979758619322	0.232420104131087	0	0.134677672236914	0.0280703601302161	0.0539285682877855	0	0	7.74701315902423e-21	0.297270317871091	1.22783922255669e-16	0	0.324266335582617	1.02388458726202e-19	1.55884656625041e-16	0.125603546333742	0.125603546333743	GTEX.11I78.1926.SM.59878
0.599422750320283	1.33339635178886e-18	1.75782630165261e-17	2.0600850399082e-19	0.379618465337662	9.38243199394036e-18	9.93566555143273e-18	0	0.0287539547865865	0.0214398788917781	1.07089647769783e-17	0	0	0	0.0559253160767263	3.94982506324e-18	0.117927999802021	0.56349832758319	0	0.0364067515584225	1.4099364517654e-20	3.09033212120684e-18	4.20019800622135e-19	0	0	0.0416470174909913	0.00644886190254369	0.201720581553226	0	3.08991825353651e-18	0.0281268254585906	0	0.0225080016237949	0	0.03160333164686	0.055575073319298	0.0331166618167133	1.18763028079566e-17	0.000675004572296879	0	0	3.95815089413871e-17	0.811078970183733	0.00147179735392528	0.000849917151358217	0	0.011968261764766	0.00692282588231816	5.51077942754625e-17	0.0771777008160761	6.91035428325191e-18	0.24230333525045	0.0686080603212577	0	0.0052753685455199	0.0170206939560262	0.0979061724991103	1.66512359858873e-20	0	0	0	0	0.104735370044784	0.0562699160401491	0.0499552727250671	6.73747858153257e-19	0.0499552727250671	GTEX.11P81.1526.SM.5P9GS
0.309193107562027	0	0	0.154508729875965	0.000819823064819282	0.011897323019258	0	0.0348054320178352	1.9226386658986e-18	0	0.069704301372156	0.115940947189565	0.00062787042826728	7.22344116387654e-19	0.118303845095756	0.00387644172751396	0.0227823384869073	0.400292251279389	0	0.0624603676985837	0.0720016843860622	0	0.0333265521949512	2.31195600216374e-18	0.0842190992982711	0	0.00455448958791957	0.235227978002652	0.198228921474301	0.00480766728598344	0.077300005013919	0.00737861090313436	0.0149603329227907	2.1596607034263e-18	4.04744623020956e-19	3.80840086521436e-18	0.0641654173780461	0.00225199002544904	3.84437355821228e-18	0.00430317318350644	0	3.70763792401934e-18	0.104478628936951	0.0367266822680557	0.0549505403634685	1.25834792106983e-17	0.00717361954473394	0.0047730842975338	3.070663749663e-17	0	0.159911727497181	0.00175945194497163	2.71241103577102e-18	0.0890003499462329	0.135366141277083	0.0884056249562903	0.107567999772254	0.00334915668399935	0.0197720486390393	0	4.11973079306989e-18	0.124618782270626	0.01819831474673	0.267627251292665	0.253244781321745	0.0781103918421667	0.331355173163912	GTEX.11VI4.1026.SM.5EQM1
0.34055606856277	2.50925264579017e-19	0	0.0367885473345309	0	0	0.0139577999058963	3.11255936459027e-18	0	0.0840235595843157	0.0310546326100093	0.0126568452339994	6.4499670319542e-18	3.11723140862942e-17	0.109774402184936	2.62504237869447e-18	0.112958927097527	0.165874953954352	0	0.0230337051120502	0.105851489299032	0	0.0197156298595865	0	0	0	1.96574042036405e-19	0.22851469111602	0.233447050765722	0.00369486896590186	0.123570951978081	5.88870116564688e-20	0.0422993132619132	0	0	0.0168977483051272	0	0	0	0	0	1.4537260636548e-17	2.9842543305508e-17	0.0184379234807273	0.0188749317851635	4.39801662467035e-18	0.0105699177641379	4.33374099557438e-18	3.01115078006483e-18	0.108308781719689	0.115512330083574	0.0790764602166685	0.115633765947533	0.160171648993032	0.0706424627743969	0.0577452187710913	0.095344392536593	0.00494262707152691	0	0.387707407187421	5.06472432721527e-17	0.0632507115092453	0.231728103374571	0	0.0483193984537204	0.0529257446495162	0.101245143103237	GTEX.11XUK.1626.SM.5GU5O
0.265183670914101	0.0209611383989992	0	0.189768696847628	0.341602768248352	1.61280570246876e-18	0	1.08383020359662e-17	2.78413503249932e-17	1.54170351091051e-17	0.00348164625941896	4.71101391708815e-18	0	4.90458968054527e-17	0.227526775057827	0.0211730639413001	0.139098059419489	0.220158770600307	0	0.101270609839196	0.024623446803658	0	0.0564969452654832	0	0.121948028185299	0	0.0107290625519443	0.479739724876651	0.205935617005576	7.06355814148642e-19	0.0476971913472062	0.0205262166007718	0.0147523071876898	0.00525437835073521	0.00223923890661001	0.0120405920760635	0.0178618327660746	0.0171624816159192	0.037790137357401	5.99934788973308e-18	3.73129641237255e-17	6.86486691771639e-17	0.10790095158446	0.0126866786494429	0.0446707906612703	7.6356620205883e-19	0.000888602916772371	5.66709828049036e-19	1.91032773889966e-16	0.222477249364908	0.0239334263036125	0.330667403470311	1.28524760512231e-17	0.17667392209306	0	0.0722198251840156	5.83368348593883e-18	0	0.0583939949867895	0.364573728855287	0	7.41863951573649e-20	0.297008974497142	0.0423658540258337	0.209203174796137	0.0837663066939782	0.292969481490115	GTEX.11ZTS.1926.SM.5CVLA
0.495731023671051	4.34548438201612e-19	0	0.0476950214938138	0.3698378782668	0	7.09828022453679e-18	0	0	0.0112532630842456	0.0790341685855589	2.0247005707067e-18	3.55452137395044e-17	4.85034825366366e-17	0.114273267118525	1.17420997286451e-17	2.66077738375203e-17	0	7.52449806292196e-19	0.00279687388717762	0.0419113072533889	0	0	1.07912646242897e-18	0	0	0	0.318544889922399	0	5.07488582621593e-19	0.0822424297565263	0	0.0338717389055408	0	0.0142427127261283	0.0280882626941234	0.009518913254996	0.0361110612041582	0.0795096953180673	1.13259083709001e-18	0	1.04482151244263e-19	0.361711720563157	0.00798085589181772	0.0526314337088399	2.13597379881054e-17	0.00592477511877832	0	1.66232013248602e-16	0.070166257429458	0	0.154521189766116	0	0.173285012632125	1.82968286528652e-18	0.24615822593032	0.0377856616292907	2.89893139142308e-19	0.0231515982930599	0.24868474765518	1.38444428438021e-16	2.18463298740395e-17	0.362259945107763	0	0.0431564054047466	0.0209556536266945	0.0641120590314411	GTEX.11ZTT.1826.SM.5CVLN
0.227646283231186	0	1.12449862544812e-17	0.02713111663335	0.464625759989601	0	0.0505274303355559	0	9.68596889371385e-18	0	0.00212462736726651	8.0716910974551e-18	3.04168467911061e-17	0	0.173334467323184	9.88085702803809e-19	0.0521335512897651	0.0894943483600732	0	0.00893377807308615	0.0237303047329333	0	0	0.000438660937254558	0.142854866037606	0.139776576573186	0.00168089183866259	0.169932587329116	0	4.67656441183722e-19	0.0498700180971275	0.00510166839970113	9.53312545803082e-20	0.0383628139092737	0.0257213737995795	5.53687632554999e-19	0	3.2107386051699e-17	0.0448870463155443	0.0261958825342077	2.64752601235141e-17	2.11913116991927e-19	7.91454933023614e-18	0.000415387736867065	0.0398832427204045	0.000778413520871012	0.00463965483694677	0	0	0.319639866343471	0.215243890417803	0.133910634706009	0	0.128461187752969	0.0420414427931337	0.2348391454461	0.0795097771701488	1.5994411159009e-19	0.0159535680104889	0.349792252576239	0	0.128198696981876	0.0121256396839253	0.0629382677403519	0.0445919579371445	0.0832925853852695	0.127884543322414	GTEX.11ZVC.1426.SM.5EGGA
0.243385662670463	1.20783964869425e-18	2.10174598349678e-17	0.101527828033247	0	0.0282232686478585	0.0908074515368485	0.00072676150193267	0.0151875470531061	0.0301021522342075	0	6.42195838738795e-18	1.18647416778257e-17	3.82317819191539e-17	0.148187936159767	0	0.143518996078078	0.246955283077871	2.76212715814826e-19	0.0239576272818769	0.0436934694576977	0	0.00875385188396459	0.0018338052267865	5.83480384605489e-18	0	0	0.124374707445312	1.05343820528692e-17	0.0035968149181968	0.0719882902763942	0	8.93334648046673e-19	0.00262060675627014	3.67773765554009e-20	0	0.0773074549918943	0	0.0144997958741633	0	0.0308871646609424	0.00171339967584487	0.328780085737313	0.0170856720995436	0.0281366665338439	2.17100296045871e-18	0.0025528700066645	0.000492400961737127	8.60878741881927e-18	0.382458906381223	2.34416946222562e-18	0.0795798762224529	0	0.14914925989813	0.0442959740196908	0.117604980503779	0.0368927846788765	0.00053023420286676	0.0126394968260824	0.068708411755086	3.67414948863325e-18	1.37611925900973e-17	0.414215889452377	0.0127481917334255	0.105061188293157	0.0218467347288489	0.126907923022006	GTEX.12WSD.2726.SM.59HLR
0.261332315237028	0	8.47487151458699e-18	0.0527949120433422	0.391003378026658	3.48403412159337e-19	1.08311515074056e-18	8.15174267237062e-18	1.76188656667242e-17	0.0564995614205102	0	3.3014945885753e-17	0	0	0.142375546451153	1.55909257889274e-18	0.0859828929496931	0.0763377093802083	5.82585704290513e-18	0.0508358344336526	0.0918196084352541	0.0153091327216005	1.90384220819956e-19	0.000783954359966613	0	0.00294399831731756	0.0052516345584268	0.368224825965229	0.391674157765079	5.67299314718115e-19	0.0533685525243453	0.0171654186621958	0.0396540347084245	0	1.50637787315151e-19	0.0300125220108202	0.0187494250839929	0.0254659133476139	0.011466341999916	4.98603893804548e-18	0	1.83658772039404e-17	0.028581603171202	0.0295460772081131	0.0705499498637998	0	0.0104431647071983	4.94702243936826e-19	6.27203211530753e-17	0.0786152583139348	0	0.128530554339907	0.0105435549667694	0.0388203158835283	0.036516850669456	0.0714005878478978	0.0378801046086149	0	0.0597819121487072	0.381905779557319	2.69130618159313e-17	0.149028389225957	0.114558986379902	0.0236023016160787	0.0907368652405275	0.0459098042176271	0.136646669458155	GTEX.12WSG.1426.SM.5FQUK
0.673593881439912	1.81747617632301e-18	0	1.19678877712592e-19	0.435334776639435	0	0.0277558722740967	2.08208073124679e-17	0	4.42772608075029e-18	0	0.00725937838165672	4.52203183392167e-17	4.99167669479257e-19	0.0964694877293797	1.87590388658394e-17	0.0126538774859682	3.86294896917292e-19	0.00862964995873228	0.0130854487207092	0.0615455096865086	0	8.30151870280605e-19	7.12796428389328e-21	0	0	1.0733865384408e-18	0.168261126509653	0	5.46994535389976e-19	0.0544180370997206	5.43323589016039e-18	0.00750882067530835	0.0300741450810994	0.00712131447470877	0	0.0341124906958236	0	0.031902463568529	0	0	0	0.478418215405889	0.017659903979533	0.0134826746421954	0	0.00900075626171562	6.73026581390285e-20	4.34571580653045e-17	0.067000626531471	1.92438842723743e-17	0.179548797932073	1.2968347485993e-18	0.116436720930847	0	6.51088595743015e-18	0.0319702880482915	0	0.00927333453828729	0.144343484336112	5.87163500366245e-17	0	0.419258314101695	0.0648937769029349	0.0183107610513832	0.0307727548432543	0.0490835158946375	GTEX.12WSJ.1226.SM.5LU91
0.0583580240024541	0	0	0.116039336333293	0.0556271785252421	6.83986325974606e-20	6.73369110874952e-18	8.24996603346455e-18	0	4.84472200995384e-18	0.032842311360875	0.0802325839267848	0.0432070645987748	0	7.1072202522848e-18	0	0.177675836302693	0.145207791314279	0.0118210037004616	0	0.0531467470578989	0.0201883605696321	0.0481372865251425	9.10799586743282e-21	0.344246435736786	0	0.00580235260413577	0.242468445789658	0.0853975292986107	0.00233542042376675	0.0320062829658695	0.0120991523703211	0.0134752288767196	0.00376760843704048	0	2.54764894537394e-19	0.0138623156301125	7.82810574264554e-18	3.26309570491912e-19	0.047238629341762	1.28055138770502e-17	2.15277393163206e-17	1.08113598727489e-17	0.0111574828630876	0.0172142850179092	2.97688670505801e-18	0.00637870730576227	0.0022374219895403	0	0.0569689537780266	0.109476473453861	0.0890320306184454	0.131740617034405	0.173838079627026	0.0636963485477269	0.0856980077671057	0.0626619001378752	0.00107299142211107	0.0163393581931431	0.0869633682251395	0	4.40791709738337e-18	0.244453800095471	0.125070149579456	0.153864570126381	0.198696591397342	0.352561161523723	GTEX.12WSK.1926.SM.5LZVK
0.538722540528459	0	0	3.56904016995445e-18	0.168386813325673	7.10972144744082e-19	0.0450387393085502	0	3.41941700342681e-17	0	0	1.72090674546169e-17	0	0	0.361582713605586	5.26496020387435e-19	0.110353751937333	0.0563449067936073	0.00116215051521884	0.061362100264753	0.00413869682347791	0.0121360314421039	0.0431086009371508	0.00890740980757913	0.165995822785746	0.0562887403939407	0.00906393733219263	0.421626347986014	0.119710409909581	0	0.0292216343763127	1.09784190934307e-17	0	0.00421713926000068	0.0223971996865114	0	0.0499378490392886	0	0.110960190900434	0	0	8.61519502634616e-17	4.69539704644126e-17	0.0107653831452867	0.0205640594802916	1.54763275763926e-17	0.00913866884748303	0.00885679308235583	8.10453137748458e-17	0.405254596567753	0.167412426190686	0.0677142373427059	0.171923519403127	0.0576635273280117	3.7884776699239e-18	0.0856944724195192	0	0.00175359047590299	4.63090903713893e-19	0.272267714704071	3.38148429580857e-17	0	0.0717889823794786	1.14709606474045e-17	0.0698347496504828	0.0850672598046122	0.154902009455095	GTEX.12ZZX.2026.SM.5LZV9
0.347161331600916	0	4.60028422297804e-17	0.03974360572445	0.317502264045309	0.0264320008405263	0.113331489174472	1.69783279345455e-19	0.0608257092145969	0.134561289875415	0.019303233161643	9.35326336953653e-18	0	1.79922688152751e-17	2.13366048188861e-18	1.91870803717501e-17	0	0.00672461265709563	3.15157801989977e-19	0.029370123236339	0.0842408382617514	5.31112545883809e-19	0.0136299973598561	0	0	9.68979218189237e-18	0.00478123702912662	0.00681030357738001	0.0118447889273188	0	0.0879717935418137	1.14688969563818e-19	0	0.00909562376124956	0.0185620798553826	0.00745374910456396	0.00913207370484239	0	0.0452993045574275	2.79529964688377e-17	0	0	0.49696092378548	0.0260627611503292	0.0241253391319215	0	0.0175057651787007	0	5.86432581574621e-17	0.146601116699188	0.0911974652140946	0.037957595716986	0.0328444661169086	0.0704530412110661	0.0659265661622833	0.208740574546607	0.0451337360114374	1.90395240422683e-20	0.00621748870419765	0.152933855621399	4.12137701613758e-18	0	0.0828538990663583	0.0731861308775456	0.0584505392107811	0.0421204191308757	0.100570958341657	GTEX.1313W.2726.SM.5P9IX
0.325619300251694	0	1.16705398020419e-17	0	0.602422303575813	0	1.67935025622573e-18	0	0	1.26129929699964e-17	0.0103456782145708	0	9.92735199711083e-18	0	0.190084117011047	0	0.0743981632084241	0.195564260057575	0	0.0350207263692003	0.0345278518077688	0	0.00941495876390654	8.59612090492368e-19	4.18021899514448e-18	1.48923963540672e-17	0.00799750966093386	0.33838299392798	0.328383149937503	0	0.011322419840408	0.00161936254870307	0.0294650866490038	0.00799947140999075	0.0230660763218554	0	0.0172137146779251	2.98828568610433e-17	0.0429374517753804	1.90616133334686e-17	4.04192463196145e-17	2.19153898788242e-18	0.536264334820067	0.00985256624099727	0.000427239849409505	0	0.0100409956531744	0	6.30583856470662e-17	0.242365806483257	0.016004397902433	0.047653933480693	0	0.12888460986741	0	1.29461406876726e-17	7.19405266050228e-18	3.30787428319329e-19	0	0.347722867396074	2.48834876885402e-16	1.23985080628859e-16	0.620756757874763	0	0.0398041101598392	0.0172639259038844	0.0570680360637237	GTEX.131YS.2226.SM.5P9G8
0.27324838028588	0	1.49299602956783e-17	0.1374381127774	0.235536366496719	0	0.128837614407809	1.35844117644912e-17	4.56508504724397e-17	4.23376661498469e-17	0	0.105353755805918	0.0774646825131477	5.82033957756203e-17	0.216407560718735	2.68892741290164e-18	0.105303201017845	0.286739122237205	0.0200040918545781	0.0192241819693648	0.0321387791901982	0	0.0023891940256018	7.04939298160545e-19	0.205074848819667	1.56474819685727e-17	0.00794421643081369	0.0636012341817437	0.0275688811249756	0	0.0301874453499674	0.0255015040180055	0.0254974897455784	0	0	0.0323158443261288	0.0114821299962992	0.0627092751398108	0.00021017272413971	0	3.6015835187677e-18	8.53222402800626e-19	0	0.0315086239771053	0.0870917596413074	0.00165434119886522	0.00276150133823759	0.00238355825570802	7.9233756114274e-17	0.123060984103337	0.0662665355042942	0.00694123319413939	0.0315454918554889	0.0013206807709796	0.0347013911880295	2.31129573676633e-18	0.25222583730036	2.03962666199889e-19	0.0200788454415815	0.542465100717698	0	0.0479532933412347	0.220389706564178	1.32663364337477e-17	0.193267408550931	0.118606814004932	0.311874222555863	GTEX.132AR.1426.SM.5IFF1
0.359961348798409	0	2.42154462884335e-17	0	0.395775500097236	0	1.06000783854812e-18	2.58785658181253e-18	0	0.133809686376744	0.0346740012459061	2.5734849592889e-19	0	0	0.15726013341137	0	0.0402628921686264	6.77196384679275e-19	2.29554132740104e-18	0.0394537236223993	0.0675899078462312	7.59457146127043e-19	0	0.000129601494089885	3.92925023282872e-17	0.0489257721783024	0	0.406304049618586	0.349300862308163	2.89604652705681e-18	0.0346288582250346	0.0229938989110719	0.0143159066614699	0.0131291796272581	0.00490910267383585	0.0496910099904355	0.0139606634127572	0.00840241413018914	0	0	0	1.71870768347578e-17	0.534308974539528	0.0366083445138831	0.0676322342448355	2.06094256697598e-19	0.00801909318038944	0.00309849240757701	0	0.13689800159316	7.45882470149098e-18	0.00907797765983009	2.76619935677965e-17	0.0167727699791743	0.00545699130240611	0.0673912739934944	0.0807860778223117	0	4.19539114304474e-19	0.0593692140506688	2.66676905538598e-17	3.91608260848169e-18	0.0264041637606791	0.179567164611428	0.0469701450765894	0.0337949539231156	0.080765098999705	GTEX.133LE.1226.SM.5IFGC
0.150178444742138	0	0	0.128295434216492	0.366457975463227	0	0.169721493534778	5.2834589825771e-18	0.0132027783937065	4.97805816749794e-17	6.04832856120506e-18	0	7.0909986778155e-18	0	0.0342628886914888	0	0.122589288540238	0.0900754002230547	0.0117106701758226	1.48923601675773e-18	0.115862577310359	3.35249214394787e-18	1.08270045071499e-18	6.26187025940467e-19	0.158685801771865	1.40919538324723e-17	0.00621090057754013	0.257220961415991	8.15626443298205e-19	0	0.114683818707719	0.0149199002099379	9.19653366697625e-18	0.0177817826035704	0.0244438629575118	0.00384396375626678	0.015727691276317	0	0.0256371294551485	0.0153605003945201	7.02227571035584e-18	4.28906161892423e-18	0.0689969255285229	0.0348513674944436	7.758000040895e-19	0	0.00084618015206399	0	0	0.491854719247504	4.5825197415778e-19	0	0.00830066866163188	0.0662414714293052	0	7.82281429751253e-17	0	0	2.49393130007118e-18	0.401228071352786	1.37203188080802e-17	4.46862420177861e-20	0.0300061969183997	0	0.111772798255961	0.137274189541112	0.249046987797073	GTEX.139D8.2426.SM.5KM3A
0.520285117201339	0.00219443752910871	0	0.151384559698233	0.502905122051474	0	0.0064660337501265	0	8.73710078642159e-18	1.00935044155811e-18	1.74957651717488e-18	4.34482270630992e-19	3.8667540861242e-18	1.92841311817046e-17	0.186825799850016	0.0263571061144638	0.0355611487242114	0.42315181820483	1.34779149478688e-18	0.0949415489681443	5.37225241207065e-19	0	0	0	0.0624413595536467	0	0.0122971468777906	0.214093174556935	0.548381324139492	1.33551488467914e-18	0.0232146076507452	0	2.06787117423084e-18	0.0166874361790821	0.0208902510692859	0.0573199149126748	0.0410833779483102	0.0367282345549674	0.031539239201391	0.0098365339581434	0	5.21692477372441e-18	0	6.56299502354497e-18	0.028108636675093	1.59988302540927e-17	0.0128359450081837	8.60055751865222e-21	0	0.280327501192763	0.0900073329827178	0.0693517427011826	0.0253985168286928	0.112084673687648	0.0486898376420233	0.0932230981271738	0.119267448825495	0	0.0174877044913548	0.19031153803812	7.03150257226443e-18	0.0443851051410585	0.00457612131673958	0.115093868195194	0.178144239823775	0.0323178985413777	0.210462138365153	GTEX.13D11.1126.SM.5KLYS
0.594410588021509	0	8.2005811987202e-18	1.08562673673369e-19	0.456261081154586	0	0.0128105503681323	5.79092855716732e-18	9.78689397746225e-19	0	0.0078893106714042	0.0324026041996787	0	0	0.3729892776862	0	0.176557541538552	0.0232275384439536	7.71926663529835e-19	0.128574421089973	0.111102449875782	0.00862893250114679	0.0317228361464359	7.13039851763123e-05	0.192397360226288	6.44464620282052e-19	0.0124183490882824	0.60698152670092	0.33529945553892	0	0.0891266949449494	0	2.961572665991e-19	0	0.00374259000661277	0.0337217737238754	0.030694674937578	1.70440668088137e-17	0.0561242075652479	0.0250112340141215	3.10017411180814e-19	6.15124625245961e-17	0.141999557364295	0.0335107131212173	0.0574948503872783	4.09510224111273e-18	0.00170368818017271	0	1.25941905705173e-18	2.44261281299336e-17	8.64811380734816e-18	0.0529018593793568	0.085423518007108	0.0745248249100655	0	0.315505061719133	0.0676951874435399	0.0191176234648931	0.0567335789227025	0	0	0.0300647832404477	0.112206173492024	0.144995477565133	0.115565698531607	0.151749905051035	0.267315603582643	GTEX.13FTX.0926.SM.5IFF7
0.373205289383387	5.52850410745216e-18	0	0	0.261779314054963	0	0	1.11796631980172e-17	8.82931417603627e-18	0	0.00280412714183463	0	0.0533912858683858	0	0.279253734483625	3.98031645596694e-18	0.0171932477459396	0.0292034833674172	0.0629229365707993	0.114025193023616	0.0184893578691003	1.81052381068366e-17	1.40139040573151e-19	0.00178447759168864	8.11214423332858e-17	0.0820250936797556	6.34133389587928e-20	0.287108138152794	0.411864051357611	0	0.0444555012595929	0.039464537614443	1.66986307678446e-18	0.00536462776147776	0.0224809102889604	0.0631568816765149	0.0461354881967443	6.91192076413109e-18	0	0	0	0.0258349216243321	0.634281597901533	0.00128822302052689	0.0848537542041565	0	0.0165210421715868	0.0475072444024893	2.76075562194779e-17	0	0.0786781148970349	0.0376573276786376	4.08145444363182e-17	0.0932562733510611	2.04770701249964e-18	0.19732846527456	0.0590774496592405	0.000464537468337177	0.0472057306938847	0.124511397104577	8.27736471212429e-18	1.8414742190232e-17	0.540174075329844	0.00605753980878591	0.148985256886339	0.00924467893455019	0.158229935820889	GTEX.13N11.0526.SM.5IJFI
0.356796998650466	0	4.14869576909396e-17	2.74634248826615e-18	0.029557391411447	0.0552610841912238	0.0797893454070895	0.0393802044934463	0	0.0879908550226427	0.0317802972174484	0.0569189967513902	0.00271808339460883	0	0.261411594944025	0	0.104571850753895	0.0328242399370963	0.00172126735218278	0.0327547402215753	0.0377247686177756	0	0.00140127938620795	0	0.181610875204485	0.0408124176503946	7.34033924534563e-19	0.333279688774471	0	2.35195259485925e-19	0.0350190906665706	0.0172991852484463	0.041847691355068	0	0.016732101110154	0	0.00835819753302583	1.06805781935909e-17	0.107081259799176	0	0	0.0182340401612799	0.169479003025056	0.00413585135941877	0.012844724107005	0	1.24850245865988e-19	1.1234485194439e-19	2.37585904853421e-18	0.127751340205883	1.57149202023046e-17	0.0792142308720353	1.75764482466794e-18	0.0933251042209527	0.0703723293477482	0.210245923597683	0.0442971134420024	0	0.029803928901991	0.384660027390832	0	0	0.493519677228894	0.0424658797952668	0.108723485216675	0.10966782191113	0.218391307127805	GTEX.13O3O.2726.SM.5KM35
0.290131032307412	2.17131802749853e-19	9.32854661980455e-19	0.0944583112787781	0	0	0.0157647600986348	0	2.9561362386451e-18	0	0	0.0999110042585788	0.0624368068501056	0	0.000543016739333056	0.0293632284752848	0.229082669667107	0.0529928340159323	0	0.0110248059885584	0.0972536784226843	0.0226586798312411	0.0306815651306871	0	0.234602129472175	0	0	0.182608751220052	0.116057277140098	0.0050332028315112	0.0699124991946584	0.00847211186761649	0.0133302647407914	0.00303807811730205	0.0283806230810411	0.00321832882713473	0.0577100699410931	0	0.0564782625719643	2.87175916018362e-18	0	0.0498217662228335	0.12756913490808	0.0273368272020673	1.82721342407691e-18	2.4074935625965e-18	0.00523327588956932	2.5102820298609e-18	2.07759752781982e-17	4.79912559317136e-18	0.0663077807455616	0.20798348946897	0.265855130954448	0.041086717461004	0.0466990242466473	0.0738952298015772	0.0786745980905895	0.00199628209817442	0.0130869800519914	0.0175395789493253	7.01212466725463e-18	7.54032769429914e-19	0.465462829802932	0.0654708550288852	0.176603690870543	0.165927903947429	0.342531594817972	GTEX.13OVI.0726.SM.5L3DD
0.431516771547966	7.36962870655952e-19	0	0.0113656112338217	0.231718138150852	0	0.00659463910103248	0	0	0	0.0172468516010165	0.11894433278998	0	0	0.0180139374062871	0	0	0.251543568260104	0.0229043287524274	0.0222949635485115	0.00276758117296115	1.28917512301348e-18	3.1689049311177e-19	0.0020614689696208	0.10176851014883	0	0.00575692797480961	0.0702515743012256	7.57010985291413e-19	1.81228234365895e-18	0.0248161542112341	0.0122472666457388	0.0117410139795858	0.030103398436471	0.0192635911176116	0.0452727441406569	0.0272264477346436	0	0.0096696543088851	4.77503510471763e-20	0	0.0501600158708889	0	0	0.0507273829986065	0	0	0	0	0.0410429746326518	0.097640498915984	0.0553470504154928	0.196342294122432	0.0211313744208711	0.0723791257437999	0.217509443386379	0.0650360555183894	0	2.64058327361421e-19	0.302157744936215	0	0.0156048266979954	0.0808023092201001	0.104433533916627	0.122743843557109	0.0522680456608954	0.175011889218005	GTEX.13OVJ.2426.SM.5KM3I
0.31540455719646	5.30944104693079e-20	1.55985177858241e-17	0	0.100896840639921	0.00263147450451475	0	0.0534488706584417	0	0.106920897107252	0.0354490960376703	4.35260371820917e-18	0	1.78143202960644e-17	0.125248160199494	6.01275984552699e-18	0.0471432623172917	0.117796395957337	1.27052964716682e-18	0.0602942148497324	0.0513132750271985	0.00703698006461089	0.0135623507474136	1.37710300027484e-19	0.0698174152287336	1.17837550540369e-17	0.00393286749461635	0.533415318060863	0.108276669905086	0.000137391196266175	0.0656988615901014	0	0.00616443888824546	8.03931843441536e-19	0	0	0.0499846577333628	5.28468485577702e-17	0.059955864235248	0.0421721086568276	0	1.63611766675911e-18	0.0627453397786287	0	0.046719465402434	8.91160300557196e-20	0.00668220892477313	0	4.23924275916292e-18	9.09243131653981e-20	0.134591909775935	5.87725679637653e-18	0.152305764111148	0	7.33289959319742e-19	0.0865066715173982	1.25574827011035e-17	0.00498391997136706	0.0680369227857477	0.299448364038711	0	0.11020666079414	0	0.29103344003108	0.08052004371519	0.060565345127966	0.141085388843156	GTEX.13PL7.2326.SM.5L3FY
0.68586460638353	0.0180514636786163	0	0	0.635226523761731	0	0	1.68757612256488e-17	3.06234974735074e-17	0.0676190182243229	1.35202599358104e-17	2.83602392703761e-17	5.37547160236891e-17	0	0.0684984503948384	1.33797694151826e-18	0.0942821777432684	0.0480567753418113	4.92859331148685e-18	0.105365087853888	0.00594295363098656	1.05971114803456e-17	1.35355379322007e-18	2.49188205339305e-18	0.15845220241277	0	0.0133786027038769	0.395598149121048	0	0	0.0322926257703303	0.0633172759666041	0.0660507749616019	0	0.0192310442208239	0.0512514470272484	0.0224103256296487	0	0.00827526032009443	0.0144836028894767	0	1.41759832648813e-16	0.265936773368599	3.15533171270206e-18	0.045894826415301	0	0	9.68333211092445e-20	2.04670062368753e-19	0.121773073794432	0.0399902191546602	0.285411919485787	0.151917992635265	0.0881299346629655	0.100316857289005	2.46638848515387e-17	0.0125223993921951	0	0.0228200934387207	0.252562126604039	0	2.31501853863644e-17	0.498762404819024	0	0.125275605360878	0.0912233098611865	0.216498915222064	GTEX.13PVR.1226.SM.5RQJ2
0.383100640768638	0.00682742367445507	2.11116612365266e-17	0.024531259127693	0.0553432176790869	0.0139308132566442	0	0	0	0	0	0.110698963990072	0.103521931034871	3.98434210717862e-17	0.0631275879185955	0.0135186155510376	0.00881002986339919	0.0425710997053109	0	0.00233331623320904	4.16037383733867e-18	0	0.0421815071078711	0.000688492058836083	0.189973476737975	0.132589784169803	0.00521168712752059	0.0753004425452414	0	0	0	0.0396327898131844	0.0390402146514873	0.0594210862956998	1.15675595585773e-19	0.0146982145243227	0.0188380182087524	1.27224756007199e-17	0.0173905462352505	0	5.89760168569069e-18	0.0345000552335306	0.104679931697686	8.54605368748001e-18	0.0242040701876804	2.17133841931936e-18	0.00265722544061547	8.92595007307401e-20	4.08425430537278e-18	0.111037512550731	0.0266583967724717	0.173179580768433	0.287662276998029	0.0920657880717802	0.14168467550652	0.0790916651103635	0.0760691630176823	0.0163163086915017	0.000889835011562339	0.389751284794889	0	0.0314752184904157	0.346109543857656	0.1233266229659	0.118130886109439	0.0984004502062149	0.216531336315654	GTEX.13QBU.1526.SM.5LU3W
0.38815718752256	2.278614413943e-18	4.32674847042366e-17	0.153977873630247	0.235714059234649	4.59221810081402e-20	2.56735246134303e-20	0	0.103822210044623	0	0.119261447478021	0	1.46372912030618e-18	0	0.522983266854293	0	0.103891704833571	0.0132721211074021	4.24451875444463e-19	0.0287219641213573	0.00488378535872693	0.0151590203497065	0.0060734581638687	0.00124589953410609	0.0186106106626094	3.72005594652025e-21	0.0031852713337913	2.05544814102816e-18	0.0742107151730313	0	0.0229788848566619	0.0071165457458768	0.00273350903165605	0.0058936837581644	0.0170787520320833	0	0.0173854546219585	0.0260248881733519	0.0573388178995855	9.49426832307833e-18	2.51621405736267e-17	0.00737520131395589	0.597609914518169	7.86525695381585e-19	0.000483770731545248	5.63909178379006e-18	0	0	1.42343687659764e-17	0.0553280618501604	0.0343033897436781	0.123418245670449	0.0852409600050531	0.0961599136733786	0.0798450790670329	0.240458693657847	0.0467598133030142	8.04613067947861e-19	0.000910901765725289	0.188914963244972	5.02576571429173e-18	0	0.0926572495139563	0.0339736455619165	0.148036103919514	0.0117471980106682	0.159783301930182	GTEX.13QIC.1526.SM.5IJFL
0.576488306571641	0.0133885327192802	7.34763094566204e-17	0	0.398063241753217	0	0.0711004830380717	5.93545325197994e-18	0	7.70332590748414e-18	0.0466895652093001	0	0	4.05187388314562e-18	0.0488455636011245	0	0.0712686624834034	0.00351446350332035	0	0.0573145819028053	0.00860374440147185	3.53193447619095e-18	1.0736073101569e-21	0	0.305938316581141	0	0.0109140404690617	0.673319884098729	0.286452498666064	0	0.0136396290008909	2.31299229964088e-18	0	0.0396858921944943	0.029219769225768	0.0250802855276875	0.00549722607848141	0	0.0643505474097481	1.8159026052074e-18	0	3.22261027514997e-17	0.080759222520811	0.00788091751520987	0.0157205262520235	1.88566230990793e-17	0.00289461516459694	1.23520616779238e-18	0	0.208232351659697	0.124725532390156	0.0649444477174755	0.170448268170334	0.0158964391095234	0	0.0201303115581591	0	0	0.0332724570065435	0.0964866089689409	0	0.141063670188815	0.28731057807337	0.0921536071892392	0.0576895674190489	0.163965296850946	0.221654864269995	GTEX.13U4I.2126.SM.5LU55
0.143696540214683	0.00859526901647981	0	2.13013800868023e-18	0.571354723619214	0	0.0251165306711848	0	0.0951067397860445	0.00977583414810317	0.111557626749933	0.0112915698972353	0	0	0.0683183476411607	0	0.0783916146929572	0.0227985998379344	0.0153336475921196	0.0393345670180697	0.0473180188077261	1.85326045530912e-18	0	0.00328979095126211	0.0623895727594415	0	0.00872323505888254	0.26144164890974	0.471493871653662	0	0.080968304834596	0.0117739162328518	3.05612013454373e-18	0.0281693588496747	0.00516224562548112	0.0132131457463601	0.0450701727051259	0	0.115934575093681	0.0384716881433817	0	1.97430721071706e-17	0.145585280282981	0.0453903577489415	0.00718567359715901	1.22187918080731e-17	0.0158911404730208	0.00373274323767702	4.51123541310607e-17	0.10098226775152	0.0200767684988742	0.00890944436992512	0.152505524732268	0.0623075631847568	0.0993949940390058	0.0852103835868628	0.0695397793245584	0.00617795607446465	0.00711892276508863	0.170990044582295	2.79144431287721e-17	0	0.346633739644567	0.0338172733087457	0.0475300280075433	0.0591514302918237	0.106681458299367	GTEX.13VXT.1526.SM.5LU3J
0.278285130343272	3.98179686012933e-19	9.82234276904486e-18	0.135126123661957	0.745180289815423	2.00936453447962e-18	4.05665144218907e-18	0	1.14872899383878e-17	4.28850984904671e-17	0	1.57017940116291e-17	0	0	0.479786301043793	5.75747943471948e-18	0.0932806127339607	0.108620866008491	0	0.119251768829529	0.00669142888036127	0	0.0095605858324808	7.65921472181188e-21	0.109411996575672	0.00124624079640594	0.0052427034424666	0.0860196398172955	0.459301497644989	1.65638463577939e-18	0.0169936708366469	1.76807638063189e-19	1.029025540152e-18	0.00480239018309165	0.0173293357429394	0.0635845485111351	0.0493105068220864	0.0636355298622239	3.8646305711795e-18	0.00446293260795777	0	2.07687982477848e-17	0.197701150692523	0	0.0106807426608406	0.0130516469015491	0.00729768420758399	0	0	0	7.21316240170703e-18	0.148378753114297	4.42882137954302e-19	0.0802452554740013	0	0.360153888979062	0.0101556149630601	0.000120109006304605	0.022946634258788	0.199317734217381	0	0.0238975596579443	0.113835489635433	0	0.181138152156284	0.0580517127280168	0.2391898648843	GTEX.13W3W.1526.SM.5LU5I
0.245365362484504	0.00648199480677167	1.24829851288747e-17	0.00945928365422565	0.469017489624618	5.89321121616755e-19	2.05283002851905e-18	0	0	0	0.00816626263218567	2.07402966595668e-18	2.83122972683954e-18	0	0.156783751163113	0	0.0216300944258333	0.0106931429899669	0.0182038441989133	0.000460608862507756	0.0680424013728097	3.52512949596239e-18	0	0.000975244550322865	0.0763651179446737	0.034306566620752	0.00451876901681154	0.158656991306337	0.13839800654826	0	0.0835075269067279	0.0464329554817571	0.0747757862700968	3.08790931150483e-18	0.00610471315578903	0.00265035271133449	0.007293928680026	0	0.0909217475691126	0.0957624472880761	1.13288841682081e-17	8.34333337020661e-20	0.152501637726352	0.0115317214992946	0.0162307861329787	2.07832704286362e-18	0.00683034816426253	0	6.11144560337007e-19	0.132626509457096	0.0810659302930763	0.167865697736301	0.124412161769135	0.0704421692334624	0	0	0.0742994746642532	2.35930993118995e-19	0.0214012960311651	0.156888633668897	2.72347720293581e-18	0	0.469352988166753	0.203914293194119	0.041638374102853	0.0754447570621275	0.117083131164981	GTEX.13X6H.1026.SM.5SIBE
0.413411010040187	5.21802504656783e-20	0	0	0.625892230525875	0	5.41028904303588e-21	3.02226718137123e-17	0	0	0.0545608206754511	2.17450435532929e-17	1.63132452132217e-18	0	0.101298093205628	0	0.0723013239671175	0.0803073316896209	0	0.0417916516448174	0.0312997368894424	2.09304542967702e-20	0	0	0.226788803211142	4.77512293310635e-17	0.014392870124463	0.534802885441924	0.216694097836822	0	0.0685526573471757	0.000922795054910517	1.63718968064279e-18	0.00285625964882464	2.8903140573895e-19	0.0163822189028588	0.014284854015001	0	8.47921503586417e-19	0	0	0	0.34314187051602	0.0110061019076016	0.0546565148122185	4.48489751688787e-18	0.0059399420199472	0	3.58114236891158e-19	0.0299139255106569	0	0.120411953449572	0.0320659081209148	3.3981561518745e-18	8.69730425762329e-18	0.212767539978	0.00119680653033883	1.10070895184029e-19	0.0129245071818242	0.224132561738807	0	0.0166323041867341	0.167848787150785	0.0486437445212503	0.0284762977998186	0.129044270050292	0.157520567850111	GTEX.146FH.2526.SM.5Q5BP
8.32561538953676e-18	0.00699506501268526	1.31483267208776e-17	0.0197865386544513	0.631435708100502	2.65396521825143e-18	0	0	1.02187723219168e-16	2.51722068391252e-17	8.63922149321441e-18	0	0	0	0	0	0.0605524355653268	0.223467230425241	0	1.84147734486711e-18	0.0561021600720568	1.56776415157295e-18	1.22538103780258e-17	1.42292986742025e-18	0.156986073468689	4.24354866194777e-17	0	0.300300551480954	0	2.69863900311989e-17	0.0748264358496367	0	0	0	0	0.0134279614671778	0.0421103884871858	1.66906237938643e-17	1.32847787384304e-18	0	0	0	0.389360029046825	0.0450009897871592	0.0671088551106921	5.50047204030042e-19	0.00702931723556216	2.55268858949167e-18	0	0.28893260884461	0.0369594170623059	0	2.53608358612038e-17	0.0539943965375014	4.00042508461432e-18	1.00598801129844e-16	0.0239771683352823	5.51073682619404e-21	0	0.00699594030956874	9.57498586826494e-17	0.142494207237739	0.21595004784511	2.38579958206932e-17	0.0131910257696342	0.110041649276716	0.12323267504635	GTEX.14AS3.1326.SM.5RQJE
0	0	0	0.0439720407359836	0.198732943204524	0.0109744175486646	0.0134947947214443	0.0022654622682351	2.40260761937309e-18	0	0.0727071231951997	0.00831057970004308	1.24898069322783e-18	0	0.418563851317629	0	0.030638100571858	0.00991351861263788	0	0.0676019044842148	0.04120468160048	0.0319543576137171	0.0424861202598048	0	0	0	0	0.0105508313359804	0.688364945843068	0.00223088563845526	0.0770520245329459	1.00305789121899e-18	0	0	0.0139817131750932	0	0.0141519787407608	0	8.37911048917666e-18	0.0257034351211985	6.8958673968516e-18	0.0505329316187641	0.315248998729124	0	0.026852984101757	0	0.00188796489323004	3.17949471225094e-18	4.43565805403027e-18	0.146356204048337	0.0681150137546561	0.314456307718667	0	0.0589707819190928	0.0384829750371569	2.65876813315228e-17	0.0650968940279606	0.00387500923461162	0.00968256645109197	0.269543182787394	0	0.0126006029982938	0.0356985467059526	0.310805331434902	0.112057371984858	0.02060234080024	0.132659712785098	GTEX.OHPK.2426.SM.3MJGH
2.01884530528196e-19	0	1.13702080464702e-17	9.16663327181963e-20	0	1.54794815339985e-18	6.87177812437315e-19	9.32860695298418e-18	0	0.201517992057136	0.00756608695705756	0	0	4.11020565963428e-17	0.226551551443198	8.62459686608151e-18	0.0574238448211534	0.160591559363389	0.00700334196725465	0.0815296316148182	0.0945924977103115	2.32911947115101e-19	0.0148219375475299	8.30934080146514e-05	0	0.00151363612877329	0.000673605588105135	0.790600935689873	0.250951817542545	0.00252710266156102	0.0590994658830259	0	0	0	0	0.0240352602306009	0.0342591445061699	5.41794872445362e-17	0.0751509259029659	1.06232435423264e-17	1.36875794648481e-17	7.19723776966612e-17	0.0226876530198735	0.0294791241772834	0.0314459367149543	0	0.000645026125549705	0	0	0.164854845653098	0.034433178840953	0	0.115738828356212	0.109377073898492	0.0486283357325736	0.201374234147273	0.0431492242569932	0.00589883923878739	4.77026364558341e-20	0.447255818056063	0	0	0.301215587200789	0.0204805749043131	0.0543530877432122	0.0472962488551557	0.101649336598368	GTEX.OHPL.2426.SM.48TDN
0.441745061585731	0.00292465083883916	0	6.19230051097252e-18	0.334789726714834	0.00553211968131544	7.88430809615058e-18	0	0	9.22030845957544e-18	0.0243040808648539	0	4.47891127527431e-18	0	0.0793782710604354	5.31867749705098e-18	0.0687042357449561	0.322995762742987	0.0132389964417568	0.0453801733853119	0.0738696521003409	7.29787918164011e-19	0.000679155255852237	0	0.219154691309477	0	0.00610694129523808	0.510296432767998	0.0308212059424373	0	0.0968428760109955	0.000214948540089496	4.84834064879019e-20	0.00923750661546091	0	0	0.0594622254701645	1.74923199481565e-18	0.00400009547921072	0.0135437081960016	0	0	0.326283946862473	0.0173825497781448	0.0222952871194774	0	0.00836830946106979	1.39936167595988e-19	9.20917325908814e-17	0.151707880630248	0.0341149702975787	0.099210155127565	0.0621060287785234	0.0625861815600067	0.0247926739128656	0	0.0614119586843012	0.0120805860474103	0.0126140222841401	0	4.79230441432884e-18	0.0674072726932626	0.24306393139735	0.226718556743416	0.0303967479502677	0.147974497124329	0.178371245074596	GTEX.P4PP.2426.SM.3P61L
0.290795685642441	4.45757591834777e-19	2.76866347824709e-17	0.16070831574764	0.282628247759193	1.27889921864439e-19	0.043663453554883	3.61155710872176e-18	0	6.75312754226415e-18	0.00735882865583559	1.8344222741739e-22	2.47679257092996e-19	1.28007259380663e-17	0.164377517331132	0.00430404146547358	0.115802324055979	0	0.0273034369619379	0.0610263813289925	0.0978038339070535	1.16118712033459e-19	0.00387360709261535	0.0005025203202389	0.0999736860780092	0.0675926309307686	0.0083514029503885	0.205185943707083	4.31085297040861e-18	0	0.0637063368890912	1.14830744529133e-18	0	0.00653168877990065	0.00427968166447005	0.013433691974749	0.00059754027670741	0.0266093723915008	0.0408182473493702	3.34186760239567e-18	1.25138740055055e-17	0.0341146366984171	2.79738686853572e-17	0.0322743906508279	0.0404923890899236	0.00172720236185301	0.00606276711443546	0	1.22972649939459e-17	0	0.115865815283172	0.192939614583738	0.204154127081827	0.122972484590427	0.0437296649516839	0.0947185211686402	0.125159995218708	0	0.00270788776348556	0.540411693689933	1.10342531776376e-17	0.00532493157464265	0.0251283282511001	0.0401311219075583	0.150676252494068	0.0988887599925313	0.249565012486599	GTEX.P4QT.2426.SM.3NMCL
0.311523804348364	1.70966618258467e-19	9.31889584874365e-17	0.0198949781819618	0.490535160157234	7.79596171777522e-18	0	0	0	8.95155775512116e-18	0	0.0196105267442136	3.39081421435294e-17	1.21144632839982e-17	0.121266805504068	0	0.182582968065143	0.16342365607584	0	0.0768336632435757	0.0296390265934132	0	0.0222498365205745	1.81029545528727e-18	0.138154590414213	0	0.0146209257464854	0.189782753003257	0.474953754124748	1.29695099858806e-18	0.0944797015137292	0.00581851213662749	0.0215646947772243	0.0262965225854074	2.01335053218864e-20	0.0343991708325279	0.01722803308838	0.000625911715454427	0.00852028865388352	0.0153735643162233	2.02159879398169e-17	1.03452581711525e-18	0.603093315599054	0.0601397700900463	0.112526082471301	0	0.00793917610482261	0	2.80603448288835e-17	0.181400819599344	0	0.0688838258912069	0.195148258385934	0.00796123694817808	0.0221517234855708	0.197000398415677	0.0766924162755981	4.33680868994202e-19	0.0518585632142692	4.68305794669807e-18	5.59899565010857e-17	0	0.254868079562973	0	0.0814384535375858	0.083896808503813	0.165335262041399	GTEX.P78B.1926.SM.3P616
0.297750996664712	0	0	0	0.272308868506239	0	0.0108892641424469	0	3.94577678635505e-18	0	0	0	0	8.51076690873006e-18	0.147815743789048	0.000437287555394911	0.0320686718103737	0.0920736152433686	0	0.0994976418620244	1.38101187918736e-19	0.000159481934017123	4.47551572984943e-05	0.000355660534654087	2.6544729561422e-18	0.173805068099426	0.00319343718143074	0.832100328562672	0.127209615272478	0	0	0.00210179332837811	0.00721339027107602	0.0481606067336208	0.00574025965412606	0.0189813034652267	0.00939736010521637	0	0.0529526087386999	0.0225893554290216	0	2.49239160146848e-18	1.20785357046325e-17	0.00138621967369034	0.0122734495260637	1.6312890943304e-17	0.00524782773327447	0.016255965750752	4.8060795370157e-18	0.196835081299771	0.0554834045026013	0.17529143598319	7.84656693842989e-18	0.10357452650167	1.65718239331608e-17	2.99241627226007e-18	0	0.00112099034710643	0	0.586744684647683	1.05354748048594e-17	7.73258809850537e-18	0.188668113005159	0.169256567104754	0.0825034283528651	1.39628707203047e-18	0.0825034283528651	GTEX.PLZ4.2826.SM.3P617
0.424006362319182	1.04963197463931e-18	1.65751028303712e-17	0.120968790205548	0.235118793986055	0.0194140502808164	0	8.26225266586326e-18	0	3.99849274400035e-17	0	5.49892552141618e-18	4.14748969625013e-17	3.84124108970894e-17	0.144694551848655	7.99015837559106e-19	0.220395858449063	0.414160277995095	0	0.0420992618413713	0.00481860705771476	7.36752097932985e-19	0	3.71078985186591e-18	2.96831519552489e-17	1.17113678436273e-17	0.00482440697069414	0.0721098713910353	0.225060078779896	3.59641361637322e-19	0.0249383268021264	0.0129752495413265	0	0.0116332986786758	0.0328054016830432	0	0.0147105593810164	0.00215144006905408	0	1.22729257178774e-18	8.16521894577887e-18	5.07622843962588e-18	0.562166163135957	0.000784323914495209	2.37243263410422e-18	0.0216726526749598	0.0119242223094659	1.28296712982473e-18	1.89735808235738e-16	0.5213983576869	0.0613448915673455	0.190039085795534	0.115402888455342	0.186553507192432	0.0331527728178934	0	0.0851381297013786	0.00234567498712886	2.00854499157659e-18	0	9.30727840160867e-17	0.064965071826137	0.217272455883486	7.14334180933216e-18	0.139232468847526	0.0024093035288574	0.141641772376383	GTEX.POMQ.1426.SM.3P61D
0.272328868522747	0	3.06028939786452e-18	1.46170227818868e-18	0.466326855860974	2.61010068831362e-18	1.51646535432344e-18	0	0	0	0	0	0	0	0.291423265841648	0	4.19611770260143e-18	0.0164061659003084	0	0.165051323063148	0.0612920970189149	2.68615503187603e-18	7.24070444586994e-20	0	0.124891364799065	2.2800088950218e-18	0.00881890839996691	0.20854101455052	0.428336898527767	4.84632943026094e-18	0.0696822094334512	2.66675885897289e-18	0	0	0.00377779610545789	0	0.0888104706397655	0.0379769194103949	0.0699874834518172	0.0481342080212159	0	1.66868453830531e-17	0.163312037651698	0.0227125650517463	0.0391569883114409	0	0.00430428742083722	0.00212755097544204	0	0.148024303604385	0.0198504786601303	0.163233329871272	0.339542217547721	0.124306888383107	4.70727902511439e-18	0.438631856553838	0.048458622614901	0.000702002128606192	0.0431621466384554	0.129620552626993	0	0.0581015379471651	0.0873377445848215	0.122566598019953	0.113971113429365	0.0930917309089901	0.207062844338355	GTEX.PWCY.1326.SM.48TCU
0.119227607004497	0	1.05975386021526e-17	0.0810473235310051	0.277149344825072	6.19381206235751e-19	0.00207872624724811	0	0	1.61819771446777e-17	0	0.0272727162453909	5.23516152768292e-18	1.51844157760081e-17	0.139556778666536	0.0141897972641215	0.160705751364693	0.0743429018587622	0.00152507682398965	0.015427555800682	0.186112724258319	0	0	0	0.163717063717428	0	0.00723149227197272	0.527354358516006	0	2.80969442025232e-18	0.132241928881947	3.77877651530055e-18	0	0.047928201235032	8.19165643267735e-20	1.96741689966323e-19	0.00760340901467196	2.27981070175874e-17	0.0275125513059412	0	0	2.92695371650048e-17	0.0512455456027012	0.0706418190900674	0	7.67692420161247e-18	0.000921272422289376	3.18638647821987e-19	0	2.32855983847912e-20	0.116740065946515	0.0456957036838003	0.0294440443002112	0.111185112123156	0	0.112922976909709	0.144579469081627	9.99651540728116e-20	0.00604724271429392	0.154441317297672	5.02732534411629e-17	0.192470147353286	0.0630998129761706	0.106857968452108	0.0824983970513854	0.174914893987873	0.257413291039258	GTEX.PWN1.2426.SM.48TDD
0.242108985260653	0.00843930269119504	0	0	0.312309803329175	0	0.0270281048729052	0	1.39015252255988e-18	0	0.0346272906599934	0.000936178433575233	0	0	0.22515435013073	0.127873379033759	0.00700384344542483	0	0.0144549538064245	0.0891836091399621	0.0160897441954744	4.11545712079698e-18	0	0	0.0919093989650304	0	0.00889307452434839	0.116495752434305	0.328310571513306	0	0.0125751752186054	0.00744867875649608	0.00364348571333327	0.0160480898463265	0.0384494657109509	0.00941801402939843	0.037986449237719	0	0.0969035296248577	0.0306676332291009	0	0	0	0.0214938686631911	0.0150781903046699	3.9277470350208e-19	0.0119534105500787	0	1.3219212154877e-18	0.095339277587061	0.0895581874221218	0.294648540014749	0.116678212080764	0.0498290558877288	0	0.117466563968542	0.0446729926233174	0	0.0182072408976268	0.0187315357118178	3.26359997286646e-17	8.79944371920597e-19	0.159832641333362	0.0526997165436256	0.0906786213606562	0.0582192229258499	0.148897844286506	GTEX.PX3G.2426.SM.48TZZ
0.387704358487274	0	5.79952248838608e-17	0.00905340663325745	0.312382464370759	0	0	1.11941434566558e-17	0	0.0623565004288539	8.45890177980631e-19	1.25790844061952e-18	1.66761901663436e-17	0	0.197049518926186	6.35611494695252e-18	0.018885231333717	0.226726497613098	0	0.133293587072113	3.33740618285093e-18	0	0.00115263884721184	0	0.176348559393718	0.0390413481505214	0.00816947059134126	0.0908796872655085	0.200559279552816	9.34370873235917e-19	0.0219727524442697	0.0170307098341953	0	0.0141196538341261	0.00936573662179783	2.31348781872125e-18	0.0408666867088735	0.100722449098575	0	4.65615602884142e-18	0	0.0492304078335524	0.517853722064724	1.69193783505383e-18	0.0329020966214348	0	0.00494255733671648	0	4.04905572851776e-17	0.353108254022031	6.23650746024527e-17	0.000840176462180575	0.218022536521057	0.0755460035692669	1.03481804936513e-18	0.235314942659765	0	1.97363662856185e-21	0.00256993172625645	5.51614313764108e-17	0	0.0432088638644908	0.00956523898022649	0.00825314298797353	0.112495626774243	0.0881742796968591	0.200669906471102	GTEX.Q734.0726.SM.48TZP
0.325573600273568	0.00551090816297508	0	0.0306891244347747	0.403433688509444	4.50058600701801e-19	0	1.46460763968497e-17	0	0.0318215965209094	3.48176551101512e-19	8.39423408721367e-18	1.53488940105186e-17	0	0.14738682575557	0.0275375219067623	0.0191751714453799	1.61571561900599e-19	0.015884549692147	0.0239164287166932	0.10506344634287	3.90516226483409e-18	0	3.87526122913838e-20	0.144713941359226	1.22730950068878e-17	0.008237231610443	0.279296351870429	0.0389938363692775	3.64193457787614e-19	0.136205096229725	1.0364912241015e-18	0.00850893568303629	6.9098196506596e-19	0.00432307743017425	0.00806304091931674	0.0736149141704683	0.00982502163513991	0.0760591646219775	7.00533892262877e-18	0	2.96721860867007e-17	0	0.0201233763073808	1.66703960837805e-19	0.0105197235891872	0.00160042238713335	0	8.17677725446236e-18	0.227674003809706	0.131601145221858	0.230555429108321	0.116083731364784	0.122240362978272	0.0473559875065149	1.08212022671131e-17	0.00874706129945788	1.71243220956994e-20	0.0100848237933597	0.0733351968539258	0	0.0221598911076194	0.607147602280616	0.0692650483371619	0.0392857537210948	0.127644147932535	0.16692990165363	GTEX.QCQG.1426.SM.48U22
0.175389623003796	1.04677553405937e-18	0	0.0215376188075126	0.18240211765988	6.48425868244891e-19	0.035884910815269	1.44464620882043e-17	0	1.36971008824925e-17	0.0114609531928754	1.53234853731522e-17	1.95500393994327e-17	0	0.108744053583364	4.49537217865422e-19	0.0619793463513609	0.205255086063868	5.99652111807418e-18	0.0526437143415767	0.0333430850008769	0	0	0	0.0649315285639153	0	1.85905718846006e-19	0.383120669072537	0.603644378455948	4.49066121747685e-19	0.0288288292104203	1.27913960694859e-19	9.17133879645583e-18	0	0.013269309391822	0.0775453781541674	3.42919299909103e-18	0.00705453261735452	0	0.0258254654814241	0	1.84392479888297e-18	0	0.00182525033654895	0.0258553251776391	0.00850376868271957	1.81510228053728e-19	0.00278019944633864	0	0.0963055276074226	0.250804930238271	0.0127727026869124	1.74198393217236e-17	0.0555403787787275	0.0730105166680392	0.146140417999685	0.00674799846019932	1.3141920445807e-21	3.04846128572508e-18	0.322244220933476	3.87640140756172e-18	0	0.388806234410256	0.0815725081133119	0.0601538946581666	0.0491373067823961	0.109291201440563	GTEX.RTLS.2326.SM.46MUH
0.0931644333435084	0	0	0.0181592236747749	0.699980510691488	0	0	3.23708442106609e-17	1.57544716021294e-18	0	3.14174654644781e-18	2.95750641167579e-17	9.04448576955605e-18	0	0.0152054018110609	0	0.110318470756384	5.78354393212683e-19	0.00147159538704457	0.0237804997874697	0.0205485856411672	0	0.0208711728849019	1.93670271979335e-18	0.0341248362484829	0	0.0138546980213757	0.23975551828882	0.129633201479987	5.88630323203735e-19	0.0103407740912461	6.45850376884905e-18	0	3.02674919408869e-19	0.0617324493879332	0.0191815836647145	0.0184086247309303	0	0.106021246750619	0.022814028856929	2.55842735663241e-17	0	0.423592832292401	0.0173552050097085	0.0319579805468322	0.00427120434869138	0.00445707133461602	6.72203364468584e-20	0	0.0876605057673634	0.0260700001724327	4.38929957024552e-18	0	0.0332364061009212	1.45672781859418e-05	0.0871600775406745	0.0909559599618665	0.00756680008014277	0.0334486384105499	0.0929008674726516	3.80585548443346e-17	0.00415127944741799	0.223903602647219	0.0735624618895151	0.0691147819001186	0.027336710944825	0.0964514928449436	GTEX.RU1J.0826.SM.46MUU
0.0476051239969678	0	5.45503610730292e-18	9.06136439234503e-19	0.157681176154917	0.0417758587370417	0.0726777243428685	0	6.77876229837538e-18	0	0.0690422710438179	0.0637889316748735	0.10882931623864	0	0.458217806454653	7.50038034195117e-19	0.0177515728377203	0.00633626152012626	0	0.0752242382036917	0.0420696410655105	0.0126853726900005	0.0291138173052108	0.00129406156893363	0.0514020362178793	0	0.00391380993917529	0.263970836376274	0.634624053431316	0.00226770638860534	0.0454195865210834	0.0228067300660042	0.0307404705657713	0	0.0115996249645873	0.00730358183499984	0.0487203053308715	4.77971339377013e-18	0.119954147931929	0.00558906801361483	7.2486001125191e-18	1.90989598438273e-17	0.0093349856281003	0.00120877698256956	0.0486608738082537	0	0.00800440621774052	0	2.08599076438208e-17	0.219029570541526	0.0731470935526471	0.00767783930921594	0.343507868423337	0.0289263417604953	0.0157139072484199	0.110139413947055	0.10058359580233	0.000856801381038057	0.0331221026492646	0.246158732423901	0	3.43799662094133e-17	0.391462925374619	0.101160574755569	0.124069931732771	0.0467358386416949	0.170805770374466	GTEX.RU72.2226.SM.46MUE
0.398864197004606	8.36581143266484e-20	3.36655046539225e-17	0.119351817836859	0.105834182507961	1.28462442909463e-19	0	7.35512477448554e-18	1.77425171878374e-19	0.169949171394324	0	0.0220321088830427	9.54417774980592e-18	2.38220272871343e-17	0.268468428302401	0	1.31501114722477e-18	0.128100681420176	2.12901441518958e-17	0.0263212805256066	2.68871036949823e-18	0	0.0281492518760254	1.63981258901688e-18	0.0884465967174053	0	0	0.243412787016055	3.69068255862079e-18	0	2.27022891452502e-18	4.47324219587426e-19	9.49418912591899e-18	0.0156120286569374	0.00526593215870085	0.0133063819340453	0.033659413854452	2.74026210698674e-18	0	0.00405381265123325	0	1.00671548094325e-17	0.110077311425806	0	1.56812314138946e-18	2.77352179843772e-18	0.00399820585392723	0	1.44392362315971e-17	0.0963851429421188	0.0879076886204463	0.118777798499573	0	0.197032027950227	0.138887152588666	0.13137393357956	3.0634481476411e-17	0.00772368182619314	0.0156275021853371	0.305514080752691	0	0.0764839523739673	0.414159972676438	0.146940611927817	0.11531409293614	0.0442232983587026	0.159537391294842	GTEX.RWS6.1026.SM.47JXD
0.334693952717565	0.00543604548278791	0	0.0253091732225196	0.522955948096832	0	0	0	1.68235960294246e-17	0	0.00383340341708633	9.19153665347251e-18	0	0	0.416339891293077	0	0.0446185244683091	0.174699691569144	9.84673100102747e-18	0.129451538515373	0.0290236917841329	1.49119928718127e-17	0	2.29298030730474e-18	0.129672022962968	0	0	0.481346139529938	0.778606341940964	0	0.0288887786179275	0	0	0.0186816629858032	0.00480162289914656	0.00278267532146293	0.0592654484535657	0	0.0201378009060596	0	9.47868473173708e-18	0	0.36597852835405	0.00716396534586248	0	0	0.00308055741231814	0	3.40047937216937e-18	0.159602302267556	0	0.0825320880226436	3.51686543235595e-17	0.103091035264885	0	2.38316883690503e-18	0.0329292685464796	0.00292663536779804	0.00559024020193248	0.19074437633806	8.20508949122664e-17	0	0.398015256977468	0.000702293169365692	0.106374889758026	0.0820658801149446	0.18844076987297	GTEX.S32W.1226.SM.4AD67
0.358240200645881	0.000216376528877769	2.53138000015987e-17	0.125490803438179	0.0263672775632595	0.0232646238240725	0.0908853737865211	1.80134230505126e-20	0.0148192138950355	3.09868405974711e-18	0.00677826783326797	0.00807864521543913	5.89032380741997e-18	2.70285093802613e-18	0.332606288372778	0.00649784964437202	0.142635883233703	0.0947443123661511	0.0387333665295182	0.18219241850942	0.0255820818133454	0.0048899004669231	0.00322199179001289	0.00474677518698508	0.278643400119645	0	0.00341179986535667	0.0240549399400311	0.529942452726322	0.00304724641853081	0.0933579483395082	0.000172823792194404	0	9.83054164890667e-18	0.016395768025498	0.00218680096830457	0.00912852603674456	0.0298436242172872	0.0371642552022701	0.00865311643908488	9.27359282955157e-19	0.00372962449177688	0.020554487701908	2.28731298690158e-19	0.0922484406944469	0	0	7.2913946070027e-05	5.74074010814743e-18	0.246467439737963	0	0.169179447114832	0.0717884784459505	0.0360260108946009	0.0475570882120344	0.0835186031017293	0.103223726829982	0.00577806806257884	0.0923904566483008	0.24124385536676	3.29636288147191e-17	0.11455695084592	0.0583933510474172	0.22348553392512	0.224862182262482	0.152220929230934	0.377083111493416	GTEX.S341.0726.SM.4AD5R
0.411554363917951	9.46052004923579e-20	0	0.00575560680690252	0.403290999807991	6.4941010796432e-18	0.067605949816206	0	0	0.02829334704195	0.0207894364450894	8.64168286473512e-19	5.63487547299434e-18	0	0.201437380445751	8.28684008866301e-18	0.0759950259514213	0.099544935301401	2.54459945960785e-18	0.106254585054889	0.0879561486262614	4.20260112928756e-19	0	3.11088064381112e-18	0.0335246467065982	6.54300552038823e-17	0.00479805718656698	0.458264286754987	0.44796247995707	0	0.125148693050479	0	0.015885492905985	0.0360760575753384	0	0.0136864331807686	0.0273301807900184	0	0.0325891856459443	1.22409747439818e-18	0	1.91041512763249e-17	0.238449256746566	0.00691064893244458	0.00560853709548056	3.88064559705668e-18	0.00216990529628814	8.77064062531841e-19	0	0.0346871885571103	0.0867267303915887	0.0845387495581717	0	0.0110971119368742	0.0550716815167578	0.227365510780592	0.02498939005723	0.000360663755626584	0.0138812646538016	0.205715331843778	0	0.0634933014765792	0	0.108006767915325	0.0746734612411942	0.0607403976664298	0.135413858907624	GTEX.S4P3.0926.SM.4AD54
0.298805560280737	0.0174452356406826	3.78078133902817e-17	0.0870775106874967	0.675374066270329	0	0	1.03962159084351e-17	2.81534071245189e-17	0	0.0251339277901484	0	1.41125287390364e-17	1.64261285356695e-18	0.395269649220289	2.31378467774179e-17	0.123068163535673	0.224218052966415	0	0	0.00218471448815785	0	2.61457967088387e-18	0	0	0	0	1.39037886600005e-19	0.0028859734666245	2.23679212429124e-18	0.0218029166613993	7.48221976655626e-19	1.75553258001017e-18	0.0535482463489665	0.0352296590319934	0.0448914764067186	0.0377127210857928	0.0288296311709475	0	2.77557414161766e-18	0	2.69354171480762e-17	0.451640158595067	0.00504226728581401	0.018513248345734	0.0222151682481675	0.00416847045197739	0	1.98516878496104e-18	1.49880251759881e-17	0.139030848840172	0.0372395545145175	0	0.0316025241416349	0.00229158909169263	1.50698936577301e-18	0.0406554928771604	0.0117665140628698	0.0282309631502149	0.24149956162208	0	0.00380384630980272	0.469833437534735	0.0383408741129829	0.0815381131463267	0.0098149750644202	0.0913530882107469	GTEX.S7SF.1326.SM.4AD4P
0.210194268778567	0.0349841696699295	0	0	0.318265902130623	5.04257329378834e-19	0	0	0.0235564242613426	0.0489726457937202	0.0041992722195385	0	0	0	0.26241038795553	0.0121145443370246	0.0463801306080713	0.0764215091994972	2.32663684468711e-18	0.0465768856955295	0.00528510167465853	0.0713863045962337	0.0110046099773785	0	0.0875754257120281	0	0.00703858677248234	0.201036876609437	0.249084695350899	1.1571512689126e-18	0.00179299306292722	0	0	0.0181249316786658	0.00558754378689552	2.46622249443362e-19	0.0336500212964289	0.0339006582535506	0.0648074809264459	1.45512105912597e-17	1.80168738917925e-17	0	0.157776667890971	0.00813521265800916	0.0477620299691886	0	0.00299261490238145	1.48629869483002e-17	3.78104217687192e-17	0.311427521341784	0.123616173742694	0.0892725165337941	0.169811989750522	0.147068147682495	0	0.457732715033074	0.0675360258851024	4.63193752343162e-05	0.0170601209053951	0.0970892076235667	0	0	0.185220804032022	1.02270853349734e-17	0.0823671560524392	0.0639223485283081	0.146289504580747	GTEX.T2IS.2026.SM.4DM6W
0.0752171723570825	0.0128517795642971	2.23351506326798e-18	0	0.344590564239385	0	0	3.96055430044908e-19	0	0	0.00417091718203346	1.67581785712962e-18	1.69786119002444e-17	0	0.303085546819892	0.0130077056621889	0.0106139268953369	0.00632986818508052	0.069854615305414	0.104205375131575	0.0482207476534643	0	0	0	0.001104890143749	0.0234519694577773	0.00803090618866414	0.408944298530286	0.26169475111006	3.45786805604975e-18	0.0632182286670587	0.0133654836303526	0.0375139545450061	3.16825480927061e-19	0.00218884756957523	0.0263684196482215	0.0574800970160247	0	0.0479807959420901	4.69892311002995e-19	7.00735673672487e-18	0	0.0507085341026811	0.0152153239384256	0.0859765451458931	5.36599589208332e-18	0	0	1.38174105167516e-19	0.246350282035332	9.19629163770456e-19	0.0721084198809927	0.245572165978097	0.028614303135687	0.031088819457911	0.0540259376024463	0.0302885294199409	0	0.0620723507995508	0.25747613685892	1.09388824944919e-16	2.62933427936455e-17	0.230168065742778	0.0615223953775919	0.079839804221002	0.0310887086807552	0.110928512901757	GTEX.T5JW.0426.SM.4DM7M
0	4.76117554747986e-20	6.14438048203084e-17	0.0244682652302951	0.274873616880596	0	0.0635496415028549	2.07612226342729e-18	0	0	0	1.54164824105465e-18	2.11441972396408e-18	0	0.116747317248858	0.0338226393220517	0.123588056980816	0.129563050900123	0.0289132801538	0.0256289770489778	0.0106418878122067	0.00420437157488041	0	0	0.133884770313645	0	0.00697799154064976	0.468920613077374	0.281174642828838	0	0.0271989811579001	0.0116133050348611	1.94795634111472e-18	1.89314761472658e-18	4.94040661681883e-19	0.0242653963839844	0.00990254533590601	0.00627733774836463	0.0209460868292162	0.0407159033977516	0	2.23716083062312e-17	0	7.31823457741215e-18	0	0	0.00539947643682031	0.00112886610670761	0	0.294784396747113	0.246765989361752	0.441712109497541	0.014085115900379	0.0572566922960125	0.033758097398307	0.13814281920935	0.0660694745581544	0	0.0395022781647999	0.128756532720448	1.43403475889106e-18	0.0531706181747692	0.0206918755750974	0.114985663630311	0.0446958566638146	0.072263329062926	0.116959185726741	GTEX.T6MO.1126.SM.4DM5D
0.603769255169292	0	9.32317872130107e-19	0	0.205997005780568	0.0411655555574163	1.11884159173111e-17	7.39792444666445e-19	0	0.144503232642208	8.4140830098904e-19	5.69577751388322e-18	7.18276862807472e-18	3.62728012226341e-17	0.0674963418018301	0.020596794615397	0.127773301544095	0.212203204732663	0.013088179368832	0.0899322689841091	3.68237349554927e-19	0	0.00592351520046704	0.000467120910457894	0.0127882467567637	0.00837368589603884	0	0.157829901051853	0.538349630732501	0	0	0.0336346200318238	1.40574683587921e-05	0.0118965143972266	0.0359983875379333	0.000533057655228005	0.0768575902303184	1.70489706329874e-18	0.00309908495504822	0.027496584739057	1.79779800080271e-17	1.58085795805328e-17	0.257200619150161	2.67896116243184e-18	0.0237883452329732	0	0.00664850899946221	0	0	0.0313220116487944	0.138598489251799	0.106295302186398	7.26669592093306e-20	0.0270785394647257	0.00415894255142202	0.0234751703170009	0.0207918686144208	0.00617190480300297	0.019225264670171	0.151283606741422	1.34638888033441e-17	0.145300917368029	1.00853964041333e-17	7.58890697801404e-18	0.106376851035911	0.00639412337838183	0.112770974414293	GTEX.TML8.0926.SM.4DXSJ
0.270377847638593	1.90149972798356e-20	8.92523878092235e-18	0.0218029552961974	0.404566345407475	0.0639017405351299	0.0603594395501692	5.00809499016313e-19	1.52127461191586e-17	1.87030484368362e-17	0	0	0	2.60120476589363e-18	0.361245951596751	1.9713052880798e-17	0.0879332625031696	0.0352935508404391	0	0.0927229475239382	0.0590544104255998	4.88499869376663e-20	5.64165727264955e-19	1.09221677860808e-18	3.76219666191093e-19	0	0	0.118593184211616	0.784477886161363	4.8054690911351e-19	0.0602825307188346	3.87526211791204e-20	0	0.0206028524702384	0.00490513802315704	0	0.0306291205352167	0	0.00635015385900479	0	1.41176187294588e-17	1.16728749139636e-17	0.233468171560504	0.0143243153965009	5.75225718069839e-19	2.77418269164347e-18	0.0048252136013979	4.93459904700387e-18	1.35776522771103e-16	0.0698991422875232	1.64295098274212e-17	0.141563836898863	5.38167257956837e-17	0.0734887362091371	0.0327087998661139	0.135591331878489	4.3635253027718e-18	0.00779552427008006	1.40293431887721e-20	0.474669927193557	0	0.0250609990286457	0.203999885928928	0.218301650941664	0.0796206938955286	0.0295272052127999	0.109147899108328	GTEX.TMMY.1726.SM.4DXTD
0.122435051146313	1.28895488058481e-18	0	0	0.164891757361362	7.79984871553852e-19	0	0	0	0	0	1.40828911550068e-17	0	5.28041162628734e-17	0	0	0.152747998668645	0.215786508143974	9.52960395795316e-18	9.12636204097223e-19	0.0568185640066372	0	0.00305078615064181	0	3.79098335950544e-17	5.18099138012537e-18	0.0111519108239404	0.416718381641366	7.43998601987278e-18	4.68372933275731e-20	0.00354215328353446	0.0023627756079707	0.0440535136391984	0.0326762996905249	1.30708107443767e-18	2.59233669383819e-18	0.0381279086986084	0	0	1.03218022558716e-18	0	4.83012344928737e-17	0.443148000108667	0.0103394889156794	0.0316979585912794	1.71445114468375e-17	0	1.25810217359771e-19	3.80234719407567e-17	0.583996472061079	0.0819726658653908	0.050103350878965	0.259941422322667	0.0950406516054183	0.0390300337342634	0.0268114371184868	0	0.00283973333679885	2.85670149020215e-18	0.1884303346031	0	0.0197733451395124	0	0.0413377631187327	0.00157518373864717	0.0284092820033186	0.0299844657419658	GTEX.TSE9.2226.SM.4DXUR
0.178197170230574	1.46640310765239e-19	4.15861336586199e-17	2.85016279642296e-19	0.579128023514633	7.25148485230833e-18	1.45403764295594e-17	2.45228303081564e-17	0.0281160124304843	0.0388332036797968	3.23107852085047e-18	0	0	0	0.335100616231169	0	0.0982122570065641	0.254503561644481	0	0.0330604167492349	1.05123905317124e-17	0	0.00449260377508703	1.60729800147035e-18	0	0	0.0026903411338595	0.0324464789620938	0.41799462165215	7.63017292088351e-19	0.0102924914889813	0.00524701148926092	1.20232332097266e-18	0	0.0163075807372733	0	0.0276284387665363	0	0.00638315876370333	0	0	0	0.626003897038063	0.010256054820342	0.019453174552377	2.91696904427051e-17	0.00111876569919444	0	0	0.00700224883778102	0	0.015729377797245	0	0.032971441626536	3.89940743736075e-18	0	0.067064306173475	0.0159790464545473	4.45553128711106e-18	0	2.22042597613624e-17	0.0211139236642388	0.0240190698951496	0.0782635400672435	0.0364100059838461	5.3295154212388e-18	0.0364100059838461	GTEX.U3ZN.1026.SM.4DXTC
0.292065338539472	0.0250421037545562	0	2.26821033567842e-17	0.200238896018409	1.57964473014617e-18	0.0653469025743856	0	0	0	5.05472306216765e-19	1.1657925451656e-17	0	0	0.192786129344782	0	0.0246154292522646	0.0324442229719086	0.0526267849981331	0.0203167156548848	0.0542089358574155	8.5176833392274e-19	0.00195748711885714	0.00745290804888001	0.189296509309787	0.00920540427634196	0.0109329377945661	0.318234682181107	0.0799617575817976	4.96079073991875e-20	0.0265890773915676	2.90035811867247e-18	0	0	8.31301123720197e-21	0.0184847740765849	0.027962751394577	0	0.038278120008941	0	0	0	0.0899607213681793	0.0143833235473697	0.0114591080982041	3.74572367334299e-18	0	0	4.21328561666461e-17	0.470539103619787	0.0218298164400395	0.129536483416214	0.140001531557367	0	0.151635952010135	0.25855517245814	0	1.80236213735589e-19	1.0372496912529e-19	0.174258505303485	0	0.112500806311648	0	1.65067465288084e-19	0.0135444771032566	0.134273774460879	0.147818251564136	GTEX.UJHI.1226.SM.4IHLR
0.379357969717035	0.0147929128971425	3.96136906670234e-17	0.110761987583104	0.162370004524949	0.0927027395131785	0	0.0768479566184826	0.0405587765762927	2.19450487071078e-17	4.53304034624358e-19	0	6.47643066567268e-18	0	0.232734542297297	0.0318516164683619	0.101048659566722	0.0716298149013663	8.04760872245116e-19	0.00791973676577078	0.099043567800202	0	0	0.0016702635392901	0.0486442994711196	0.0292968591312759	0.010440487271997	0.22221787499172	1.39075392906415e-18	1.37531493632706e-19	0.0895522338872187	0	0	0.00312285014527938	0.0337011604607532	0.00398794423525801	1.41331940068126e-18	0.0225651267688406	0.035617720719943	0.0274421525271165	0	0	0	0.0238206397403618	0.0457968369889112	0.0740412819205891	0.00363173130730362	0.00167875507494818	0	0.185345473369925	0.0757874773987908	1.43529428734475e-19	0.0439717502950867	0.0767167389973342	8.87653842818713e-18	0.139169497236718	0.0023613680248854	0	1.39983676127604e-19	0.312510796962247	0	0	0.237475590853492	0.396842163230354	0.153939731002039	0.0812403900842321	0.235180121086272	GTEX.W5WG.0926.SM.4RTX9
0.308026109484823	0	0	0	0.429195523194197	0	6.89060417555451e-19	8.52519138138517e-18	0	2.37118598941186e-17	0.0445244241401098	1.57435596180238e-21	5.52701826268097e-18	0	0	0	0.0162533378778128	0.0719712962558449	0.0655607918063017	1.10838639193052e-18	0.0340564438755937	1.37163884773109e-17	0.00202188927010693	0.0084474692186184	0	0	0.0112407386979498	0.437890505428846	0	0	0.0386929034102847	1.37403335685711e-18	0.0127581741174029	0.0406132309118469	0.0337274174320068	0.0681030666948194	0.0372421268593063	7.21506149339375e-17	0.0238981577382391	0	4.35866059986417e-17	0	0.426250204723005	0	0.0463044736363956	0.00955575398254167	0.00708215453413579	3.75355206841838e-18	0	6.92942796589327e-19	0.124515995463522	1.19562745392546e-17	0.0601565707443235	0.00964299798315806	0.0543786769676702	0.0314638147337313	0.030145750479423	0.00169760899395535	0.0123898852680091	0.127597210903557	2.28282618812918e-17	5.04532055161734e-17	0.455862968375371	0.0970994017291395	0.0224849449546713	0.0170282219377969	0.0395131668924682	GTEX.WI4N.2526.SM.4OOSE
0.536821152904331	0.0176243281898954	0	0	0.315607608764171	0.0103433192354895	0.113391906583817	5.7624684910745e-18	0	0	0.00912545984446243	2.00358340186236e-18	0	3.9316920857516e-19	0.143426405584555	2.27166148586859e-18	0.0699252471973323	0.181699851906531	1.10288610849285e-18	0.0540259267313126	0.0331872664497898	0.00107080976164138	0	0	0	0	0.00891299335329854	0.627415476086277	0.127671744414098	3.85790548550991e-19	0.0751868279672508	3.98584119308413e-18	1.0001571275701e-18	2.5653618169945e-18	0	0.0276999816154094	0.0715463089574659	1.42290596234919e-18	0.0948479221202121	0	8.49918792964201e-18	3.33342895685962e-18	1.7535826771546e-18	0.00192947663831764	0.0653766426150971	2.86010410340767e-17	0.00210746533018853	7.91140051925761e-20	1.42926446464962e-17	0	0.0373855717674992	0.0221803074880707	0.0396184144351236	0.0487260822742227	6.98944616784411e-19	0.244886847794286	0.0723765232724004	0.000743009747521858	0.00827494863496818	0.288520602914699	2.4713492356116e-17	2.76999609712513e-17	0.168978784475413	0.226582587901902	0.0367311576619693	0.0254057973198426	0.0621369549818119	GTEX.WWYW.2726.SM.4MVOP
0.154059976467394	0	5.76937744877499e-18	0.106614290429922	0.519823291789906	2.86802385111317e-19	5.081420583725e-18	1.33160963776098e-17	1.24561665199123e-17	0	0.0147616627578146	0.0418627425510829	2.39022154060767e-17	0	0.378652805635232	0	0.010924498623173	0.115253390583515	0	0.0141069527652259	0.0696936933459975	0	2.69983810836472e-22	0	0.026828854470794	0	0.0124696213607641	0.469520062959526	0.0802183112479456	0	0.0808944969351965	0.0581189727781657	6.57666115729693e-20	0.0857525038198873	1.18773719949657e-19	0.0735284493842954	0.126824528061853	0	1.0135234179205e-17	0.0105525457398612	0	1.07820151033317e-16	0.378379467502832	0.0333124677914892	0.0305109084519928	0.0200219044761404	0	0	0	0.169857076074478	0.123546406887616	0.00974713814430671	0.116789653695	0.102801159392169	0.0303083778837593	0.0908509679583892	0.0210862228512106	3.06488380154717e-19	0.0255784981996405	0.167416443405291	0	0.0312718881205652	0.0152085782003008	0.133023071907426	0.147135305682931	0.0482612739083958	0.195396579591327	GTEX.X15G.1726.SM.4PQZN
0.0265757190207627	0	0	0.165387317237263	0.116755589860833	6.2822847999102e-20	0.0885807571146462	1.30935084163362e-18	2.52118347619097e-17	0.145981493794098	0.0149504198745645	0	0	1.50574240489464e-19	0.125210577011418	1.59579456419998e-17	0.11620378569465	0.293203797612843	0	0.0254285467646405	1.53458544706314e-18	0.0125881364755499	0.0109811578962466	0	0.0671682300391925	3.2900437833581e-17	0.00315635643130517	5.83261366331238e-18	0.443614117803719	0	0.0118012471153166	0.00166274154152487	4.13363235518269e-18	0.0417766006579135	3.93455499575339e-19	0.0577567368344817	0.00689545682926222	0	0.135412093869696	0	2.6951229699979e-20	0.0362358738957447	0.375102654785882	0	0.127935262608901	0	0.00368252928254524	1.0893652689701e-18	8.3785354185207e-18	0.273187809123843	1.29394269373449e-17	0.071040437298285	0.193929121345004	0.100375170337992	0.0961442070437242	0.259196225527239	0.032321048009761	0.000741727794239567	0.0791112003374981	0.103460798345662	2.6673650795905e-17	0.00536716129869396	0.107785651874182	0.10036072861581	0.136711161345986	0.0335841150195962	0.170295276365582	GTEX.X4EO.2426.SM.4QASD
4.12250455164142e-18	0	0	0.0420611805140931	0.16999379754096	7.06766786441523e-19	0.0610678731389886	0	1.21276126297344e-17	0	0.00445729463000465	0	9.60483165342998e-18	0	0.0699813518680444	1.2213867760925e-18	0.0134176191084997	0.0688337322676651	2.85825706599827e-20	0	0.0894242118923627	0	0	0.0143230405261033	0.0555262590197074	0.0216235686925067	0.00757965173730591	0.12247347884467	0.0408038299535799	1.00201461357418e-18	0.0668193911005785	4.00750784696693e-18	6.15924836962139e-18	0.0339506670300282	0.00200419682723137	0.00335887849407666	0.0245855252250621	2.68128385434773e-18	0.0615123611957979	0.00389647921051709	0	0	7.18086807703905e-19	0.0336676566145633	0.0742277476478781	0.00690561713121172	0.00458004068653982	0.0172849743559796	0	0.54541686276495	0.139721493121437	0.0342195599134083	0.189411149905443	0.0983892305074103	0	0.166451194909478	0	0	6.18081737650576e-20	0.411907995816558	1.24887441373397e-17	0.0496334828659188	0.0361965791594717	1.9555029730353e-18	0.0409002344648694	0.072475235456035	0.113375469920904	GTEX.X8HC.2726.SM.46MUA
0.220698431997197	0	0	0.00379302574482924	0.223238583770299	0	0.117174539071179	0	8.09002594518921e-18	1.42828650570654e-17	0.00544726499395323	0	0	0	0.0192821782866175	0	0.0853177093970999	0.11394403145631	2.77032953601567e-18	3.95648198931626e-19	0.0307323405523989	3.17511445652485e-18	0.00786162412516148	0	1.26381421073469e-22	2.91637976649663e-18	0.00686191086799721	0.176013215652032	3.11170919671715e-17	1.91261504102171e-18	0.0156288954699865	0	1.76787572005519e-18	3.85961061803622e-18	0.0325770069266266	0.020586587867999	0.0360123936796046	6.96903175371424e-18	0.0645853546449123	0.00437449102604263	0	2.31607168009656e-18	0.167652023992259	0.0127880437837931	0.0219997193210602	0	0	2.63784592767984e-19	7.18494493189074e-17	0.608728964706351	4.87533850163859e-18	0.0672306750296621	0.176462925436124	0.0671788030647578	0.0110789218463833	0.103375520086756	0.0332610288557264	0	0.00560183716379576	0.354560455925887	7.95539396323942e-17	0	0.283997970909221	2.35029461861452e-17	0.0242466884476373	0.0153661702761994	0.0396128587238367	GTEX.XMD3.2326.SM.4AT5H
0.38465548532768	0.016812345418343	1.6901816900024e-18	0.0865625758460378	0.360221935247791	0.000565481258235099	0	1.79399932540158e-18	5.5533731914358e-18	0	2.08146724384402e-18	9.34532744897607e-18	3.92361208327021e-17	0	0.225568892258251	4.21302013776168e-18	0.0280125341664415	0.0238066010739124	0.0313676280278649	0.0253731625334615	0.0689128404037487	0.0048039073018737	0.0146472440043485	0.000407411016894816	0.0769650030165302	0.033887970245287	0.00191046589590706	0.16860333532354	0.500335195985927	0	0.106976552150032	0.00905256771422774	0	0	0	0	0.0475834141133734	0.0775738508752369	0.0798758623642712	0.0590595478175348	0	0.014813096635399	0.0426019607699624	0.00510204015303379	0.0501187823098464	0.0189144868980513	0.00734639581855844	0.00657062781868556	0	0.274390794439737	0	0.11469838111945	1.52022342356715e-17	0.114147769011497	0.0602359451513024	0.0534929898552884	0.00979942362614142	0.000523567460571598	0.0546198597243222	0.0951463655017446	1.14354380436423e-17	1.72430964890883e-18	0.104867876948463	0.295845895348743	0.0882418941428575	0.081345094419311	0.169586988562168	GTEX.XUW1.0126.SM.4BOOQ
0.300974105015959	0	2.95279366070907e-17	0	0.101795542495121	8.81403435862403e-20	0	2.53905448767866e-18	1.67307625165563e-17	2.03073237116982e-17	4.02851271248443e-18	2.5474695003372e-19	5.84293834009171e-18	2.84741069253807e-17	0.246052704644859	0	0.0712452141317832	0.216190897205097	0	0.0957555061612122	0.0391854058622903	1.17115206910701e-19	0	0.00424737808007302	0.0260433949756419	0.0398387293115099	0.00865845132547453	0.373019876213096	0.595462943076175	1.17327849452052e-18	0.00469904576946469	5.5607000711562e-19	4.81194213960498e-18	0.0204049774776376	0	0.00617483668975587	0.0484535859760588	0	0.00332383570705147	5.29846592347204e-19	1.10147307597338e-17	2.26148709656284e-17	8.61080712920343e-18	0.00555662614585119	0	0	0.00181695043569914	0	0	0.324523097475701	0	0.0995935844698285	0.0307716429171848	0.0598606197523748	0.0660297812565542	0.0351028872481006	9.92916865921902e-18	8.85759436559855e-19	0.00364452207510059	0.565194944325201	2.52130919289091e-17	7.08081816820796e-17	0.456120947546751	0.0317671232477273	0.0638370041074748	0.0326144004189661	0.0964514045264409	GTEX.XUZC.1026.SM.4BOPY
0.102451977936143	0	0	0.0120958531189703	0.381045659133636	5.30571665801853e-19	0.0526114810822111	0	0.0465175789649874	0.0257188153327226	3.64666276527679e-18	0.0166283279895889	0	0	0.259237734439142	0	0.216549677534718	0.17994923941581	6.43507351784333e-18	0.0288446018757232	0.0188852960809833	1.21026126205579e-17	0.0209350356296622	0	0.134093418352204	0	0	0.356141368676895	0.171778110834615	6.71101476852053e-19	0.0289160434983684	0	2.64691991123885e-19	5.09119324884888e-19	0.0123941407413194	0.0348920758502266	0.0264083061603012	1.05021227624569e-18	0.0334270023509366	1.16756139468061e-18	0	1.31730413915713e-16	0.366301446119768	0.0255418567616482	0.041612709858937	0.0109526158035565	0.00178674148796404	0	9.77940156857033e-17	0.12232702670208	1.18755745654007e-17	0	0	0.00617450715717078	1.75560072246035e-18	3.52356251778706e-17	0.0311101170546801	0	0.000505223903563454	0.4568493670289	1.935508065307e-17	0	0.0774492647075032	0.0377136677198024	0.0466419491504014	0.0764893572165935	0.123131306366995	GTEX.XV7Q.1426.SM.4BRWA
0.371192951521769	0	2.3830600203357e-18	0	0.41220145083488	0	0.0144291088253731	4.80351288653154e-18	1.1408856598413e-17	2.11431900569488e-17	0.0340310043283188	0.0653083471311582	1.01553468644106e-19	1.26808375721992e-17	0.116354126558317	0	0.0406635637812837	1.74576262953679e-05	3.34413296971629e-18	0.0183660264152638	0.0816864088066737	0	0.00439505430995519	1.55396696910707e-19	1.16658454547441e-17	3.15127994887819e-19	0	0.135616217905254	0.00863174593358693	0	0.1781939973869	0	0	6.53613147924574e-19	0.0226766563039901	0.00443340740350249	0.0252785944747214	0	0.102608581567795	0	7.32832404299026e-18	1.29992987381697e-17	0.105062589721707	0.0376629861251073	0.0257453552254581	9.55203349481669e-18	0.000794833593296069	9.51083529460701e-21	0	0.207591884013932	0.0296285727867785	0.0315012500808201	0	0.119343054351234	0.0458404621467595	0.140992729478327	0	0	0.00522543500817834	0.328285193679938	0	0	0.282890843078489	0	0.0709006865669414	0.0408432044033369	0.111743890970278	GTEX.XYKS.1726.SM.4E3IO
0.722660575476405	0.00799785304659151	0	0.126568625022065	0.656718625291012	7.73282297078489e-19	1.82401129500822e-17	0	0	0	1.56853985365918e-18	0	0	0	0.295122149700493	0	0.0361429958810605	0	0.0143779665318483	0.0776602928794782	0.0118491271867605	0	0.00945958496660798	9.58903042759484e-19	2.10519271726523e-18	0	0.0132076693146854	0.0886649900274845	0.228739983729824	0	0.0317872552549664	0	0	0.00345153903194731	0.00753574377276853	0.020888683285119	0.0372641431537775	0.0635608786493716	0.0806500944642693	1.90407038220866e-19	9.47514826505983e-18	0	0.21068910870686	3.22040617214758e-18	0.00163260052768845	2.6521122515803e-18	0.00500555792135689	1.15017279979453e-18	0	0.0416751537447139	0.00878067933990089	0.334360012094413	0.0290789488405715	0.108115130689924	0.105588464550564	0.0426330799893777	0.120512054712045	0.0100629374121475	0.00691353681400094	0.133016121035878	3.80081650478822e-17	0.0448537154699982	0.0293739961824244	0.111154012136317	0.141176441116208	0.00992349011667599	0.151099931232883	GTEX.Y114.1726.SM.4TT7U
0.490532561294285	0	0	0.0689279418562476	0.265539433207131	0.0404116751666744	4.7273013860742e-18	1.23488222850372e-17	0	0	0.0808598584522456	0.112380925781982	0.0634564831328838	3.12246319349023e-17	0.209188718795318	0	0.0731676162330214	0	4.74471918932657e-18	0.0807280480255548	0.0029292640065465	6.08370407153583e-19	0.0045874299539198	0	0.0969084230183092	0	0	0.0250499107282791	0	0	0.0414910658180939	5.77068884364908e-18	7.41758194697831e-20	2.07155849987793e-19	0.0349825976214881	8.84111875038497e-19	0.0513851239859225	0.0169933880112754	0.0475000728105191	0	9.32800826638081e-19	1.86676818772813e-18	0.418210975938808	0	0.0342859835593664	0.0123029327291359	0.00319205322857492	0.00375454748183235	2.54833734164687e-17	0.0322773674927699	0.0992047575772329	0.0909073182650836	1.27650063021201e-17	0.051299679834446	0.0341736805370503	0.208087496843086	0.0899994044435149	0.00083286067067914	0.036391355684429	0.21154760176859	0	0	0.149872632901192	0.128608741033502	0.200516040511403	0.0499188435124279	0.250434884023831	GTEX.Y3IK.2026.SM.4YCDG
0.552747161027722	2.84362246825994e-20	0	3.47643438081958e-18	0.142355576387313	0.0398031418351148	0.0180185090791918	1.72675338177261e-17	2.03479475466936e-18	0.012704958679534	0	8.42378932277753e-18	0	0	0.215605102474173	0	7.2165233771582e-20	0.101084959057756	0	0.11402927991451	0.105996216687866	0	0.0182553736778018	6.90542503244936e-05	0.00741162050220855	0.151441933480124	0.00566168786984912	0.294335528525176	0.514766310877572	7.24773843381352e-19	0.0431697189930315	6.290050325188e-19	0.00882259363251849	0	0	0.00892928725146868	0.0250545205972647	1.22967420497039e-18	0.121186137014702	0	2.56489415786986e-17	0	0.034158155540537	0.0389549649077675	0.0117910966923208	0	0.00681365248811943	0	1.1133704953727e-17	0.585436445320768	0.0663850875956122	0	0.16981253553742	0.0526970305340551	0.0456059734123898	0.262219701336429	2.30829217030543e-17	0	1.78025431281013e-20	0.28595656318505	0	0	0.491224688996057	0.0304578523038535	0.0760195199430067	0.0567039185950373	0.132723438538044	GTEX.YFC4.2726.SM.5IFJW
0.246563524658878	0.0501394379169903	0	0	0.168535716446062	0.0469376799513848	0.0204482922343791	0.0160036089933378	1.15085232386632e-19	8.43224028397248e-18	0.0303926917738818	0	4.78561221594048e-18	0	0.00836702419499846	6.59472894266205e-18	0	0.149576286335267	0.00542292497485934	0.0380226880394727	0.0895170103281756	0.0429345362526554	0.029501697355358	0.00170074255092123	0	0.00219882800138743	0	0.52881427291634	0.408052667825886	0	0.0433724163912717	0	0.0186477064398679	0.0100779631339074	9.54680771352288e-19	0.00415788786611471	0.0209877726391255	0	0.113031244308803	0	7.53086299330709e-19	9.19958450281712e-19	0.16741066287011	0.0498006154972184	3.77428610795049e-18	0	0	0	5.03139151596166e-18	0.135623238741608	0.204392462021471	0.0566093565049075	5.9904882593232e-17	0.126042260284965	0.0114550339895591	0.198122305564336	2.87894960791363e-18	0	0.0248503587084998	0.417019648798912	0	0.111568318776533	0.203850302097485	0.0351617754033145	0.0646405555236439	0.0698282241225829	0.134468779646227	GTEX.ZAJG.2726.SM.5S2MU
0.579985421450852	0.000828276822898771	1.21906198418939e-17	9.9569236669533e-20	0.24489722748105	3.01159515090531e-18	0.0659543515885116	0	0.0137978847029868	2.75102175493643e-18	4.46612835984633e-18	5.04825173233654e-18	0	3.76736164579096e-17	0.231667900158294	3.65012314994708e-17	0.135712362042671	0.237577726935214	0	0.112527277617869	0.0046773905946949	0.127382226849256	0.0268591690168918	4.63205951277521e-05	0.131411216086361	0.0136841613339444	0.0057746824470755	0.121720001127647	0.267407012939913	0.000598057964218743	0.00110256282743227	0.0114930339500697	0	0.0149215034842705	0.028362685700987	0.00545065962957344	0.0159700674782825	1.20601630899179e-18	2.2268796318722e-19	0.0437637045809217	4.40135221738001e-17	0	0.121815541501422	0.0212682727268346	0.023265848279097	0	0.00196855086178276	0	0	0.15240639613064	0.0467082964169641	0.0249717158651472	0.0499544398151095	0.0573461013741583	0.00304368246959713	0.226272598391307	0	0.00727993242159497	0.0584295826100438	0.284711030829413	0	0.142919276523712	0	0	0.186510149412121	0.0684584417519772	0.254968591164098	GTEX.ZC5H.2026.SM.5CVN2
0	3.49342620814231e-19	0	0.0875989726396931	0.280228327002504	0	0.0941043561065697	0	9.95212623881903e-19	0.055940178978206	0	0.0043144456831267	4.5717055597533e-19	4.89804777251147e-18	8.77676803133438e-18	0.0162747217927145	0.126876931491395	0.0238018886136017	0	0	0.0909874649654103	0.0102117136901023	0	0.0016729569167863	0	0.0679582250653974	0	0.222011074599003	0.144944224288383	0	0.0856025680671695	0.0254315838816944	0.0430507940380702	0	0	0.00669692860494368	0.036070318556396	2.20467766611411e-17	0.0518650314247437	0.0406129196850053	2.53664455659587e-18	2.72062246105931e-18	0.127772972455357	0.0263228608358908	0.031223524481045	0.0136636502981974	0	0.0170942871015195	0	0.0288749079490866	0.136680253990361	0.167333692990006	0	7.75775451036234e-20	0.217690038002492	6.9711075233469e-18	0.0490672610134732	1.04924184664678e-19	0.0132998633485456	0.346953496919825	6.56335765897044e-17	0.189772859419736	0.0595401084061809	2.94630596364888e-19	0.096434001997424	0.0454937324827051	0.141927734480129	GTEX.ZLWG.0926.SM.4WWC3
0.380953531468342	1.10265743248732e-19	0	0	0.404159693516862	0	0.033871523364803	8.92627910313077e-19	4.08341347750856e-18	1.51770238696601e-17	1.75473371522969e-18	2.42582885122004e-19	2.90995537765796e-17	2.85409064960523e-19	0.347486490410396	0.0211381087638473	0.0320809021678016	0	0.00917924119720055	0.0447564109093552	0.0482815210914142	3.8833851854261e-18	0.00947374355834906	0.0070465314668658	0	0.248622025139813	0.0101310140689073	0.638329348532293	0.485265770526114	1.21258647890247e-19	0.0704970489046704	0	0.0471380506937082	0.0144511249719656	0.031650828765958	0.0291411768999072	0.0122564793393401	0	0.0333818226302338	0.0296908244757425	2.71164621649988e-18	0.00186595663088988	1.2517311909666e-17	0.0223883326822924	0.0310301490047103	0	0	0	0	0.135522436275426	0.102428151164546	0.0262543738913632	0.0325440202869981	0.108652333297643	1.99971418918073e-18	0	0.0504796647550372	0.00371506670519956	0.0195676407749283	0.244876225660366	0	0	0.101542095503193	0.129010302334496	0.0509381597835421	0.0241407605457071	0.0750789203292492	GTEX.ZP4G.0626.SM.4WWF1
0.31892428277044	8.24045402174831e-19	1.16015691625885e-17	1.66677115889094e-20	0.155937399339914	0.0439419214739732	0.0131059434570861	0	0.00898382442710666	0	0	9.06921028750118e-19	0	7.40301906623649e-18	0.203230847921798	0	0.0505313746925112	0.007662509441361	4.45236077069842e-19	0.0191753367543813	0.0507688292040925	0.0185444333776627	0.0241210362441678	0.0026657271417027	2.2297279158969e-17	0.118189154937697	4.51813030417664e-19	0.117743343818143	0.0789513234015227	0.00513334870332887	0.0297345569405489	0.000519919192562422	0.00974625539951496	0	0.0169835201105851	8.67361737988404e-19	0.0394893236567238	3.63471214074503e-17	0.077844799872113	3.4007782338896e-18	2.59848382018778e-17	0	4.08821700638158e-18	0.0205581902913473	0.0352207356558616	0	0.00696025534023746	0	2.6815858248741e-17	0.130885422986308	0	0.0145020086206591	0	0.0486839324108883	0.0557779705791433	0.077357075264816	0.0511517376980512	0.00231542382105363	0.0479128786181214	0.383255460466259	0	2.617166443858e-17	0.0905138832462061	0.253265172536638	0.0368154729567944	0.0253844146020463	0.0621998875588406	GTEX.ZPIC.1426.SM.4WWCP
0.721429742487921	0	3.48110654993994e-17	0.265603631615974	0.254205123714525	0.0035112897207575	0	0	7.54764191153977e-18	2.86595222335144e-17	0.00875491244633735	0.0325455222972037	8.21327947124659e-19	9.29724670675127e-18	0.35138412186293	1.55497808113641e-17	0.282622697449715	0.252211889453886	0.0111332275734841	0.0901362845714899	0.00400777347820811	0	0.0058646901586421	0.00827021944071195	2.04750599673046e-17	0.0429069571559284	0.000935291883377079	0.196225008757793	0.616229464795735	0.000244237834177725	0.0247890360568223	0	0.00167162643618039	0.0327092331758478	0.0550310463121892	8.93117068692264e-19	0.0586312019589127	0.00786202061006663	0.0322469069868357	0.0292891899582037	1.53499234783738e-17	7.07493941326643e-18	0.540156813024665	6.61156952723408e-19	0.0313693785851245	7.96881731312473e-19	0	0.00276548336716136	0	0	5.35224995390903e-17	0.227094041369284	0.00660735655276303	0.0625793205158044	0.0216878837808901	1.85924020668879e-18	0.236436907863593	0	0.0163527698144843	2.2832906799114e-21	0	4.95527866472986e-17	0.44502559813515	0.131264929654334	0.297387978776012	0.00200388673910406	0.299391865515116	GTEX.ZVT2.0326.SM.5E44G
0.190304841862807	0	2.16165698038239e-18	0.0472443275181666	0.00910247563468179	0.00369490628339135	0.126642073167591	0.0152218484088213	0.07397191864089	5.41943439816121e-18	4.44401388219738e-19	0	0	1.39335619139832e-19	0.173441635786362	0	0.113694166691421	0.156924824644731	0.00106346004424376	0.0521348120198733	0.0494102529102443	6.71526092625224e-20	0.0374983314160378	0.0104020206466339	0.132275655570691	0.00325482632808913	0.00531085036560404	0.0133520758676956	0.0142527702547874	0	0.130696765619508	0.0245572549541276	0.00983562113938344	0	0.0147399858885601	0.00727210874700659	0.0199257176662101	0.0156120131264794	0.0430567956335104	5.11045212354569e-18	5.25400753234787e-18	0	0.457774647151334	0.0202357298725592	0.0929660267828881	6.49006562199947e-18	0.00236139072975123	0	0	0.234181588126146	0.00447905927423226	3.20423347146852e-19	0.204453628153294	0.0819514019371267	0.0138596209991065	0.325370546862745	0	0	0.106007089142168	2.95255480059369e-18	1.75092461214755e-17	2.14741825737718e-17	0.223301984261876	0	0.102598819193033	0.0908429542404676	0.1934417734335	GTEX.ZVT3.2626.SM.5GU5L
0.437466988894311	0	0	0.163914695756537	0.2562983302284	7.57824377824097e-20	0.091481990047373	0	0	1.29373534152429e-19	0.0943328338091536	7.14779138922656e-18	6.24156609184246e-18	0	0.184652004181324	0.00749958253548522	0.233044144101802	0.2516531864204	0	0.0226906628033973	0.0443191302453761	0	0.00644721765425251	1.73609092193274e-18	0	0	0.00871568717076023	0.0083950043834365	0.0949576918317279	0	0.0587817237769219	4.41560359241837e-18	0	0	0.0284285620861944	0.00245887745937577	0.0410222849055301	0.0510293169528573	0	4.51109204086097e-18	0	8.2992974564911e-18	0.184146518984591	0.00778214551023112	0.0172717687249755	0	0	5.73061362498144e-20	0	0.288064283666193	0.125766778249437	0.179292640626133	0.169988261391595	0.041606062693945	0.0376498804419959	0.116608979914594	0.154757281448365	0	0.0350196099576716	0.26736561247603	0	0.215290393388468	0.0758397171606712	0.0368921790733476	0.143355947097419	0.022159565122688	0.165515512220107	GTEX.ZYFG.1726.SM.5GZZB
0.537545359332902	0.00332841349879381	3.74400964799728e-19	0	0.186311081702108	1.40482443569779e-19	1.57905669293315e-17	0	0	0.245218835821226	0.0545605485932322	4.51744153475523e-18	0.0730910846105214	0	0.148322900928567	0.000184949002314773	0.116774568351556	0.0168782851976105	0	0.0370627749423355	0.140327338221683	7.24935510490412e-19	1.3547599923009e-19	0	0.110710352886657	1.1469761044039e-17	0.00335587170195991	0.30817208737982	0.18435175134336	0	0.141630752909943	0.00799399765800591	0	0.00934761600198106	0.0237828996188865	0.0127810514018443	0.0348167487093906	0	0.0495752180013422	0.00186055934892284	0	4.0537745482857e-17	0.00311675844042686	0.0585316151334052	0.0895505750626186	0	0.000655811345980623	3.31001859827627e-19	0	0.117596208231597	1.29481175293245e-17	0.0127186894133842	0.0580381681225569	0.0657189363787887	0	0	0	0	0.0234574518705214	0.211773368160302	2.35653854984179e-17	0.0672934059289481	0.083804896325042	0.0157053642723556	0.0458931148128186	0.127183052303566	0.173076167116385	GTEX.ZYY3.2726.SM.5EGH4
0.274383274283666	1.39685729317252e-19	1.07278140048404e-17	0.0249330229039768	0.0231657955494772	0.0188467478939786	0.0526205721846957	0	0	0	0.0230768637826085	0.0711823416498575	0.0177268780296983	8.95794190290436e-18	0.076557849151729	2.71122773835239e-18	0.164591966537338	0.120145313161107	0	0.0170989203146438	0.0952116577166703	0	0.011378939202395	0.00113874977876114	0.055973372137526	0.0916527233999735	0.00239121499970307	0.0533276361436877	0.121595342643802	0.00144885680452862	0.170811995362781	0.0149407423668421	0.0134209578783055	0.00587330053915101	3.35145921043602e-19	0.000584893009023672	0.0659354305432884	0	4.04261758284395e-18	0	7.15124054854614e-19	1.54577041694529e-18	0.0316209528425298	0.0524894649991949	0.0503740445640707	3.13139880529796e-17	0.000185362048266727	0.00271847220873043	3.09880112920662e-17	0.0556967327895386	0.0612566995811798	0.0918644865467741	0.0964483815775951	2.62537753628837e-19	4.03175726402072e-19	0.0185308632796017	0.0583848783133285	0.00354368986725218	0	0.249475446875331	0	0.0921142276990908	0.392526716552944	7.11749826083475e-18	0.0872489996293671	0.0755925149270981	0.162841514556465	GTEX.ZZPU.2126.SM.5EGIU
