aDC	Adipocytes	Astrocytes	B-cells	Basophils	CD4+ memory T-cells	CD4+ naive T-cells	CD4+ T-cells	CD4+ Tcm	CD4+ Tem	CD8+ naive T-cells	CD8+ T-cells	CD8+ Tcm	CD8+ Tem	cDC	Chondrocytes	Class-switched memory B-cells	CLP	CMP	DC	Endothelial cells	Eosinophils	Epithelial cells	Erythrocytes	Fibroblasts	GMP	Hepatocytes	HSC	iDC	Keratinocytes	ly Endothelial cells	Macrophages	Macrophages M1	Macrophages M2	Mast cells	Megakaryocytes	Melanocytes	Memory B-cells	MEP	Mesangial cells	Monocytes	MPP	MSC	mv Endothelial cells	Myocytes	naive B-cells	Neurons	Neutrophils	NK cells	NKT	Osteoblast	pDC	Pericytes	Plasma cells	Platelets	Preadipocytes	pro B-cells	Sebocytes	Skeletal muscle	Smooth muscle	Tgd cells	Th1 cells	Th2 cells	Tregs	ImmuneScore	StromaScore	MicroenvironmentScore	SAMP
0.234034206194153	5.69224985875264e-19	0	1.31090707110807e-20	0.180225402770454	0.0133230438010662	0	0	5.92078111186622e-19	0.0776688639104388	0.0622750660452127	0.0436937595933562	0.0171661292336464	1.40915054174544e-17	0.129517914003422	1.21592590834527e-17	0.00651088484824595	0.0666977508477212	0	0.141653426243769	0.0909229345187484	0.0366145885122266	0.0106545992116628	0	2.74016348932879e-17	0	0.00139179757347506	0.00601753294356283	0.501525944994378	0	0.0606728487221703	0.0359546690621225	0.0114471837314466	0.084904819120984	0.00389663450843194	0.0182623333922631	0.0193342080657096	0	0.0438193518283748	6.67853021523386e-19	7.74890590028129e-18	1.6639192817474e-18	0.460357083471502	0	0.0122588874942387	1.42940551283938e-18	0.00820233930406301	4.60054887191059e-18	0	0.0631422845630984	2.29854638637079e-18	0.0798046032884403	0.318486268512352	0.0453005919861233	0.0713922144125766	0.175506183495642	0.00962241405566343	0	0	0.207454044624202	1.34303130913853e-18	8.51158151926801e-19	0.121137675498887	0.0462196108225603	0.174542051946604	0.0454614672593742	0.220003519205979	GTEX.113JC.2826.SM.5EGIT
0	4.30887907792394e-19	5.62335265619555e-18	0.0721849483822015	0.0702878825106122	0	0	0	0.00614387252940972	2.53194689409466e-17	0.0305182610703853	0.0313223863879492	0.131310651189238	0	0.347884896901274	5.38579402653507e-18	0.0151537147301844	0.070908488435316	0.000702359577802317	0.140927646864317	0.157468269199017	0.0411602082284024	0.0260604953487998	0.0042801903898579	1.89221093873561e-18	0.0249908363920126	0.000989587458465193	0.193494458308183	1.10837086370241	0.000343174444635871	0.141937548287258	0.00864150040154763	0.0216146645209983	0.0254443229446571	0.0228571796460279	0.051564803444519	0.0169264516198355	0.00935978916130893	0.0191067787851532	0	2.28505649569461e-17	0	0.559503944144251	0.0168083605207791	0	0	0.00255304824954953	0.00704811402305593	1.1304223307842e-19	0.0307261959125042	0	0.0972344828339638	0.145509757564605	0.134156905880109	0.0114199160951864	0.135277414599819	6.38017097166376e-18	0.00438255099015693	0.00591385776714765	0.221526644125549	2.14189759787944e-17	5.84599702750687e-17	0.41315681331142	0.227548370358224	0.216094655955668	0.0787341345995084	0.294828790555176	GTEX.117XS.2926.SM.5N9BX
0	0	2.92561011075213e-19	0.0743664144933021	0.0565326785663723	0	7.09606055950295e-18	1.6473404256687e-17	0.0634588364489105	0.0199702244044126	0.0239897009112838	2.07793156984855e-18	1.54642819663209e-17	0	0.137953132876229	2.63048709177824e-17	6.15377279751936e-18	0.284625855087621	0	0.0652174882346046	0.00285539018536307	0.0421354173945749	0.00143025291272598	0	1.97385651534878e-17	0	0	0.341628581044227	0.611727548606921	1.83996917232657e-19	0.000126993402146112	0.00520940771511679	0.0217932853295284	0	0.00685934663427525	0.0172627174494171	0.000781634673742693	0	0.120347242639071	1.14162046277088e-17	0.0194478579402579	1.60329767225929e-17	0.41052035278338	0	0.0202282757318344	0.00931287302099545	0.00525845346120755	0.00597847402279884	6.85024781567278e-18	0.122129440707415	0	0.0608297441238644	0.235585609013135	0.0604174924396861	0	0.0463856574920732	0	0.00135515590658141	0.029542778180385	0.154061223117723	0	0.0207439900048438	0.192021029853529	0	0.146142937623287	0.00142769509268155	0.147570632715969	GTEX.117YW.2826.SM.5H116
0.162871641114902	0	3.66108827536281e-17	0.130421941689722	0.0422932845532257	3.14458889007393e-18	6.88081959080232e-18	1.13974321273026e-17	0.0010458945768427	0	0.00231655220151029	0	7.45676748370742e-18	0	0.44480737243142	4.14236673601432e-18	0.376953613510796	0.127655407196746	2.78495706190621e-18	0.0812350232197851	0.0816764711339264	0	0.00980068166593322	0.00136791168505347	0	0	0.00144674872602263	0.592128428917302	0.484910797850866	0.000975216983080886	0.00638291753914076	0.0350058912706608	0.011191644889018	0.0352329039535776	0.0111764251925358	0.0128269298553011	0.00681423636674263	0	0.0327457481374471	0	0	6.01570993123432e-17	0.621477770000823	0.00662030548917575	0.0431775375165491	4.43646790181581e-19	0.00411953985763872	1.07809315529147e-19	0	2.70355265396673e-20	0	0.0389814591563807	0.432571304022804	0.0425521321933504	0	0	0.019329913983287	0.00100051108038305	0.0340654140274231	0.105169710747921	0	0.0918810164684345	0.0579507416960392	5.80670207567352e-19	0.171892854248469	0.0408382355669632	0.212731089815432	GTEX.1192W.3026.SM.5GZZV
0	0.0228800723497487	0	0.0625370187282702	0.0623035788702931	0	0	0	0	4.66814096556881e-17	0.0336734319971174	1.04750669751522e-18	0	0	0.145749104752997	0.0144929025683847	0.0386513290493836	0.126005245859675	0.00747029158639004	0.0153090259918942	0	0.00912036114503161	0.0298971844125545	0.00297034570269957	1.7672993442454e-18	0	0.0037560741577053	0.116744474658147	0.311524566314155	0	0.00184464073084186	0.00921886861829183	4.72039080122442e-19	0.00612704188070261	0.0789219655216144	0.000234008356025361	0.0111421931842102	0	0.0905021479326486	0	0.00626261464575275	0	0.417097525804662	2.73922321398796e-18	0.0109986167948737	0	0.00476245158923152	0.0409685531590024	0	0.378888156492865	0.0948807181252478	1.72284665353575e-19	0.147830983467826	0.00606950695770415	9.88616082440105e-19	0.315926098932691	2.41015416108054e-18	0.000588422144814966	0.00780910807582257	0.060357687471265	0	0	0.459923389550968	0.047671986579124	0.148225605206572	0.0114400361748744	0.159665641381446	GTEX.1192X.3026.SM.5N9BM
0	1.77015535031381e-18	0	0.183879110301764	0.0839225969663982	0.0137405989861764	4.0140904099351e-18	2.4158569394772e-19	0.0856364713575233	0	0.0386201856196439	2.86106822018511e-18	7.55819808254729e-18	1.11194707505928e-17	0.215579811852815	0.0200983301957798	0.0412041608499308	0.254831627810965	0	0.0736686887316261	0.0822658289891583	0.0371574589750275	0.0174031339580588	0	8.06969374236794e-18	1.80544001137236e-19	0	0.321141950053628	0.601245115964143	0	0.0559426598790787	0.00918863024075477	0.00317875637730305	8.56305873038519e-18	0.0649389207751452	0.0409328737401511	0.0133004646458207	0.0388681417032738	0.0225000463758474	7.95718688084117e-18	0	6.35113230131545e-17	0.467899058530312	0.031549007009576	0.0891553017187093	0.062072607723698	0.0056905630466202	0.00340842414701429	0	0.364735929730872	1.1266487459838e-18	3.9998654241864e-18	0.279572856713825	0.0536192183564916	8.3431557118237e-20	0.0692837194578923	1.99816707027377e-17	0.00257427497385145	0.00966742261187303	0.215652803851625	6.02464202211193e-17	0.0575022893642111	0.252345662274217	0.0585076225102566	0.248160822114221	0.0411329144945791	0.2892937366088	GTEX.11DXW.1226.SM.5H133
0.107909447199348	7.49410537302133e-20	7.73240897520907e-17	0.145373004756303	0	6.76840701980583e-19	2.63138895770863e-18	1.59285650619113e-17	0.0463066427411355	1.16638513906238e-19	0.00504429556357098	0	0	0	0.20799876645567	9.29164033787209e-18	0.0880613321335571	0.155883051126244	0	0.0540918439223271	0.0212110952621661	0.0164070192886445	0.0104947236009634	0.00126327762304426	0.127186241330861	0.0742238182232581	0.00188535326226867	0.666831535602445	0.246954832158195	0.00611178027178547	0	0.0354043121319475	0.0650226025546018	0	0.044310025582595	0.0249570257605736	0.00973709493573573	5.89101484221772e-18	0.0890292039106418	4.29426600284053e-17	2.20480568428063e-17	2.1227399041962e-17	0.722360832215584	0.00493669990400563	0.0952656958740644	0.0507001553905087	0.00888935109597384	0	1.45843878318199e-17	0.0795152247827685	0	7.84358458785406e-18	0.0188554228693477	0.155015617538681	0	0	4.94694066310007e-17	0.000576566689237156	0.0221487234176336	0	0	0.0372567375587936	0.116163064013959	0.00350453902551304	0.197057470454545	0.0741986682965136	0.271256138751059	GTEX.11DXY.3026.SM.5N9CB
0.0970823158933316	0	0	0.0943104100217077	0.361495153691751	0	2.00181667559147e-19	1.48396646706963e-17	5.26106768175364e-18	1.13127475105746e-16	0.0900477126091672	0.000913644550064145	2.25068780782397e-19	0	0.108684671520508	0	0.115074297614598	0.106476343771848	1.04927268293575e-17	0.0502129797690837	0.076656040773248	0	3.22528330194238e-20	6.69201758681525e-18	0.0127597420682039	0	0.0116375001900086	0.104856590330636	0.109917543447469	0	0.0249938832305291	0.00604654833828996	0.0151200869573997	0.0188914579844064	0	0.00932688671208986	0.00567309701261831	0	0.0226723270298237	1.14132848049713e-17	0	0	0.643335970411348	0.0333317805345837	0.0153428837632363	0.000544698994737123	0.00103153916952182	2.63155765013537e-19	0	0	1.0347429392201e-17	0.0404085976262313	0.394532342332606	0.0965535326049623	1.69229996490448e-17	0.0277240445772345	0.0366975907720016	6.33055836443863e-19	0.0204383135923215	0.00153766349707012	4.14237924547725e-17	0.0646268981165114	0.262976687310126	0	0.10098905511943	0.044707891420726	0.145696946540156	GTEX.11DYG.3126.SM.5A5L6
0	1.05356175385545e-18	3.4318950316744e-17	0.217863033603688	0.195001528474872	0	3.87973970382944e-18	0	0.00471553032358282	1.32771689432032e-17	0.0455973153548474	0.0472454408865638	9.47264100680624e-20	6.78957077542356e-17	0.0925503626534435	3.34228503951586e-17	6.17514286481555e-19	0.0440226281667229	0.0318159765109418	0.0211402223840857	0.0199172680024935	0	0	0.00739230744991548	0.0355382080016335	0.119776824994312	0.00136999688580242	0.186854827624736	0.554284815577944	0	2.31405630044914e-19	0.0089217526442893	0.00884198419969127	0.0722664608555199	0.0496163391221759	0.0295096524232142	0.0393033909271338	1.15888681680263e-20	0.0192938088363821	0	3.67747000676789e-18	0.0174492312602094	0.779224935065312	5.56810081470609e-18	0.0511935159782316	0.0522756113230043	0.0015093315546455	0.000165411321982198	2.66949927690371e-17	0.0961915566496711	0	0.000793924536322443	0.44415003739539	0.080300803171082	0.019915542947321	2.50878215548843e-17	8.10372559103994e-18	0	0.0090790301322338	0.317048588022151	6.20154540303572e-18	0.109478053923697	0.038374546955095	1.42870627501283e-17	0.229968133308523	0.0277277380020635	0.257695871310587	GTEX.11EMC.3126.SM.5EGJP
0	0	1.52921527206831e-17	0.0106860103992965	0.069331507643404	0	0	1.31425858201974e-17	1.24883895979118e-17	0.0268580745127129	0.0266450378045686	0	0	7.09388495434767e-18	0.140396930384383	2.07308686423537e-17	0.0237343308472852	0.336583036661635	4.59998740152653e-18	0.07911743957696	0.132356067698438	0.0612635248408403	0.00236778793639538	0.00204144796488487	1.76552278847862e-19	0.240753818250292	0.00211028541471802	0.324114793213087	0.574115012260259	0	0.11421432958435	6.35170292974457e-19	0	0.0212046780096303	0.0120123503838398	0.0638692265734403	0.00829046091584713	5.70464132363783e-17	0.00466221036334226	0	0	0	0.24814392975332	0	0.0822949196819022	3.86324852670988e-19	0.00575072641414844	0.00158752963892267	0	0.292343115006894	2.05570556586821e-17	0.0962377770764455	0.0549219358311188	0.0754345442580075	0	0.0414750279354877	2.45579421240281e-17	9.87760159394859e-05	0.0394153866327895	0.15446566389357	9.20466947855437e-19	0.112486149326511	0.0982904404161547	0.0820989896088431	0.109777903226573	0.0661780338492189	0.175955937075792	GTEX.11GS4.3026.SM.5A5LG
0	0	9.17565025016879e-18	0.062894187966685	0.282392419784507	0	1.22501341510756e-17	4.15624446198076e-17	0	0.0644112011600112	0.0595416754123444	0.0317590682511819	2.42701193474265e-17	0	0.233118288532637	1.88831979133417e-17	0	0.495774588580943	3.87867028990268e-18	0.0385391574159222	2.55995382918509e-18	3.43131548769973e-18	0.00159834225647342	5.772507710369e-18	0	0	0	0.153037235001452	0.419927960866243	0	1.12359511090523e-18	0.0129152515458791	0.0146762269697862	0.0163483989445925	0.00174015192195059	0.0253852697417716	0.0133648663454244	0	0.0293112217989066	0	0	1.2604460019301e-18	0.670438957375196	0	0.0906850703060239	0.00162334959208498	9.23503469525472e-05	0	0	0.179063623274087	2.23663170482509e-17	0.0854015123675572	0.46299688512032	0.120519215921604	0	2.65403848107284e-17	0.0250667704653722	7.47961341783782e-19	2.5368687836048e-18	0.278964240772429	3.45252841673941e-18	2.21851303917428e-17	0.3272009606997	0.0576123166056003	0.0985652114010793	1.27997691459255e-18	0.0985652114010793	GTEX.11NUK.3126.SM.5986M
0.208395855740762	6.36192321886913e-18	2.21247755173681e-17	0.228538708028068	0.242879280065534	0	0	2.15890471564082e-17	0	0.0791946261871599	0.0986186554551897	1.4373760382973e-20	4.91140247008316e-18	4.04282665970271e-17	0.170401940339944	4.78121384583918e-17	0.139089141832011	0.0906238997690164	1.8502364825995e-18	0.0251842351570192	0.00688097401556943	0.00618245965791143	0.0179707215099103	0	3.31874268427822e-17	0.162325030116258	0.000265166251945388	0.247911236179308	0.0772847974728788	1.48496365826965e-19	0.0112083080154628	0.0781238608330321	0.0439378378035944	0.0162922201966972	0.0656377606392565	0.125133049233912	0.00890763605170591	4.35137249857205e-19	0.0917783556578076	0	8.55510569283776e-18	5.86605422783397e-17	0.671575590030801	0.00235077740910573	0.0913304862446066	0.0703503338411718	0.00682895645063475	0	0	0.0717526776909682	5.01095653985592e-17	0.0275920692666023	0.5018021590651	0.049366933045443	0	0.102665145592054	0.00178155489954704	5.1904944309634e-20	0.0230214716420773	0.264372427113262	4.76510193923219e-17	0	0.275903642933523	0	0.269111349543525	0.00344048700778473	0.272551836551309	GTEX.11NV4.2326.SM.5BC4X
0.0895862227401597	0.00483502845400718	4.20343867909467e-17	0.159148795853633	0.245961450582181	0	1.54212173613161e-18	2.55067884918423e-17	1.73337517473172e-17	1.2683862527411e-17	0	0.0469562102818723	0.0643037210089774	9.27817243843803e-18	0.0305700675336745	2.20810956001056e-17	0.0824975320524352	0.162635238976846	0	0.0194920992470911	0.0548587565389235	0	0.00132182443479141	0	6.04840046299276e-18	0	0.00706258228016192	0.116466112682521	0.291855431415434	6.61379298411897e-21	0.0386566731717261	1.24112861012561e-18	0.00480491567484687	0	0.0202105255081309	0.00774650904650491	0.0222471024902873	0.0254665007187129	5.59273980498353e-20	0.0173747985653617	0	1.40155876911724e-17	0.193196008674515	0.0362185782219887	0.019827628100951	0.0888906746200112	0.00221217438277647	1.68443936384889e-18	1.90250550343658e-18	0.365957444839927	2.26691084168429e-20	1.27999951378548e-18	0.0171817519873805	0.0252410846300497	0.0216191830613555	0.1112397095846	0.00689979275538058	0.000512671747735924	0.000666364031893321	0.467255754501314	1.06348734585563e-16	0	0.285434076163548	0.0931388404295103	0.163871753927152	0.0298468924964654	0.193718646423617	GTEX.11TUW.3026.SM.5EGKM
0.0532220873535697	4.88253811599195e-19	2.33999101436341e-17	0.131611898049427	0	2.0702385837047e-18	0	2.22614790141874e-17	0.0297322984396193	0	0.0620279130370572	7.53700094001051e-18	1.38199259325057e-17	0	0	0	0.102983881300674	0.0616310946076643	0	0.0358107061116537	0.0768462515111761	3.92607189543879e-18	0.0267776113140693	1.61673166275028e-20	0	0.0315961837062729	0	0.434205226821934	0.379284447056933	2.83705905979669e-19	0.110086858896103	0.0135261720268044	0.00520866899625567	0	0.0157631466188832	0.00290336242277528	0.00852335965364478	1.40248889398334e-17	0.0898349509948675	0	4.05059371043393e-18	4.45753863412411e-17	0.510449632844146	0.0197117978554378	0.018800960302963	0.0281581818688489	0.00334579008301163	1.5970289712299e-19	0	0.202625218554683	1.30519131596125e-17	0.0382733414237695	0.241972188955022	0.0181695777763999	0	0.319196712801894	0	0	0.0191768574128851	0.241863468950035	3.06423862119652e-17	1.12564179771164e-18	0.302771067092943	0	0.131141281871179	0.0384231257555881	0.169564407626767	GTEX.11WQK.3226.SM.5EGI3
0	8.85155786382391e-20	1.54979692483218e-17	0.174251240477212	0.116244419204567	0	0	0	2.0273569092474e-17	7.62101527701583e-17	0	0.00665930700811172	0	1.15113753521419e-17	0.0545425860276826	0	0.102094555503966	0.297848206058289	8.18383399534822e-19	0.0027974680310821	0.109634713381253	0.042262538428666	0.00406833731562895	0.00677157755396875	0	0.04738015704473	0.0065398661783102	0.533856112520749	0.467693355376125	0	0.0543916840114447	6.47466119931683e-18	0	0.0118314894707976	0.0334848277782047	6.92404913421205e-05	0.0359213919496276	1.31249755773708e-17	0.0407634495718889	0	1.24143696931296e-17	1.10280079588399e-16	0.685182853517707	5.28657515796683e-20	0.0175212851981649	0.0737277861395094	0.00695768935361498	0.00687846960493693	0	0.343226492835917	8.15817313918564e-19	0.0522622227912611	0.437344883217208	0.0702613469422247	4.25512585315414e-18	0.306892463381154	0	0.000283176501806382	0	0.199947497564852	0	0.0189703105096269	0	0.11561456777	0.177555900885476	0.0548173566906266	0.232373257576103	GTEX.11ZTS.3326.SM.5LU9Y
5.62933330806364e-18	0.0149568114563116	0	0.0842318274220628	0.0711518150951856	1.73958952050121e-19	0	7.14117780580906e-18	0	0	0.0663596620784205	0.0594198074124674	3.81450981428963e-18	2.02185907841639e-17	0.0125540425866172	0	0.0537106416948529	0.161686532203467	4.52614453024061e-19	0.0201659294331446	0.0815830178777984	5.15198278370203e-19	0.0305297695123781	0	0.0105970550482941	0	0.0070635838111769	0.349072430238834	0.319833384585543	0.001093281707778	0.0198168626517248	0.0385426928332788	0.0178851947280118	0.0612077052090548	0.0371451900394351	0.025409052843958	0.0155935840257388	0	0.026285066529581	1.22107935178325e-17	0	4.00101018697439e-17	0.639433084970579	0.0340010615324727	0.0397024185916336	0.0226940378685308	0.00311163503949258	0	0	2.4449028572147e-18	3.06719079810351e-17	9.37252752202928e-18	0.261825536909058	0.0202835240548424	0.0153249128492551	0.103222090636719	5.88922224346932e-18	0.000473152127421318	0.0011068609591592	0.0695453015897038	7.04181638699144e-17	0	0.490356635487635	0.145459773880211	0.159670298093592	0.0535684421912021	0.213238740284795	GTEX.11ZUS.3026.SM.5EGI4
0.0197510470412498	0	0	0.0990614373439956	0.103121618212843	0	0	4.11791525449113e-17	0	4.81910084132187e-18	0.0501623753105089	0.157540957183019	0.0441328227149958	0	0.215863865262002	5.07423714173127e-17	0.156932314159205	0.678334085591711	0.00736296467607021	0.118029830873235	0.0334013258064486	0.0377481923454959	0	3.57440709526758e-18	0	0	0	0.0588679302720039	0.611223570481245	0	0.0218531267816747	0	0	0.00535302862410937	0.00103261411332015	0.0082042793206391	0.00503206943933929	5.81094022580432e-19	1.7557528478353e-19	0	0	2.26875705752841e-18	0.834651739082936	0	0.0954943580186597	0.0478185756018027	0.00718851026807583	0	3.96973081978257e-17	0.0617525499077461	1.46352492761587e-17	0.0678532286461077	0	0.0129984136184683	6.67938853097796e-18	3.23079558012183e-18	0.0148870206472377	0	0	0.339042444931869	0	0.00684381551558291	0.10117136567828	0.0126229333476948	0.275608687906044	0.0167006629032243	0.292309350809268	GTEX.11ZVC.3226.SM.5FQV1
0	0	2.14526953504753e-17	0.102539894401079	0	2.50365477599668e-18	0	2.16774897456013e-17	0	0	0	1.91001243706998e-18	0.11973306703799	5.88239239895894e-17	0.196375078592072	2.55217801611015e-17	0.0971557789238173	0.525754951774011	0	0.0409949333140214	0.0631614069310433	0.068625274523055	0.0163504398704268	0	0.122212815863025	0.107090371665278	0.00572706199547054	0.396323509711384	0.60261876856618	1.12458879536507e-20	0.028696344970334	0.0097683188038419	3.56232584732813e-20	0.0542473127205723	0.0427643281325196	0.0184557815136663	0.00735086749641819	0	0.075551211756966	0	0	1.46860423496675e-17	0.35554139639392	0	0	0.0255361694666806	0.00817254251730311	0	0	0.294118679182112	0	0.0264605280474615	0.406294680828977	0.0121288676656115	0	0.00245857303216096	0	0.00566376157682971	0	0.122875880448567	1.09909003341383e-18	4.62196398111236e-18	0.0746781292570636	0.280467646084847	0.176461832783011	0.092687111397034	0.269148944180045	GTEX.12126.1126.SM.5P9GP
0.35176814293629	0	2.53299907503001e-17	0.0556353762251199	0.333326212890485	4.50742349032896e-20	1.40993295872309e-17	2.57746565603095e-17	7.07983943930705e-19	0.0345481754957859	0.0115541944416115	0	0	2.08515810896663e-17	0.216441011613615	3.03538494003989e-18	0.0592962621527813	0.263439683667506	3.58661120611866e-18	0.0756618923658402	0.0705668892748263	0.00919235783686464	8.19662476486387e-19	0.00369134931886575	0.00909307611897152	0	0.00751175755381258	0.208517882126934	0.412011204855609	0	0.0624091462005697	0.0477396087039032	0.054805291014256	0.0107586801637253	0.0273392285476166	0.0162376820944151	0.0240339150000816	5.1034316251773e-18	0.0986490872803645	0	3.96248320922468e-17	1.48824372537685e-17	0.388697149748454	0	0.00835990603801809	0.00860713399556663	0.000661980833747636	0	4.55832934887676e-17	0.154067712399333	0.06176147350287	0.0219260218401696	0.0939879469424067	0.028745405712783	0	0.0334734968536888	1.05951098606681e-17	0	0.0367997131140111	0.0887738796607917	0	4.11725461090706e-17	0.286957266620933	0.121773410488101	0.143712309119563	0.0398299826968989	0.183542291816462	GTEX.1212Z.2926.SM.59HKV
6.3482402031466e-18	0.00512958279329784	4.77493139709375e-17	0	0.319923131569605	0	0	2.21267388718768e-17	0.00145139058915816	1.99946228667257e-17	0.0429724342877998	0.0790734635493681	7.62609068357217e-18	1.37530324289965e-17	0.214041751831272	0	0.040472217439302	0.116354892802472	0.0314334066003972	0.0853307147487357	0.0861955904672661	0.0844478789552202	0.0111492407231099	0.00362094559792674	4.20168556490361e-18	0	0.00163672412364066	0.347385879092732	0.711981981639367	0	0.0423332256884654	0.00554369570481142	0.00790312331245384	0.00479494319364755	0.0102339232073753	0	0.025837997692395	0	0.0358025492549031	0	0	1.53168691922182e-17	0.502845108196351	0.0231575975094227	0.0251357672237923	0.00646555907534878	0.00449847808606822	1.03631628931657e-18	5.72991634778674e-17	0.0678357084856995	0	0.13133841624046	0	0.0299551602182402	0	0.329674793215855	0.0169614925461739	0	0.0331552386186302	0.307487487312317	9.56743796837119e-17	0.0236833404625915	0.257958621294861	0.0206960159140901	0.176419784110341	0.0456625866302819	0.222082370740622	GTEX.12584.3126.SM.5EGKR
0.353094163216013	0	0	0.0594746910929051	0.108011787332791	0	3.05725770538174e-18	0	0	3.61732850922775e-17	0.114846284306007	0	0	0	0.0471425788009032	2.82821659726063e-17	0.112746093449533	0.179422830163906	0.0185017015977602	0.054020418573233	1.08106686876715e-18	0.0214536153217168	0.0471987134327763	0.00124263620970939	0	3.95589672940146e-18	0	0.800012032242539	0.278428727109354	0	0	0.0342695799921811	0.0332653216872393	0.0241967421473418	0.0158016598713995	0.0604172405154955	0.00580288740600092	0	0.0933453555634158	6.89411485209282e-17	0	5.11732066743729e-17	0.969327923808554	0	3.39259625743316e-19	0	4.26043496122186e-19	1.00459979078636e-18	1.70532177901003e-17	2.78283480322704e-19	0	7.08947800853337e-18	0.0356763511390085	0.0805390511651862	0.105597505914831	1.69781860188225e-18	4.04216624423278e-17	0.00417667694038599	0.00178267893853205	0.21246003754119	0	0.104089597054777	8.68055047668559e-19	3.46148901994615e-19	0.12334664323429	5.40533434383576e-19	0.12334664323429	GTEX.12WSC.3126.SM.5GCNB
0.190921929957899	0	1.88488432645088e-17	0.102583914844475	0.0418927288874257	0.017111849267081	1.10183784067432e-17	0	0	4.69294911427264e-18	7.41963706978959e-19	0.0111122305512555	0	0	0.109697104497447	2.54534125071751e-18	0.21455273139527	0.158419854870198	2.79939230411743e-19	0.030792881533789	0.0494837058212652	0.0374793854385135	0.00763510748589947	0.0143297395866168	0.021911843048931	0.106704612199259	0.00613237566207068	0.351769353222984	0	0	0.0477067535805411	0.0193157781502132	0.031080524564018	0.0401465675934685	0	0.00175598025045979	0.00772869081940876	9.05209523087151e-17	0.0876281907112847	0	0	0	0.607643524762366	0	0.0314443939634281	2.64911742026695e-18	0.00418561973501162	0.0361915762255018	0	0.233506576976323	0	0.156452291642191	0.687411585883775	0.0776751136108675	6.96468228271286e-18	0.0697474788220816	2.2630267000376e-17	0	6.55484840766176e-19	4.15495604902209e-17	2.20685707096949e-17	0.021126649493584	0.149176573539073	0.0311495471046828	0.158317177829165	0.0356977744350981	0.194014952264264	GTEX.12WSD.3226.SM.5HL9G
0.0138831216702381	0	3.60318045211164e-17	0.0414718871465359	0.231243275887047	2.01968216935904e-20	0	0	0	0	0.135718814519903	0.0141140398435034	0	0	0.118757233797442	0	0.0279718494663017	0.166342890424908	0.0166327662818831	0.0124038823028865	0.071112422612954	0.000997223445997642	0.00969469493752166	0	9.88048765456277e-18	0	0.00326572655577833	0.295620518433958	0.132159867200733	6.5950281003541e-19	0.0345636259975381	0.0540649569116161	0.0322713757856287	0.0487244464708532	0.028039563859172	0.0644069578079568	0.0101094608517798	1.21710915572051e-18	0.0929948512956727	0	0	0	0.983574440383633	0.0150764879354571	0	0.0217571464876459	0.000491306067296751	0.00266101759707048	9.44016340410595e-19	0.0459739159491378	0	0.00667300770804767	0.11597116655332	0.0351568018154101	0.038303279270822	0.0854115883608459	0.0117677604499577	0	0.00554742464898201	0.269075411543438	3.4412009678315e-17	0.0140536168781076	0.289465458462273	0.0496378192086131	0.102501714071188	0.035556211306477	0.138057925377665	GTEX.12WSM.2226.SM.5DUVS
0.0614901187120319	0	0	0.0917270612697201	0.0686821963053727	1.10890960864222e-18	0	0	0.0128290457435812	1.14035441356094e-17	0	0	8.43249252245714e-18	0	0.21924951784693	0.00758027296291971	0.101584795950159	0.217537821457825	2.73529698834611e-18	0.0319613246748027	0.0843573261708952	6.35360748920974e-19	0.0279634573509681	2.05793971984757e-20	0.100366455416221	0.0595260320203508	0.00542926792330156	0.511769915260441	0.305302475526884	0.00287650872882632	0.0469206623232054	0.0803383382657475	0.0286607944509374	0.0310146549430591	0	0.0187837820524402	0.0108339874092684	2.3113092189508e-17	0	0	0	0	0.501463797777613	0.0509767216900523	0.00624863183385269	0.0110124008706131	0.00240465868528566	0	2.7836535794481e-17	0.16799166059818	3.13280546593237e-18	7.77963728027982e-19	0.167039312085622	0.0879366825546361	0	0.0183000272821482	1.34694107167245e-17	0.00365363746416784	3.16148786394298e-19	0.302692042804451	1.03607755484622e-17	0.154673275900846	0.355539149509082	0.152101111801004	0.13601781614018	0.0923618907935579	0.228379706933738	GTEX.12ZZW.3026.SM.5LZW7
0.0117993626667482	0.0207312436617117	0	0.0640188862752719	0.249222483170242	0	3.57517626069409e-19	2.54448736839599e-18	0	0	0	2.04889090804931e-18	3.64772712162676e-18	0	0.233692986642866	0	0.179176163121602	0.367222800757174	1.30288166853267e-17	0.0600698920436912	0.00743555202944506	0.00829403482679334	0	7.15204372254038e-18	0.0215057303543716	6.37878230019338e-18	0.00537193516458839	0.441131417926441	0.249334462202266	1.04910125998312e-18	0.000503075534513335	0.00118132909573456	0.00655852493469928	0.00246254503822408	0.0159065073717965	0.0168210900180926	0.00300919151619099	0	0.0257988830020444	0.00896542454961223	8.19265948671194e-17	0	0.346946720575021	0.00180825137063637	1.45437073368802e-19	3.31798222865732e-18	0.00139815432894407	2.64621395180672e-18	2.04404911233875e-17	0.162158180074225	0	0.190619519136954	0.315536424884809	0.0291487327379892	1.44407078551158e-17	0	5.73816326240251e-17	0	4.93305444845286e-20	2.33595164476849e-17	0	0.0631231339147815	0.128412248983963	0.082647173281171	0.0996470997421917	0.0248362630227642	0.124483362764956	GTEX.12ZZY.3126.SM.5DUX3
0.0120092756233985	0.0432692013746416	4.28381658729681e-17	0	0.0800153474106126	8.2340631923229e-19	2.04752646540933e-18	0	7.74337691320672e-19	5.84666737761653e-18	0.0352467934286238	0	2.10983785824804e-17	2.38370285734086e-17	0.0767344221310158	0.0148785069292803	0.0555822754254752	0.157626610563318	0	0.00176847218079643	0.141448253997818	0.031038281439766	0.0394720756722793	0	6.44385333307694e-18	0	0.00457887516159196	0.564901500520013	0.119642709834636	0.00408342011064366	0.0974034686336172	0.0139724270382408	0.0024168616086322	0.00561119357154777	0.023292353820281	0.0142672789346559	0.0218171031996164	0	0.108929907406896	0.0117068703419157	2.71249861799299e-17	2.38780808240488e-18	0.179816861773461	0.0388438999325358	0.0439973444867523	0	0.00241853947744825	0	2.04463450337304e-17	0.0420059347597053	2.74003682491293e-17	0.0477022777664595	0.0223061862642092	0.0123809750505304	0.0022037481375666	0	1.01754282399153e-17	0.00639350199170991	0.0478705122404032	0.25399968785284	0	0.174011075809367	0	0.0195239982498037	0.0467143563193895	0.09235872768623	0.13907308400562	GTEX.13112.3126.SM.5IFGP
0.0326840975710736	3.47063997792996e-19	0	0.0209070428471472	0.125853267889288	0	0	0	0	0.0429949511649333	0.0961058409742347	1.91429795056949e-18	3.53348590207578e-19	5.10209173159064e-18	0.172463008012967	1.82943518016982e-17	0.071164928367554	0.245734506881163	2.10825525090003e-18	0.0635972178808858	3.76387151119905e-18	7.51612844444295e-18	0.0119763220894218	0	0	0	1.36435729895152e-20	0.568194449894919	0.595996451406944	0	0.00741541593949156	0.0702384482222586	0.0668184617453598	0.0166446333726523	0	0.0731660369577713	0.000985815565134725	0	0.0582048774359997	0	0	0	0.969095092332148	0.0018742880195252	0.0495354163952058	3.64886001293745e-18	0.000529925803203384	0	0	0.184667719643824	9.77853999428539e-18	0.0304949310088298	0.0499575784847101	0.0312221885283639	0.0506268058455931	0	1.63282202428237e-17	0	0.0109134914140069	2.19244428910509e-18	0	0.140466317198886	0.0935481340422494	0.182970588769183	0.103161805966861	2.05546775449602e-18	0.103161805966861	GTEX.1313W.3226.SM.5LZUU
0	1.15564340858039e-18	2.02727626952408e-17	0	6.20467888925365e-19	0.0182613385952188	0	2.49120052689487e-18	0.0108449910338097	1.39678156475424e-18	0.00491127974327891	0.00904617813513454	2.38129047825986e-18	3.7624869412704e-18	2.60271376658705e-19	0	0.00831802603920091	0.634296856942974	0.00646784661703283	0.0180140690505292	0	0.0309786345917854	0.027322941003272	0.00960040772477662	2.57448703287378e-19	0.0570800598411859	0	0.399584617405246	0.499098060557958	0.00328810759459984	0	0.00592291928171281	0.0267410496492795	0.0342971121477791	1.39126777426343e-18	0.00531787168687523	0.0102578400908456	0	0.0736461107282333	3.2150810871118e-17	0	0.0185014630867752	0.76902330399778	0	0.00441990086617345	7.57015626206573e-18	0.00792029165990986	3.16874660948976e-20	0	0.107235249275084	0	0.0514790166431979	0.351147197491948	0.0106585536596695	4.03623732338559e-19	0.211102603104712	2.13400717312514e-17	0.00355018399289959	0	0	1.37574418011687e-17	0.0702641236450313	0	0.0793978725703163	0.042641200706108	7.06546055933884e-19	0.042641200706108	GTEX.131XW.3226.SM.5LZUO
0	0.0389662571598566	4.57509719194424e-18	0.193481108670431	0.0800947146091002	9.38084775223604e-20	0.00995377858162089	0	0.0168030865890838	4.15450914143715e-17	6.22210987927947e-19	0.0617463214231649	0.0671249133140575	0	0.211578196757099	6.6762885606338e-18	0.258976136718999	0.111132037037652	2.32762256353934e-19	0.0409599391516491	0.0620033502618081	0.0620388521116983	0.0362658063710243	0	8.02746884840558e-18	0.0347371866023369	1.24115712390074e-18	0.091554213421708	0.520513546876884	0.00507473322294787	0.0844396232948704	0.00205648640309034	0.0457348430876808	0.00233282189233058	0.0142957394922274	0.0299525912677904	0.00349544716105941	1.42377097626958e-19	0.0767785198021616	0	0	0	0.439664394285844	0.0270141414571881	0.00867391128763888	0.000442629438508358	0.012545702603325	0.00738604048423456	1.03432405343173e-17	0.0995239021942963	5.29269892458262e-17	0	0.142884653350231	0.110401771655864	0.0234288197566948	0	2.86450675648082e-18	0.00978916496056618	0	0.0773669016257179	4.0895213045721e-18	0.068765138850531	0.0432337936367193	5.79841798620769e-19	0.25464299182433	0.0504848037108324	0.305127795535163	GTEX.131YS.3226.SM.5IFGV
0.108061034566921	6.9861408626414e-20	2.02669641971218e-17	0.205848296670504	0.147072916790891	0.0767153332074852	0	1.75376293165722e-18	0.0180525433096936	1.38422046195378e-19	0.0215367344919073	0	0.0356503776984633	0.0172517157233021	0.146042051654878	3.25860834403469e-18	0.180429028433014	0.192822269204041	0.00272120538982688	0.037404866645408	0.0357472587286383	0.0121117601200129	0.0187608923989451	0.00399096980643061	0.0449684336946203	0.0916095546295187	0	0.261478746472133	0.395544000502479	0.00659688277882372	0.0389827563004668	0.0202517420393892	0.0256306276897589	0.02464385477137	0.00626083216915508	4.73718657712976e-20	0.0242624712437464	1.68329795124774e-17	0.127906938659076	0	8.10935350978951e-18	5.46669351684245e-17	0.534027534179502	0.0100186492893303	2.8528754651407e-19	1.67913656716844e-18	0.0014781111605889	0	4.36722736510528e-18	2.70330188680992e-19	0	0.148739213750983	0.20578726196275	0.0439723577113261	0	4.42375377213205e-17	6.785374785631e-19	0.00400300429598922	0.00877533487963066	1.76574903723684e-17	7.78662806783576e-17	0.00904061179420767	0.227537888497509	0.282867166428839	0.187918331762979	0.0403578462116293	0.228276177974609	GTEX.139TT.2726.SM.5IJFM
0.00642579504565955	0	4.39469363147698e-17	0.202459695543722	0.189121493832695	0	0	0	1.10702849704551e-17	4.89305966460005e-17	0.0689202786923448	9.44455964329291e-22	0.0269414304531908	1.88150450637286e-17	0.154872929387999	6.38159273783784e-18	0.0853196395359443	0.196176304553192	6.97460793570664e-18	0.113947302114199	0	0.0544885665662709	0.00333741737106872	0.00168924596225309	0	0.0336747039112427	0.00383561980003305	0.295124731821741	0.710398657735431	1.40549523919366e-18	3.42698957588805e-18	0.00737119125955532	0.0106840597306089	0	0.0100840489862498	0.137076035212183	0.0187523122345773	0	0.0492456911025859	0	0	9.78889838869838e-18	0.686306358698913	2.74528189427706e-18	0.0837586506667509	0.0527638156776488	0	0	5.24496218049771e-17	0.237791157885539	4.18968229248765e-17	0.0786161275890902	0.348139617063595	0.147457304986243	0.0219530565832691	0.0773128088206841	0.0374515710599995	0.00299337696976404	0.033168564235949	4.66185677388079e-17	1.78360964390152e-17	8.36545402386683e-18	0.525094790381939	0.0344030560575025	0.258900536313332	0	0.258900536313332	GTEX.13CF2.3226.SM.5IFF6
0.00861204735516547	2.14398348383047e-19	0	0.127983387600353	0.135782398178186	0.0146472834954884	8.71837225486989e-18	0.029840011675915	0.0815799971166748	2.5758671311343e-18	0.0537172046801359	0.040976307890944	6.70512092590118e-19	1.03319723908534e-17	0.0178812750820054	0	0.162087533022401	0.296774159007825	0	0.0193229358294985	0.0708600975146988	0	0.0278406986624638	2.25538736880728e-20	2.38048779857142e-17	0.0643755412456304	2.15635279186878e-21	0.151134598796833	0.342209158219641	0	0.0352391835824568	0.023892286055404	0.00981408477188326	0	0.0192852103782796	0.114202561643896	0.00154320016215209	2.96506002532546e-18	0.0450246706327762	0	6.70088605466352e-18	0.0338758620111171	0.626314683516643	0	7.73271658060366e-18	8.62021584027421e-18	0.00881818487533402	0	0	0.322682608586868	1.20225770476592e-17	0.00136711950438885	0.162319130923587	0.0604471528907894	0.0240387717328054	2.3192683037468e-19	0.000174044343726526	0	1.71039486717605e-18	0	0	0.190062963701935	0.166875690620053	0.126287977041672	0.174200092953596	0.0354300487573494	0.209630141710945	GTEX.13FHO.3126.SM.5IJF6
0.20685674950475	2.31475613120045e-20	7.37930985546088e-17	0.158267720775908	0.444453834183572	0	6.48437936779432e-18	0	0	1.41079597415093e-17	0.129190297428244	0	1.37996459941277e-17	0	0.134351433503163	4.83049082964222e-18	0.151808626816664	0.36232238874998	0	0.131099375644823	2.94996362829301e-19	7.52984927487793e-19	0.0115075830300038	0.000329085611637156	0	0.231840698658777	0.00557535135111731	0.0977772192554309	0.502891006282938	4.63310771025012e-20	0.00940427798137956	0	9.40525034198831e-19	0.0172643955138076	0.0108064998266066	0.0433458700626078	0.0110153187575348	8.763924511773e-18	0.056317466008719	3.54969431865875e-17	2.86908840640516e-17	0.0134318307790008	0.786312523400989	0	0.0251031504701181	0.0692501239180155	0.00169087677787164	0	0	1.81582473093491e-18	3.46780424819329e-17	0	0.263085972987935	0.0604556752966965	0	0.0305066710952435	0.101077957864819	0.000373428956700381	0.0128656871531651	0.052098844924322	1.62675807383476e-17	0.00619530222573564	0.0486777200612915	0	0.200115730831558	1.59071962070653e-19	0.200115730831558	GTEX.13FHP.3126.SM.5KLYX
0.088600701966306	0.00720326332231797	5.08275948713675e-18	0.204497881910119	0.0217919903325029	0	0	0	8.94419442521765e-18	9.43680493894123e-18	0.0461148980061533	0.00576535902897481	0.0186308955410144	6.50011895108722e-18	0.320732712182893	0.0250819819471131	0.066023937723934	0.355553055309898	1.12725293417367e-19	0.173851430796655	0.0246097330546892	0.0557253028641188	0.0246353350278328	0.00124353238693426	0	0.0310399816284205	0.00388478477302448	0.206289883406211	0.735601941321884	0.00624364684302147	0	0.0145316957979123	0.0138696098602936	0.0210436330381284	0.0514650265017125	0.0520751007137962	0.0380819734815372	3.99326194699586e-18	0.0243100366665543	0	7.01944153333979e-21	2.24636606801665e-18	0.394407886712421	2.2582454959754e-18	0.0450222313126809	0.0635702155155816	0.000892242015127954	0.00968896239004924	3.43679879034123e-18	0.0847533103823914	0.0189693568862235	0	0.402311999229475	0.064952263355668	0	0.138313006967212	0.0854017332052861	3.26781153705994e-21	0	0.212999581247682	0	0.275229247265219	0.18458627425028	0	0.343683772859695	0.0159064981885036	0.359590271048198	GTEX.13FTY.2826.SM.5J2ML
0.0483751304553154	0	0	0.183134839493198	0.320874248178275	0	3.27618917943617e-17	1.58424741983652e-17	7.14159481055079e-18	0	1.28005806296788e-19	0.0070137366399763	1.93541342297757e-18	6.42559796767177e-18	0.0953687374965178	0	0.0808469130562634	0.205819784402996	0.0268646385820425	0.140303990241751	0.146085115474892	0.0156258098550473	0.00374068568861927	0	1.6746204672902e-18	0.0133932971014234	9.0533173723645e-05	2.84453544346697e-18	0.575457802586178	1.24418674284174e-19	0.139147104320496	0.0656690354459519	0.0194166673270913	0	0.0023877858092332	0.117685477881865	0.00227975980531447	0.0116413646814175	0.0798577444286518	0	1.6230946500739e-18	0.00675547738117409	0.415803732465199	0.0538732154667947	0.017508078609746	0.00688823910743197	0.0106675757859897	0.0224282103714886	1.85712357211917e-18	0.214056583505438	0	0.0707654409624001	0.155885988820104	0.120513248410053	0	0	9.23206172527289e-18	0.000555503541284628	0	0.219971281606661	0	0.06531000492754	0.0619912652025267	0.057619640946845	0.291042271904431	0.0730425577374459	0.364084829641876	GTEX.13G51.3226.SM.5IFG7
0.0435719364106806	0	1.36810177906296e-17	0.0894791813604226	0.170902802155182	0.0148592801363581	2.00809916666108e-18	2.68912788347235e-18	2.11996252127896e-18	0	0.0448902761161807	0	0	2.64245850790035e-17	9.57688072950461e-19	1.31110760430299e-17	0.15570618609003	0.162648819815144	0.00596545993503686	0	0.104303393839457	0.016910832908039	0.0242187745339337	0.00700093670694082	8.70458282393519e-19	0.0436649239620918	0.00639358754673647	0.478208392574421	0.057660398246921	0	0.0777019552070855	0	0.0131048221842357	0.0935165526603171	0.0207536936607846	0.0418038982470444	0.0212596764930342	3.11152927148959e-18	0.14742954428996	1.72146049377618e-18	7.31409926793334e-19	0	0.435588045698356	0	0.0722728797317792	0.0138035579762643	0.00779547689839567	7.235602124666e-19	4.25449169436918e-18	0.197326036983397	4.7193460513484e-18	0.0667127362490946	0.538071571788524	0.101130341470768	0	0.111757997841058	7.36058910895677e-17	0.00105308441637541	0.0218568040571493	0.422103606312548	3.89008605555868e-17	0.0435219177211335	0.391054186747916	0	0.0847624719528308	0.0521516969197285	0.136914168872559	GTEX.13JVG.3026.SM.5IJEV
0.0478723968642671	0	5.62834247057353e-18	0.173457419768982	0.0262291325620163	3.0884463903805e-20	1.23742017278077e-17	8.57796936111223e-18	0	0.0267297169597832	0.0410582018371606	1.87809907379403e-18	9.16932361309623e-19	0	0.0818544757208357	0	0.0795123171014989	0.0036758936237273	2.60669266432404e-19	0.00207230035050004	0.0695456663305847	1.58782249806099e-19	7.37376507562013e-20	2.77611398904527e-22	0	0.181377105020793	0.0031388213554128	0.398362728932375	0.0865801686397785	0	0.0800161813807341	0.00603066187842866	0.0268283935620235	0.00064769150727495	0.0107415964241157	0.0149702543277323	0.00493921262817636	0.00875529316029012	0.0363247168246539	0	3.4684001338844e-17	0.0180678022136249	0.660746643252784	2.23806383142597e-18	0	0.0543126555280408	0	0.00181757404733245	3.07243552794377e-17	0.245074757925814	0	0.0414397898476278	0.273580149121251	0.0542927564429946	0.0227711287503437	0.130703674464963	0	0	0.0240109794665147	0	2.26102209040103e-17	0	0.108999150857686	0.157656198191425	0.129413034979572	0.0347728331652924	0.164185868144865	GTEX.13N1W.3126.SM.5IFHB
5.67188820314642e-19	0	2.25584287197659e-17	0.223330759074553	0.206775812724998	1.1277483475873e-20	0	4.08946362513525e-18	2.91955026784872e-17	6.02710204787137e-17	0.00460352104196662	2.48253396121099e-18	7.37169526342514e-18	6.89501659189669e-17	0.0428786728565154	8.44165824439081e-17	0.0358827786311011	0.291368745635888	0.00432681725185969	0	0.079490715770575	0	0.00857852409738238	1.41812784809489e-18	0	0	0.00474070937714116	0.203561939028656	0.193272352331968	8.2784358855954e-19	0.0761718673604283	0.0247240297117671	0.0149080452460688	0.011344983882724	0.0247246903092006	0.0274016432125175	0.00821381530123518	0	0.0157286828935431	0.0555637383543656	0	1.88704732989424e-17	0.83247898121545	0.0346099455051993	0.000745173466275935	0.0695236977339936	0.00683293860447902	0	2.27454359222387e-17	0.104644231393474	0	0.121736988167685	0.0470107923786179	0.0629125597918743	6.62189473715522e-19	0.10931398842633	2.02749323094167e-18	9.49465744008143e-20	0.00265980191485987	0.0822778287820185	6.20106692612909e-17	0.152378729457122	0.0411433151191998	0.109404454211159	0.18185298606368	0.0397453578852875	0.221598343948968	GTEX.13N2G.2926.SM.5IJEE
0	0	9.67644292426615e-19	0	0.130923473218205	0	0	1.1802699817083e-18	1.49531908816455e-17	6.01138155220637e-17	0.0012620764096109	5.44729800108152e-18	0.0310176123721126	0	0.294276187057481	1.48143016278832e-17	0.00341721478106356	0.118882733451043	0	0.0765097356034582	0.0913287175637229	0	0.0250138395498507	0.002299994294434	0	1.03699924623459e-17	0.000978128949145248	0.162230992881346	0.654634283769491	0.00099564309529785	0.0410011793333028	0.00211144675033653	0	0.0461346364450485	0.0431662868799022	0.0290319404766783	0.0354034932142213	0	0.108062449864077	0	1.78005523214224e-17	0	0.371491798604513	0.0138656681492671	0.0188881283485272	8.13968502260804e-20	0.00391321432750168	2.16384648992882e-20	1.31807407437086e-17	0.115218207112483	1.33764344361986e-17	0.0563621392649454	5.76818417076312e-18	0.0562921818369597	0	0.274856225495488	3.50762392705655e-18	0.00685312712767543	0.0296157834729991	0.399322033560617	0	0	0.822168797045042	3.46706530325062e-18	0.081191646155798	0.0456643587818615	0.126856004937659	GTEX.13NYS.2926.SM.5IFGH
0.0990766697944952	0.0507818771234414	2.44393058512037e-17	0.0952576109297335	0.0321774240610511	0.0328190248053763	0	0	0	0.0759663871180906	0.196911315798929	0.0585515670251636	0	1.21032448892658e-17	0.0989725499691769	0.106086565791495	0.0669515865231785	0.0599521996270646	5.90108785770715e-18	0.00567664553566042	0.0449720537778031	0.119767791450921	0.00728670409686834	0.00032095251024414	0	0.082979460277488	0.00428148731886685	0.227952215099659	0.136466318252457	9.06055953919748e-20	0.025797277789201	0.0164810543222647	0.0368968590124506	3.99406535700819e-19	0.0508116044427469	0.0299265002116417	0.00655530345958223	0.0176698308625433	0.0517319913158241	0	0.00498465544393408	3.15534478605916e-17	0.294825103363376	6.36882694300794e-19	0.0066706417082985	0.0585917390561314	0.0050014012929881	0	0	0.00144846073281758	1.21831423676923e-17	0.0251395439106904	0.509422059713313	0.0154618298234851	6.92231437233789e-19	0.0324457310419168	0.0487664154395432	0	0.00349093366417468	0.282515598544394	0	0.0803973070743198	4.05006334987426e-18	0.0499588747445555	0.234353952766949	0.0478769654506222	0.282230918217571	GTEX.13O1R.3226.SM.5KM58
0.0815368817817996	0.031778859122673	1.14147374743462e-17	0.0516155242722905	0	0	0	0	0	0	0.0521155981458365	0.0859127688057068	6.59336709091699e-18	0	0.341033310527535	1.46084530781666e-18	0.0532793076513775	0.17204279629568	1.14563195437617e-18	0.115905226890197	0.0563035507088024	4.66502741374462e-19	0.0200590446869778	1.71003344526611e-20	3.88066662809622e-17	0.00948223871796547	1.31451734587247e-18	0.266334967385224	0.307811562815738	0	0.0333083120849043	0.0131330579403689	0.0200689082449991	0.0376168284140184	0.00246542703807463	0.0285802938925557	0.0104643162265603	3.13944081797641e-17	8.83494583476509e-18	2.63030934779647e-17	0	0	0.608945082033838	1.98049372022798e-19	0.000791298630479988	5.53573799605232e-19	0.00235076421216631	0	0	0.187960836815039	7.22118245849696e-18	0.040885876643069	0.292250899217195	0.0514345384416547	0.0105629191231214	0	0.0150761726877426	0	1.0671585856273e-18	0.114833506361408	3.21094496173522e-17	0.0749199870677219	0.064662157666551	0	0.179354669964426	0.0440412049157377	0.223395874880163	GTEX.13OVH.3126.SM.5MR4Z
0.167218205570973	0	2.03786394810731e-17	0.223565514368875	0.190736002344671	3.71684180807001e-19	0	0	0	1.8533204988534e-17	0.0119507946067206	8.32587126467622e-18	0	0	0.042870686451734	1.15872421066443e-17	0.106657523292527	0.0375793143745442	0.0143285965805264	0.0102225163190737	0.0560195381329522	3.00298661782572e-19	0.0180924988634355	0.00843418424046298	0	0.118475538288731	0.00409867740222772	0.181174171037475	1.67383355213933e-17	4.16962091479122e-19	0.0218319347250509	0	0.0159132901570872	0.00434424218186506	0.0686009569268709	0	0.0380276284673402	1.86439346926399e-17	0.0752377252147974	0	0.0192796959154072	0	0.695094524274254	2.23524579463929e-19	4.06130538855601e-19	0.0350650240694865	0.00978655794862655	0.00514206048881259	3.45508073117463e-17	0.173518734565933	3.24399852725419e-18	0.158775785826998	0.025779421560072	0.155455667941815	0	0.252143210001919	5.99338893486812e-18	7.41277333477727e-20	3.02120263407546e-19	0	0	0.104917014247216	0.0222641486189374	0.0313149126930675	0.217873829346026	0.0280097690664761	0.245883598412502	GTEX.13OVJ.2626.SM.5IJFT
0.0471604053076474	0.0308507451902479	2.22749577513406e-17	0.118134462802062	0.0603486876974782	4.80677353761154e-19	0	2.13279957571995e-17	0	2.11335169515656e-17	0.0563197461758731	0.119078074626469	1.1860089290648e-19	1.83975309738284e-17	0.186375331313149	5.83850358429089e-19	0.082870975935399	0.10663245201436	0	0.00432605039475637	0.086360839208866	0.0456668968884917	0.0292274215862089	0	0.0563029048105433	0.0693695415511276	0.00658100206611433	0.275871028578508	0.119538270494193	7.58733526995308e-19	0.0205058456802623	0.0280311557729921	0.00642405691046824	0.0441581971671955	0	0.10107552339341	0.0175331329802912	2.22283225918931e-18	0.125588303927488	7.59079430762626e-18	0	0.00406154565775807	0.17103899854146	0.0159079182175186	0.0438905086530241	0.0218675194731473	0.00371758624797696	0.00792507093407962	2.23226561654156e-17	0.122381172326051	0.0249150072095355	1.80743123233676e-18	0.503369137210341	0.111988022721682	0.0628460733615299	0.150008987143649	0	0	0.00950057826646503	0.133378908414505	5.34111918460554e-17	0.0281018151649614	0.177261078285541	0	0.215441140945901	0.0867572446048286	0.302198385550729	GTEX.13OVL.3226.SM.5L3H8
0.00790486067155912	0	0	0.0369290907623834	0.209943725785478	1.65876360512532e-19	0	2.30799483835721e-17	0	7.10847241538539e-17	0	3.66239440664534e-17	0.0472809030175811	7.44376711204355e-17	0	3.95470934070912e-17	0.13074263290718	0.224288606335943	3.49858692300831e-18	0.0259277344666266	0.0729797713694549	2.54984550310462e-17	0.00157850139866358	0	1.20392576713574e-17	2.23791779553385e-17	1.38289693311417e-18	0.307725533691798	0.502174570955482	7.86669818647867e-19	0.0218114577186964	0	1.93912945912434e-18	0	1.56239424676932e-19	0.0416967712895829	0.00831941879233261	1.57140398080911e-17	0.0403977699734977	1.99610944237684e-17	1.45845874249832e-17	1.49793268279147e-17	0.787812987222789	0	2.3396433249533e-19	9.32570366077105e-18	0.00807576217470491	0	0	0.277429155658576	3.98001822025341e-17	0.0274667718884809	7.07507132296583e-17	0.0345488811912548	0	0	0.00451709029306945	0	0.0165131908721761	0.25350833699405	4.88573345398093e-17	0.12040753531239	0.162640627464296	0.146661738162288	0.0419045501526734	0.0364898856847274	0.0783944358374008	GTEX.13OW5.2926.SM.5IJF2
0.0149805785967412	1.14551192229336e-19	3.49293428601527e-17	0	0.160182691218474	0	0	1.52180244365714e-17	0	2.04246048351764e-17	0.0340032719238901	0.0761586807018644	2.79951166341153e-20	1.1465713002733e-17	0.422301301925551	0.00127440948413853	0.0966573453106175	0.255636062878393	0	0.0749335621108998	0.146984166905768	1.6876929317449e-17	0.016350625512153	0	0.0777857004874084	0	0.0104641018644441	0.568581648116946	0.620883819536042	0.000553699048867562	0.115527268847321	0.0546524666715955	0.0542210628950118	0.00909881383669739	0.00869826762183091	0.0459840234230933	0.015080810650528	0	0.056950845914935	0	0	3.63637237372113e-17	0.270581587743549	0.0318159869853941	0.0406345589541045	3.34595522404684e-17	0.00483258911544305	0	0	0	0	4.0424005123296e-18	0.352228257132832	0.141006209604786	4.59335625346634e-18	0.121759806788437	2.16733147982842e-17	0.00366189676893857	0.00961531315457853	0.256018548781231	0	4.58839706716868e-17	0.34034383015429	1.29644445039035e-18	0.14296198473746	0.112384933696588	0.255346918434049	GTEX.13OW6.3126.SM.5L3IA
0	0.00925653275972122	0	0	0.0546999280953117	9.95773979408288e-18	1.56059619656835e-18	7.96016877735701e-19	0	1.20780643927776e-17	0	1.48515818961503e-18	0	0	0.267015641204396	0.00753572053852299	0.0625153534160637	0.463588049404793	0	0.0947228914826025	0.0655686258307842	0.014316893600721	0.0237429194719304	7.54860329042265e-20	0.0468673288292837	0.0954650588336415	0.00581194735255965	0.670074245797638	0.781765850240841	6.98019542676969e-21	0.0163203110340621	1.36714115000199e-19	0.000449886686665375	0.0138173134848663	0.0370434544761595	0.0137140336411776	0.0125291978610898	1.51987973982862e-17	0.124538034100757	0	0	2.41000869568707e-17	0.00914111740130614	2.27291367091945e-19	0.0544302310263835	0	0.00530867032537655	0.0210267190108247	0	0.333341064142902	0	0.00791763001658214	0.253055033818614	0.00736517573576456	5.79488111491756e-18	1.14771781562262e-17	7.71366762390396e-18	0.0063219428982607	0.0412809694145465	0.244585498755491	0	0	0.400106180619035	0.0279778954484705	0.111406639046872	0.0608462437098945	0.172252882756766	GTEX.13OW7.3126.SM.5L3HB
0	3.42535807457427e-18	1.56051182946611e-17	0.111478588610985	0.265233836002715	0.000995357099273915	0	0.0120175259864333	6.82308228424308e-18	0	0.0212374039947167	0.0166270483283377	0	0	1.09778164618912e-19	0	0.105103922153673	0.00902797267080225	0.00262661434532696	0.115326515730866	0.0413015036601585	0.0559511304227107	0	0.00290870356262209	5.63539323031563e-17	0.0707306207181384	0.00311945586787662	0.184574172324073	0.485543704512611	0	0.0514747932736056	0.0383062142197858	0.00749126968695459	0.0114682812085628	0.0176954889423139	0.0128685258503311	0.00781032282411017	2.09204084288756e-18	0.0438542747398882	6.20414827356428e-19	9.82662650643068e-20	3.04261957035882e-18	0.554014441078949	0	0.041613918518648	0.0297444611042763	0.00529188752752316	0.000850634520942374	7.24695767285111e-17	1.02005097140226e-18	0	0.113685280846243	0.353293458918104	0.00581449859417361	0.0558701522665381	0.351707967860094	2.54980317775348e-18	0.00278840873900068	0.00902238401418377	0.324952904467911	1.8767316266055e-17	0.271136893962474	0.324170190129791	0.217020433465492	0.245502097841583	0.0206507518300793	0.266152849671662	GTEX.13OW8.3026.SM.5L3G8
0.0294056486066905	0	0	2.91509209315925e-19	0.256613023885193	0.0636386353546197	0	0.0203153837644969	0.064966026841292	0.0124521040285572	0.0930035409441185	0.00563561046102338	0.074126626880128	0	0.00597798257047933	2.51034448959591e-18	0	6.72816059878388e-21	0.0377941569371942	0.0272449407450518	0.180043552254062	0.0356245413228156	0.00112038048676299	0	0	1.64276580307742e-17	0.00505596878095218	0.372877954533852	0.310196621818329	4.78444194108649e-19	0.127781746251699	0.0124823717059934	0.0213234952112669	0	0.0153090189720474	0.0559677270378524	0.0120727858985854	0	0.12833706317392	0	0	4.32758250621888e-17	0.390088515306521	0.0587723435443494	0.0464158110841577	3.36454965258268e-18	0.00195105027032977	0	0	0.0050196092884659	0.0209212795118949	0	0.20248308620194	0.038170076806205	0	0.245632106713685	0	0	5.38220768799288e-19	0.251626249063396	0	0.0964437909838812	0.199850599881846	2.1963617808329e-19	0.077741244647619	0.090021776127031	0.16776302077465	GTEX.13RTJ.2926.SM.5Q5DE
0	0	0	0.129993593950282	0.073404727526194	1.0189736023044e-18	0	6.19681936529511e-19	0.00388752291126308	0	0.0201809431824438	0.0942954990307702	0.015800597127618	0	0	0	0.18925103318527	0.00807697892156571	7.51467964704823e-19	0.0251652258674566	0.145261820847068	0	0.0319058151482069	6.88846387198795e-05	0	0.0227509831007399	9.69539595964689e-20	0.0960971237657225	0.546886550266383	1.44284302927976e-18	0.0702392456784384	0.0341315171141477	0.0258123461373114	2.33019922764798e-19	0	1.92934516529811e-20	0.013882499844462	1.10836033528473e-17	0.0407938852311057	0.00110587290856081	9.50072847017969e-18	9.82768721606847e-19	0.209580026779138	0.0571217840508273	0.00662619564711782	0.028963688205548	0.00260849169742056	1.34315745677792e-18	0	0.258458939380686	0	0.0151077594651918	0.0853265565600789	0	5.50974743703443e-18	0.197397550986559	6.13650356726653e-19	0	0	0.174004483604183	1.13996977850986e-17	0.169964361443226	1.53068075338013e-17	0.0424971983459567	0.189057223975104	0.0726309104235341	0.261688134398638	GTEX.13SLW.2926.SM.5Q5BQ
0.0164117216577851	0	6.0884047710325e-18	0.0417327829690139	0.0718903031478259	0	0.0249515587417268	1.70425775422954e-17	0.00289435568014376	2.88277918862222e-17	0.0270236269996059	0.000632105505419314	1.16739534763088e-17	0	0.272983146582775	0.0177253437931681	0.109166985241835	0.211101343226584	9.18184289775558e-19	0.0916336115589986	0.112332227704101	0.102408050285103	0.0313717342148667	0.0033322109603556	0	0.102595229230804	0.00616392662654686	0.489142897040967	0.517874632873329	2.20574700644937e-19	0.0653170231780038	1.0307221256879e-20	0.00874499614022773	0.0346928870852213	0.0484114126858153	0.0263114565899266	0.00629217213669496	1.01697785624916e-17	0.0758680772395088	0	1.66616419499516e-17	5.07656457720471e-17	0.270060739265613	0.0241070587699276	0.000429976887957981	0.0105484200862173	0.0081441825928622	0	1.34508122205266e-17	0.227212997639172	8.20292789213974e-18	0.0675139129852977	0.366964762954199	0.0417772769810346	0	0.0899984314872143	0	0	0.0330683428963325	0.223869196940293	3.41036844564618e-17	3.2098281593078e-18	0.459648337998855	0	0.1898786420029	0.0561661138520503	0.24604475585495	GTEX.13SLX.3026.SM.5RQJU
0.0972885712527271	0	1.68418945134739e-17	0.216653923879045	0.0363654616240309	0	2.09914177974822e-18	0	8.07581892924058e-18	0.0469417539554636	0.0242016329323597	0.0308124878077707	1.8408149304705e-17	0	0	0	0.073877485124303	0.112505275371575	0.000655190180593717	0.0340932151912918	0.0692009065518546	0.0285933610641033	0.00392063443065859	0.00846778834945059	2.16620840501455e-17	0	0	0.21882157378451	0.119975581300642	0	0.0361289514855194	0.0372064905541327	0	0.0838104754165975	0.0176672548321441	0.0331281726171397	0.0064856717030811	1.03707732737839e-17	0.0337132232622296	0	7.05784891790464e-18	2.06878600538919e-18	0.625697932353823	0.0336647339799305	0.0358274789281604	0.0197780177010366	0.00272905037674177	0	0.00461079325998636	0.15587512993209	0	0.0133286668150064	0.129355329512101	0.121323645056882	1.65695996756686e-18	1.54347834632709e-18	8.78838083515499e-20	0	0.00319725348798985	0	0	7.12746752026151e-20	0.39217217654442	4.79387572914908e-18	0.246425017725649	0.0346004532759273	0.281025471001576	GTEX.13VXU.3126.SM.5SIA4
0	8.6242774148551e-19	5.87718368040989e-17	0.272864188483437	1.44065262194478e-18	0	4.50431003862299e-18	1.07605064212028e-17	4.02857940596505e-17	3.38609566359113e-17	7.47652184659311e-19	0	0	0	0.421378128834739	0	0.0303116361847407	0.0209750075093644	0	0.0758095335837188	0.0930731588021781	0.0471393142228032	0.00623604079149959	0.00316393066393088	0	0.235785494252967	5.68589145149597e-19	0.472592906350957	0.399139266145932	0	0.0200607555618252	0	3.1795943820282e-18	0.0277252919538791	0.0722769915918458	0.0748695063087034	0.0129679992162498	0.0516866513399935	0.115868555669561	9.68973698214675e-18	7.30613344783075e-18	4.59233368380643e-18	0.521265810037209	0.0320632199170334	1.82255922545687e-19	0.104437201918201	0.00246668984978855	0.00791784423403964	0	0.354113408888712	3.39012040397473e-17	0.0412577966020334	0.390524847627081	0.0549704253259424	0	0.203276448808632	0	0	9.71264296116457e-20	0.177701766411449	2.62848941947122e-17	0.164335065019177	0.179691691156842	0	0.317338581410563	0.0465365794010891	0.363875160811652	GTEX.13X6K.3026.SM.5QGPA
0.0513665110823126	0	0	0.194781171067926	0.162742347619545	0	0	0	8.85084127121942e-20	3.80458449266474e-17	0	5.44380593342337e-18	0	5.10815949912719e-17	0.311482305890107	0	0.139386408231401	0.0492457308214015	4.43876938670438e-18	0.161549419968914	0.1099663461293	0.0455727529981556	0.021334009229407	0	5.01626741603677e-17	0.168870361897504	0.00235261929953036	0.574245978943885	1.21890721726915	0	0.0406596061554263	0.0606186798245895	0.0785733736131978	0.0137945239857377	0.0323914761396281	0.0126832740591423	0.00637896563057803	3.66435619148499e-17	0.0369052540922661	0	1.95939779532921e-17	0	0.530485936125374	0.0400392521446134	0.0429928228621058	0	0.00429476072783986	8.91422197437052e-21	1.38620166514029e-17	0.118900182553713	4.80939829772408e-17	0.00810545654152012	0.139944896766012	0.0771329946325713	0	0.270402611040787	9.07426126060519e-19	0.00450722695899897	0.0266852523348465	0.22226650195208	7.42861043013816e-17	1.72721606531196e-16	0.458442398603266	0.0653197038510428	0.329942333332809	0.05498317306465	0.384925506397459	GTEX.145MF.2626.SM.5O98S
2.79761230433105e-18	2.16422807248559e-18	4.20136202483209e-17	0.16928094256503	0.535630451309677	0	0	1.66463429405091e-17	3.72652076594019e-17	1.06908922608074e-16	0.0144664689986884	2.06309824801158e-17	0	0	0.413114053278421	4.24014695394419e-18	0.120106386380186	0.156534015737416	0	0.055216135003322	0	0.00960621865414274	5.27579108051233e-19	0.000329764927699817	3.01595684784975e-17	0.225152017619287	0.00661290795829129	0.436687069211682	0.748631052961883	0	0	0.0118264278683353	0.0316674283788633	0.0550552950109041	0.0524159908834178	0.0381461394762842	0.0158789705252234	2.41455237797334e-18	0.0208129788897668	0	6.89979799713321e-17	0	0.853893918420413	0	0.0355413653862293	0.0714329786369407	0.00332557101665195	0.000203195417373452	3.85612621069652e-17	0.00566493887103571	8.9825419481033e-17	0	0.0634721157537921	0.108716210503218	4.73325407859864e-18	0.0584575151409103	0	0	1.03003481018686e-17	2.49756580149513e-17	4.39239396304189e-17	0.0380073673773067	0.540725550949269	0	0.199032606927748	1.61618982754916e-17	0.199032606927748	GTEX.145MH.3126.SM.5S2QT
3.62038868193765e-18	0	9.47938701477563e-18	0.00232522658899539	0	0.0050730010516471	0	0	1.96146660577661e-19	0	0.0231799645317142	0	5.80288906214772e-18	0	0.0938769003144459	6.3526322871546e-18	0.0648250914182559	0.392277576066282	0.0025492160038936	0.0528261023761727	0.13798345201661	0.0137470673066642	0.0107784993538065	0.00670360463084246	0	0.00131826525189665	1.51273803582835e-21	0.547682668773441	0.565884761024176	0	0.0846277438382299	0.0228863899699216	0.0326054375786037	0.0223680241368665	0.034589998838927	0.04034854656107	0.016537342736058	0	0.0236223243609792	4.59837644052942e-18	1.50448143514314e-17	1.06058612324452e-16	0.70721900172414	0.039080562157925	0.0118581985485743	0.0467394105642967	0.00143812173401821	0	3.4862596477902e-18	0.182886337235704	0	0.0154125538941626	0.345663155897274	0.0703161934860276	0	0.211732659346754	8.651129404081e-19	0	0.0143585149640331	0.0800932818392098	1.58116675474488e-17	2.51541322512317e-18	0.0766671174190282	0.187582145603145	0.084249856720454	0.0689917260083048	0.153241582728759	GTEX.145MO.3126.SM.5S2RT
0	0.00766599720860653	8.49187461092705e-18	0.0805472230934275	0.0778605875329463	0.0122333571499741	5.5269302607221e-18	0	0.000247845374930979	4.38664026164738e-20	7.01618168326114e-21	0.0364168507039124	2.2957166306952e-18	2.25186114188592e-17	0.101685649535255	3.34615795302571e-18	0.0676131300896937	0.066767963935837	0	0.0285688679455593	0.112449848151415	4.07964684305846e-19	0.00180193400778823	0	0.0939465071331605	0	0.00426729991198149	0.236193752059257	0.465482216321384	2.71611448086581e-19	0.00709662637597104	0.0438491583303014	0.0448355442296798	0.048323977736845	0.0358254226833902	0.0109488546335082	0.0327990540361557	0	0.0089605144702125	0	0	0	0.259377111600329	0.0109177373080358	0.0582520328245338	1.82436191016718e-18	0	0	3.55126589486194e-17	0.192209470091436	9.83222145668276e-19	1.36758202152811e-18	0.129850980071567	0.0621953137430308	0	0.177637789344818	0.0377274951104003	0.00169399606082597	0.0263856045907075	0.368632355066027	1.24589374323389e-17	0.142646006351088	0.082559574337089	0.0568170804415537	0.150138348504394	0.107031176246591	0.257169524750985	GTEX.14753.2926.SM.5LU9J
0.0101341331572526	0.0656587310461094	2.27225387980857e-17	0.0499858775865404	0.140836634904462	1.10199681808523e-18	2.36926373583119e-17	0	1.8821165380846e-17	7.74671700348682e-19	0.0473866342006543	2.44231509804398e-20	5.2569158634914e-18	4.17373554947824e-18	0.101050288675087	2.76693784541122e-17	1.98025005169017e-17	0.284387386715477	0	0.0427749202133404	0.00397752382770101	0.00835707401447674	0.0288371702130961	0.00191401828790748	0	0.029792758102079	0.00505966084401037	0.478503070400151	0.447120485021452	3.04079414856135e-18	5.62293155807269e-19	0.0466036812881256	0.0434290441717168	0.0415530378286848	0.0389726643949393	0.0454476353272718	0.0155301410020339	1.59419147925446e-17	0.082624498738426	1.49337743898903e-17	0	1.62203908598159e-17	0.553802314011456	4.04586343616136e-18	0.0569681947526077	0	0.0011700840601495	3.92755263975595e-19	6.8427808095462e-18	0.0709384326090439	0	0.0955322050037315	0.194700654286801	0.068920429702317	7.86646795047377e-19	0.164993490175034	0.0112588842091221	0	0.0716593617612703	0.22006317352886	6.61335363325973e-17	0.021189553403678	0.366349261158995	3.14607475540969e-20	0.124462811664948	0.0348181274369052	0.159280939101854	GTEX.147GR.2926.SM.5RQIN
3.82195357629563e-18	1.27478342681141e-19	3.21730041421468e-17	0.0320773173975694	0	0	0	9.3632051033475e-18	1.49600379023071e-17	1.34411369455152e-17	0.0250713708278734	0.13900144007571	0	0.00896251239671659	0.308869296005951	1.98403734954607e-17	0.0634120001478445	0.00539422342900195	0.0343067587547429	0.0161041158018369	0.0937112479179376	0.00435539693877387	0.01346471580642	0.000627507960733994	1.77848750518966e-17	0.0108112454721716	0	0.10162611474901	0.417868601678147	2.57906833207769e-19	0.106211452819773	0	1.16114704211928e-17	0	0.0381739778631738	5.02575138600754e-19	0.0108144271622357	2.96840602466598e-19	0.0112293653231003	0	0	0	0.781691108798943	0.00864149958495272	1.63213492835344e-18	0.0394455915550692	0.00808301734126941	0	5.94704313646236e-18	0.17667205460792	3.61052032611986e-18	0.034215536439178	0.564656120747796	0.0863716190438234	1.2373340374477e-17	0.09944915435105	0.00845811877714958	0	0.0100748745998551	0.400068798679146	2.8777835925179e-17	0.0312049244624362	0.04188386629401	0.020887852204819	0.153141498718042	0.0468556239589688	0.199997122677011	GTEX.148VJ.2926.SM.5Q5DA
0.0402886905059268	0	1.76806708852071e-17	0.0629919176122075	0.171957135432046	0	0	4.84579097530453e-18	0.0119453946538505	8.37013190665184e-19	6.60557483996178e-20	0	1.90847390584126e-17	1.76599003682651e-18	0.236171705024966	3.93020238641995e-17	0.0515086575616235	0.0655468739379213	0.0653301729793324	0.0187945135444474	0.0172651437825929	0	0	0	2.4038812844128e-17	0.123187873995806	0.00158476628365754	0.0379652506779615	0.00328213846994532	1.75616129901088e-18	0.0308737366337912	0.0418634328320713	0.0474514543284308	0.0063414904723957	0.0132369947131878	0.0196649106908595	0.0194775305005882	5.51239448022148e-19	0.0326438210970108	0	4.45230725694412e-18	0	0.636503356317974	8.97914326109558e-19	0.0494477338815469	0.0264282942941137	0.00353626024970454	0.00467179905183593	0	0.248173912473226	3.04578681735691e-17	0	0.109130389439134	0.0143013753367544	0.00190669484320641	0.188725804717426	0	0	0.0169129236343307	0.380191009838753	5.80447532095548e-18	0.124205005361235	0.0222836305979945	0.0894932248203883	0.0943724385025	0.00863257189129644	0.103005010393796	GTEX.14A5H.3026.SM.5RQHV
0.332695067726119	0	0	0.110387620462233	0	0	7.1207297291849e-18	7.9254484265751e-19	0.0238137691674854	0.0535537969692628	0.064582868123517	0	1.01578630889036e-17	0	0.378052177738499	0.053054699282303	0.104630373645947	0.116624417869737	0.00068516154940038	0.124738880372977	0.133911818450756	0.00440403973386952	0.00401858058121093	2.40524543969711e-19	0	2.7557266609787e-18	0	0.0813221342798665	0.881791985596321	0.00427611188902153	0.093905770771303	0.000901126502860572	0	0.0251338385821374	0.0111533362667682	0.00471114932919233	1.01287068931803e-18	2.42182326391739e-18	0.0202896732670917	0.00554195322367729	2.69253680245523e-19	5.98031925999282e-19	1.10166505332234e-17	0.021644034251734	0.0765544573599651	0	0.00189154565825198	0.000127045561232021	2.19147815103199e-18	0.133675526139367	0.0144108385811632	0.0217676408858585	0	0.076276357259083	0	0.254854890620305	0.0154205474593889	0.00530380955736131	2.92499976991894e-20	0.25729624456919	3.84728806767817e-17	0.0287306910884167	0.138303261574959	0.0273827066450223	0.167808032599961	0.066955909225378	0.234763941825339	GTEX.14BIL.2926.SM.5SIAF
0.022730135942784	0	1.02462048147845e-17	0.313064094007296	0.13281438002843	0	0	7.44159792891434e-18	0.00887961702225756	0.0276992130894388	0.0588563089040603	0	3.84493721177299e-18	4.01032793382705e-18	0.25972151991477	0.034473905774918	0.0882421846180339	0.13177763099967	3.32597230617368e-18	0.0271528436727121	0.00439279349641323	4.15864852956182e-19	0.00465537092321519	0.00722087574351147	0.206656615275786	0.128657668206857	0.00386898445199841	0.0929582137451404	0.166418655805872	0	0.0155682358210184	0.0439520136020769	0.0629801052553421	0.0173293528337297	0.0775152816621065	0.101464268228955	0.0150374377863343	0.0131955049120747	0.13205512679508	0	0.0416567810043735	2.07917709083853e-17	0.246667407805653	4.23351684058367e-18	0.0880239474695929	0.0605604806390631	0.00566869865261368	0.00671410262686156	1.86679133330024e-17	0.307503781806885	4.96956205218003e-17	0.00339459706449896	0.388551526442448	0.0555851967863585	0	0	5.00092421866992e-18	3.3990964378914e-19	0.0160680977092911	0.0805585721595066	0	0	0.318616031618839	1.22331933134775e-17	0.340036744383618	0.1055247043861	0.445561448769718	GTEX.14BIM.3226.SM.5RQIQ
2.85345842696698e-18	0	3.43632259073492e-17	0.162573489815941	0.166402327151032	5.4374056302432e-18	2.76884544302776e-18	0	1.245344828188e-17	4.54515635327473e-17	0.0304806680668402	0.0194226356704096	0.00901044356377536	1.4589651466477e-18	0	4.24007389054344e-17	0.135418289449426	0.463945492644742	0.0204752177358575	0	0.110009460267766	0	0.0354215948073658	0.00671856425517643	0.0052745407471529	0.0291195293743248	0.00777950797515589	0.322568684415819	0	0	0.124698228901353	1.53108637185313e-19	0	0.000419607518761433	0.0101632193262096	0.0392362552604816	0.0300258013648992	0.000638387445197721	2.13994628908745e-18	0	2.17245777464871e-17	5.20116597533594e-17	0.992185765912624	0.0227015713592679	3.23828341019347e-19	0.0550887452440949	0.0085988998821823	4.46749631186626e-19	9.18617666293235e-18	0.0375681201655735	8.35856960900191e-17	0.0733169451040515	0.474577109175012	0.0588710746132104	0	0.225845202926849	3.85037534776239e-18	0.0104456739803591	0.00198871522924514	0.0987177097068295	1.78895885460434e-17	0.0554782892750461	0.101608158259199	3.0177332255075e-17	0.12810622987504	0.0576420005074593	0.1857482303825	GTEX.14BMV.3126.SM.5S2UV
0.329924659897387	0	3.57321321245876e-17	0.00498386008878889	0.108219208216604	0.0130133090620962	0	0.00843998257748685	0.0694144504850752	0.0756858418462529	0.0547801953510315	0.0826122958240031	1.62648945745525e-20	0	0.307164823780384	0	0.000125055939499125	0.240564296350557	8.05316326005731e-20	0.117779297812634	0.00131066656105314	0	0.0524370445936583	4.20609530152226e-20	0.0245056006374344	0.0110888206689775	0.00372165890271972	0.131429496884358	0.328670787698411	0	0	0.0453788416324068	0.0830170035463406	1.62545335756565e-18	0.0269285566025538	0.0551196747850165	0.0144265811673964	0	0.151549256961315	1.21256018263283e-17	0	0.0171067594126006	0.466786529929442	0	0.0966576818390192	0.0321296033250683	2.74337524964507e-20	0.00654080868988122	1.35601692246709e-17	0.0520421104684706	0	0	0.354284999090478	0.010771901716247	0.0483896588492731	0.0647866315745146	0.0689448665715268	0.00349607693900058	0.0506463498674717	0	1.59781312749521e-17	0.00380246550953009	0.0818270009522053	0.0749128760288771	0.19510909548517	0.0129081335992438	0.208017229084414	GTEX.N7MS.2625.SM.3LK77
0	7.61631160447842e-19	1.01060310957645e-17	3.51136085611184e-19	0.0413294167147527	0.0212100671897916	9.21850442500622e-18	2.9600075855463e-18	0.0705945530659596	5.17778308423067e-18	0.000112513649408732	0	0	0	0.0325103212173428	0.0689700679915816	2.02178514535658e-17	0	0.0343667746580298	0.0420816365886283	0.0763578245105619	0.0337384470611644	0.0390179910655123	0.00128438016463995	0.0254499067184067	0.0366809320652771	0.00200130837486344	0.554383463628355	0.512080843608849	0.00329690950519882	0.0134992576586809	1.43441999942243e-18	0.0262336713223337	0.00483265246795031	0.0153302752454961	0.0416328612038505	0.0127715749007717	3.08816362351982e-18	0.0686618558763264	1.45826601245249e-18	0	1.13670083308688e-18	0.408785583625381	0.0389757150295892	0.0649871126335117	0.000111823738954789	0.00202082419094757	0	0	0.223394469965285	0.08727620115587	2.16401425419851e-18	0.273455261269973	0.0870481106615593	0	0.414870205314752	2.02272392309004e-17	0.00601236271850452	0.00844816274431912	0.0738254787695907	2.65167526865252e-17	0.0795520672101737	0.303623877567604	0	0.0607669059301926	0.0509038656144843	0.111670771544677	GTEX.N7MT.1026.SM.3TW8T
2.25433486416098e-17	0.0154205898903167	1.13197315783168e-17	0.182352846505808	0.00112680212803059	3.02158991608768e-18	0.00675878521288102	1.57260726681728e-18	0.0047320237903267	0.0838813769652449	0.0304356961932336	0.0241239944715031	0	0	0.245016510316177	0.0495867976698646	0.0901104603871377	0	4.64215199801865e-18	0.0762357874331659	0.116578821424283	0.109318423373799	0.00776247240985012	0.000152725212470885	0.072056894134266	0.220129395943917	0.00199227625880184	0.178765770969928	0.603095012698744	0	0.0165306773287318	0	0	0.0360493500644216	0.0626734722828197	0.0300245732278815	0.00358912049431585	1.3840409090249e-21	0.233303358546612	0	0	0.012643331570198	0.285680430625037	0.0223988609850919	0.072835058309059	0.0306289925505359	0.00344795955966005	0.0068583483805394	0	0.278776333611789	0.0641031595716158	0	0.45577253750628	0.028102241400412	0.00559816137874519	0.160025686978166	3.33363778736004e-18	0.00217039846108216	0.0107332432984934	0.108669051884578	1.5619552726628e-18	0	0.26120588966682	7.58740536523301e-19	0.307708581631757	0.102028152724433	0.40973673435619	GTEX.NPJ7.2926.SM.3MJGQ
3.34666991398403e-19	0	0	0.101708803633806	0.0724346890299569	0.0291729484296214	0	0.0123933096490807	0	0	0.0479246798841786	6.26996697560857e-18	9.3326204392444e-18	0	0.0812794502792469	0	0.0409992898797807	0.168485037815449	6.10040104303076e-18	0.00375551247059416	0.0391893281455097	0	0.022465656849177	0.000763803715208615	1.07414520225515e-17	0.13670716342878	0.00242576790707934	0.212854050849069	6.14051705346312e-18	8.14078924665112e-20	0.008543575437063	0.0384262153358099	0.0277545746791289	0.0196441673353919	0.0465876889313475	7.56846709957527e-20	0.0104124799948412	0	0	0	0.00489672451347835	0.000167471277519702	0.402298967471589	0	0.00783248017087086	0.0200786270839275	0.00487358780481903	0.00929667950341547	4.19256678021705e-18	0.0827355188887516	0	5.75189511494345e-20	0.28161484904037	0.0554624356551138	0	0.378324812047932	0.0171244315024003	5.72457575471752e-22	4.40764293328564e-20	0.300004813746677	0	0	0.480867626401904	1.08498057343811e-19	0.144709956025022	0.0195946640727548	0.164304620097777	GTEX.OXRN.2626.SM.48TBX
9.00552207734535e-19	3.50931983354458e-19	3.96460975027495e-17	0	0.121833894123869	1.92887778433044e-18	0	0	0	0.07919977306687	0.0394331751464627	0.0177384143190265	1.08729264649346e-17	3.04509533976124e-17	0.115719529134037	0	3.3928985083399e-19	0.127378758269937	1.10019669137628e-19	0.0275048789453708	0.114567990055836	0.00617191683537804	0.0185618938677702	0.00802508658914536	0.169992292402517	0	0.00595869167766514	0.702379399191484	0.177042984322543	0	0.0363058092400003	0.0148581401133804	7.39235760574401e-19	0	0.00927264083629135	0.0399304351363283	0.00806348290153952	0	0.129587707682833	1.17190904433732e-18	3.84898720601342e-17	1.67681804682154e-18	0.192034512604124	0.0672869916521374	0.05276857867524	3.26827973770905e-18	0.00268732508708744	0	2.77405952522888e-17	0.138011687356659	3.30364527387134e-18	0	0.1991150435017	0.0118411303915889	6.54013873490121e-18	0.160113399153753	0	0.00255233287319443	0.0199075735703485	4.12186944881232e-18	4.75135344573075e-17	5.62505112645296e-19	0.124280170509418	0.00145186599931605	0.0503639940329648	0.142280141229176	0.192644135262141	GTEX.PVOW.2726.SM.48TCA
0.119551255282281	0.0131987733365491	0	0.0274777217967101	0.243635707655053	0	0	7.40728585392379e-18	5.94193803571345e-18	1.90436943897634e-17	0.0976219857075775	0.113920093345285	0.0255501999785595	0	0.183249740587831	0.00898766773996511	0.0381520222767238	0.26544709200381	0	0.0796836424242774	0.104235993215909	0.0293674167379067	0.00948471865821874	1.71466295480925e-18	0.0336719412745247	0	0.0101118865567249	0.216611990595933	0.671243649602927	4.85112731307974e-20	0.00313350355910481	1.24367700900584e-19	4.49488032916661e-18	0.0123987457243062	0.0390010635050679	0.00509309930004787	0.00871704312650757	0	0.0337032930393174	0	1.34240475555308e-17	0	0.296102949940222	0.0121126132632076	0.0119613139520242	0.0224043780298551	0.00624097514712777	7.80511437781209e-20	1.01733110301544e-16	0.203441979570402	0	0.168847123802658	0.211461326759011	0.0742609900812274	0	0.243266238886499	7.10540773380498e-18	0	0.0158604959269285	0.218599296639192	0	0.0360341443020143	0.458276184750159	0	0.192966625206165	0.0755533539134915	0.268519979119656	GTEX.Q2AG.3026.SM.48U1L
0.105681930001184	5.90690951847669e-19	2.81155896282295e-17	0.189231278472458	0.24431689548576	0.0459870501544702	7.78030036773534e-18	6.44561214232212e-22	3.2353587052245e-19	3.53262783882602e-17	0.00116090491649576	0.0402706394924138	4.58661740442995e-18	2.11656937268151e-17	0.050212517744112	6.75393012946095e-18	0.204116050778892	0.0870666533978274	9.50933943674525e-18	0.0611112138156399	0.0583772404427346	0.0315533030946564	0.00728153461788571	0	9.17747852746556e-19	0	0.00302141002528292	0.114373855322093	0.343457191546741	0	5.42101086242752e-20	0.0100458596584925	0.0124624771155516	0.0315298368782604	0.0431897361880398	0.0551606782522204	0.018288763802881	0.0106387588047025	0.0678335679483427	0	0	0	0.615994292840601	0.00137255691880482	0.00771747891913468	0.0698151410277057	0.00465547861945514	0.0151741519895919	4.14944951086072e-17	1.59054636323587e-18	4.86532961612747e-17	0.017324377548538	0.275088692562419	0.0297580041508514	0	2.85907502183258e-18	0.0484534315615804	5.81855599058743e-22	0.00291988092286952	0.281683020116076	3.07332800432536e-17	0.152366352251148	0.441521236400273	0.111389848899518	0.260384121807528	0.0291886202213673	0.289572742028896	GTEX.R55E.2726.SM.48FCX
0.00883598660427802	8.54372782387587e-19	3.144154526141e-17	0.08987492784839	0.275310177004915	0	0	0	0.132343166790688	0	0.0768975084184952	6.36834679846241e-18	3.25572752480697e-17	7.9916544680566e-17	0.10267197676387	0	0	0.164629767826753	4.2463613475722e-18	0.064159388532668	0.0458914928745197	0.00210614117966075	1.61314003595664e-21	0.00427795721617106	0	0.122425688830466	0.000713345492429793	0.45701234281698	0.341237736574155	2.28833694232491e-19	0.033776506040869	2.02639692076697e-21	4.45745166966726e-18	0.0182081966009274	0.0147374250995918	0.0234107081064202	0.00621608393211024	0	0.108961178900317	0	2.3798605078492e-18	0	0.729218442248085	0.0204598769847689	0.0713773102975544	0.0244457261516956	0.000887887187681539	0.0113124368899787	5.58503911644826e-17	0.103679959832591	1.28929053733626e-17	0.0292348942257584	0.331596544046328	0.0589280047851257	0	2.70838600030349e-17	3.73546846229214e-17	0.000284507388512292	0	0	2.5947366997692e-17	0	1.35499068876121e-18	8.06834436887535e-18	0.121460213033526	0.0229457464372599	0.144405959470786	GTEX.RNOR.2426.SM.48FDY
0	9.81819609169391e-19	0	0.108201684073717	0.27192358516525	2.50718214661493e-20	0	0	0	0.0229236916568709	0.075184477921247	0.008259181618879	7.4690889641824e-18	0	0.24894576240744	7.3266656615634e-18	0.10142164889108	0.00544407487496448	0.00494956004825449	0.0396650242927026	0.000711936036619167	0.0310286411254591	0.00552024186729591	0	0.17788682448355	6.83445144047511e-19	0	0.218170792827488	0.891474726288243	5.72965994045058e-19	0	0	0.0339954974917254	0.0568683286389684	0.0409498741961689	0.0325786557018811	0.017096274133314	0	0.0645118260730976	2.52990572709317e-17	1.74526093608872e-17	0	0.551146571725858	0	0.0134370359641049	0.0223223845062688	0.00219100781264975	0.000917970439609858	0	0.0268925115836559	0	0.00958031383311293	0.381107665701892	0.00751085208420303	0	0.0958066012716644	0.00171575290600708	1.89712122456041e-19	0.0025172103139637	0.034582124688722	0	0.182126330247332	0.0877105366519325	0.0754738031812469	0.152681583831024	0.0892993802600848	0.241980964091109	GTEX.RU72.3126.SM.46MUB
0	0	7.14701293563358e-17	0.138019250746618	0.285920111423651	0	0	5.38957364440906e-18	1.13641164581659e-18	2.3208177971362e-17	0.0483537097098094	0.00300089385429667	0.00958771504928158	1.87585448529858e-18	0.230042631536654	2.24175673637237e-17	0.117446436638153	0.132146377171992	4.83087298216904e-18	0.0344362140987908	0.0882598970136024	0.0586642005679188	0	0	2.89486756690329e-19	0.0952240455788763	0.00428794444476828	0.000417645710706671	0.317619938186974	2.70365226030313e-18	0.098351088585654	0	0	0.0720667919059026	0.049104746337564	1.08452503167375e-18	0.0136500835545776	0	0.0764042416528864	0	1.48338508639723e-17	0	0.628615653283213	0.0314532583853457	2.68833902709663e-18	0.0285431221111223	0.00511277411166773	0	0	0.214341913005259	0	0	0.264048582096928	0.120420872098833	2.4642872856194e-18	0.133824327350489	0	0	1.61303581084688e-18	0	8.25778229586304e-17	0	0.544454561185464	0.0702608614981347	0.188816870403459	0.0441299485068012	0.23294681891026	GTEX.T2IS.3126.SM.32QPK
0	0	1.78922284078083e-17	2.68209416908213e-18	3.17564663498443e-17	0	0	0	1.81145519528984e-17	0.0424384374884548	0.046068185569918	0.0139250512279388	0.0728612085228505	0	0.220855625714534	2.25538854318296e-17	0	0	0	5.08704364047648e-19	0	8.13067891822424e-18	0.00870612747118189	0.00661387301448437	0.00402340623597517	4.5874975510734e-19	0	0.433565385908772	0.0262131905829587	3.91474984319266e-19	0.0060250054284979	0.0757388113696259	0.0552555780274717	7.8039206153717e-19	0	0.00706989662365054	0.0156920745929052	3.27735435045504e-17	0.0875850287614075	0	0	1.61487229421937e-17	0.410308463769123	0	1.81540960113136e-19	0	0.00014760798552812	4.329376073096e-18	9.52486846454056e-17	0.520190866641749	0	0.0472840540628591	0.412300243444113	3.78748516622968e-18	0	0.133543272430886	0	2.09508867314783e-20	7.68103320092007e-19	0.223736831933606	0	0.0278198920182612	0	7.1543277296786e-18	0.0597759083983766	0.00201170311798759	0.0617876115163642	GTEX.T5JC.2526.SM.4DM6G
0.103100338036513	0.00963871143573803	3.34991127300138e-17	0.0473100783274607	0.142927417169957	3.71505516630637e-18	6.60901403952904e-18	8.48368879214605e-18	0	0	2.36059848663351e-20	0.0130938792327021	0	3.15898955220435e-18	0.138790787142715	0	0	0.096051130397333	9.64313464315184e-20	0.0414086699669595	0.0579545081105252	0	0.00858128768061356	0	0.0713070580017039	1.02342540420739e-17	0.00713580388583809	0.244947038276537	0.317639316529936	7.70954816894582e-21	0.0121796885595561	0.0121084206775484	0	0.0272036822423636	0.0218670692168142	0.011997571639757	0.0179635938284176	0	0.0942325512620388	0	0	4.26151468452662e-17	0.352906883013426	0.00923251257385714	0.00617051882273655	0.0194716568538469	0.00199393764940173	0.0161991964010621	0	0.158923298104829	0	3.81050577869445e-18	0.0482534771401811	0.0428265488735227	1.14148772653614e-18	1.84566038692628e-17	0.00140050953973192	0.0030711114754753	0	0	0	0.0584302960904894	0.300293803125737	0.0393442160622516	0.101324875881698	0.0694501387739836	0.170775014655682	GTEX.T6MN.2726.SM.4DM77
0.117286674997167	1.32199824808274e-18	3.39647935090164e-17	0.0415540691264268	0.100534910058149	5.67567448286382e-19	2.21331567979967e-17	0	0	3.34985110826549e-17	0.0609739856278817	0.067920624412011	0.0540578241593586	1.47170251685241e-17	0.0453964076743651	0	0.0399051167124189	0.0292927080197336	0	0	0.106146408023606	0.0217024673760089	0.00256593448269165	4.79785878924901e-19	1.33383359319012e-18	0.00177121270578632	0	0.0042894478639369	0.0813802596674026	0	0.0774167711721164	0.0113075654236961	0.0405161779402703	0.00498912432826441	0.0268178898558161	0.0451223702947179	0.0148192533171391	9.42861153245286e-18	0.0178632106923631	0	3.43980717842564e-18	0	0.751565385065708	0.00129750837116998	0.0100490332723986	0.013584754614873	0.00167734319155681	0	0	1.52758151223422e-05	0	0.0633117551553936	0.214810057760845	0.0205549074490848	0.026687387984092	1.23702635997449e-18	0.0171396262637595	0	4.03550134772938e-18	0.445880756593831	0	0.0761338414935096	0.261188348333668	3.97430597542623e-19	0.112868410795973	0.0530732040118028	0.165941614807775	GTEX.TSE9.3126.SM.4DXSY
0.0674824634443315	0	1.92482727573867e-17	9.24011331741966e-19	0.209188199069861	0	2.37469130293461e-17	2.32746587128652e-17	7.33494003680287e-18	3.64407303867872e-17	0.0415744705814513	6.84193226164397e-19	6.3613852279025e-17	2.72110396967623e-17	0.0699070260069636	0	1.24199840422978e-18	0.0417117127945813	3.97184172838679e-18	0.0218077953275222	0.198242479856849	0	0.012324297097095	0	0	0.171592859197549	0.00504036936086104	0.478582433260328	0.254276156332742	6.53013602673605e-19	0.0918393842624341	0	0	2.40395850762956e-18	3.52500194115603e-20	0.0121456857733859	0.00505307605408198	0	0.0840453480639857	3.20464631753044e-18	4.03914638898195e-17	1.24216483145807e-17	0.323667014618972	0.0866524448901439	0	0.00630761260920311	0.0113709388598197	0	0	0.409663356335079	0.0145896832448203	0.0586251175616058	0.240929932221161	0.0252927756569168	0	0.0476005564090654	7.74975694969305e-17	4.38184451697473e-20	0.00564691677971378	0.199487756935327	5.06097645823154e-17	0.0367600680523475	0.401682375971605	0	0.0145385302183482	0.0991212399284243	0.113659770146772	GTEX.UTHO.3126.SM.3P5ZB
0.0130374832495778	0	1.44809896512104e-17	0.0554542460926099	0.0213037961456164	0	0	3.89512161447484e-18	0	4.8059573752983e-17	0.0289700548975776	0.0566887043854079	0.0521677752200527	0	0.0162923139001804	5.39050519708247e-18	3.61229970979459e-18	0.198962068245065	2.85088878565366e-19	0.0037042021268661	0.0154681761536334	0	0.0130576168027109	0	0	5.31541757802339e-18	0.00396257608894589	0.389529217454688	0.165195922139009	0	0.00346375820064628	0.0544203047968961	0.0148443443441539	0.0134023884290251	0.0393389143702239	0.0123923068509472	0.00955479389269097	1.26752166051862e-17	0.0490374587537209	0	8.36952326562403e-18	1.83587424965445e-17	0.841848239969641	3.23295979401053e-18	1.94230319882022e-18	0.00115516007763384	0.00456582335522235	0	0	0.109426513591385	0	0.0360201963011191	0.0134031454722255	0.044915300248471	1.16216766952652e-18	0.139022016735164	2.87761660057265e-18	0	0.00733251360437126	0.137488486079975	4.71277933396326e-18	0	0.00830891158116767	0.0443654319110042	0.139737581181336	0.00773408807681672	0.147471669258153	GTEX.WHSE.3126.SM.3P5ZI
0.0728176501452078	0.0160717296544748	0	0.130731467730559	0.0593708307193862	0	7.17065526671337e-18	9.78078818715755e-18	0.0225884738974543	2.08448283344106e-17	0.0688232596887179	0.144833072136512	0	8.48490494162396e-18	0.408503998485588	0	0.00723753335357307	0.0839207055736926	1.68552974520629e-19	0.201060007698706	0.0450173939127137	0	0.00957012206632528	0.00372139280566031	0.0216937478374886	0	0.00580260402558897	0.176845137130397	0.873066816064174	0	0.0160978803549596	0.0129634413112733	3.15624793951973e-18	9.14991044584059e-18	0.011870276169289	0.0385269861255309	0.00540689189690937	0.0726662558646863	0.113228673769775	1.3319687569199e-17	1.86305468727416e-18	1.38805423323782e-22	0.252176528507883	0.0222311968652501	0.0929506890450692	0.0348303489831227	0.00477153899760725	0.0118664173586637	0	0.261228811768995	1.73841623151989e-17	0	0.216952522009012	0.0901338085927735	5.14860991443882e-18	0.0371038911251444	0.0231192147937236	0	0.0331395712684052	0.0203880243140829	0	4.49746240321314e-17	0.216756653122437	0	0.342216454936669	0.0413914357023386	0.383607890639007	GTEX.WL46.3026.SM.3LK7Z
3.66451591152116e-18	4.65146773040525e-19	3.82768575374524e-17	0.258929691424843	0	0	0	0	2.32400773920395e-17	0.0486487164996421	0.0409396073901079	1.0154265860629e-17	3.61645260012446e-17	1.24755662274738e-18	0.323914192892604	0	0.112652105424383	0.154771549082209	2.10632718710659e-20	0.0910672507817485	0.0621103000440448	1.75663466654416e-19	0.0124420550905376	0	0	3.92362594008928e-18	0	0.301020247424536	0.836378903471672	1.82979080327358e-18	0.0182930481039503	0.022005486745755	0.0108968766648785	0.0205840832939777	0.0619779994012784	0.061252454523597	0.00661194161201834	0	0.107686579863179	0	3.65677171819239e-19	0	0.668184552222229	0.0335533496203413	0.0884650837526409	0.0429927478986828	0.00140769752896194	0	0	0.362546992684983	0	0.0676920959816932	0.493304579841883	0.0602744469659887	0.022090136014732	0	0	0.00105752273410902	0.0145771196881676	0.30196939571687	8.45394276280979e-17	4.89749147597609e-17	0.412157154171071	0.078558343225085	0.289320285569083	0.0310551500220224	0.320375435591106	GTEX.WVLH.3126.SM.3MJGA
0.324436284187462	2.11046398786591e-19	2.36305025131416e-17	0.205198781588905	0.0290987790069048	0	0	0.0183154961447193	0.0699376788429506	6.47502060151107e-18	0.0419562058190043	0.0652838443038654	7.7372460426623e-18	0	0.14500644423497	3.13695819888846e-17	0.15434259608117	0.201413713174125	0	0.09168390214916	0.0475062630948725	0.0429420919131417	0.0064085152061365	0.00295093987011833	4.83098858776493e-17	0.0265324194924358	0.0010347613093548	0.16574378591016	0.56047739546408	0	0.0288996950361948	0.027628488005083	0	0.0279534909747913	0.0686260531159988	0.000614216942192247	0.0103121200040272	0.0292305516749856	0.140895728620713	0	0	1.82482679019124e-17	0.270862763554844	0.0108282670966632	0.0129988649372829	0.00973678157876378	0.00409041690655475	0	0	0.0916194239997042	0	2.55306196300212e-18	0.273814645918258	0.0883930391159438	1.93556143932763e-18	2.58860316480991e-18	0	0.00153348221201884	0.0276388967112776	0.325087476560398	0	0.0265240868185403	0.291443141168427	0.0121949406070845	0.346452438147248	0.0237531315474363	0.370205569694685	GTEX.WZTO.3026.SM.3NMA2
0.0518109243677674	0	2.77348389020835e-17	0.149881376953709	0	3.44877107017641e-19	0	0	6.61525257560234e-19	0	0.0539553639292064	0.0190517363531824	1.615104643726e-19	0	0.16367869073621	3.24954374072369e-18	0.115887062414691	0.0120314923392128	3.30953558260866e-18	0.103125847859877	0.000691278619291477	0.0197792254681491	0.0149055305434306	0.00249950328294975	0.118425890514853	0.00306471965971614	0	0.38502372402878	0.9416931580758	0	0.0056710927938483	0.0237556287326703	0.044306509421738	0.0389156713382234	0	0.062817094959856	0.0102241022835144	1.94482185238131e-17	0.138187162757377	0	0	3.8137281947927e-17	0.50843358748282	0.014866219840592	0.0503057933825115	0.0676571249883894	0.00780278083892593	0.00765568941210415	1.37615223922077e-17	0.103558813185272	1.52433555380762e-18	0.0123396540833208	0.0472441698172585	0.100761039345615	4.74514403884428e-18	0.178816237632291	0	0	0.0357886481324809	0.278355861011068	0	0.0974598219895299	0.378879810883976	0.00763022613374461	0.215499669853128	0.0595585845670721	0.2750582544202	GTEX.X261.3226.SM.3NMC3
0.0226866002458408	0.000857643834931976	1.56882223121458e-17	0.389366221652665	0.0271044204718094	0.00311059200048468	0	1.65693390936805e-20	0.0644037180780482	4.42647694387124e-17	0.125866715574043	0	0	2.01112639789571e-17	0.0161522625522934	0	0	0.0814653497608784	1.8336674833989e-18	0	0.037085533242981	0.0144723887361828	0.0228800628615611	0.0188773167027035	0	0.0145412052603644	0.00544861813861881	0.0258987836927403	3.66461989971719e-18	0	0.0273307291456892	0.0259331000915647	0.0060866643516063	0.0249899935340147	0.0570362735601052	0.040347635221378	0.00440309928674271	0.0396479059325303	0.00923006656950256	0.00187945226321852	0.00159461278210142	3.95859476342558e-19	0.509725011718269	0.00638997733406331	0	0.0965915263338736	0.00368982031404623	0.00259545714117534	1.78783223297133e-17	0.285602567689847	0	0	0.37878213590583	0.0921481878580191	3.15758453850705e-18	0.116631003367557	0	2.21769121688421e-19	5.84729993879325e-19	0.0151460065915175	0	0.185432832182961	0.174107865668067	0.0333370087136308	0.327332035975863	0.0189715885389565	0.34630362451482	GTEX.X4EP.3226.SM.3P5YR
0.0347656592385722	0	2.80883916035683e-17	0.113995594687577	0.0715044761122287	1.07376281349836e-18	1.65002888498882e-17	0	0.0296910669511782	4.00748139131008e-17	0.0428410714711029	0	8.28806021622375e-18	1.92049385938428e-17	0.10208655173801	0	0.108033976820314	0.0824404750092582	0	0.0717689665293374	0.0403353323914129	0	0.0205076913313816	0	0.0735656332591776	0.263887229530859	0.00608778769838745	0.17813044887605	0.605571763527556	4.33792633521025e-19	0.022115482618262	0	0	0.0110908593570679	0.0258030096329103	0.0284069138559245	0.0128134618722878	0	0.060053932870236	1.89000411425352e-18	4.18919099604118e-18	0	0.573395698694702	0.0142223249020004	4.71280995182365e-21	0	0.00843607353492444	0.00649971347202808	0	0.271493079858049	0	0	0.210250584734236	0.102237624091108	0	1.32198461048541e-05	0.031195610832809	0.00247344250212565	0.00762485667129534	0.000434232742504375	0	0.13884326510188	0.151062674678592	0.00392081049008022	0.145378189547902	0.0569504828252952	0.202328672373197	GTEX.XLM4.3126.SM.4AT6M
3.05139386553827e-20	9.931057948146e-20	5.05944725038579e-18	2.70549336053387e-18	0.287764834928409	0	0	4.73788542063923e-18	4.0450007054249e-17	0	0.0435410520642106	9.50328022450521e-18	7.61315954139116e-18	3.4655168383388e-17	0.0854714304672189	0	3.05388266283368e-18	0.277935276784367	0.0193874803836998	0.0379764146258982	0.0135941804194313	0.0334431242704727	0.0117829109228576	0.00184531949109323	0	0.0114216144873496	0.00341146109418811	0.408216066483617	0.276952085312599	0	0.0038144453620442	0	0	0.0193311961481009	0.0327029470932843	0.0261419480744943	0.0462121813545302	0	0.129513048176683	0	0	9.04462446501864e-17	0.651595580238398	3.2899201455469e-19	0.0717138527966602	0.000241455286530001	1.56546880010156e-05	0.00421432754700818	0	0.0889925357929144	6.37810475995423e-18	0.0755522459175351	0.126228373858816	0.052636441445231	3.57426425751824e-18	0.1845497771512	0.0108667201916334	0.00154190520079341	0.0223460033642221	0.208037337888727	3.56095629830751e-17	0.0750211983285739	0.409686370816003	1.22473478048235e-17	0.0722245423577756	0.00679709020971565	0.0790216325674912	GTEX.YFC4.3226.SM.5CVM2
2.76781506371338e-17	2.16240465782671e-18	4.05295266555053e-17	0.0350781967184672	0.185887122389277	0	0	4.93226602119521e-17	0	0	0.129120387119713	0.059450521140778	1.97237904751511e-17	0	0.4131515670551	0	0.0729568991274946	0.400820936818187	0	0.106675010788806	0.0283683182005506	0.0138361436021372	0	0.00356397659754879	0	0.116950787402146	6.27142631547721e-20	0.103720158496153	0.446344936111798	3.14985265616044e-18	0.0210754077254417	3.58116501340801e-19	0	0.0301614391246491	0.0204352468429164	0.0616923766052499	0.00746463884042095	0	0.0209572419783613	0	1.94141976447319e-17	0	0.932003471834906	0	0.0095150633929262	0.0431605642241385	0.00538520796265487	0.0235834220467475	1.46844885798304e-17	0.631335722380328	2.8020135089812e-17	0.00244089616596943	1.44632570139312e-18	0.026223346155561	0.00185772893698982	0.099156083550782	0	0	0.000209307154188104	0.276520455397927	9.18246857641702e-17	0.231225277995314	0	0.0425548226214822	0.172705694093235	0.0141841591002753	0.18688985319351	GTEX.Z93S.3026.SM.5CVMS
1.99243696661471e-17	0	0	1.64123254496635e-19	0.212691896625323	0	1.24394516055163e-17	3.0611431090434e-18	0	1.05751699914007e-17	1.42155822626145e-19	0	5.42607503947186e-17	0	0.141229417216305	0.0538348186621573	0.0394604839593167	0.10681686794284	0	0.0491125077553684	0.0301135373152092	0.0104707510159239	0.0156632282372228	0.000736563847826329	0.00299707124961602	0.130138834327632	0.00381895311864904	0.40834933178413	0.53920178316954	0	0.0752839627357955	0.00465516029220524	0.0260566922180074	0	0	0.0807390796095591	0.00929318335300359	0	0.069065133501972	0.00507684792617989	2.17211601186418e-17	1.4634629819193e-17	0.175797219794578	0	0	0.00376767629754229	0.00792436197707298	0.00644433595878863	0	0.0980496936632852	0.103526821045385	0.0120087850242336	0.42074218941231	0.0790115998438828	1.01161602831844e-18	0.136159194025817	0.00952750241805263	0.0016455947864114	0	0.0239064508355076	5.13879453697163e-18	0.351847100135571	1.38777878078145e-17	0.100366086745129	0.0471218366815241	0.0165553042824126	0.0636771409639367	GTEX.ZAB4.3126.SM.57WCJ
0	3.97668017679669e-19	8.49799122297927e-18	0.220871532160379	0	2.13117899501481e-19	8.22472490324361e-19	2.10384568154157e-18	0	4.40523496712868e-18	0.133175255848228	0.15736269534938	0.0185508214871284	7.85427497852459e-18	0.111818939774311	0	0.105678197407695	0.181888348738632	7.5820831208887e-18	0.0754915571112147	0.102741879215291	0.0430504640954286	0.00388657720643399	0.00395351119122455	0.0527140662854551	3.56507775610053e-18	0.00436384288739542	0.67108572788669	0.345539157804719	0.000378780329833473	0.00345531902912787	0.031128855857163	0.01730174083363	0.0555715057465552	0.0447652619970427	0.0325096747907062	0.0122589001794002	0	0.140484193946016	0	0	9.73662639738486e-17	0.605186774570335	0.0219032660301485	0.0520557777617434	0.0951680134899094	0.00170160415044147	0	1.41667338492181e-18	0.0206246727280161	0	0.00489999920240849	0.298231631885287	0.0304729019531281	0	0.218360310214683	0	0.000322420264164955	0.016909144887575	0.101711753166357	1.54366536380041e-17	0.01533331647606	0.0889662962583693	0.106588232334649	0.381780244380405	0.077727972750373	0.459508217130778	GTEX.ZAJG.3226.SM.5HL9V
0	1.31649525520983e-18	3.73590094981488e-17	7.0457781358742e-20	0.256122770482159	0	5.26481086924887e-18	1.52826376957935e-17	0.0217175344986139	3.35517587273453e-18	0.0875489587566725	2.72676224780896e-20	3.52240195218981e-17	5.47329573501683e-17	0.148601232053414	1.19149935987842e-18	0	0.0549048842882555	5.76397597526734e-19	0.0343019261242624	0.0930922915689475	6.6057119037159e-19	0.018480246103783	0	0	0	2.61668589517429e-19	0.0699035399914791	0.282528784507692	0	0.0262062601494735	0.0307293512425523	0.0390371732956886	0.0296414684969584	0.0230467540387644	0.0408849258558145	0.00868909290826145	0	0.118966999769075	0	3.56883881109353e-17	0.0071831424021907	0.638972442911487	0.0223316186222776	3.27615149320819e-19	0.0241198730080959	0.00278445428013071	0	4.55525917898732e-18	0.262619115648016	0	6.11614205285625e-18	0.110804683724776	0.0197636998791774	5.59143309182392e-18	3.08715923150379e-18	0.0114509805529418	0.00135297172069062	1.46238711784274e-18	0.0847828267151703	0	0.341451426777279	0.245712769711782	0	0.0587186876037195	0.0465461457844737	0.105264833388193	GTEX.ZYY3.3226.SM.5SI9X
