CPM00000265.cna_calls.txt
CPM00000301.cna_calls.txt
CPM00000568.cna_calls.txt
CPM00000574.cna_calls.txt
CPM00000586.cna_calls.txt
CPM00000588.cna_calls.txt
CPM00000589.cna_calls.txt
CPM00000590.cna_calls.txt
CPM00000591.cna_calls.txt
CPM00000592.cna_calls.txt
CPM00000593.cna_calls.txt
CPM00000594.cna_calls.txt
CPM00000758.cna_calls.txt
CPM00000781.cna_calls.txt
CPM00000791.cna_calls.txt
CPM00000805.cna_calls.txt
CPM00000806.cna_calls.txt
CPM00000811.cna_calls.txt
CPM00000812.cna_calls.txt
CPM00000813.cna_calls.txt
CPM00000814.cna_calls.txt
CPM00000815.cna_calls.txt
CPM00000816.cna_calls.txt
CPM00000817.cna_calls.txt
CPM00000818.cna_calls.txt
CPM00000819.cna_calls.txt
CPM00000820.cna_calls.txt
CPM00000821.cna_calls.txt
CPM00000822.cna_calls.txt
CPM00000823.cna_calls.txt
CPM00000824.cna_calls.txt
CPM00000825.cna_calls.txt
CPM00000826.cna_calls.txt
CPM00000839.cna_calls.txt
CPM00000863.cna_calls.txt
CPM00000886.cna_calls.txt
CPM00000896.cna_calls.txt
CPM00000899.cna_calls.txt
CPM00000900.cna_calls.txt
CPM00000901.cna_calls.txt
CPM00000902.cna_calls.txt
CPM00000903.cna_calls.txt
CPM00000904.cna_calls.txt
CPM00000905.cna_calls.txt
CPM00000906.cna_calls.txt
CPM00000907.cna_calls.txt
CPM00000908.cna_calls.txt
CPM00000909.cna_calls.txt
CPM00000911.cna_calls.txt
CPM00000912.cna_calls.txt
CPM00000913.cna_calls.txt
CPM00000914.cna_calls.txt
CPM00000915.cna_calls.txt
CPM00000916.cna_calls.txt
CPM00000917.cna_calls.txt
CPM00000918.cna_calls.txt
CPM00000919.cna_calls.txt
CPM00000920.cna_calls.txt
CPM00000921.cna_calls.txt
CPM00000979.cna_calls.txt
CPM00001507.cna_calls.txt
CPM00002066.cna_calls.txt
CPM00002315.cna_calls.txt
CPM00003187.cna_calls.txt
CPM00003311.cna_calls.txt
CPM00003321.cna_calls.txt
CPM00003324.cna_calls.txt
CPM00003327.cna_calls.txt
CPM00003440.cna_calls.txt
CPM00003480.cna_calls.txt
CPM00003499.cna_calls.txt
CPM00003502.cna_calls.txt
CPM00003507.cna_calls.txt
CPM00003579.cna_calls.txt
CPM00003600.cna_calls.txt
CPM00003611.cna_calls.txt
CPM00003614.cna_calls.txt
CPM00003670.cna_calls.txt
CPM00003683.cna_calls.txt
CPM00003724.cna_calls.txt
CPM00003726.cna_calls.txt
CPM00003732.cna_calls.txt
CPM00003763.cna_calls.txt
CPM00003770.cna_calls.txt
CPM00003778.cna_calls.txt
CPM00003783.cna_calls.txt
CPM00003784.cna_calls.txt
CPM00003785.cna_calls.txt
CPM00003787.cna_calls.txt
CPM00003790.cna_calls.txt
CPM00003791.cna_calls.txt
CPM00003806.cna_calls.txt
CPM00003815.cna_calls.txt
CPM00003816.cna_calls.txt
CPM00003817.cna_calls.txt
CPM00003818.cna_calls.txt
CPM00003819.cna_calls.txt
CPM00003820.cna_calls.txt
CPM00003821.cna_calls.txt
CPM00003822.cna_calls.txt
CPM00003823.cna_calls.txt
CPM00003824.cna_calls.txt
CPM00003825.cna_calls.txt
CPM00003826.cna_calls.txt
CPM00003832.cna_calls.txt
CPM00004312.cna_calls.txt
CPM00004315.cna_calls.txt
CPM00004326.cna_calls.txt
CPM00004332.cna_calls.txt
CPM00004371.cna_calls.txt
CPM00004372.cna_calls.txt
CPM00004376.cna_calls.txt
CPM00004381.cna_calls.txt
CPM00004388.cna_calls.txt
CPM00004389.cna_calls.txt
CPM00004392.cna_calls.txt
CPM00004401.cna_calls.txt
CPM00004406.cna_calls.txt
CPM00004416.cna_calls.txt
CPM00004430.cna_calls.txt
CPM00004433.cna_calls.txt
CPM00004436.cna_calls.txt
CPM00004509.cna_calls.txt
CPM00004520.cna_calls.txt
CPM00004554.cna_calls.txt
CPM00004556.cna_calls.txt
CPM00004559.cna_calls.txt
CPM00004560.cna_calls.txt
CPM00004572.cna_calls.txt
CPM00004579.cna_calls.txt
CPM00004586.cna_calls.txt
CPM00004592.cna_calls.txt
CPM00004637.cna_calls.txt
CPM00004645.cna_calls.txt
CPM00004656.cna_calls.txt
CPM00004660.cna_calls.txt
CPM00004699.cna_calls.txt
CPM00004700.cna_calls.txt
CPM00004702.cna_calls.txt
CPM00004704.cna_calls.txt
CPM00004711.cna_calls.txt
CPM00004724.cna_calls.txt
CPM00004751.cna_calls.txt
CPM00004763.cna_calls.txt
CPM00004777.cna_calls.txt
CPM00004789.cna_calls.txt
CPM00004805.cna_calls.txt
CPM00004824.cna_calls.txt
CPM00004835.cna_calls.txt
CPM00004863.cna_calls.txt
CPM00004864.cna_calls.txt
CPM00004906.cna_calls.txt
CPM00004908.cna_calls.txt
CPM00004926.cna_calls.txt
CPM00004928.cna_calls.txt
CPM00004941.cna_calls.txt
CPM00004954.cna_calls.txt
CPM00004980.cna_calls.txt
CPM00004989.cna_calls.txt
CPM00004991.cna_calls.txt
CPM00004993.cna_calls.txt
CPM00005003.cna_calls.txt
CPM00005034.cna_calls.txt
CPM00005036.cna_calls.txt
CPM00005043.cna_calls.txt
CPM00005052.cna_calls.txt
CPM00005055.cna_calls.txt
CPM00005065.cna_calls.txt
CPM00005070.cna_calls.txt
CPM00005080.cna_calls.txt
CPM00005082.cna_calls.txt
CPM00005116.cna_calls.txt
CPM00005117.cna_calls.txt
CPM00005125.cna_calls.txt
CPM00005126.cna_calls.txt
CPM00005139.cna_calls.txt
CPM00005140.cna_calls.txt
CPM00005141.cna_calls.txt
CPM00005145.cna_calls.txt
CPM00005148.cna_calls.txt
CPM00005151.cna_calls.txt
CPM00005184.cna_calls.txt
CPM00005187.cna_calls.txt
CPM00005195.cna_calls.txt
CPM00005196.cna_calls.txt
CPM00005208.cna_calls.txt
CPM00005209.cna_calls.txt
CPM00005210.cna_calls.txt
CPM00005230.cna_calls.txt
CPM00005232.cna_calls.txt
CPM00005237.cna_calls.txt
CPM00005245.cna_calls.txt
CPM00005247.cna_calls.txt
CPM00005248.cna_calls.txt
CPM00005260.cna_calls.txt
CPM00005293.cna_calls.txt
CPM00005299.cna_calls.txt
CPM00005303.cna_calls.txt
CPM00005304.cna_calls.txt
CPM00005316.cna_calls.txt
CPM00005325.cna_calls.txt
CPM00005328.cna_calls.txt
CPM00005346.cna_calls.txt
CPM00005348.cna_calls.txt
CPM00005375.cna_calls.txt
CPM00005386.cna_calls.txt
CPM00005400.cna_calls.txt
CPM00005431.cna_calls.txt
CPM00005453.cna_calls.txt
CPM00005483.cna_calls.txt
CPM00005524.cna_calls.txt
CPM00005562.cna_calls.txt
CPM00005564.cna_calls.txt
CPM00005581.cna_calls.txt
CPM00005583.cna_calls.txt
CPM00005585.cna_calls.txt
CPM00005595.cna_calls.txt
CPM00005600.cna_calls.txt
CPM00005603.cna_calls.txt
CPM00005615.cna_calls.txt
CPM00005626.cna_calls.txt
CPM00005627.cna_calls.txt
CPM00005628.cna_calls.txt
CPM00005642.cna_calls.txt
CPM00005702.cna_calls.txt
CPM00005733.cna_calls.txt
CPM00005750.cna_calls.txt
CPM00005765.cna_calls.txt
CPM00005768.cna_calls.txt
CPM00005803.cna_calls.txt
CPM00005813.cna_calls.txt
CPM00005841.cna_calls.txt
CPM00005844.cna_calls.txt
CPM00005896.cna_calls.txt
CPM00005897.cna_calls.txt
CPM00005901.cna_calls.txt
CPM00005911.cna_calls.txt
CPM00005916.cna_calls.txt
CPM00005930.cna_calls.txt
CPM00005931.cna_calls.txt
CPM00005932.cna_calls.txt
CPM00005935.cna_calls.txt
CPM00005939.cna_calls.txt
CPM00006016.cna_calls.txt
CPM00006020.cna_calls.txt
CPM00006027.cna_calls.txt
CPM00006052.cna_calls.txt
CPM00006054.cna_calls.txt
CPM00006072.cna_calls.txt
CPM00006076.cna_calls.txt
CPM00006081.cna_calls.txt
CPM00006090.cna_calls.txt
CPM00006168.cna_calls.txt
CPM00006171.cna_calls.txt
CPM00006180.cna_calls.txt
CPM00006181.cna_calls.txt
CPM00006183.cna_calls.txt
CPM00006206.cna_calls.txt
CPM00006219.cna_calls.txt
CPM00006263.cna_calls.txt
CPM00006269.cna_calls.txt
CPM00006276.cna_calls.txt
CPM00006298.cna_calls.txt
CPM00006300.cna_calls.txt
CPM00006304.cna_calls.txt
CPM00006319.cna_calls.txt
CPM00006333.cna_calls.txt
CPM00006334.cna_calls.txt
CPM00006342.cna_calls.txt
CPM00006343.cna_calls.txt
CPM00006353.cna_calls.txt
CPM00006354.cna_calls.txt
CPM00006356.cna_calls.txt
CPM00006374.cna_calls.txt
CPM00006375.cna_calls.txt
CPM00006400.cna_calls.txt
CPM00006404.cna_calls.txt
CPM00006421.cna_calls.txt
CPM00006434.cna_calls.txt
CPM00006435.cna_calls.txt
CPM00006490.cna_calls.txt
CPM00006506.cna_calls.txt
CPM00006508.cna_calls.txt
CPM00006510.cna_calls.txt
CPM00006521.cna_calls.txt
CPM00006525.cna_calls.txt
CPM00006534.cna_calls.txt
CPM00006547.cna_calls.txt
CPM00006551.cna_calls.txt
CPM00006569.cna_calls.txt
CPM00006591.cna_calls.txt
CPM00006601.cna_calls.txt
CPM00006602.cna_calls.txt
CPM00006627.cna_calls.txt
CPM00006630.cna_calls.txt
CPM00006657.cna_calls.txt
CPM00006660.cna_calls.txt
CPM00006662.cna_calls.txt
CPM00006666.cna_calls.txt
CPM00006679.cna_calls.txt
CPM00006688.cna_calls.txt
CPM00006702.cna_calls.txt
CPM00006705.cna_calls.txt
CPM00006707.cna_calls.txt
CPM00006727.cna_calls.txt
CPM00006768.cna_calls.txt
CPM00006784.cna_calls.txt
CPM00006787.cna_calls.txt
CPM00006798.cna_calls.txt
CPM00006799.cna_calls.txt
CPM00006836.cna_calls.txt
CPM00006838.cna_calls.txt
CPM00006848.cna_calls.txt
CPM00006859.cna_calls.txt
CPM00006872.cna_calls.txt
CPM00006879.cna_calls.txt
CPM00006886.cna_calls.txt
CPM00006888.cna_calls.txt
CPM00006892.cna_calls.txt
CPM00006905.cna_calls.txt
CPM00006968.cna_calls.txt
CPM00006985.cna_calls.txt
CPM00007029.cna_calls.txt
CPM00007050.cna_calls.txt
CPM00007069.cna_calls.txt
CPM00007076.cna_calls.txt
CPM00007077.cna_calls.txt
CPM00007078.cna_calls.txt
CPM00007083.cna_calls.txt
CPM00007088.cna_calls.txt
CPM00007090.cna_calls.txt
CPM00007092.cna_calls.txt
CPM00007105.cna_calls.txt
CPM00007109.cna_calls.txt
CPM00007140.cna_calls.txt
CPM00007141.cna_calls.txt
CPM00007147.cna_calls.txt
CPM00007155.cna_calls.txt
CPM00007181.cna_calls.txt
CPM00007246.cna_calls.txt
CPM00007247.cna_calls.txt
CPM00007257.cna_calls.txt
CPM00007266.cna_calls.txt
CPM00007271.cna_calls.txt
CPM00007294.cna_calls.txt
CPM00007312.cna_calls.txt
CPM00007319.cna_calls.txt
CPM00007325.cna_calls.txt
CPM00007335.cna_calls.txt
CPM00007351.cna_calls.txt
CPM00007363.cna_calls.txt
CPM00007365.cna_calls.txt
CPM00007366.cna_calls.txt
CPM00007392.cna_calls.txt
CPM00007398.cna_calls.txt
CPM00007405.cna_calls.txt
CPM00007411.cna_calls.txt
CPM00007435.cna_calls.txt
CPM00007455.cna_calls.txt
CPM00007462.cna_calls.txt
CPM00007490.cna_calls.txt
CPM00007512.cna_calls.txt
CPM00007536.cna_calls.txt
CPM00007542.cna_calls.txt
CPM00007543.cna_calls.txt
CPM00007590.cna_calls.txt
CPM00007610.cna_calls.txt
CPM00007618.cna_calls.txt
CPM00007624.cna_calls.txt
CPM00007690.cna_calls.txt
CPM00007746.cna_calls.txt
CPM00007766.cna_calls.txt
CPM00007804.cna_calls.txt
CPM00007809.cna_calls.txt
CPM00007818.cna_calls.txt
CPM00007830.cna_calls.txt
CPM00007839.cna_calls.txt
CPM00007842.cna_calls.txt
CPM00007864.cna_calls.txt
CPM00007877.cna_calls.txt
CPM00007888.cna_calls.txt
CPM00007893.cna_calls.txt
CPM00007894.cna_calls.txt
CPM00007895.cna_calls.txt
CPM00007925.cna_calls.txt
CPM00007988.cna_calls.txt
CPM00007992.cna_calls.txt
CPM00008005.cna_calls.txt
CPM00008053.cna_calls.txt
CPM00008054.cna_calls.txt
CPM00008069.cna_calls.txt
CPM00008096.cna_calls.txt
CPM00008097.cna_calls.txt
CPM00008104.cna_calls.txt
CPM00008115.cna_calls.txt
CPM00008116.cna_calls.txt
CPM00008133.cna_calls.txt
CPM00008135.cna_calls.txt
CPM00008164.cna_calls.txt
CPM00008216.cna_calls.txt
CPM00008222.cna_calls.txt
CPM00008225.cna_calls.txt
CPM00008230.cna_calls.txt
CPM00008252.cna_calls.txt
CPM00008263.cna_calls.txt
CPM00008270.cna_calls.txt
CPM00008271.cna_calls.txt
CPM00008272.cna_calls.txt
CPM00008273.cna_calls.txt
CPM00008310.cna_calls.txt
CPM00008311.cna_calls.txt
CPM00008331.cna_calls.txt
CPM00008332.cna_calls.txt
CPM00008339.cna_calls.txt
CPM00008341.cna_calls.txt
CPM00008371.cna_calls.txt
CPM00008415.cna_calls.txt
CPM00008422.cna_calls.txt
CPM00008425.cna_calls.txt
CPM00008444.cna_calls.txt
CPM00008492.cna_calls.txt
CPM00008526.cna_calls.txt
CPM00008533.cna_calls.txt
CPM00008534.cna_calls.txt
CPM00008628.cna_calls.txt
CPM00008632.cna_calls.txt
CPM00008639.cna_calls.txt
CPM00008646.cna_calls.txt
CPM00008654.cna_calls.txt
CPM00008669.cna_calls.txt
CPM00008673.cna_calls.txt
CPM00008683.cna_calls.txt
CPM00008696.cna_calls.txt
CPM00008702.cna_calls.txt
CPM00008713.cna_calls.txt
CPM00008716.cna_calls.txt
CPM00008717.cna_calls.txt
CPM00008718.cna_calls.txt
CPM00008720.cna_calls.txt
CPM00008721.cna_calls.txt
CPM00008722.cna_calls.txt
CPM00008723.cna_calls.txt
CPM00008724.cna_calls.txt
CPM00008725.cna_calls.txt
CPM00008726.cna_calls.txt
CPM00008727.cna_calls.txt
CPM00008728.cna_calls.txt
CPM00008732.cna_calls.txt
CPM00008744.cna_calls.txt
CPM00008745.cna_calls.txt
CPM00008770.cna_calls.txt
CPM00008776.cna_calls.txt
CPM00008780.cna_calls.txt
CPM00008783.cna_calls.txt
CPM00008784.cna_calls.txt
CPM00008790.cna_calls.txt
CPM00008838.cna_calls.txt
CPM00008846.cna_calls.txt
CPM00008898.cna_calls.txt
CPM00008916.cna_calls.txt
CPM00008926.cna_calls.txt
CPM00008940.cna_calls.txt
CPM00008951.cna_calls.txt
CPM00008961.cna_calls.txt
CPM00008988.cna_calls.txt
CPM00008994.cna_calls.txt
CPM00009001.cna_calls.txt
CPM00009010.cna_calls.txt
CPM00009042.cna_calls.txt
CPM00009048.cna_calls.txt
CPM00009084.cna_calls.txt
CPM00009099.cna_calls.txt
CPM00009104.cna_calls.txt
CPM00009107.cna_calls.txt
CPM00009156.cna_calls.txt
CPM00009240.cna_calls.txt
CPM00009264.cna_calls.txt
CPM00009265.cna_calls.txt
CPM00009266.cna_calls.txt
CPM00009267.cna_calls.txt
CPM00009289.cna_calls.txt
CPM00009290.cna_calls.txt
CPM00009332.cna_calls.txt
CPM00009334.cna_calls.txt
CPM00009335.cna_calls.txt
CPM00009336.cna_calls.txt
CPM00009338.cna_calls.txt
CPM00009340.cna_calls.txt
CPM00009381.cna_calls.txt
CPM00009438.cna_calls.txt
CPM00009441.cna_calls.txt
CPM00009465.cna_calls.txt
CPM00009466.cna_calls.txt
CPM00009475.cna_calls.txt
CPM00009529.cna_calls.txt
CPM00009548.cna_calls.txt
CPM00009552.cna_calls.txt
CPM00009564.cna_calls.txt
CPM00009595.cna_calls.txt
CPM00009610.cna_calls.txt
CPM00009611.cna_calls.txt
CPM00009648.cna_calls.txt
CPM00009668.cna_calls.txt
CPM00009675.cna_calls.txt
CPM00009676.cna_calls.txt
CPM00009712.cna_calls.txt
CPM00009746.cna_calls.txt
CPM00009765.cna_calls.txt
CPM00009775.cna_calls.txt
CPM00009782.cna_calls.txt
CPM00009785.cna_calls.txt
CPM00009792.cna_calls.txt
CPM00009800.cna_calls.txt
CPM00009805.cna_calls.txt
CPM00009831.cna_calls.txt
CPM00009861.cna_calls.txt
CPM00009864.cna_calls.txt
CPM00009892.cna_calls.txt
CPM00009899.cna_calls.txt
CPM00009901.cna_calls.txt
CPM00009905.cna_calls.txt
CPM00009917.cna_calls.txt
CPM00009948.cna_calls.txt
CPM00009950.cna_calls.txt
CPM00009989.cna_calls.txt
CPM00009998.cna_calls.txt
CPM00010023.cna_calls.txt
CPM00010028.cna_calls.txt
CPM00010038.cna_calls.txt
CPM00010039.cna_calls.txt
CPM00010063.cna_calls.txt
CPM00010071.cna_calls.txt
CPM00010093.cna_calls.txt
CPM00010094.cna_calls.txt
CPM00010096.cna_calls.txt
CPM00010097.cna_calls.txt
CPM00010122.cna_calls.txt
CPM00010162.cna_calls.txt
CPM00010188.cna_calls.txt
CPM00010195.cna_calls.txt
CPM00010208.cna_calls.txt
CPM00010215.cna_calls.txt
CPM00010218.cna_calls.txt
CPM00010219.cna_calls.txt
CPM00010226.cna_calls.txt
CPM00010281.cna_calls.txt
CPM00010299.cna_calls.txt
CPM00010308.cna_calls.txt
CPM00010314.cna_calls.txt
CPM00010320.cna_calls.txt
CPM00010330.cna_calls.txt
CPM00010351.cna_calls.txt
CPM00010359.cna_calls.txt
CPM00010446.cna_calls.txt
CPM00010449.cna_calls.txt
CPM00010450.cna_calls.txt
CPM00010452.cna_calls.txt
CPM00010477.cna_calls.txt
CPM00010483.cna_calls.txt
CPM00010497.cna_calls.txt
CPM00010522.cna_calls.txt
CPM00010523.cna_calls.txt
CPM00010524.cna_calls.txt
CPM00010525.cna_calls.txt
CPM00010526.cna_calls.txt
CPM00010527.cna_calls.txt
CPM00010528.cna_calls.txt
CPM00010529.cna_calls.txt
CPM00010530.cna_calls.txt
CPM00010531.cna_calls.txt
CPM00010532.cna_calls.txt
CPM00010533.cna_calls.txt
CPM00010534.cna_calls.txt
CPM00010535.cna_calls.txt
CPM00010536.cna_calls.txt
CPM00010537.cna_calls.txt
CPM00010538.cna_calls.txt
CPM00010539.cna_calls.txt
CPM00010540.cna_calls.txt
CPM00010541.cna_calls.txt
CPM00010542.cna_calls.txt
CPM00010543.cna_calls.txt
CPM00010544.cna_calls.txt
CPM00010545.cna_calls.txt
CPM00010546.cna_calls.txt
CPM00010547.cna_calls.txt
CPM00010548.cna_calls.txt
CPM00010549.cna_calls.txt
CPM00010550.cna_calls.txt
CPM00010551.cna_calls.txt
CPM00010552.cna_calls.txt
CPM00010553.cna_calls.txt
CPM00010554.cna_calls.txt
CPM00010555.cna_calls.txt
CPM00010556.cna_calls.txt
CPM00010557.cna_calls.txt
CPM00010558.cna_calls.txt
CPM00010559.cna_calls.txt
CPM00010560.cna_calls.txt
CPM00010561.cna_calls.txt
CPM00010562.cna_calls.txt
CPM00010563.cna_calls.txt
CPM00010564.cna_calls.txt
CPM00010565.cna_calls.txt
CPM00010566.cna_calls.txt
CPM00010567.cna_calls.txt
CPM00010568.cna_calls.txt
CPM00010569.cna_calls.txt
CPM00010570.cna_calls.txt
CPM00010571.cna_calls.txt
CPM00010572.cna_calls.txt
CPM00010578.cna_calls.txt
CPM00010583.cna_calls.txt
CPM00010587.cna_calls.txt
CPM00010594.cna_calls.txt
CPM00010616.cna_calls.txt
CPM00010621.cna_calls.txt
CPM00010661.cna_calls.txt
CPM00010664.cna_calls.txt
CPM00010671.cna_calls.txt
CPM00010672.cna_calls.txt
CPM00010673.cna_calls.txt
CPM00010674.cna_calls.txt
CPM00010675.cna_calls.txt
CPM00010676.cna_calls.txt
CPM00010677.cna_calls.txt
CPM00010678.cna_calls.txt
CPM00010679.cna_calls.txt
CPM00010680.cna_calls.txt
CPM00010681.cna_calls.txt
CPM00010682.cna_calls.txt
CPM00010683.cna_calls.txt
CPM00010684.cna_calls.txt
CPM00010685.cna_calls.txt
CPM00010686.cna_calls.txt
CPM00010687.cna_calls.txt
CPM00010688.cna_calls.txt
CPM00010689.cna_calls.txt
CPM00010690.cna_calls.txt
CPM00010691.cna_calls.txt
CPM00010692.cna_calls.txt
CPM00010693.cna_calls.txt
CPM00010694.cna_calls.txt
CPM00010695.cna_calls.txt
CPM00010696.cna_calls.txt
CPM00010697.cna_calls.txt
CPM00010698.cna_calls.txt
CPM00010699.cna_calls.txt
CPM00010700.cna_calls.txt
CPM00010701.cna_calls.txt
CPM00010702.cna_calls.txt
CPM00010703.cna_calls.txt
CPM00010704.cna_calls.txt
CPM00010705.cna_calls.txt
CPM00010706.cna_calls.txt
CPM00010707.cna_calls.txt
CPM00010708.cna_calls.txt
CPM00010709.cna_calls.txt
CPM00010710.cna_calls.txt
CPM00010711.cna_calls.txt
CPM00010712.cna_calls.txt
CPM00010713.cna_calls.txt
CPM00010714.cna_calls.txt
CPM00010715.cna_calls.txt
CPM00010716.cna_calls.txt
CPM00010717.cna_calls.txt
CPM00010718.cna_calls.txt
CPM00010719.cna_calls.txt
CPM00010720.cna_calls.txt
CPM00010746.cna_calls.txt
CPM00010753.cna_calls.txt
CPM00010765.cna_calls.txt
CPM00010809.cna_calls.txt
CPM00010810.cna_calls.txt
CPM00010811.cna_calls.txt
CPM00010827.cna_calls.txt
CPM00010848.cna_calls.txt
CPM00010858.cna_calls.txt
CPM00010866.cna_calls.txt
CPM00010921.cna_calls.txt
CPM00010924.cna_calls.txt
CPM00010941.cna_calls.txt
CPM00010952.cna_calls.txt
CPM00010965.cna_calls.txt
CPM00010968.cna_calls.txt
CPM00010969.cna_calls.txt
CPM00010971.cna_calls.txt
CPM00010972.cna_calls.txt
CPM00010973.cna_calls.txt
CPM00010993.cna_calls.txt
CPM00011028.cna_calls.txt
CPM00011044.cna_calls.txt
CPM00011056.cna_calls.txt
CPM00011106.cna_calls.txt
CPM00011146.cna_calls.txt
CPM00011184.cna_calls.txt
CPM00011192.cna_calls.txt
CPM00011329.cna_calls.txt
CPM00011335.cna_calls.txt
CPM00011375.cna_calls.txt
CPM00011396.cna_calls.txt
CPM00011397.cna_calls.txt
CPM00011402.cna_calls.txt
CPM00011527.cna_calls.txt
CPM00011529.cna_calls.txt
CPM00011532.cna_calls.txt
CPM00011533.cna_calls.txt
CPM00011571.cna_calls.txt
CPM00011578.cna_calls.txt
CPM00011579.cna_calls.txt
CPM00011648.cna_calls.txt
CPM00011649.cna_calls.txt
CPM00011650.cna_calls.txt
CPM00011754.cna_calls.txt
CPM00011764.cna_calls.txt
CPM00011769.cna_calls.txt
CPM00011849.cna_calls.txt
CPM00011851.cna_calls.txt
CPM00011852.cna_calls.txt
CPM00011924.cna_calls.txt
CPM00011927.cna_calls.txt
CPM00011928.cna_calls.txt
CPM00012129.cna_calls.txt
CPM00012132.cna_calls.txt
CPM00012303.cna_calls.txt
CPM00012308.cna_calls.txt
CPM00012318.cna_calls.txt
CPM00012319.cna_calls.txt
CPM00012320.cna_calls.txt
CPM00012352.cna_calls.txt
CPM00012353.cna_calls.txt
CPM00012361.cna_calls.txt
CPM00012368.cna_calls.txt
CPM00012370.cna_calls.txt
CPM00012469.cna_calls.txt
CPM00012470.cna_calls.txt
CPM00012898.cna_calls.txt
CPM00012902.cna_calls.txt
CPM00012904.cna_calls.txt
CPM00012908.cna_calls.txt
CPM00012911.cna_calls.txt
CPM00012913.cna_calls.txt
CPM00012922.cna_calls.txt
CPM00012964.cna_calls.txt
CPM00012973.cna_calls.txt
CPM00012975.cna_calls.txt
CPM00012993.cna_calls.txt
CPM00012997.cna_calls.txt
CPM00013007.cna_calls.txt
CPM00013025.cna_calls.txt
CPM00013027.cna_calls.txt
CPM00013028.cna_calls.txt
CPM00013030.cna_calls.txt
CPM00013287.cna_calls.txt
CPM00013289.cna_calls.txt
CPM00013290.cna_calls.txt
CPM00013310.cna_calls.txt
CPM00013318.cna_calls.txt
CPM00013377.cna_calls.txt
CPM00013382.cna_calls.txt
CPM00013383.cna_calls.txt
CPM00013390.cna_calls.txt
CPM00013530.cna_calls.txt
CPM00013532.cna_calls.txt
CPM00013538.cna_calls.txt
CPM00013545.cna_calls.txt
CPM00013546.cna_calls.txt
CPM00013651.cna_calls.txt
CPM00013652.cna_calls.txt
CPM00013677.cna_calls.txt
CPM00013740.cna_calls.txt
CPM00013741.cna_calls.txt
CPM00013755.cna_calls.txt
CPM00013771.cna_calls.txt
CPM00013846.cna_calls.txt
CPM00013855.cna_calls.txt
CPM00013862.cna_calls.txt
CPM00013933.cna_calls.txt
CPM00013943.cna_calls.txt
CPM00013994.cna_calls.txt
CPM00014032.cna_calls.txt
CPM00014129.cna_calls.txt
CPM00014138.cna_calls.txt
CPM00014149.cna_calls.txt
CPM00014150.cna_calls.txt
CPM00014151.cna_calls.txt
CPM00014196.cna_calls.txt
CPM00014203.cna_calls.txt
CPM00014205.cna_calls.txt
CPM00014331.cna_calls.txt
CPM00014333.cna_calls.txt
CPM00014342.cna_calls.txt
CPM00014345.cna_calls.txt
CPM00014442.cna_calls.txt
CPM00014535.cna_calls.txt
CPM00014574.cna_calls.txt
CPM00014579.cna_calls.txt
CPM00014892.cna_calls.txt
CPM00015074.cna_calls.txt
CPM00015087.cna_calls.txt
CPM00015370.cna_calls.txt
CPM00015623.cna_calls.txt
CPM00015869.cna_calls.txt
CPM00015877.cna_calls.txt
CPM00015883.cna_calls.txt
CPM00016445.cna_calls.txt
CPM00016474.cna_calls.txt
CPM00016752.cna_calls.txt
CPM00016759.cna_calls.txt
CPM00016763.cna_calls.txt
CPM00016798.cna_calls.txt
CPM00017280.cna_calls.txt
CPM00017465.cna_calls.txt
CPM00017480.cna_calls.txt
CPM00017496.cna_calls.txt
CPM00017498.cna_calls.txt
CPM00017649.cna_calls.txt
CPM00017773.cna_calls.txt
CPM00017799.cna_calls.txt
CPM00017950.cna_calls.txt
CPM00018193.cna_calls.txt
CPM00018198.cna_calls.txt
CPM00018240.cna_calls.txt
CPM00018301.cna_calls.txt
CPM00018388.cna_calls.txt
CPM00018391.cna_calls.txt
CPM00018464.cna_calls.txt
CPM00018548.cna_calls.txt
CPM00018587.cna_calls.txt
CPM00018590.cna_calls.txt
CPM00018679.cna_calls.txt
CPM00018704.cna_calls.txt
CPM00018705.cna_calls.txt
CPM00018763.cna_calls.txt
CPM00018781.cna_calls.txt
CPM00018782.cna_calls.txt
CPM00018791.cna_calls.txt
CPM00018795.cna_calls.txt
CPM00018796.cna_calls.txt
CPM00018798.cna_calls.txt
CPM00018830.cna_calls.txt
CPM00018847.cna_calls.txt
CPM00018848.cna_calls.txt
CPM00018858.cna_calls.txt
CPM00018870.cna_calls.txt
CPM00018895.cna_calls.txt
CPM00018899.cna_calls.txt
CPM00018900.cna_calls.txt
CPM00018924.cna_calls.txt
CPM00019038.cna_calls.txt
CPM00019053.cna_calls.txt
CPM00019054.cna_calls.txt
CPM00019055.cna_calls.txt
CPM00019058.cna_calls.txt
CPM00019066.cna_calls.txt
CPM00019094.cna_calls.txt
CPM00019098.cna_calls.txt
CPM00019134.cna_calls.txt
CPM00019135.cna_calls.txt
CPM00019139.cna_calls.txt
CPM00019157.cna_calls.txt
CPM00019159.cna_calls.txt
CPM00019160.cna_calls.txt
CPM00019163.cna_calls.txt
