1	0	249250621	7.85
2	0	243199373	7.90
3	0	198022430	8.16
4	0	191154276	7.71
5	0	180915260	8.59
6	0	171115067	11.48
7	0	159138663	8.16
8	0	146364022	8.47
9	0	141213431	7.37
10	0	135534747	7.81
11	0	135006516	7.87
12	0	133851895	8.10
13	0	115169878	6.32
14	0	107349540	7.05
15	0	102531392	7.27
16	0	90354753	8.45
17	0	81195210	8.45
18	0	78077248	9.26
19	0	59128983	10.73
20	0	63025520	8.41
21	0	48129895	6.46
22	0	51304566	6.02
MT	0	16569	9.85
