1	0	249250621	2.60
2	0	243199373	2.82
3	0	198022430	2.77
4	0	191154276	2.58
5	0	180915260	2.61
6	0	171115067	2.61
7	0	159138663	2.74
8	0	146364022	3.02
9	0	141213431	2.22
10	0	135534747	2.57
11	0	135006516	2.57
12	0	133851895	2.96
13	0	115169878	2.17
14	0	107349540	2.35
15	0	102531392	2.17
16	0	90354753	2.44
17	0	81195210	2.70
18	0	78077248	2.54
19	0	59128983	2.27
20	0	63025520	2.58
21	0	48129895	2.28
22	0	51304566	1.89
MT	0	16569	5.22
