1	0	249250621	3.41
2	0	243199373	3.50
3	0	198022430	3.62
4	0	191154276	3.42
5	0	180915260	3.49
6	0	171115067	3.38
7	0	159138663	3.60
8	0	146364022	3.55
9	0	141213431	2.94
10	0	135534747	3.51
11	0	135006516	3.39
12	0	133851895	3.95
13	0	115169878	2.83
14	0	107349540	3.06
15	0	102531392	2.76
16	0	90354753	3.37
17	0	81195210	3.38
18	0	78077248	3.23
19	0	59128983	2.93
20	0	63025520	3.60
21	0	48129895	2.90
22	0	51304566	2.37
MT	0	16569	31.60
