1	0	249250621	7.11
2	0	243199373	7.67
3	0	198022430	7.38
4	0	191154276	7.20
5	0	180915260	7.39
6	0	171115067	7.49
7	0	159138663	7.46
8	0	146364022	7.74
9	0	141213431	6.43
10	0	135534747	7.49
11	0	135006516	7.51
12	0	133851895	7.32
13	0	115169878	6.20
14	0	107349540	6.42
15	0	102531392	6.39
16	0	90354753	7.59
17	0	81195210	7.59
18	0	78077248	7.36
19	0	59128983	7.19
20	0	63025520	7.65
21	0	48129895	5.78
22	0	51304566	5.76
MT	0	16569	22.24
