1	0	249250621	7.69
2	0	243199373	8.09
3	0	198022430	8.01
4	0	191154276	7.83
5	0	180915260	8.21
6	0	171115067	7.84
7	0	159138663	8.33
8	0	146364022	9.89
9	0	141213431	6.76
10	0	135534747	7.69
11	0	135006516	8.63
12	0	133851895	8.88
13	0	115169878	6.23
14	0	107349540	6.82
15	0	102531392	6.81
16	0	90354753	8.49
17	0	81195210	8.57
18	0	78077248	8.27
19	0	59128983	7.92
20	0	63025520	8.62
21	0	48129895	6.56
22	0	51304566	6.17
MT	0	16569	20.94
